date,infected,active,recovered,dead,deltaInfected,deltaActive,deltaRecovered,deltaDead
20200302,1,1,0,0,1,1,0,0
20200303,1,1,0,0,0,0,0,0
20200304,1,1,0,0,0,0,0,0
20200305,1,1,0,0,0,0,0,0
20200306,1,1,0,0,0,0,0,0
20200307,1,1,0,0,0,0,0,0
20200308,1,1,0,0,0,0,0,0
20200309,1,1,0,0,0,0,0,0
20200310,1,1,0,0,0,0,0,0
20200311,1,1,0,0,0,0,0,0
20200312,1,0,1,0,0,-1,1,0
20200313,1,1,0,0,0,1,-1,0
20200314,1,0,1,0,0,-1,1,0
20200315,1,0,1,0,0,0,0,0
20200316,2,1,1,0,1,1,0,0
20200317,39,38,1,0,37,37,0,0
20200318,39,38,1,0,0,0,0,0
20200319,53,52,1,0,14,14,0,0
20200320,75,74,1,0,22,22,0,0
20200321,88,87,1,0,13,13,0,0
20200322,113,111,1,1,25,24,0,1
20200323,133,131,1,1,20,20,0,0
20200324,164,162,1,1,31,31,0,0
20200325,188,186,1,1,24,24,0,0
20200326,224,220,1,3,36,34,0,2
20200327,267,263,1,3,43,43,0,0
20200328,308,304,1,3,41,41,0,0
20200329,334,327,1,6,26,23,0,3
20200330,370,352,10,8,36,25,9,2
20200331,376,354,10,12,6,2,0,4
20200401,390,366,10,14,14,12,0,2
20200402,428,403,10,15,38,37,0,1
20200403,439,407,16,16,11,4,6,1
20200404,466,428,21,17,27,21,5,1
20200405,501,457,26,18,35,29,5,1
20200406,525,473,31,21,24,16,5,3
20200407,545,484,39,22,20,11,8,1
20200408,564,489,52,23,19,5,13,1
20200409,583,500,58,25,19,11,6,2
20200410,601,504,71,26,18,4,13,1
20200411,601,504,71,26,0,0,0,0
20200412,638,481,128,29,37,-23,57,3
20200413,646,489,128,29,8,8,0,0
20200414,659,500,128,31,13,11,0,2
20200415,673,471,169,33,14,-29,41,2
20200416,673,471,169,33,0,0,0,0
20200417,696,470,191,35,23,-1,22,2
20200418,704,464,205,35,8,-6,14,0
20200419,713,442,235,36,9,-22,30,1
20200420,717,432,248,37,4,-10,13,1
20200421,717,398,282,37,0,-34,34,0
20200422,723,377,309,37,6,-21,27,0
20200423,723,353,333,37,0,-24,24,0
20200424,731,347,344,40,8,-6,11,3
20200425,738,354,344,40,7,7,0,0
20200426,738,354,344,40,0,0,0,0
20200427,743,318,385,40,5,-36,41,0
20200428,743,304,398,41,0,-14,13,1
20200429,743,278,423,42,0,-26,25,1
20200430,745,235,468,42,2,-43,45,0
20200501,745,234,468,43,0,-1,0,1
20200502,747,231,472,44,2,-3,4,1
20200503,748,210,493,45,1,-21,21,1
20200504,750,206,499,45,2,-4,6,0
20200505,751,191,514,46,1,-15,15,1
20200506,751,184,521,46,0,-7,7,0
20200507,752,179,526,47,1,-5,5,1
20200508,752,168,537,47,0,-11,11,0
20200509,754,161,545,48,2,-7,8,1
20200510,755,157,550,48,1,-4,5,0
20200511,755,157,550,48,0,0,0,0
20200512,758,142,568,48,3,-15,18,0
20200513,760,135,576,49,2,-7,8,1
20200514,761,116,596,49,1,-19,20,0
20200515,761,108,604,49,0,-8,8,0
20200516,761,95,615,51,0,-13,11,2
20200517,761,93,617,51,0,-2,2,0
20200518,761,86,624,51,0,-7,7,0
20200519,761,82,628,51,0,-4,4,0
20200520,762,72,639,51,1,-10,11,0
20200521,762,72,639,51,0,0,0,0
20200522,762,59,652,51,0,-13,13,0
20200523,762,58,653,51,0,-1,1,0
20200524,762,58,653,51,0,0,0,0
20200525,763,49,663,51,1,-9,10,0
20200526,763,36,676,51,0,-13,13,0
20200527,763,36,676,51,0,0,0,0
20200528,763,31,681,51,0,-5,5,0
20200529,764,29,684,51,1,-2,3,0
20200530,764,21,692,51,0,-8,8,0
20200531,764,19,694,51,0,-2,2,0
20200601,765,16,698,51,1,-3,4,0
20200602,844,60,733,51,79,44,35,0
20200603,851,65,735,51,7,5,2,0
20200604,852,63,738,51,1,-2,3,0
20200605,852,60,741,51,0,-3,3,0
20200606,852,60,741,51,0,0,0,0
20200607,852,57,744,51,0,-3,3,0
20200608,852,50,751,51,0,-7,7,0
20200609,852,44,757,51,0,-6,6,0
20200610,852,42,759,51,0,-2,2,0
20200611,852,21,780,51,0,-21,21,0
20200612,853,21,781,51,1,0,1,0
20200613,853,21,781,51,0,0,0,0
20200614,853,21,781,51,0,0,0,0
20200615,853,13,789,51,0,-8,8,0
20200616,854,13,789,52,1,0,0,1
20200617,854,11,791,52,0,-2,2,0
20200618,855,11,792,52,1,0,1,0
20200619,855,11,792,52,0,0,0,0
20200620,855,11,792,52,0,0,0,0
20200621,855,11,792,52,0,0,0,0
20200622,855,7,796,52,0,-4,4,0
20200623,855,6,797,52,0,-1,1,0
20200624,855,6,797,52,0,0,0,0
20200625,855,6,797,52,0,0,0,0
20200626,855,4,799,52,0,-2,2,0
20200627,855,4,799,52,0,0,0,0
20200628,855,4,799,52,0,0,0,0
20200629,855,4,799,52,0,0,0,0
20200630,855,4,799,52,0,0,0,0
20200701,855,4,799,52,0,0,0,0
20200702,855,3,800,52,0,-1,1,0
20200703,855,3,800,52,0,0,0,0
20200704,855,3,800,52,0,0,0,0
20200705,855,3,800,52,0,0,0,0
20200706,855,3,800,52,0,0,0,0
20200707,855,3,800,52,0,0,0,0
20200708,855,1,802,52,0,-2,2,0
20200709,855,1,802,52,0,0,0,0
20200710,855,0,803,52,0,-1,1,0
20200711,855,0,803,52,0,0,0,0
20200712,855,0,803,52,0,0,0,0
20200713,858,3,803,52,3,3,0,0
20200714,861,6,803,52,3,3,0,0
20200715,862,7,803,52,1,1,0,0
20200716,877,22,803,52,15,15,0,0
20200717,880,25,803,52,3,3,0,0
20200718,880,25,803,52,0,0,0,0
20200719,880,25,803,52,0,0,0,0
20200720,884,29,803,52,4,4,0,0
20200721,884,29,803,52,0,0,0,0
20200722,889,34,803,52,5,5,0,0
20200723,889,34,803,52,0,0,0,0
20200724,897,42,803,52,8,8,0,0
20200725,897,42,803,52,0,0,0,0
20200726,897,42,803,52,0,0,0,0
20200727,907,52,803,52,10,10,0,0
20200728,907,52,803,52,0,0,0,0
20200729,918,62,804,52,11,10,1,0
20200730,922,64,806,52,4,2,2,0
20200731,925,66,807,52,3,2,1,0
20200801,925,66,807,52,0,0,0,0
20200802,925,66,807,52,0,0,0,0
20200803,937,64,821,52,12,-2,14,0
20200804,939,62,825,52,2,-2,4,0
20200805,939,62,825,52,0,0,0,0
20200806,944,64,828,52,5,2,3,0
20200807,955,64,839,52,11,0,11,0
20200808,955,64,839,52,0,0,0,0
20200809,955,64,839,52,0,0,0,0
20200810,963,72,839,52,8,8,0,0
20200811,963,72,839,52,0,0,0,0
20200812,977,69,855,53,14,-3,16,1
20200813,981,70,858,53,4,1,3,0
20200814,989,73,863,53,8,3,5,0
20200815,989,73,863,53,0,0,0,0
20200816,989,73,863,53,0,0,0,0
20200817,1005,83,869,53,16,10,6,0
20200818,1005,83,869,53,0,0,0,0
20200819,1024,96,875,53,19,13,6,0
20200820,1024,96,875,53,0,0,0,0
20200821,1045,117,875,53,21,21,0,0
20200822,1045,117,875,53,0,0,0,0
20200823,1045,117,875,53,0,0,0,0
20200824,1060,130,877,53,15,13,2,0
20200825,1060,130,877,53,0,0,0,0
20200826,1098,152,893,53,38,22,16,0
20200827,1098,152,893,53,0,0,0,0
20200828,1124,169,902,53,26,17,9,0
20200829,1124,169,902,53,0,0,0,0
20200830,1124,169,902,53,0,0,0,0
20200831,1176,215,908,53,52,46,6,0
20200901,1184,223,908,53,8,8,0,0
20200902,1199,237,909,53,15,14,1,0
20200903,1199,237,909,53,0,0,0,0
20200904,1215,234,928,53,16,-3,19,0
20200905,1215,234,928,53,0,0,0,0
20200906,1215,234,928,53,0,0,0,0
20200907,1261,274,934,53,46,40,6,0
20200908,1261,274,934,53,0,0,0,0
20200909,1301,310,938,53,40,36,4,0
20200910,1301,310,938,53,0,0,0,0
20200911,1344,348,943,53,43,38,5,0
20200912,1344,348,943,53,0,0,0,0
20200913,1344,348,943,53,0,0,0,0
20200914,1438,440,945,53,94,92,2,0
20200915,1438,440,945,53,0,0,0,0
20200916,1483,376,1054,53,45,-64,109,0
20200917,1483,376,1054,53,0,0,0,0
20200918,1564,347,1164,53,81,-29,110,0
20200919,1564,347,1164,53,0,0,0,0
20200920,1564,347,1164,53,0,0,0,0
20200921,1681,429,1199,53,117,82,35,0
20200922,1681,429,1199,53,0,0,0,0
20200923,1753,497,1203,53,72,68,4,0
20200924,1753,497,1203,53,0,0,0,0
20200925,1836,520,1263,53,83,23,60,0
20200926,1836,520,1263,53,0,0,0,0
20200927,1836,520,1263,53,0,0,0,0
20200928,1966,648,1265,53,130,128,2,0
20200929,1966,648,1265,53,0,0,0,0
20200930,2050,565,1432,53,84,-83,167,0
20201001,2050,565,1432,53,0,0,0,0
20201002,2110,517,1540,53,60,-48,108,0
20201003,2110,517,1540,53,0,0,0,0
20201004,2110,517,1540,53,0,0,0,0
20201005,2370,702,1615,53,260,185,75,0
20201006,2370,702,1615,53,0,0,0,0
20201007,2568,800,1715,53,198,98,100,0
20201008,2568,799,1715,54,0,-1,0,1
20201009,2696,827,1814,55,128,28,99,1
20201010,2696,827,1814,55,0,0,0,0
20201011,2696,827,1814,55,0,0,0,0
20201012,2995,1010,1928,57,299,183,114,2
20201013,2995,1010,1928,57,0,0,0,0
20201014,3190,1120,2011,59,195,110,83,2
20201015,3190,1120,2011,59,0,0,0,0
20201016,3377,1261,2057,59,187,141,46,0
20201017,3377,1261,2057,59,0,0,0,0
20201018,3377,1261,2057,59,0,0,0,0
20201019,3623,1288,2273,62,246,27,216,3
20201020,3623,1288,2273,62,0,0,0,0
20201021,3811,1278,2470,63,188,-10,197,1
20201022,3811,1278,2470,63,0,0,0,0
20201023,4038,1240,2729,69,227,-38,259,6
20201024,4038,1240,2729,69,0,0,0,0
20201025,4038,1240,2729,69,0,0,0,0
20201026,4325,1296,2957,72,287,56,228,3
20201027,4410,1309,3029,72,85,13,72,0
20201028,4517,1301,3144,72,107,-8,115,0
20201029,4567,1234,3260,73,50,-67,116,1
20201030,4665,1213,3377,75,98,-21,117,2
20201031,4756,1206,3475,75,91,-7,98,0
20201101,4825,1275,3475,75,69,69,0,0
20201102,4888,1265,3548,75,63,-10,73,0
20201103,4910,1208,3627,75,22,-57,79,0
20201104,5045,1236,3734,75,135,28,107,0
20201105,5135,1202,3858,75,90,-34,124,0
20201106,5135,1202,3858,75,0,0,0,0
20201107,5319,1201,4043,75,184,-1,185,0
20201108,5383,1060,4248,75,64,-141,205,0
20201109,5437,1030,4332,75,54,-30,84,0
20201110,5477,997,4405,75,40,-33,73,0
20201111,5567,1004,4488,75,90,7,83,0
20201112,5616,956,4585,75,49,-48,97,0
20201113,5725,975,4675,75,109,19,90,0
20201114,5725,975,4675,75,0,0,0,0
20201115,5872,1049,4747,76,147,74,72,1
20201116,5914,1008,4830,76,42,-41,83,0
20201117,5951,910,4965,76,37,-98,135,0
20201118,6018,887,5055,76,67,-23,90,0
20201119,6066,863,5127,76,48,-24,72,0
20201120,6142,827,5239,76,76,-36,112,0
20201121,6207,841,5290,76,65,14,51,0
20201122,6256,822,5358,76,49,-19,68,0
20201123,6304,823,5405,76,48,1,47,0
20201124,6351,772,5503,76,47,-51,98,0
20201125,6428,810,5542,76,77,38,39,0
20201126,6534,809,5649,76,106,-1,107,0
20201127,6610,824,5710,76,76,15,61,0
20201128,6610,824,5710,76,0,0,0,0
20201129,6712,842,5794,76,102,18,84,0
20201130,6745,796,5873,76,33,-46,79,0
20201201,6790,774,5940,76,45,-22,67,0
20201202,6842,778,5988,76,52,4,48,0
20201203,6904,761,6066,77,62,-17,78,1
20201204,6955,748,6130,77,51,-13,64,0
20201205,7005,756,6171,78,50,8,41,1
20201206,7050,734,6238,78,45,-22,67,0
20201207,7084,713,6293,78,34,-21,55,0
20201208,7127,682,6367,78,43,-31,74,0
20201209,7162,632,6452,78,35,-50,85,0
20201210,7190,607,6505,78,28,-25,53,0
20201211,7236,560,6598,78,46,-47,93,0
20201212,7288,581,6629,78,52,21,31,0
20201213,7338,630,6629,79,50,49,0,1
20201214,7382,597,6706,79,44,-33,77,0
20201215,7382,597,6706,79,0,0,0,0
20201216,7446,548,6819,79,64,-49,113,0
20201217,7466,512,6875,79,20,-36,56,0
20201218,7519,520,6919,80,53,8,44,1
20201219,7560,517,6963,80,41,-3,44,0
20201220,7577,499,6997,81,17,-18,34,1
20201221,7602,493,7028,81,25,-6,31,0
20201222,7633,478,7073,82,31,-15,45,1
20201223,7669,481,7106,82,36,3,33,0
20201224,7699,445,7171,83,30,-36,65,1
20201225,7756,470,7203,83,57,25,32,0
20201226,7806,471,7252,83,50,1,49,0
20201227,7821,450,7288,83,15,-21,36,0
20201228,7875,474,7318,83,54,24,30,0
20201229,7919,475,7360,84,44,1,42,1
20201230,7983,515,7384,84,64,40,24,0
20201231,8049,533,7432,84,66,18,48,0
20210101,8117,570,7463,84,68,37,31,0
20210102,8166,619,7463,84,49,49,0,0
20210103,8192,591,7517,84,26,-28,54,0
20210104,8249,617,7548,84,57,26,31,0
20210105,8308,639,7585,84,59,22,37,0
20210106,8348,649,7615,84,40,10,30,0
20210107,8348,649,7615,84,0,0,0,0
20210108,8489,681,7724,84,141,32,109,0
20210109,8586,777,7724,85,97,96,0,1
20210110,8586,777,7724,85,0,0,0,0
20210111,8586,777,7724,85,0,0,0,0
20210112,8682,666,7930,86,96,-111,206,1
20210113,8818,661,8070,87,136,-5,140,1
20210114,8868,689,8091,88,50,28,21,1
20210115,8946,742,8116,88,78,53,25,0
20210116,9038,831,8116,91,92,89,0,3
20210117,9083,838,8154,91,45,7,38,0
20210118,9083,838,8154,91,0,0,0,0
20210119,9194,753,8349,92,111,-85,195,1
20210120,9308,817,8399,92,114,64,50,0
20210121,9379,812,8474,93,71,-5,75,1
20210122,9416,786,8537,93,37,-26,63,0
20210123,9499,815,8588,96,83,29,51,3
20210124,9549,801,8652,96,50,-14,64,0
20210125,9596,775,8724,97,47,-26,72,1
20210126,9638,767,8774,97,42,-8,50,0
20210127,9716,767,8851,98,78,0,77,1
20210128,9779,737,8942,100,63,-30,91,2
20210129,9837,751,8986,100,58,14,44,0
20210130,9885,739,9045,101,48,-12,59,1
20210131,9937,743,9093,101,52,4,48,0
20210201,9972,665,9206,101,35,-78,113,0
20210202,10017,663,9252,102,45,-2,46,1
20210203,10070,654,9313,103,53,-9,61,1
20210204,10137,639,9395,103,67,-15,82,0
20210205,10172,624,9444,104,35,-15,49,1
20210206,10206,609,9492,105,34,-15,48,1
20210207,10251,612,9533,106,45,3,41,1
20210208,10275,559,9610,106,24,-53,77,0
20210209,10312,532,9674,106,37,-27,64,0
20210210,10352,514,9732,106,40,-18,58,0
20210211,10391,504,9781,106,39,-10,49,0
20210212,10427,488,9833,106,36,-16,52,0
20210213,10463,488,9868,107,36,0,35,1
20210214,10503,485,9911,107,40,-3,43,0
20210215,10538,466,9965,107,35,-19,54,0
20210216,10555,426,10022,107,17,-40,57,0
20210217,10583,410,10066,107,28,-16,44,0
20210218,10610,402,10101,107,27,-8,35,0
20210219,10645,392,10146,107,35,-10,45,0
20210220,10672,395,10170,107,27,3,24,0
20210221,10699,386,10206,107,27,-9,36,0
20210222,10712,358,10245,109,13,-28,39,2
20210223,10739,344,10285,110,27,-14,40,1
20210224,10775,346,10319,110,36,2,34,0
20210225,10799,333,10356,110,24,-13,37,0
20210226,10822,318,10394,110,23,-15,38,0
20210227,10849,310,10429,110,27,-8,35,0
20210228,10866,310,10446,110,17,0,17,0
20210301,10889,304,10475,110,23,-6,29,0
20210302,10908,297,10501,110,19,-7,26,0
20210303,10948,276,10560,112,40,-21,59,2
20210304,10976,300,10564,112,28,24,4,0
20210305,10998,302,10584,112,22,2,20,0
20210306,11019,308,10599,112,21,6,15,0
20210307,11042,304,10626,112,23,-4,27,0
20210308,11069,296,10661,112,27,-8,35,0
20210309,11089,292,10685,112,20,-4,24,0
20210310,11130,310,10708,112,41,18,23,0
20210311,11130,310,10708,112,0,0,0,0
20210312,11199,333,10754,112,69,23,46,0
20210313,11228,341,10775,112,29,8,21,0
20210314,11266,357,10796,113,38,16,21,1
20210315,11289,381,10795,113,23,24,-1,0
20210316,11319,345,10861,113,30,-36,66,0
20210317,11360,364,10883,113,41,19,22,0
20210318,11393,376,10904,113,33,12,21,0
20210319,11431,393,10925,113,38,17,21,0
20210320,11481,416,10952,113,50,23,27,0
20210321,11517,431,10973,113,36,15,21,0
20210322,11545,418,11014,113,28,-13,41,0
20210323,11591,428,11050,113,46,10,36,0
20210324,11638,442,11082,114,47,14,32,1
20210325,11687,462,11111,114,49,20,29,0
20210326,11732,469,11149,114,45,7,38,0
20210327,11809,522,11172,115,77,53,23,1
20210328,11850,531,11204,115,41,9,32,0
20210329,11888,529,11244,115,38,-2,40,0
20210330,11944,553,11276,115,56,24,32,0
20210331,12010,580,11315,115,66,27,39,0
20210401,12053,573,11365,115,43,-7,50,0
20210402,12115,598,11401,116,62,25,36,1
20210403,12174,629,11428,117,59,31,27,1
20210404,12231,640,11474,117,57,11,46,0
20210405,12286,646,11523,117,55,6,49,0
20210406,12328,641,11570,117,42,-5,47,0
20210407,12363,628,11616,119,35,-13,46,2
20210408,12409,597,11692,120,46,-31,76,1
20210409,12456,604,11732,120,47,7,40,0
20210410,12497,607,11770,120,41,3,38,0
20210411,12545,600,11825,120,48,-7,55,0
20210412,12581,570,11890,121,36,-30,65,1
20210413,12614,561,11932,121,33,-9,42,0
20210414,12641,531,11989,121,27,-30,57,0
20210415,12641,531,11989,121,0,0,0,0
20210416,12712,484,12105,123,71,-47,116,2
20210417,12771,489,12159,123,59,5,54,0
20210418,12805,479,12203,123,34,-10,44,0
20210419,12805,479,12203,123,0,0,0,0
20210420,12874,466,12285,123,69,-13,82,0
20210421,12917,460,12334,123,43,-6,49,0
20210422,12942,444,12375,123,25,-16,41,0
20210423,13007,461,12423,123,65,17,48,0
20210424,13024,442,12458,124,17,-19,35,1
20210425,13060,445,12491,124,36,3,33,0
20210426,13083,440,12519,124,23,-5,28,0
20210427,13121,436,12561,124,38,-4,42,0
20210428,13148,433,12590,125,27,-3,29,1
20210429,13198,423,12650,125,50,-10,60,0
20210430,13232,423,12684,125,34,0,34,0
20210501,13232,423,12684,125,0,0,0,0
20210502,13282,402,12753,127,50,-21,69,2
20210503,13295,375,12793,127,13,-27,40,0
20210504,13316,371,12818,127,21,-4,25,0
20210505,13340,329,12884,127,24,-42,66,0
20210506,13363,336,12900,127,23,7,16,0
20210507,13390,327,12936,127,27,-9,36,0
20210508,13406,317,12962,127,16,-10,26,0
20210509,13423,301,12995,127,17,-16,33,0
20210510,13429,281,13021,127,6,-20,26,0
20210511,13447,250,13070,127,18,-31,49,0
20210512,13470,239,13104,127,23,-11,34,0
20210513,13470,239,13104,127,0,0,0,0
20210514,13510,228,13155,127,40,-11,51,0
20210515,13510,228,13155,127,0,0,0,0
20210516,13510,228,13155,127,0,0,0,0
20210517,13555,217,13211,127,45,-11,56,0
20210518,13569,208,13234,127,14,-9,23,0
20210519,13569,208,13234,127,0,0,0,0
20210520,13569,208,13234,127,0,0,0,0
20210521,13569,208,13234,127,0,0,0,0
20210522,13569,208,13234,127,0,0,0,0
20210523,13569,208,13234,127,0,0,0,0
20210524,13569,208,13234,127,0,0,0,0
20210525,13664,274,13263,127,95,66,29,0
20210526,13671,163,13381,127,7,-111,118,0
20210527,13682,150,13405,127,11,-13,24,0
20210528,13693,150,13416,127,11,0,11,0
20210529,13693,150,13416,127,0,0,0,0
20210530,13693,150,13416,127,0,0,0,0
20210531,13727,142,13458,127,34,-8,42,0
20210601,13729,123,13479,127,2,-19,21,0
20210602,13744,110,13507,127,15,-13,28,0
20210603,13752,98,13527,127,8,-12,20,0
20210604,13758,104,13527,127,6,6,0,0
20210605,13758,104,13527,127,0,0,0,0
20210606,13758,104,13527,127,0,0,0,0
20210607,13777,93,13557,127,19,-11,30,0
20210608,13781,97,13557,127,4,4,0,0
20210609,13791,95,13569,127,10,-2,12,0
20210610,13805,100,13578,127,14,5,9,0
20210611,13813,95,13591,127,8,-5,13,0
20210612,13813,95,13591,127,0,0,0,0
20210613,13813,95,13591,127,0,0,0,0
20210614,13826,81,13618,127,13,-14,27,0
20210615,13828,75,13626,127,2,-6,8,0
20210616,13836,76,13633,127,8,1,7,0
20210617,13839,72,13640,127,3,-4,7,0
20210618,13842,65,13650,127,3,-7,10,0
20210619,13842,65,13650,127,0,0,0,0
20210620,13842,65,13650,127,0,0,0,0
20210621,13864,72,13665,127,22,7,15,0
20210622,13864,72,13665,127,0,0,0,0
20210623,13873,58,13688,127,9,-14,23,0
20210624,13877,56,13694,127,4,-2,6,0
20210625,13882,58,13697,127,5,2,3,0
20210626,13882,58,13697,127,0,0,0,0
20210627,13882,58,13697,127,0,0,0,0
20210628,13882,58,13697,127,0,0,0,0
20210629,13900,56,13717,127,18,-2,20,0
20210630,13911,64,13720,127,11,8,3,0
20210701,13918,70,13721,127,7,6,1,0
20210702,13918,70,13721,127,0,0,0,0
20210703,13918,70,13721,127,0,0,0,0
20210704,13918,70,13721,127,0,0,0,0
20210705,13918,70,13721,127,0,0,0,0
20210706,13991,112,13752,127,73,42,31,0
20210707,14021,137,13757,127,30,25,5,0
20210708,14050,163,13760,127,29,26,3,0
20210709,14075,178,13770,127,25,15,10,0
20210710,14075,178,13770,127,0,0,0,0
20210711,14075,178,13770,127,0,0,0,0
20210712,14155,241,13787,127,80,63,17,0
20210713,14167,244,13796,127,12,3,9,0
20210714,14167,244,13796,127,0,0,0,0
20210715,14239,283,13829,127,72,39,33,0
20210716,14273,302,13844,127,34,19,15,0
20210717,14273,302,13844,127,0,0,0,0
20210718,14273,302,13844,127,0,0,0,0
20210719,14359,335,13897,127,86,33,53,0
20210720,14379,322,13930,127,20,-13,33,0
20210721,14379,322,13930,127,0,0,0,0
20210722,14464,349,13988,127,85,27,58,0
20210723,14498,383,13988,127,34,34,0,0
20210724,14498,383,13988,127,0,0,0,0
20210725,14498,383,13988,127,0,0,0,0
20210726,14577,373,14077,127,79,-10,89,0
20210727,14586,346,14113,127,9,-27,36,0
20210728,14586,346,14113,127,0,0,0,0
20210729,14655,348,14180,127,69,2,67,0
20210730,14678,340,14210,128,23,-8,30,1
20210731,14678,340,14210,128,0,0,0,0
20210801,14678,340,14210,128,0,0,0,0
20210802,14747,323,14296,128,69,-17,86,0
20210803,14766,290,14348,128,19,-33,52,0
20210804,14797,289,14380,128,31,-1,32,0
20210805,14809,0,0,128,12,-289,-14380,0
20210806,14836,0,0,128,27,0,0,0
20210807,14836,0,0,128,0,0,0,0
20210808,14836,0,0,128,0,0,0,0
20210809,14836,0,0,128,0,0,0,0
20210810,14873,0,0,129,37,0,0,1
20210811,14891,0,0,129,18,0,0,0
20210812,14908,0,0,129,17,0,0,0
20210813,14924,0,0,129,16,0,0,0
20210814,14924,0,0,129,0,0,0,0
20210815,14924,0,0,129,0,0,0,0
20210816,14954,0,0,129,30,0,0,0
20210817,14960,0,0,129,6,0,0,0
20210818,14976,0,0,129,16,0,0,0
20210819,14981,0,0,129,5,0,0,0
20210820,14988,0,0,129,7,0,0,0
20210821,14988,0,0,129,0,0,0,0
20210822,14988,0,0,129,0,0,0,0
20210823,15002,0,0,130,14,0,0,1
20210824,15003,0,0,130,1,0,0,0
20210825,15014,0,0,130,11,0,0,0
20210826,15016,0,0,130,2,0,0,0
20210827,15025,0,0,130,9,0,0,0
20210828,15025,0,0,130,0,0,0,0
20210829,15025,0,0,130,0,0,0,0
20210830,15032,0,0,130,7,0,0,0
20210831,15033,0,0,130,1,0,0,0
20210901,15046,0,0,130,13,0,0,0
20210902,15052,0,0,130,6,0,0,0
20210903,15055,0,0,130,3,0,0,0
20210904,15055,0,0,130,0,0,0,0
