date,infected,active,recovered,dead,deltaInfected,deltaActive,deltaRecovered,deltaDead
20200129,4,4,0,0,4,4,0,0
20200130,4,4,0,0,0,0,0,0
20200131,4,4,0,0,0,0,0,0
20200201,4,4,0,0,0,0,0,0
20200202,5,5,0,0,1,1,0,0
20200203,5,5,0,0,0,0,0,0
20200204,5,5,0,0,0,0,0,0
20200205,5,5,0,0,0,0,0,0
20200206,5,5,0,0,0,0,0,0
20200207,5,5,0,0,0,0,0,0
20200208,7,7,0,0,2,2,0,0
20200209,7,7,0,0,0,0,0,0
20200210,8,8,0,0,1,1,0,0
20200211,8,8,0,0,0,0,0,0
20200212,8,7,1,0,0,-1,1,0
20200213,8,7,1,0,0,0,0,0
20200214,8,7,1,0,0,0,0,0
20200215,8,5,3,0,0,-2,2,0
20200216,9,5,4,0,1,0,1,0
20200217,9,5,4,0,0,0,0,0
20200218,9,5,4,0,0,0,0,0
20200219,9,5,4,0,0,0,0,0
20200220,9,5,4,0,0,0,0,0
20200221,9,5,4,0,0,0,0,0
20200222,13,9,4,0,4,4,0,0
20200223,13,9,4,0,0,0,0,0
20200224,13,9,4,0,0,0,0,0
20200225,13,9,4,0,0,0,0,0
20200226,13,9,4,0,0,0,0,0
20200227,13,9,4,0,0,0,0,0
20200228,19,14,5,0,6,5,1,0
20200229,21,16,5,0,2,2,0,0
20200301,21,16,5,0,0,0,0,0
20200302,21,16,5,0,0,0,0,0
20200303,27,22,5,0,6,6,0,0
20200304,27,22,5,0,0,0,0,0
20200305,29,24,5,0,2,2,0,0
20200306,29,24,5,0,0,0,0,0
20200307,45,38,7,0,16,14,2,0
20200308,45,38,7,0,0,0,0,0
20200309,45,38,7,0,0,0,0,0
20200310,74,62,12,0,29,24,5,0
20200311,74,57,17,0,0,-5,5,0
20200312,85,68,17,0,11,11,0,0
20200313,85,68,17,0,0,0,0,0
20200314,85,68,17,0,0,0,0,0
20200315,98,75,23,0,13,7,6,0
20200316,98,75,23,0,0,0,0,0
20200317,98,75,23,0,0,0,0,0
20200318,113,87,26,0,15,12,3,0
20200319,140,109,31,0,27,22,5,0
20200320,140,107,31,2,0,-2,0,2
20200321,153,113,38,2,13,6,7,0
20200322,153,113,38,2,0,0,0,0
20200323,198,155,41,2,45,42,3,0
20200324,248,201,45,2,50,46,4,0
20200325,333,279,52,2,85,78,7,0
20200326,333,279,52,2,0,0,0,0
20200327,405,351,52,2,72,72,0,0
20200328,468,414,52,2,63,63,0,0
20200329,570,509,58,3,102,95,6,1
20200330,611,545,61,5,41,36,3,2
20200331,664,597,61,6,53,52,0,1
20200401,814,745,61,8,150,148,0,2
20200402,1024,920,96,8,210,175,35,0
20200403,1264,1147,108,9,240,227,12,1
20200404,1505,1370,125,10,241,223,17,1
20200405,1799,1645,144,10,294,275,19,0
20200406,2076,1898,167,11,277,253,23,1
20200407,2359,2161,186,12,283,263,19,1
20200408,2659,2408,239,12,300,247,53,0
20200409,2990,2708,268,14,331,300,29,2
20200410,3360,2926,418,16,370,218,150,2
20200411,3736,3128,588,20,376,202,170,4
20200412,4123,3421,680,22,387,293,92,2
20200413,4521,3644,852,25,398,223,172,3
20200414,4933,3972,933,28,412,328,81,3
20200415,5365,4298,1034,33,432,326,101,5
20200416,5825,4695,1095,35,460,397,61,2
20200417,6302,5077,1188,37,477,382,93,2
20200418,6302,5077,1188,37,0,0,0,0
20200419,6781,5454,1286,41,479,377,98,4
20200420,7265,5862,1360,43,484,408,74,2
20200421,7755,6266,1443,46,490,404,83,3
20200422,8238,6640,1546,52,483,374,103,6
20200423,8756,7063,1637,56,518,423,91,4
20200424,9281,7457,1760,64,525,394,123,8
20200425,9813,7855,1887,71,532,398,127,7
20200426,10349,8295,1978,76,536,440,91,5
20200427,10839,8667,2090,82,490,372,112,6
20200428,11380,9110,2181,89,541,443,91,7
20200429,11929,9502,2329,98,549,392,148,9
20200430,12481,9947,2429,105,552,445,100,7
20200501,13038,10384,2543,111,557,437,114,6
20200502,13599,10816,2664,119,561,432,121,8
20200503,14163,11274,2763,126,564,458,99,7
20200504,14730,11627,2966,137,567,353,203,11
20200505,15192,11893,3153,146,462,266,187,9
20200506,15738,12222,3359,157,546,329,206,11
20200507,16240,12503,3572,165,502,281,213,8
20200508,16793,12782,3837,174,553,279,265,9
20200509,17417,12937,4295,185,624,155,458,11
20200510,18198,13196,4804,198,781,259,509,13
20200511,18878,13296,5381,201,680,100,577,3
20200512,19661,13446,6012,203,783,150,631,2
20200513,20386,13657,6523,206,725,211,511,3
20200514,21084,13946,6930,208,698,289,407,2
20200515,21831,14293,7328,210,747,347,398,2
20200516,22627,14482,7931,214,796,189,603,4
20200517,23358,14626,8512,220,731,144,581,6
20200518,24190,14389,9577,224,832,-237,1065,4
20200519,25063,14045,10791,227,873,-344,1214,3
20200520,26004,13962,11809,233,941,-83,1018,6
20200521,26898,13906,12755,237,894,-56,946,4
20200522,27892,13853,13798,241,994,-53,1043,4
20200523,28704,13965,14495,244,812,112,697,3
20200524,29485,14184,15056,245,781,219,561,1
20200525,30307,14402,15657,248,822,218,601,3
20200526,31086,14851,15982,253,779,449,325,5
20200527,31969,15343,16371,255,883,492,389,2
20200528,32532,15589,16685,258,563,246,314,3
20200529,33170,15813,17097,260,638,224,412,2
20200530,33896,16088,17546,262,726,275,449,2
20200531,34557,16361,17932,264,661,273,386,2
20200601,35192,16588,18338,266,635,227,406,2
20200602,35788,16793,18726,269,596,205,388,3
20200603,36359,16936,19153,270,571,143,427,1
20200604,37018,17173,19572,273,659,237,419,3
20200605,37642,17031,20337,274,624,-142,765,1
20200606,38268,16932,21061,275,626,-99,724,1
20200607,38808,16726,21806,276,540,-206,745,1
20200608,39376,16820,22275,281,568,94,469,5
20200609,39904,16881,22740,283,528,61,465,2
20200610,40507,16206,24017,284,603,-675,1277,1
20200611,40986,15466,25234,286,479,-740,1217,2
20200612,41499,15266,25946,287,513,-200,712,1
20200613,41990,14941,26761,288,491,-325,815,1
20200614,42294,14543,27462,289,304,-398,701,1
20200615,42636,14216,28129,291,342,-327,667,2
20200616,42982,13828,28861,293,346,-388,732,2
20200617,43364,13532,29537,295,382,-296,676,2
20200618,43752,13213,30241,298,388,-319,704,3
20200619,44145,12849,30996,300,393,-364,755,2
20200620,44533,12478,31754,301,388,-371,758,1
20200621,44925,12208,32415,302,392,-270,661,1
20200622,45303,11954,33046,303,378,-254,631,1
20200623,45683,11675,33703,305,380,-279,657,2
20200624,46133,11421,34405,307,450,-254,702,2
20200625,46563,11090,35165,308,430,-331,760,1
20200626,46973,11194,35469,310,410,104,304,2
20200627,47360,11215,35834,311,387,21,365,1
20200628,47797,11073,36411,313,437,-142,577,2
20200629,48246,10856,37076,314,449,-217,665,1
20200630,48667,10786,37566,315,421,-70,490,1
20200701,49069,10593,38160,316,402,-193,594,1
20200702,49469,10488,38664,317,400,-105,504,1
20200703,50141,10670,39153,318,672,182,489,1
20200704,50857,10679,39857,321,716,9,704,3
20200705,51540,10920,40297,323,683,241,440,2
20200706,52068,11023,40721,324,528,103,424,1
20200707,52600,10560,41714,326,532,-463,993,2
20200708,53045,10436,42282,327,445,-124,568,1
20200709,53577,9679,43570,328,532,-757,1288,1
20200710,54050,9751,43969,330,473,72,399,2
20200711,54453,9474,44648,331,403,-277,679,1
20200712,54854,9381,45140,333,401,-93,492,2
20200713,55198,9351,45513,334,344,-30,373,1
20200714,55573,9213,46025,335,375,-138,512,1
20200715,55848,9095,46418,335,275,-118,393,0
20200716,56129,8382,47412,335,281,-713,994,0
20200717,56422,7637,48448,337,293,-745,1036,2
20200718,56711,7456,48917,338,289,-181,469,1
20200719,56922,7314,49269,339,211,-142,352,1
20200720,57193,7232,49621,340,271,-82,352,1
20200721,57498,7193,49964,341,305,-39,343,1
20200722,57734,7038,50354,342,236,-155,390,1
20200723,57988,6798,50848,342,254,-240,494,0
20200724,58249,6671,51235,343,261,-127,387,1
20200725,58562,6591,51628,343,313,-80,393,0
20200726,58913,6387,52182,344,351,-204,554,1
20200727,59177,6322,52510,345,264,-65,328,1
20200728,59546,6294,52905,347,369,-28,395,2
20200729,59921,6372,53202,347,375,78,297,0
20200730,60223,6248,53626,349,302,-124,424,2
20200731,60506,6246,53909,351,283,-2,283,2
20200801,60760,6154,54255,351,254,-92,346,0
20200802,60999,6033,54615,351,239,-121,360,0
20200803,61163,5949,54863,351,164,-84,248,0
20200804,61352,5911,55090,351,189,-38,227,0
20200805,61606,5868,55385,353,254,-43,295,2
20200806,61845,5752,55739,354,239,-116,354,1
20200807,62061,5690,56015,356,216,-62,276,2
20200808,62300,5699,56245,356,239,9,230,0
20200809,62525,5600,56568,357,225,-99,323,1
20200810,62704,5581,56766,357,179,-19,198,0
20200811,62966,5647,56961,358,262,66,195,1
20200812,63212,5661,57193,358,246,14,232,0
20200813,63489,5759,57372,358,277,98,179,0
20200814,63819,5987,57473,359,330,228,101,1
20200815,64102,6170,57571,361,283,183,98,2
20200816,64312,6254,57694,364,210,84,123,3
20200817,64541,6383,57794,364,229,129,100,0
20200818,64906,6631,57909,366,365,248,115,2
20200819,65341,6952,58022,367,435,321,113,1
20200820,65802,7280,58153,369,461,328,131,2
20200821,66193,7527,58296,370,391,247,143,1
20200822,66617,7837,58408,372,424,310,112,2
20200823,67007,8144,58488,375,390,307,80,3
20200824,67282,8324,58582,376,275,180,94,1
20200825,67621,8490,58754,377,339,166,172,1
20200826,68020,8572,59070,378,399,82,316,1
20200827,68511,8661,59472,378,491,89,402,0
20200828,68901,8661,59861,379,390,0,389,1
20200829,69328,8747,60202,379,427,86,341,0
20200830,69690,8708,60600,382,362,-39,398,3
20200831,70231,8916,60931,384,541,208,331,2
20200901,70805,8930,61491,384,574,14,560,0
20200902,71540,9124,62029,387,735,194,538,3
20200903,72154,9099,62668,387,614,-25,639,0
20200904,72766,9221,63158,387,612,122,490,0
20200905,73471,9431,63652,388,705,210,494,1
20200906,73984,7501,66095,388,513,-1930,2443,0
20200907,74454,7531,66533,390,470,30,438,2
20200908,75098,7764,66943,391,644,233,410,1
20200909,75981,8229,67359,393,883,465,416,2
20200910,76911,8568,67945,398,930,339,586,5
20200911,77842,8982,68462,398,931,414,517,0
20200912,78849,9467,68983,399,1007,485,521,1
20200913,79489,9639,69451,399,640,172,468,0
20200914,80266,9886,69981,399,777,247,530,0
20200915,80940,9904,70635,401,674,18,654,2
20200916,81782,9924,71456,402,842,20,821,1
20200917,82568,10049,72117,402,786,125,661,0
20200918,83433,10240,72790,403,865,191,673,1
20200919,84242,10326,73512,404,809,86,722,1
20200920,84916,10239,74273,404,674,-87,761,0
20200921,85595,10104,75086,405,679,-135,813,1
20200922,86447,10017,76025,405,852,-87,939,0
20200923,87530,10129,76995,406,1083,112,970,1
20200924,88532,10188,77937,407,1002,59,942,1
20200925,89540,10312,78819,409,1008,124,882,2
20200926,90618,10531,79676,411,1078,219,857,2
20200927,91469,10513,80544,412,851,-18,868,1
20200928,92095,10220,81462,413,626,-293,918,1
20200929,93090,10136,82538,416,995,-84,1076,3
20200930,94190,10047,83724,419,1100,-89,1186,3
20201001,95348,10024,84903,421,1158,-23,1179,2
20201002,96529,10034,86071,424,1181,10,1168,3
20201003,97760,10212,87122,426,1231,178,1051,2
20201004,98801,10252,88123,426,1041,40,1001,0
20201005,99733,9894,89410,429,932,-358,1287,3
20201006,100794,9803,90556,435,1061,-91,1146,6
20201007,101840,9694,91710,436,1046,-109,1154,1
20201008,102929,9012,93479,438,1089,-682,1769,2
20201009,104004,8659,94903,442,1075,-353,1424,4
20201010,105133,8717,95973,443,1129,58,1070,1
20201011,106229,8500,97284,445,1096,-217,1311,2
20201012,107293,8292,98555,446,1064,-208,1271,1
20201013,108608,8153,100007,448,1315,-139,1452,2
20201014,110039,7930,101659,450,1431,-223,1652,2
20201015,111437,7660,103325,452,1398,-270,1666,2
20201016,112849,7451,104943,455,1412,-209,1618,3
20201017,114387,7574,106354,459,1538,123,1411,4
20201018,115602,7623,107516,463,1215,49,1162,4
20201019,116517,7240,108811,466,915,-383,1295,3
20201020,117594,6811,110313,470,1077,-429,1502,4
20201021,119132,6846,111814,472,1538,35,1501,2
20201022,120710,6872,113364,474,1578,26,1550,2
20201023,122273,6730,115068,475,1563,-142,1704,1
20201024,123764,6395,116894,475,1491,-335,1826,0
20201025,125123,5715,118931,477,1359,-680,2037,2
20201026,126234,5004,120750,480,1111,-711,1819,3
20201027,127624,4684,122458,482,1390,-320,1708,2
20201028,129024,3892,124647,485,1400,-792,2189,3
20201029,130336,3701,126147,488,1312,-191,1500,3
20201030,131508,3411,127607,490,1172,-290,1460,2
20201031,132629,3232,128902,495,1121,-179,1295,5
20201101,133907,2903,130508,496,1278,-329,1606,1
20201102,135141,2620,132024,497,1234,-283,1516,1
20201103,136149,2156,133490,503,1008,-464,1466,6
20201104,137310,1822,134983,505,1161,-334,1493,2
20201105,138599,1973,136118,508,1289,151,1135,3
20201106,139891,2445,136936,510,1292,472,818,2
20201107,141032,2910,137608,514,1141,465,672,4
20201108,142143,3338,138291,514,1111,428,683,0
20201109,143289,3815,138959,515,1146,477,668,1
20201110,144385,4166,139701,518,1096,351,742,3
20201111,145599,4637,140442,520,1214,471,741,2
20201112,146735,4997,141215,523,1136,360,773,3
20201113,147961,5550,141883,528,1226,553,668,5
20201114,149135,6046,142561,528,1174,496,678,0
20201115,150345,6563,143252,530,1210,517,691,2
20201116,151554,7088,143932,534,1209,525,680,4
20201117,152809,7624,144647,538,1255,536,715,4
20201118,154101,8022,145537,542,1292,398,890,4
20201119,155254,8241,146469,544,1153,219,932,2
20201120,156523,8667,147309,547,1269,426,840,3
20201121,157785,9157,148080,548,1262,490,771,1
20201122,158990,9567,148871,552,1205,410,791,4
20201123,160055,9923,149578,554,1065,356,707,2
20201124,161365,10545,150261,559,1310,622,683,5
20201125,162662,11055,151044,563,1297,510,783,4
20201126,163967,11533,151870,564,1305,478,826,1
20201127,165250,11975,152708,567,1283,442,838,3
20201128,166502,12484,153449,569,1252,509,741,2
20201129,167753,12998,154185,570,1251,514,736,1
20201130,168860,13389,154899,572,1107,391,714,2
20201201,170149,13906,155667,576,1289,517,768,4
20201202,171434,14474,156380,580,1285,568,713,4
20201203,172751,15131,157035,585,1317,657,655,5
20201204,174062,15648,157828,586,1311,517,793,1
20201205,175276,16189,158498,589,1214,541,670,3
20201206,176429,16705,159132,592,1153,516,634,3
20201207,177577,17272,159711,594,1148,567,579,2
20201208,178837,17946,160295,596,1260,674,584,2
20201209,180150,18468,161084,598,1313,522,789,2
20201210,181405,19062,161741,602,1255,594,657,4
20201211,182601,19559,162435,607,1196,497,694,5
20201212,183755,20098,163048,609,1154,539,613,2
20201213,184949,20653,163679,617,1194,555,631,8
20201214,186041,21074,164349,618,1092,421,670,1
20201215,187267,21622,165023,622,1226,548,674,4
20201216,188545,22170,165749,626,1278,548,726,4
20201217,189866,22696,166541,629,1321,526,792,3
20201218,191150,23214,167306,630,1284,518,765,1
20201219,192404,23641,168129,634,1254,427,823,4
20201220,193575,23943,168995,637,1171,302,866,3
20201221,194652,24173,169840,639,1077,230,845,2
20201222,195878,23785,171451,642,1226,-388,1611,3
20201223,197124,23495,172984,645,1246,-290,1533,3
20201224,198435,23309,174479,647,1311,-186,1495,2
20201225,199665,23147,175865,653,1230,-162,1386,6
20201226,200892,22830,177407,655,1227,-317,1542,2
20201227,201836,22507,178672,657,944,-323,1265,2
20201228,202863,22278,179925,660,1027,-229,1253,3
20201229,204369,22307,181400,662,1506,29,1475,2
20201230,206092,22420,183007,665,1723,113,1607,3
20201231,207822,22711,184442,669,1730,291,1435,4
20210101,209678,22988,186019,671,1856,277,1577,2
20210102,211641,22867,188100,674,1963,-121,2081,3
20210103,213231,22843,189709,679,1590,-24,1609,5
20210104,214732,22595,191455,682,1501,-248,1746,3
20210105,216699,22693,193321,685,1967,98,1866,3
20210106,218766,22557,195520,689,2067,-136,2199,4
20210107,221754,21882,199178,694,2988,-675,3658,5
20210108,224704,22611,201396,697,2950,729,2218,3
20210109,227702,23340,203660,702,2998,729,2264,5
20210110,230578,23756,206114,708,2876,416,2454,6
20210111,232982,23905,208366,711,2404,149,2252,3
20210112,236225,24947,210561,717,3243,1042,2195,6
20210113,239587,25715,213149,723,3362,768,2588,6
20210114,242969,26423,215820,726,3382,708,2671,3
20210115,246376,26655,218988,733,3407,232,3168,7
20210116,249808,26962,222106,740,3432,307,3118,7
20210117,253261,27142,225374,745,3453,180,3268,5
20210118,256732,27617,228364,751,3471,475,2990,6
20210119,260223,27792,231675,756,3491,175,3311,5
20210120,263729,27546,235421,762,3506,-246,3746,6
20210121,267258,27170,239322,766,3529,-376,3901,4
20210122,270810,26767,243267,776,3552,-403,3945,10
20210123,274376,26275,247318,783,3566,-492,4051,7
20210124,277955,25679,251484,792,3579,-596,4166,9
20210125,281546,25444,255304,798,3591,-235,3820,6
20210126,285147,25148,259194,805,3601,-296,3890,7
20210127,289086,24545,263730,811,3939,-603,4536,6
20210128,293052,25209,267024,819,3966,664,3294,8
20210129,297014,26189,269999,826,3962,980,2975,7
20210130,300661,27054,272769,838,3647,865,2770,12
20210131,303609,25801,276958,850,2948,-1253,4189,12
20210201,306339,24070,281410,859,2730,-1731,4452,9
20210202,309649,23582,285201,866,3310,-488,3791,7
20210203,313626,23472,289276,878,3977,-110,4075,12
20210204,316875,22807,293180,888,3249,-665,3904,10
20210205,320126,22184,297040,902,3251,-623,3860,14
20210206,323402,21407,301081,914,3276,-777,4041,12
20210207,326495,19815,305759,921,3093,-1592,4678,7
20210208,329293,18671,309692,930,2798,-1144,3933,9
20210209,332603,18596,313060,947,3310,-75,3368,17
20210210,336142,19133,316053,956,3539,537,2993,9
20210211,339667,18906,319787,974,3525,-227,3734,18
20210212,342974,18797,323191,986,3307,-109,3404,12
20210213,345605,17824,326780,1001,2631,-973,3589,15
20210214,348772,15919,331839,1014,3167,-1905,5059,13
20210215,351895,14137,336731,1027,3123,-1782,4892,13
20210216,355131,13725,340365,1041,3236,-412,3634,14
20210217,358583,13593,343935,1055,3452,-132,3570,14
20210218,361877,13438,347366,1073,3294,-155,3431,18
20210219,365017,12209,351715,1093,3140,-1229,4349,20
20210220,368175,11054,356013,1108,3158,-1155,4298,15
20210221,370425,9603,359697,1125,2250,-1451,3684,17
20210222,372530,8338,363052,1140,2105,-1265,3355,15
20210223,375535,7823,366567,1145,3005,-515,3515,5
20210224,378637,7092,370381,1164,3102,-731,3814,19
20210225,381662,5421,375059,1182,3025,-1671,4678,18
20210226,385160,6425,377537,1198,3498,1004,2478,16
20210227,388594,7673,379708,1213,3434,1248,2171,15
20210228,391524,9078,381225,1221,2930,1405,1517,8
20210301,394050,10480,382332,1238,2526,1402,1107,17
20210302,396771,11520,383998,1253,2721,1040,1666,15
20210303,399463,12607,385587,1269,2692,1087,1589,16
20210304,402205,13641,387278,1286,2742,1034,1691,17
20210305,405277,14677,389304,1296,3072,1036,2026,10
20210306,408236,15721,391205,1310,2959,1044,1901,14
20210307,410849,16735,392792,1322,2613,1014,1587,12
20210308,413332,17348,394649,1335,2483,613,1857,13
20210309,415705,17927,396433,1345,2373,579,1784,10
20210310,417909,18430,398126,1353,2204,503,1693,8
20210311,419996,18824,399803,1369,2087,394,1677,16
20210312,422246,19329,401539,1378,2250,505,1736,9
20210313,424405,19539,403478,1388,2159,210,1939,10
20210314,426397,19355,405647,1395,1992,-184,2169,7
20210315,428295,18808,408085,1402,1898,-547,2438,7
20210316,430313,18171,410736,1406,2018,-637,2651,4
20210317,432364,17473,413477,1414,2051,-698,2741,8
20210318,434465,16936,416105,1424,2101,-537,2628,10
20210319,436625,16701,418496,1428,2160,-235,2391,4
20210320,438638,16469,420736,1433,2013,-232,2240,5
20210321,440355,16221,422696,1438,1717,-248,1960,5
20210322,442226,15941,424840,1445,1871,-280,2144,7
20210323,444398,15759,427188,1451,2172,-182,2348,6
20210324,446594,15565,429573,1456,2196,-194,2385,5
20210325,448637,15398,431773,1466,2043,-167,2200,10
20210326,450765,15258,434035,1472,2128,-140,2262,6
20210327,453069,15129,436463,1477,2304,-129,2428,5
20210328,455197,15010,438706,1481,2128,-119,2243,4
20210329,457071,14854,440731,1486,1874,-156,2025,5
20210330,459360,14715,443153,1492,2289,-139,2422,6
20210331,461444,14592,445355,1497,2084,-123,2202,5
20210401,463759,14470,447790,1499,2315,-122,2435,2
20210402,465939,14326,450111,1502,2180,-144,2321,3
20210403,468023,14198,452321,1504,2084,-128,2210,2
20210404,470136,14026,454600,1510,2113,-172,2279,6
20210405,472148,13889,456747,1512,2012,-137,2147,2
20210406,474136,13735,458885,1516,1988,-154,2138,4
20210407,476019,13658,460841,1520,1883,-77,1956,4
20210408,478131,13576,463032,1523,2112,-82,2191,3
20210409,480006,13509,464971,1526,1875,-67,1939,3
20210410,481937,13604,466804,1529,1931,95,1833,3
20210411,483747,13760,468456,1531,1810,156,1652,2
20210412,485675,13967,470175,1533,1928,207,1719,2
20210413,487697,14254,471906,1537,2022,287,1731,4
20210414,489495,14556,473398,1541,1798,302,1492,4
20210415,491423,14866,475012,1545,1928,310,1614,4
20210416,493266,15201,476518,1547,1843,335,1506,2
20210417,495224,15611,478063,1550,1958,410,1545,3
20210418,497154,16034,479566,1554,1930,423,1503,4
20210419,498957,16075,481326,1556,1803,41,1760,2
20210420,500860,16121,483180,1559,1903,46,1854,3
20210421,502791,16152,485078,1561,1931,31,1898,2
20210422,504872,16387,486920,1565,2081,235,1842,4
20210423,506845,16614,488664,1567,1973,227,1744,2
20210424,508925,16899,490457,1569,2080,285,1793,2
20210425,510738,17058,492109,1571,1813,159,1652,2
20210426,512497,17235,493689,1573,1759,177,1580,2
20210427,514591,17424,495589,1578,2094,189,1900,5
20210428,516301,17581,497140,1580,1710,157,1551,2
20210429,518262,17735,498943,1584,1961,154,1803,4
20210430,520236,17870,500779,1587,1974,135,1836,3
20210501,521948,17897,502460,1591,1712,27,1681,4
20210502,523795,17951,504251,1593,1847,54,1791,2
20210503,525567,17951,506020,1596,1772,0,1769,3
20210504,527266,17962,507706,1598,1699,11,1686,2
20210505,529220,17961,509658,1601,1954,-1,1952,3
20210506,530944,18000,511340,1604,1724,39,1682,3
20210507,532710,18035,513068,1607,1766,35,1728,3
20210508,534445,18066,514769,1610,1735,31,1701,3
20210509,536017,18075,516329,1613,1572,9,1560,3
20210510,537524,18104,517805,1615,1507,29,1476,2
20210511,539138,18116,519405,1617,1614,12,1600,2
20210512,540646,18145,520882,1619,1508,29,1477,2
20210513,542158,18179,522356,1623,1512,34,1474,4
20210514,543610,18206,523778,1626,1452,27,1422,3
20210515,544931,18222,525080,1629,1321,16,1302,3
20210516,546182,18249,526302,1631,1251,27,1222,2
20210517,547411,18259,527519,1633,1229,10,1217,2
20210518,548681,18275,528769,1637,1270,16,1250,4
20210519,550029,18305,530085,1639,1348,30,1316,2
20210520,551430,18329,531459,1642,1401,24,1374,3
20210521,552920,18366,532910,1644,1490,37,1451,2
20210522,554516,18387,534481,1648,1596,21,1571,4
20210523,556107,18406,536050,1651,1591,19,1569,3
20210524,557619,18434,537531,1654,1512,28,1481,3
20210525,559291,18472,539161,1658,1672,38,1630,4
20210526,561048,18501,540886,1661,1757,29,1725,3
20210527,563215,18528,543023,1664,2167,27,2137,3
20210528,565451,18554,545229,1668,2236,26,2206,4
20210529,567263,18582,547008,1673,1812,28,1779,5
20210530,569073,18611,548785,1677,1810,29,1777,4
20210531,570836,18631,550525,1680,1763,20,1740,3
20210601,572804,18641,552479,1684,1968,10,1954,4
20210602,574958,18683,554589,1686,2154,42,2110,2
20210603,576947,18709,556549,1689,1989,26,1960,3
20210604,579009,18734,558584,1691,2062,25,2035,2
20210605,581197,18767,560734,1696,2188,33,2150,5
20210606,583071,18796,562576,1699,1874,29,1842,3
20210607,585039,18828,564509,1702,1968,32,1933,3
20210608,587244,18863,566677,1704,2205,35,2168,2
20210609,589423,18885,568828,1710,2179,22,2151,6
20210610,589423,18885,568828,1710,0,0,0,0
20210611,593894,18980,573194,1720,4471,95,4366,10
20210612,596017,19005,575288,1724,2123,25,2094,4
20210613,597986,19026,577234,1726,1969,21,1946,2
20210614,599823,19048,579045,1730,1837,22,1811,4
20210615,601950,19077,581139,1734,2127,29,2094,4
20210616,603961,19108,583115,1738,2011,31,1976,4
20210617,606128,19145,585242,1741,2167,37,2127,3
20210618,608070,19163,587160,1747,1942,18,1918,6
20210619,610179,19192,589235,1752,2109,29,2075,5
20210620,612029,19211,591061,1757,1850,19,1826,5
20210621,613993,19246,592984,1763,1964,35,1923,6
20210622,616160,19307,595086,1767,2167,61,2102,4
20210623,618148,19367,597008,1773,1988,60,1922,6
20210624,620309,19403,599131,1775,2161,36,2123,2
20210625,622532,19442,601308,1782,2223,39,2177,7
20210626,624814,19481,603541,1792,2282,39,2233,10
20210627,626936,19522,605618,1796,2122,41,2077,4
20210628,628976,19568,607606,1802,2040,46,1988,6
20210629,631160,19642,609711,1807,2184,74,2105,5
20210630,632907,19654,611442,1811,1747,12,1731,4
20210701,634582,19765,612998,1819,1675,111,1556,8
20210702,636245,19784,614636,1825,1663,19,1638,6
20210703,637877,19849,616197,1831,1632,65,1561,6
20210704,639476,19875,617767,1834,1599,26,1570,3
20210705,641049,19916,619294,1839,1573,41,1527,5
20210706,642601,19946,620812,1843,1552,30,1518,4
20210707,644114,19966,622301,1847,1513,20,1489,4
20210708,645653,19978,623826,1849,1539,12,1525,2
20210709,647182,19997,625332,1853,1529,19,1506,4
20210710,648702,20042,626800,1860,1520,45,1468,7
20210711,650220,20064,628290,1866,1518,22,1490,6
20210712,651762,20083,629809,1870,1542,19,1519,4
20210713,653284,20114,631294,1876,1522,31,1485,6
20210714,654813,20158,632775,1880,1529,44,1481,4
20210715,656354,20197,634272,1885,1541,39,1497,5
20210716,657884,20233,635759,1892,1530,36,1487,7
20210717,659449,20286,637267,1896,1565,53,1508,4
20210718,660978,20309,638771,1898,1529,23,1504,2
20210719,662486,20338,640248,1900,1508,29,1477,2
20210720,664027,20373,641750,1904,1541,35,1502,4
20210721,665533,20392,643234,1907,1506,19,1484,3
20210722,667080,20417,644753,1910,1547,25,1519,3
20210723,668601,20461,646227,1913,1521,44,1474,3
20210724,670108,20510,647682,1916,1507,49,1455,3
20210725,671636,20543,649173,1920,1528,33,1491,4
20210726,673185,20575,650683,1927,1549,32,1510,7
20210727,674724,20615,652180,1929,1539,40,1497,2
20210728,676251,20642,653675,1934,1527,27,1495,5
20210729,677801,20679,655183,1939,1550,37,1508,5
20210730,679321,20698,656680,1943,1520,19,1497,4
20210731,680858,20711,658198,1949,1537,13,1518,6
20210801,682377,20762,659664,1951,1519,51,1466,2
20210802,683914,20802,661156,1956,1537,40,1492,5
20210803,685462,20842,662660,1960,1548,40,1504,4
20210804,686981,20886,664130,1965,1519,44,1470,5
20210805,688489,0,0,1967,1508,-20886,-664130,2
20210806,690009,0,0,1969,1520,0,0,2
20210807,691554,0,0,1971,1545,0,0,2
20210808,692964,0,0,1975,1410,0,0,4
20210809,694285,0,0,1978,1321,0,0,3
20210810,695619,0,0,1982,1334,0,0,4
20210811,696906,0,0,1988,1287,0,0,6
20210812,698166,0,0,1992,1260,0,0,4
20210813,699381,0,0,1994,1215,0,0,2
20210814,700587,0,0,1997,1206,0,0,3
20210815,701776,0,0,2001,1189,0,0,4
20210816,702885,0,0,2003,1109,0,0,2
20210817,704000,0,0,2006,1115,0,0,3
20210818,705089,0,0,2009,1089,0,0,3
20210819,706166,0,0,2012,1077,0,0,3
20210820,707236,0,0,2014,1070,0,0,2
20210821,708302,0,0,2018,1066,0,0,4
20210822,709378,0,0,2020,1076,0,0,2
20210823,710438,0,0,2024,1060,0,0,4
20210824,711428,0,0,2026,990,0,0,2
20210825,712411,0,0,2028,983,0,0,2
20210826,713402,0,0,2031,991,0,0,3
20210827,714396,0,0,2035,994,0,0,4
20210828,715394,0,0,2036,998,0,0,1
20210829,716381,0,0,2038,987,0,0,2
20210830,717374,0,0,2039,993,0,0,1
20210831,718370,0,0,2041,996,0,0,2
20210901,719355,0,0,2043,985,0,0,2
20210902,720330,0,0,2043,975,0,0,0
20210903,721308,0,0,2044,978,0,0,1
20210904,722292,0,0,2045,984,0,0,1
