date,infected,active,recovered,dead,deltaInfected,deltaActive,deltaRecovered,deltaDead
20200305,2,2,0,0,2,2,0,0
20200306,2,2,0,0,0,0,0,0
20200307,3,3,0,0,1,1,0,0
20200308,3,3,0,0,0,0,0,0
20200309,3,3,0,0,0,0,0,0
20200310,5,5,0,0,2,2,0,0
20200311,7,7,0,0,2,2,0,0
20200312,11,11,0,0,4,4,0,0
20200313,13,13,0,0,2,2,0,0
20200314,18,18,0,0,5,5,0,0
20200315,24,24,0,0,6,6,0,0
20200316,25,25,0,0,1,1,0,0
20200317,26,24,2,0,1,-1,2,0
20200318,38,36,2,0,12,12,0,0
20200319,63,61,2,0,25,25,0,0
20200320,89,87,2,0,26,26,0,0
20200321,93,90,2,1,4,3,0,1
20200322,126,123,2,1,33,33,0,0
20200323,132,129,2,1,6,6,0,0
20200324,166,161,2,3,34,32,0,2
20200325,176,171,2,3,10,10,0,0
20200326,191,186,2,3,15,15,0,0
20200327,237,228,5,4,46,42,3,1
20200328,258,248,5,5,21,20,0,1
20200329,323,309,8,6,65,61,3,1
20200330,368,341,17,10,45,32,9,4
20200331,420,390,17,13,52,49,0,3
20200401,459,427,19,13,39,37,2,0
20200402,533,497,20,16,74,70,1,3
20200403,579,535,27,17,46,38,7,1
20200404,624,573,30,21,45,38,3,4
20200405,654,601,30,23,30,28,0,2
20200406,674,598,47,29,20,-3,17,6
20200407,764,663,68,33,90,65,21,4
20200408,804,691,79,34,40,28,11,1
20200409,858,722,101,35,54,31,22,1
20200410,901,736,129,36,43,14,28,1
20200411,946,770,139,37,45,34,10,1
20200412,1009,777,193,39,63,7,54,2
20200413,1037,792,206,39,28,15,13,0
20200414,1083,807,236,40,46,15,30,1
20200415,1110,816,253,41,27,9,17,1
20200416,1167,847,277,43,57,31,24,2
20200417,1214,848,320,46,47,1,43,3
20200418,1268,883,338,47,54,35,18,1
20200419,1285,890,347,48,17,7,9,1
20200420,1309,879,381,49,24,-11,34,1
20200421,1342,854,437,51,33,-25,56,2
20200422,1368,855,460,53,26,1,23,2
20200423,1413,874,485,54,45,19,25,1
20200424,1421,828,538,55,8,-46,53,1
20200425,1486,837,592,57,65,9,54,2
20200426,1516,833,624,59,30,-4,32,2
20200427,1565,846,659,60,49,13,35,1
20200428,1585,840,682,63,20,-6,23,3
20200429,1677,902,710,65,92,62,28,2
20200430,1757,961,727,69,80,59,17,4
20200501,1781,956,755,70,24,-5,28,1
20200502,1839,988,779,72,58,32,24,2
20200503,1857,955,825,77,18,-33,46,5
20200504,1926,993,855,78,69,38,30,1
20200505,1946,956,911,79,20,-37,56,1
20200506,1987,973,928,86,41,17,17,7
20200507,2027,983,954,90,40,10,26,4
20200508,2070,1012,960,98,43,29,6,8
20200509,2090,929,1059,102,20,-83,99,4
20200510,2117,904,1106,107,27,-25,47,5
20200511,2141,914,1114,113,24,10,8,6
20200512,2158,873,1168,117,17,-41,54,4
20200513,2181,833,1228,120,23,-40,60,3
20200514,2218,824,1272,122,37,-9,44,2
20200515,2236,772,1336,128,18,-52,64,6
20200516,2267,783,1355,129,31,11,19,1
20200517,2290,721,1436,133,23,-62,81,4
20200518,2304,707,1464,133,14,-14,28,0
20200519,2321,665,1522,134,17,-42,58,1
20200520,2338,645,1557,136,17,-20,35,2
20200521,2350,614,1596,140,12,-31,39,4
20200522,2372,617,1614,141,22,3,18,1
20200523,2391,588,1662,141,19,-29,48,0
20200524,2401,577,1680,144,10,-11,18,3
20200525,2406,564,1696,146,5,-13,16,2
20200526,2416,546,1721,149,10,-18,25,3
20200527,2435,540,1744,151,19,-6,23,2
20200528,2462,528,1781,153,27,-12,37,2
20200529,2485,529,1803,153,23,1,22,0
20200530,2494,510,1831,153,9,-19,28,0
20200531,2510,495,1862,153,16,-15,31,0
20200601,2524,482,1888,154,14,-13,26,1
20200602,2535,468,1910,157,11,-14,22,3
20200603,2551,455,1939,157,16,-13,29,0
20200604,2594,484,1951,159,43,29,12,2
20200605,2606,479,1968,159,12,-5,17,0
20200606,2606,479,1968,159,0,0,0,0
20200607,2606,479,1968,159,0,0,0,0
20200608,2704,521,2023,160,98,42,55,1
20200609,2728,519,2049,160,24,-2,26,0
20200610,2775,551,2063,161,47,32,14,1
20200611,2832,571,2100,161,57,20,37,0
20200612,2893,611,2119,163,61,40,19,2
20200613,2893,611,2119,163,0,0,0,0
20200614,2893,611,2119,163,0,0,0,0
20200615,3040,713,2162,165,147,102,43,2
20200616,3085,739,2178,168,45,26,16,3
20200617,3141,776,2197,168,56,37,19,0
20200618,3174,787,2219,168,33,11,22,0
20200619,3273,863,2241,169,99,76,22,1
20200620,3273,863,2241,169,0,0,0,0
20200621,3273,863,2241,169,0,0,0,0
20200622,3525,1084,2270,171,252,221,29,2
20200623,3588,1131,2285,172,63,47,15,1
20200624,3676,1206,2297,173,88,75,12,1
20200625,3796,1299,2322,175,120,93,25,2
20200626,3935,1419,2338,178,139,120,16,3
20200627,3935,1419,2338,178,0,0,0,0
20200628,3935,1419,2338,178,0,0,0,0
20200629,4325,1775,2366,184,390,356,28,6
20200630,4453,1865,2402,186,128,90,36,2
20200701,4606,1986,2432,188,153,121,30,2
20200702,4788,2084,2515,189,182,98,83,1
20200703,4962,2221,2550,191,174,137,35,2
20200704,4962,2221,2550,191,0,0,0,0
20200705,4962,2221,2550,191,0,0,0,0
20200706,5458,2661,2598,199,496,440,48,8
20200707,5621,2721,2693,207,163,60,95,8
20200708,5869,2891,2769,209,248,170,76,2
20200709,6086,3057,2815,214,217,166,46,5
20200710,6402,3149,3037,216,316,92,222,2
20200711,6719,3422,3078,219,317,273,41,3
20200712,6877,3541,3115,221,158,119,37,2
20200713,6981,3576,3179,226,104,35,64,5
20200714,6981,3576,3179,226,0,0,0,0
20200715,7411,3841,3335,235,430,265,156,9
20200716,7681,3907,3534,240,270,66,199,5
20200717,7908,4051,3612,245,227,144,78,5
20200718,8161,4267,3648,246,253,216,36,1
20200719,8340,4422,3669,249,179,155,21,3
20200720,8479,4469,3755,255,139,47,86,6
20200721,8787,4520,4003,264,308,51,248,9
20200722,9115,4688,4159,268,328,168,156,4
20200723,9462,4821,4367,274,347,133,208,6
20200724,9767,4932,4555,280,305,111,188,6
20200725,9767,4932,4555,280,0,0,0,0
20200726,9767,4932,4555,280,0,0,0,0
20200727,10498,5274,4930,294,731,342,375,14
20200728,10766,5249,5220,297,268,-25,290,3
20200729,11127,5370,5441,316,361,121,221,19
20200730,11444,5530,5586,328,317,160,145,12
20200731,11876,5578,5959,339,432,48,373,11
20200801,11876,5578,5959,339,0,0,0,0
20200802,12296,5632,6312,352,420,54,353,13
20200803,12462,5741,6359,362,166,109,47,10
20200804,12856,5891,6592,373,394,150,233,11
20200805,13138,5920,6839,379,282,29,247,6
20200806,13396,5970,7042,384,258,50,203,5
20200807,13687,5920,7373,394,291,-50,331,10
20200808,13687,5920,7373,394,0,0,0,0
20200809,13687,5920,7373,394,0,0,0,0
20200810,14498,5914,8159,425,811,-6,786,31
20200811,14708,5850,8411,447,210,-64,252,22
20200812,14961,5681,8827,453,253,-169,416,6
20200813,15184,5570,9156,458,223,-111,329,5
20200814,15535,5722,9344,469,351,152,188,11
20200815,15801,5711,9619,471,266,-11,275,2
20200816,15801,5711,9619,471,0,0,0,0
20200817,16111,5769,9856,486,310,58,237,15
20200818,16351,5577,10279,495,240,-192,423,9
20200819,16691,5473,10711,507,340,-104,432,12
20200820,17029,5633,10881,515,338,160,170,8
20200821,17396,5713,11157,526,367,80,276,11
20200822,17715,5854,11329,532,319,141,172,6
20200823,17715,5854,11329,532,0,0,0,0
20200824,18029,5621,11861,547,314,-233,532,15
20200825,18326,5685,12081,560,297,64,220,13
20200826,18609,5702,12336,571,283,17,255,11
20200827,18920,5858,12480,582,311,156,144,11
20200828,19214,5890,12733,591,294,32,253,9
20200829,19550,6098,12858,594,336,208,125,3
20200830,19793,6234,12961,598,243,136,103,4
20200831,19964,6260,13095,609,171,26,134,11
20200901,20234,6179,13435,620,270,-81,340,11
20200902,20517,6264,13626,627,283,85,191,7
20200903,20804,6048,14120,636,287,-216,494,9
20200904,21142,6027,14476,639,338,-21,356,3
20200905,21439,6152,14636,651,297,125,160,12
20200906,21560,6196,14709,655,121,44,73,4
20200907,21660,6166,14830,664,100,-30,121,9
20200908,21961,6120,15172,669,301,-46,342,5
20200909,22258,6375,15208,675,297,255,36,6
20200910,22544,6591,15273,680,286,216,65,5
20200911,22834,6476,15672,686,290,-115,399,6
20200912,23138,6526,15922,690,304,50,250,4
20200913,23465,6731,16038,696,327,205,116,6
20200914,23635,6764,16166,705,170,33,128,9
20200915,23929,6503,16701,725,294,-261,535,20
20200916,24211,6485,16990,736,282,-18,289,11
20200917,24605,6639,17219,747,394,154,229,11
20200918,24897,6780,17365,752,292,141,146,5
20200919,25217,6970,17489,758,320,190,124,6
20200920,25428,6787,17878,763,211,-183,389,5
20200921,25521,6642,18109,770,93,-145,231,7
20200922,25737,6600,18359,778,216,-42,250,8
20200923,26081,6657,18634,790,344,57,275,12
20200924,26316,6372,19142,802,235,-285,508,12
20200925,26564,6249,19507,808,248,-123,365,6
20200926,26797,6231,19746,820,233,-18,239,12
20200927,26920,6352,19746,822,123,121,0,2
20200928,27001,6167,20005,829,81,-185,259,7
20200929,27226,6061,20322,843,225,-106,317,14
20200930,27469,5997,20616,856,243,-64,294,13
20201001,27749,5941,20947,861,280,-56,331,5
20201002,27975,5996,21108,871,226,55,161,10
20201003,27975,5996,21108,871,0,0,0,0
20201004,28354,5616,21859,879,379,-380,751,8
20201005,28449,5529,22032,888,95,-87,173,9
20201006,28710,5533,22274,903,261,4,242,15
20201007,29075,5553,22614,908,365,20,340,5
20201008,29528,5676,22939,913,453,123,325,5
20201009,29917,5750,23241,926,389,74,302,13
20201010,30345,6048,23370,927,428,298,129,1
20201011,30647,6258,23461,928,302,210,91,1
20201012,30837,6314,23587,936,190,56,126,8
20201013,31173,6449,23777,947,336,135,190,11
20201014,31655,6623,24074,958,482,174,297,11
20201015,32224,6896,24356,972,569,273,282,14
20201016,32845,7262,24603,980,621,366,247,8
20201017,33561,7807,24773,981,716,545,170,1
20201018,34112,8133,24995,984,551,326,222,3
20201019,34661,8222,25442,997,549,89,447,13
20201020,35389,8812,25560,1017,728,590,118,20
20201021,36315,9505,25779,1031,926,693,219,14
20201022,37314,10274,25989,1051,999,769,210,20
20201023,38493,11168,26260,1065,1179,894,271,14
20201024,39758,12315,26368,1075,1265,1147,108,10
20201025,40893,13348,26459,1086,1135,1033,91,11
20201026,41596,13950,26542,1104,703,602,83,18
20201027,43151,15123,26903,1125,1555,1173,361,21
20201028,44737,16489,27087,1161,1586,1366,184,36
20201029,46639,17877,27580,1182,1902,1388,493,21
20201030,48137,19055,27870,1212,1498,1178,290,30
20201031,50090,20773,28083,1234,1953,1718,213,22
20201101,51505,22063,28194,1248,1415,1290,111,14
20201102,52269,22422,28567,1280,764,359,373,32
20201103,53822,23349,29156,1317,1553,927,589,37
20201104,55598,24851,29389,1358,1776,1502,233,41
20201105,57506,26415,29689,1402,1908,1564,300,44
20201106,59427,28000,29970,1457,1921,1585,281,55
20201107,61212,29068,30654,1490,1785,1068,684,33
20201108,62423,29974,30939,1510,1211,906,285,20
20201109,63419,30614,31222,1583,996,640,283,73
20201110,65024,31134,32261,1629,1605,520,1039,46
20201111,66565,32095,32769,1701,1541,961,508,72
20201112,68293,32853,33690,1750,1728,758,921,49
20201113,69625,33326,34491,1808,1332,473,801,58
20201114,70900,33682,35361,1857,1275,356,870,49
20201115,71956,34461,35606,1889,1056,779,245,32
20201116,72689,34243,36473,1973,733,-218,867,84
20201117,73944,33242,38660,2042,1255,-1001,2187,69
20201118,75577,33602,39886,2089,1633,360,1226,47
20201119,76757,33573,41031,2153,1180,-29,1145,64
20201120,77994,32869,42916,2209,1237,-704,1885,56
20201121,79309,33270,43793,2246,1315,401,877,37
20201122,80006,33314,44416,2276,697,44,623,30
20201123,80553,32451,45760,2342,547,-863,1344,66
20201124,81739,31820,47525,2394,1186,-631,1765,52
20201125,83328,32689,48210,2429,1589,869,685,35
20201126,84252,32992,48780,2480,924,303,570,51
20201127,85431,32888,50001,2542,1179,-104,1221,62
20201128,86710,33066,51068,2576,1279,178,1067,34
20201129,87374,33275,51479,2620,664,209,411,44
20201130,87901,32451,52769,2681,527,-824,1290,61
20201201,89085,32634,53724,2727,1184,183,955,46
20201202,90378,32638,54967,2773,1293,4,1243,46
20201203,91539,32677,56050,2812,1161,39,1083,39
20201204,92793,32383,57545,2865,1254,-294,1495,53
20201205,93768,32812,58034,2922,975,429,489,57
20201206,94507,32930,58625,2952,739,118,591,30
20201207,94944,32444,59488,3012,437,-486,863,60
20201208,96021,32730,60210,3081,1077,286,722,69
20201209,97317,32844,61322,3151,1296,114,1112,70
20201210,98603,32812,62592,3199,1286,-32,1270,48
20201211,99543,32560,63733,3250,940,-252,1141,51
20201212,100306,31719,65289,3298,763,-841,1556,48
20201213,101117,32023,65758,3336,811,304,469,38
20201214,101461,31584,66486,3391,344,-439,728,55
20201215,102330,31224,67649,3457,869,-360,1163,66
20201216,103232,31476,68245,3511,902,252,596,54
20201217,104087,31043,69495,3549,855,-433,1250,38
20201218,104881,31049,70249,3583,794,6,754,34
20201219,105524,31279,70620,3625,643,230,371,42
20201220,105524,31279,70620,3625,0,0,0,0
20201221,106222,30968,71548,3706,698,-311,928,81
20201222,106986,30597,72597,3792,764,-371,1049,86
20201223,107570,30583,73149,3838,584,-14,552,46
20201224,108298,30524,73896,3878,728,-59,747,40
20201225,108891,30323,74667,3901,593,-201,771,23
20201226,109330,30283,75124,3923,439,-40,457,22
20201227,109691,30021,75717,3953,361,-262,593,30
20201228,109911,29848,76121,3942,220,-173,404,-11
20201229,110454,29628,76802,4024,543,-220,681,82
20201230,110985,29710,77225,4050,531,82,423,26
20201231,110985,29710,77225,4050,0,0,0,0
20210101,112143,30375,77682,4086,1158,665,457,36
20210102,112143,30375,77682,4086,0,0,0,0
20210103,112645,30623,77891,4131,502,248,209,45
20210104,112645,30623,77891,4131,0,0,0,0
20210105,113392,29716,79465,4211,747,-907,1574,80
20210106,113392,29716,79465,4211,0,0,0,0
20210107,113392,29716,79465,4211,0,0,0,0
20210108,114920,29767,80868,4285,1528,51,1403,74
20210109,115379,29749,81325,4305,459,-18,457,20
20210110,115633,29678,81625,4330,254,-71,300,25
20210111,115633,29678,81625,4330,0,0,0,0
20210112,116200,29005,82822,4373,567,-673,1197,43
20210113,116668,28607,83662,4399,468,-398,840,26
20210114,117011,27950,84650,4411,343,-657,988,12
20210115,117011,27950,84650,4411,0,0,0,0
20210116,117011,27950,84650,4411,0,0,0,0
20210117,117011,27950,84650,4411,0,0,0,0
20210118,118083,27092,86505,4486,1072,-858,1855,75
20210119,118383,25803,88071,4509,300,-1289,1566,23
20210120,118717,25121,89075,4521,334,-682,1004,12
20210121,119206,24788,89882,4536,489,-333,807,15
20210122,119420,24174,90691,4555,214,-614,809,19
20210123,119420,24174,90691,4555,0,0,0,0
20210124,119420,24174,90691,4555,0,0,0,0
20210125,120143,22945,92605,4593,723,-1229,1914,38
20210126,120532,22579,93332,4621,389,-366,727,28
20210127,120864,22564,93657,4643,332,-15,325,22
20210128,121194,22463,94072,4659,330,-101,415,16
20210129,121497,22214,94604,4679,303,-249,532,20
20210130,121497,22214,94604,4679,0,0,0,0
20210131,121497,22214,94604,4679,0,0,0,0
20210201,122199,22295,95180,4724,702,81,576,45
20210202,122461,22155,95569,4737,262,-140,389,13
20210203,122828,21987,96096,4745,367,-168,527,8
20210204,122828,21987,96096,4745,0,0,0,0
20210205,123434,21531,97128,4775,606,-456,1032,30
20210206,123434,21531,97128,4775,0,0,0,0
20210207,123434,21531,97128,4775,0,0,0,0
20210208,124101,20818,98470,4813,667,-713,1342,38
20210209,124443,19940,99669,4834,342,-878,1199,21
20210210,124696,19203,100640,4853,253,-737,971,19
20210211,125123,17916,102339,4868,427,-1287,1699,15
20210212,125402,16386,104135,4881,279,-1530,1796,13
20210213,125402,16386,104135,4881,0,0,0,0
20210214,125402,16386,104135,4881,0,0,0,0
20210215,126139,16083,105140,4916,737,-303,1005,35
20210216,126413,14647,106831,4935,274,-1436,1691,19
20210217,126781,12558,109274,4949,368,-2089,2443,14
20210218,127135,11421,110752,4962,354,-1137,1478,13
20210219,127537,10567,111991,4979,402,-854,1239,17
20210220,127537,10567,111991,4979,0,0,0,0
20210221,127537,10567,111991,4979,0,0,0,0
20210222,128661,10766,112879,5016,1124,199,888,37
20210223,129176,10454,113688,5034,515,-312,809,18
20210224,129753,10341,114361,5051,577,-113,673,17
20210225,130510,10453,114995,5062,757,112,634,11
20210226,130979,10061,115847,5071,469,-392,852,9
20210227,130979,10061,115847,5071,0,0,0,0
20210228,130979,10061,115847,5071,0,0,0,0
20210301,130979,10061,115847,5071,0,0,0,0
20210302,133088,11122,116821,5145,2109,1061,974,74
20210303,133982,11412,117396,5174,894,290,575,29
20210304,134892,12049,117643,5200,910,637,247,26
20210305,135513,12400,117885,5228,621,351,242,28
20210306,135513,12400,117885,5228,0,0,0,0
20210307,135513,12400,117885,5228,0,0,0,0
20210308,137291,13274,118720,5297,1778,874,835,69
20210309,138542,14062,119135,5345,1251,788,415,48
20210310,139652,14934,119336,5382,1110,872,201,37
20210311,140990,15676,119904,5410,1338,742,568,28
20210312,142160,16556,120158,5446,1170,880,254,36
20210313,142160,16556,120158,5446,0,0,0,0
20210314,142160,16556,120158,5446,0,0,0,0
20210315,144831,17806,121441,5584,2671,1250,1283,138
20210316,146437,18693,122107,5637,1606,887,666,53
20210317,148163,19811,122680,5672,1726,1118,573,35
20210318,149891,21482,122680,5729,1728,1671,0,57
20210319,151337,21911,123653,5773,1446,429,973,44
20210320,151337,21911,123653,5773,0,0,0,0
20210321,151337,21911,123653,5773,0,0,0,0
20210322,154627,23346,125343,5938,3290,1435,1690,165
20210323,156346,24104,126237,6005,1719,758,894,67
20210324,158198,24884,127247,6067,1852,780,1010,62
20210325,160163,26220,127799,6144,1965,1336,552,77
20210326,162032,27571,128241,6220,1869,1351,442,76
20210327,162032,27571,128241,6220,0,0,0,0
20210328,162032,27571,128241,6220,0,0,0,0
20210329,165787,30380,128980,6427,3755,2809,739,207
20210330,167654,31217,129918,6519,1867,837,938,92
20210331,169626,32535,130492,6599,1972,1318,574,80
20210401,171324,33483,131166,6675,1698,948,674,76
20210402,173478,34989,131726,6763,2154,1506,560,88
20210403,173478,34989,131726,6763,0,0,0,0
20210404,173478,34989,131726,6763,0,0,0,0
20210405,176413,36198,133262,6953,2935,1209,1536,190
20210406,177506,35754,134700,7052,1093,-444,1438,99
20210407,179248,34874,137242,7132,1742,-880,2542,80
20210408,180831,35321,138294,7216,1583,447,1052,84
20210409,181927,35210,139419,7298,1096,-111,1125,82
20210410,181927,35210,139419,7298,0,0,0,0
20210411,181927,35210,139419,7298,0,0,0,0
20210412,184698,35609,141602,7487,2771,399,2183,189
20210413,184698,35609,141602,7487,0,0,0,0
20210414,186372,34786,143944,7642,1674,-823,2342,155
20210415,187715,35081,144932,7702,1343,295,988,60
20210416,188994,35343,145863,7788,1279,262,931,86
20210417,188994,35343,145863,7788,0,0,0,0
20210418,188994,35343,145863,7788,0,0,0,0
20210419,191154,35070,148146,7938,2160,-273,2283,150
20210420,191876,34578,149273,8025,722,-492,1127,87
20210421,193115,34575,150458,8082,1239,-3,1185,57
20210422,194371,34200,152007,8164,1256,-375,1549,82
20210423,194733,33122,153408,8203,362,-1078,1401,39
20210424,194733,33122,153408,8203,0,0,0,0
20210425,194733,33122,153408,8203,0,0,0,0
20210426,195971,31974,155647,8350,1238,-1148,2239,147
20210427,196732,31219,157095,8418,761,-755,1448,68
20210428,197378,30754,158160,8464,646,-465,1065,46
20210429,197866,30713,158641,8512,488,-41,481,48
20210430,198461,30687,159223,8551,595,-26,582,39
20210501,198461,30687,159223,8551,0,0,0,0
20210502,198461,30687,159223,8551,0,0,0,0
20210503,198461,30687,159223,8551,0,0,0,0
20210504,199463,29381,161369,8713,1002,-1306,2146,162
20210505,199882,28873,162273,8736,419,-508,904,23
20210506,200353,28146,163445,8762,471,-727,1172,26
20210507,200693,27186,164717,8790,340,-960,1272,28
20210508,200693,27186,164717,8790,0,0,0,0
20210509,200693,27186,164717,8790,0,0,0,0
20210510,201217,26308,166047,8862,524,-878,1330,72
20210511,201512,25713,166887,8912,295,-595,840,50
20210512,201796,25149,167704,8943,284,-564,817,31
20210513,202003,24900,168145,8958,207,-249,441,15
20210514,202143,24613,168549,8981,140,-287,404,23
20210515,202143,24613,168549,8981,0,0,0,0
20210516,202143,24613,168549,8981,0,0,0,0
20210517,202490,23984,169455,9051,347,-629,906,70
20210518,202675,23349,170256,9070,185,-635,801,19
20210519,202847,22973,170788,9086,172,-376,532,16
20210520,203018,22590,171332,9096,171,-383,544,10
20210521,203150,22037,172005,9108,132,-553,673,12
20210522,203150,22037,172005,9108,0,0,0,0
20210523,203150,22037,172005,9108,0,0,0,0
20210524,203391,21511,172730,9150,241,-526,725,42
20210525,203513,21158,173187,9168,122,-353,457,18
20210526,203658,20987,173487,9184,145,-171,300,16
20210527,203762,20942,173626,9194,104,-45,139,10
20210528,203839,20392,174236,9211,77,-550,610,17
20210529,203839,20392,174236,9211,0,0,0,0
20210530,203839,20392,174236,9211,0,0,0,0
20210531,204012,19678,175081,9253,173,-714,845,42
20210601,204093,19367,175456,9270,81,-311,375,17
20210602,204172,19165,175704,9303,79,-202,248,33
20210603,204252,19093,175827,9332,80,-72,123,29
20210604,204304,18644,176286,9374,52,-449,459,42
20210605,204304,18644,176286,9374,0,0,0,0
20210606,204304,18644,176286,9374,0,0,0,0
20210607,204410,18410,176589,9411,106,-234,303,37
20210608,204455,18292,176703,9460,45,-118,114,49
20210609,204512,18164,176881,9467,57,-128,178,7
20210610,204567,18130,176964,9473,55,-34,83,6
20210611,204597,17996,177122,9479,30,-134,158,6
20210612,204597,17996,177122,9479,0,0,0,0
20210613,204597,17996,177122,9479,0,0,0,0
20210614,204668,17197,177976,9495,71,-799,854,16
20210615,204697,17027,178136,9534,29,-170,160,39
20210616,204730,16803,178319,9608,33,-224,183,74
20210617,204791,15763,179402,9626,61,-1040,1083,18
20210618,204814,15326,179858,9630,23,-437,456,4
20210619,204814,15326,179858,9630,0,0,0,0
20210620,204814,15326,179858,9630,0,0,0,0
20210621,204860,14972,180245,9643,46,-354,387,13
20210622,204886,14595,180643,9648,26,-377,398,5
20210623,204910,14397,180862,9651,24,-198,219,3
20210624,204936,14084,181199,9653,26,-313,337,2
20210625,204945,13565,181725,9655,9,-519,526,2
20210626,204945,13565,181725,9655,0,0,0,0
20210627,204945,13565,181725,9655,0,0,0,0
20210628,204991,12909,182424,9658,46,-656,699,3
20210629,205004,12355,182986,9663,13,-554,562,5
20210630,205022,12051,183306,9665,18,-304,320,2
20210701,205032,11831,183534,9667,10,-220,228,2
20210702,205047,11717,183663,9667,15,-114,129,0
20210703,205047,11717,183663,9667,0,0,0,0
20210704,205047,11717,183663,9667,0,0,0,0
20210705,205047,11717,183663,9667,0,0,0,0
20210706,205047,11717,183663,9667,0,0,0,0
20210707,205047,11717,183663,9667,0,0,0,0
20210708,205047,11717,183663,9667,0,0,0,0
20210709,205047,10490,183663,9667,0,-1227,0,0
20210710,205145,10490,184999,9656,98,0,1336,-11
20210711,205145,10490,184999,9656,0,0,0,0
20210712,205181,9802,185717,9662,36,-688,718,6
20210713,205214,9560,185991,9663,33,-242,274,1
20210714,205238,9192,186382,9664,24,-368,391,1
20210715,205267,8730,186872,9665,29,-462,490,1
20210716,205285,8406,187213,9666,18,-324,341,1
20210717,205285,8406,187213,9666,0,0,0,0
20210718,205285,8406,187213,9666,0,0,0,0
20210719,205313,7759,187885,9669,28,-647,672,3
20210720,205340,7652,188019,9669,27,-107,134,0
20210721,205345,7537,188137,9671,5,-115,118,2
20210722,205384,7381,188330,9673,39,-156,193,2
20210723,205420,7285,188460,9675,36,-96,130,2
20210724,205420,7285,188460,9675,0,0,0,0
20210725,205420,7285,188460,9675,0,0,0,0
20210726,205495,6983,188835,9677,75,-302,375,2
20210727,205523,6774,189063,9686,28,-209,228,9
20210728,205566,6621,189259,9686,43,-153,196,0
20210729,205610,6576,189348,9686,44,-45,89,0
20210730,205655,6599,189369,9687,45,23,21,1
20210731,205655,6599,189369,9687,0,0,0,0
20210801,205655,6599,189369,9687,0,0,0,0
20210802,205785,6419,189677,9689,130,-180,308,2
20210803,205825,6439,189697,9689,40,20,20,0
20210804,205949,6550,189710,9689,124,111,13,0
20210805,206031,0,0,9689,82,-6550,-189710,0
20210806,206106,0,0,9691,75,0,0,2
20210807,206106,0,0,9691,0,0,0,0
20210808,206106,0,0,9691,0,0,0,0
20210809,206317,0,0,9694,211,0,0,3
20210810,206476,0,0,9694,159,0,0,0
20210811,206655,0,0,9694,179,0,0,0
20210812,206835,0,0,9698,180,0,0,4
20210813,207076,0,0,9701,241,0,0,3
20210814,207076,0,0,9701,0,0,0,0
20210815,207076,0,0,9701,0,0,0,0
20210816,207571,0,0,9711,495,0,0,10
20210817,207847,0,0,9716,276,0,0,5
20210818,208267,0,0,9718,420,0,0,2
20210819,208644,0,0,9721,377,0,0,3
20210820,209073,0,0,9722,429,0,0,1
20210821,209073,0,0,9722,0,0,0,0
20210822,209073,0,0,9722,0,0,0,0
20210823,209909,0,0,9740,836,0,0,18
20210824,210442,0,0,9750,533,0,0,10
20210825,211059,0,0,9758,617,0,0,8
20210826,211689,0,0,9770,630,0,0,12
20210827,212306,0,0,9785,617,0,0,15
20210828,212306,0,0,9785,0,0,0,0
20210829,212306,0,0,9785,0,0,0,0
20210830,213379,0,0,9792,1073,0,0,7
20210831,213853,0,0,9803,474,0,0,11
20210901,214759,0,0,9815,906,0,0,12
20210902,215313,0,0,9847,554,0,0,32
20210903,216124,0,0,9862,811,0,0,15
20210904,216124,0,0,9862,0,0,0,0
