date,infected,active,recovered,dead,deltaInfected,deltaActive,deltaRecovered,deltaDead
20200317,2,2,0,0,2,2,0,0
20200318,2,2,0,0,0,0,0,0
20200319,5,5,0,0,3,3,0,0
20200320,5,5,0,0,0,0,0,0
20200321,6,6,0,0,1,1,0,0
20200322,14,14,0,0,8,8,0,0
20200323,17,17,0,0,3,3,0,0
20200324,18,18,0,0,1,1,0,0
20200325,18,18,0,0,0,0,0,0
20200326,18,18,0,0,0,0,0,0
20200327,24,24,0,0,6,6,0,0
20200328,26,26,0,0,2,2,0,0
20200329,33,33,0,0,7,7,0,0
20200330,33,33,0,0,0,0,0,0
20200331,34,34,0,0,1,1,0,0
20200401,34,34,0,0,0,0,0,0
20200402,46,46,0,0,12,12,0,0
20200403,51,51,0,0,5,5,0,0
20200404,52,52,0,0,1,1,0,0
20200405,56,49,6,1,4,-3,6,1
20200406,60,52,6,2,4,3,0,1
20200407,63,54,6,3,3,2,0,1
20200408,63,52,8,3,0,-2,2,0
20200409,66,52,11,3,3,0,3,0
20200410,67,52,11,4,1,0,0,1
20200411,68,53,11,4,1,1,0,0
20200412,71,56,11,4,3,3,0,0
20200413,72,55,13,4,1,-1,2,0
20200414,72,55,13,4,0,0,0,0
20200415,73,53,15,5,1,-2,2,1
20200416,75,55,15,5,2,2,0,0
20200417,75,55,15,5,0,0,0,0
20200418,75,53,17,5,0,-2,2,0
20200419,75,53,17,5,0,0,0,0
20200420,75,51,19,5,0,-2,2,0
20200421,75,45,25,5,0,-6,6,0
20200422,75,45,25,5,0,0,0,0
20200423,76,40,30,6,1,-5,5,1
20200424,77,40,31,6,1,0,1,0
20200425,79,42,31,6,2,2,0,0
20200426,79,34,39,6,0,-8,8,0
20200427,80,35,39,6,1,1,0,0
20200428,80,35,39,6,0,0,0,0
20200429,80,34,39,7,0,-1,0,1
20200430,81,35,39,7,1,1,0,0
20200501,81,35,39,7,0,0,0,0
20200502,81,30,44,7,0,-5,5,0
20200503,82,31,44,7,1,1,0,0
20200504,82,29,46,7,0,-2,2,0
20200505,82,28,47,7,0,-1,1,0
20200506,82,28,47,7,0,0,0,0
20200507,82,22,53,7,0,-6,6,0
20200508,83,23,53,7,1,1,0,0
20200509,84,20,57,7,1,-3,4,0
20200510,84,20,57,7,0,0,0,0
20200511,84,20,57,7,0,0,0,0
20200512,85,21,57,7,1,1,0,0
20200513,85,13,65,7,0,-8,8,0
20200514,85,13,65,7,0,0,0,0
20200515,85,13,65,7,0,0,0,0
20200516,86,12,67,7,1,-1,2,0
20200517,88,13,68,7,2,1,1,0
20200518,88,13,68,7,0,0,0,0
20200519,90,15,68,7,2,2,0,0
20200520,90,13,70,7,0,-2,2,0
20200521,90,13,70,7,0,0,0,0
20200522,90,13,70,7,0,0,0,0
20200523,92,15,70,7,2,2,0,0
20200524,92,15,70,7,0,0,0,0
20200525,92,14,71,7,0,-1,1,0
20200526,92,14,71,7,0,0,0,0
20200527,92,9,76,7,0,-5,5,0
20200528,92,9,76,7,0,0,0,0
20200529,92,9,76,7,0,0,0,0
20200530,92,9,76,7,0,0,0,0
20200531,92,9,76,7,0,0,0,0
20200601,92,9,76,7,0,0,0,0
20200602,92,9,76,7,0,0,0,0
20200603,92,4,81,7,0,-5,5,0
20200604,92,4,81,7,0,0,0,0
20200605,92,4,81,7,0,0,0,0
20200606,92,4,81,7,0,0,0,0
20200607,92,4,81,7,0,0,0,0
20200608,92,4,81,7,0,0,0,0
20200609,92,4,81,7,0,0,0,0
20200610,96,6,83,7,4,2,2,0
20200611,96,6,83,7,0,0,0,0
20200612,96,6,83,7,0,0,0,0
20200613,96,6,83,7,0,0,0,0
20200614,96,6,83,7,0,0,0,0
20200615,97,7,83,7,1,1,0,0
20200616,97,7,83,7,0,0,0,0
20200617,97,5,85,7,0,-2,2,0
20200618,97,5,85,7,0,0,0,0
20200619,97,5,85,7,0,0,0,0
20200620,97,5,85,7,0,0,0,0
20200621,97,5,85,7,0,0,0,0
20200622,97,5,85,7,0,0,0,0
20200623,97,5,85,7,0,0,0,0
20200624,97,5,85,7,0,0,0,0
20200625,97,5,85,7,0,0,0,0
20200626,97,0,90,7,0,-5,5,0
20200627,97,0,90,7,0,0,0,0
20200628,97,0,90,7,0,0,0,0
20200629,97,0,90,7,0,0,0,0
20200630,97,0,90,7,0,0,0,0
20200701,97,0,90,7,0,0,0,0
20200702,97,0,90,7,0,0,0,0
20200703,97,0,90,7,0,0,0,0
20200704,97,0,90,7,0,0,0,0
20200705,98,1,90,7,1,1,0,0
20200706,98,1,90,7,0,0,0,0
20200707,98,1,90,7,0,0,0,0
20200708,98,1,90,7,0,0,0,0
20200709,98,1,90,7,0,0,0,0
20200710,98,1,90,7,0,0,0,0
20200711,103,6,90,7,5,5,0,0
20200712,103,6,90,7,0,0,0,0
20200713,103,6,90,7,0,0,0,0
20200714,103,6,90,7,0,0,0,0
20200715,104,7,90,7,1,1,0,0
20200716,104,7,90,7,0,0,0,0
20200717,104,6,91,7,0,-1,1,0
20200718,104,6,91,7,0,0,0,0
20200719,105,7,91,7,1,1,0,0
20200720,106,8,91,7,1,1,0,0
20200721,106,8,91,7,0,0,0,0
20200722,106,5,94,7,0,-3,3,0
20200723,106,5,94,7,0,0,0,0
20200724,108,7,94,7,2,2,0,0
20200725,108,7,94,7,0,0,0,0
20200726,110,9,94,7,2,2,0,0
20200727,110,9,94,7,0,0,0,0
20200728,110,9,94,7,0,0,0,0
20200729,110,8,95,7,0,-1,1,0
20200730,110,7,96,7,0,-1,1,0
20200731,110,7,96,7,0,0,0,0
20200801,122,17,98,7,12,10,2,0
20200802,132,27,98,7,10,10,0,0
20200803,132,27,98,7,0,0,0,0
20200804,132,27,98,7,0,0,0,0
20200805,133,26,100,7,1,-1,2,0
20200806,133,26,100,7,0,0,0,0
20200807,138,31,100,7,5,5,0,0
20200808,138,23,108,7,0,-8,8,0
20200809,142,23,112,7,4,0,4,0
20200810,142,23,112,7,0,0,0,0
20200811,143,24,112,7,1,1,0,0
20200812,144,22,115,7,1,-2,3,0
20200813,144,19,118,7,0,-3,3,0
20200814,148,22,119,7,4,3,1,0
20200815,150,22,121,7,2,0,2,0
20200816,151,22,122,7,1,0,1,0
20200817,152,23,122,7,1,1,0,0
20200818,153,24,122,7,1,1,0,0
20200819,155,25,123,7,2,1,1,0
20200820,156,26,123,7,1,1,0,0
20200821,157,26,124,7,1,0,1,0
20200822,158,25,126,7,1,-1,2,0
20200823,161,22,132,7,3,-3,6,0
20200824,161,22,132,7,0,0,0,0
20200825,164,25,132,7,3,3,0,0
20200826,165,19,139,7,1,-6,7,0
20200827,165,18,140,7,0,-1,1,0
20200828,166,18,141,7,1,0,1,0
20200829,170,22,141,7,4,4,0,0
20200830,173,21,145,7,3,-1,4,0
20200831,174,21,146,7,1,0,1,0
20200901,176,23,146,7,2,2,0,0
20200902,176,20,149,7,0,-3,3,0
20200903,177,20,150,7,1,0,1,0
20200904,178,18,153,7,1,-2,3,0
20200905,178,17,154,7,0,-1,1,0
20200906,178,17,154,7,0,0,0,0
20200907,179,18,154,7,1,1,0,0
20200908,180,17,156,7,1,-1,2,0
20200909,180,17,156,7,0,0,0,0
20200910,180,16,157,7,0,-1,1,0
20200911,180,15,158,7,0,-1,1,0
20200912,180,15,158,7,0,0,0,0
20200913,181,10,164,7,1,-5,6,0
20200914,183,11,165,7,2,1,1,0
20200915,184,8,169,7,1,-3,4,0
20200916,185,7,171,7,1,-1,2,0
20200917,185,7,171,7,0,0,0,0
20200918,185,6,172,7,0,-1,1,0
20200919,185,6,172,7,0,0,0,0
20200920,189,9,173,7,4,3,1,0
20200921,189,9,173,7,0,0,0,0
20200922,189,9,173,7,0,0,0,0
20200923,189,8,174,7,0,-1,1,0
20200924,189,8,174,7,0,0,0,0
20200925,190,8,175,7,1,0,1,0
20200926,190,5,178,7,0,-3,3,0
20200927,190,5,178,7,0,0,0,0
20200928,190,5,178,7,0,0,0,0
20200929,190,5,178,7,0,0,0,0
20200930,190,4,179,7,0,-1,1,0
20201001,193,7,179,7,3,3,0,0
20201002,193,7,179,7,0,0,0,0
20201003,196,7,182,7,3,0,3,0
20201004,199,10,182,7,3,3,0,0
20201005,200,11,182,7,1,1,0,0
20201006,200,11,182,7,0,0,0,0
20201007,203,14,182,7,3,3,0,0
20201008,203,14,182,7,0,0,0,0
20201009,204,15,182,7,1,1,0,0
20201010,206,16,183,7,2,1,1,0
20201011,208,15,186,7,2,-1,3,0
20201012,208,15,186,7,0,0,0,0
20201013,210,16,187,7,2,1,1,0
20201014,215,16,192,7,5,0,5,0
20201015,218,16,195,7,3,0,3,0
20201016,219,17,195,7,1,1,0,0
20201017,219,17,195,7,0,0,0,0
20201018,221,14,200,7,2,-3,5,0
20201019,222,12,203,7,1,-2,3,0
20201020,222,11,204,7,0,-1,1,0
20201021,222,10,205,7,0,-1,1,0
20201022,224,10,207,7,2,0,2,0
20201023,226,12,207,7,2,2,0,0
20201024,227,12,208,7,1,0,1,0
20201025,227,12,208,7,0,0,0,0
20201026,233,16,210,7,6,4,2,0
20201027,233,9,217,7,0,-7,7,0
20201028,234,10,217,7,1,1,0,0
20201029,234,10,217,7,0,0,0,0
20201030,236,11,218,7,2,1,1,0
20201031,237,9,221,7,1,-2,3,0
20201101,237,9,221,7,0,0,0,0
20201102,238,9,222,7,1,0,1,0
20201103,238,9,222,7,0,0,0,0
20201104,239,8,224,7,1,-1,2,0
20201105,239,8,224,7,0,0,0,0
20201106,242,7,228,7,3,-1,4,0
20201107,242,7,228,7,0,0,0,0
20201108,242,7,228,7,0,0,0,0
20201109,243,5,231,7,1,-2,3,0
20201110,243,5,231,7,0,0,0,0
20201111,249,9,233,7,6,4,2,0
20201112,249,9,233,7,0,0,0,0
20201113,249,8,234,7,0,-1,1,0
20201114,249,8,234,7,0,0,0,0
20201115,250,5,238,7,1,-3,4,0
20201116,250,5,238,7,0,0,0,0
20201117,250,5,238,7,0,0,0,0
20201118,252,6,239,7,2,1,1,0
20201119,253,5,241,7,1,-1,2,0
20201120,253,5,241,7,0,0,0,0
20201121,255,7,241,7,2,2,0,0
20201122,259,11,241,7,4,4,0,0
20201123,260,12,241,7,1,1,0,0
20201124,262,13,242,7,2,1,1,0
20201125,263,13,243,7,1,0,1,0
20201126,266,13,246,7,3,0,3,0
20201127,270,14,249,7,4,1,3,0
20201128,270,14,249,7,0,0,0,0
20201129,275,18,250,7,5,4,1,0
20201130,276,19,250,7,1,1,0,0
20201201,278,16,255,7,2,-3,5,0
20201202,279,17,255,7,1,1,0,0
20201203,281,17,257,7,2,0,2,0
20201204,284,20,257,7,3,3,0,0
20201205,285,18,260,7,1,-2,3,0
20201206,285,18,260,7,0,0,0,0
20201207,287,20,260,7,2,2,0,0
20201208,289,19,263,7,2,-1,3,0
20201209,290,19,264,7,1,0,1,0
20201210,291,15,269,7,1,-4,5,0
20201211,292,16,269,7,1,1,0,0
20201212,292,16,269,7,0,0,0,0
20201213,292,16,269,7,0,0,0,0
20201214,296,17,272,7,4,1,3,0
20201215,297,17,273,7,1,0,1,0
20201216,301,20,274,7,4,3,1,0
20201217,305,20,278,7,4,0,4,0
20201218,307,20,280,7,2,0,2,0
20201219,307,20,280,7,0,0,0,0
20201220,307,20,280,7,0,0,0,0
20201221,321,33,281,7,14,13,1,0
20201222,327,36,284,7,6,3,3,0
20201223,329,32,290,7,2,-4,6,0
20201224,345,47,291,7,16,15,1,0
20201225,347,48,292,7,2,1,1,0
20201226,352,49,296,7,5,1,4,0
20201227,356,48,301,7,4,-1,5,0
20201228,365,53,305,7,9,5,4,0
20201229,371,57,307,7,6,4,2,0
20201230,372,53,312,7,1,-4,5,0
20201231,383,57,319,7,11,4,7,0
20210101,395,69,319,7,12,12,0,0
20210102,395,69,319,7,0,0,0,0
20210103,556,230,319,7,161,161,0,0
20210104,606,275,324,7,50,45,5,0
20210105,643,312,324,7,37,37,0,0
20210106,743,409,327,7,100,97,3,0
20210107,743,409,327,7,0,0,0,0
20210108,780,438,335,7,37,29,8,0
20210109,808,428,373,7,28,-10,38,0
20210110,878,482,389,7,70,54,16,0
20210111,884,478,399,7,6,-4,10,0
20210112,968,553,408,7,84,75,9,0
20210113,1007,535,465,7,39,-18,57,0
20210114,1036,536,493,7,29,1,28,0
20210115,1036,536,493,7,0,0,0,0
20210116,1095,595,493,7,59,59,0,0
20210117,1095,595,493,7,0,0,0,0
20210118,1095,595,493,7,0,0,0,0
20210119,1095,595,493,7,0,0,0,0
20210120,1156,654,493,9,61,59,0,2
20210121,1156,654,493,9,0,0,0,0
20210122,1156,654,493,9,0,0,0,0
20210123,1341,710,622,9,185,56,129,0
20210124,1387,744,634,9,46,34,12,0
20210125,1401,742,649,10,14,-2,15,1
20210126,1401,360,649,10,0,-382,0,0
20210127,1443,353,1079,11,42,-7,430,1
20210128,1477,368,1098,11,34,15,19,0
20210129,1498,363,1123,12,21,-5,25,1
20210130,1523,372,1139,12,25,9,16,0
20210131,1545,373,1158,14,22,1,19,2
20210201,1558,375,1169,14,13,2,11,0
20210202,1586,366,1206,14,28,-9,37,0
20210203,1611,359,1238,14,25,-7,32,0
20210204,1641,352,1274,15,30,-7,36,1
20210205,1656,350,1289,17,15,-2,15,2
20210206,1676,309,1349,18,20,-41,60,1
20210207,1709,291,1400,18,33,-18,51,0
20210208,1732,287,1427,18,23,-4,27,0
20210209,1814,324,1470,20,82,37,43,2
20210210,1857,333,1504,20,43,9,34,0
20210211,1904,337,1547,20,47,4,43,0
20210212,1947,339,1587,21,43,2,40,1
20210213,2061,422,1616,23,114,83,29,2
20210214,2061,422,1616,23,0,0,0,0
20210215,2268,605,1639,24,207,183,23,1
20210216,2331,646,1660,25,63,41,21,1
20210217,2457,731,1698,28,126,85,38,3
20210218,2647,811,1807,29,190,80,109,1
20210219,2677,789,1858,30,30,-22,51,1
20210220,2715,770,1914,31,38,-19,56,1
20210221,2772,771,1970,31,57,1,56,0
20210222,2791,725,2035,31,19,-46,65,0
20210223,2852,758,2063,31,61,33,28,0
20210224,2907,783,2092,32,55,25,29,1
20210225,2949,746,2171,32,42,-37,79,0
20210226,2994,691,2270,33,45,-55,99,1
20210227,3038,661,2344,33,44,-30,74,0
20210228,3068,628,2407,33,30,-33,63,0
20210301,3115,636,2443,36,47,8,36,3
20210302,3140,552,2552,36,25,-84,109,0
20210303,3163,520,2606,37,23,-32,54,1
20210304,3186,498,2651,37,23,-22,45,0
20210305,3217,490,2690,37,31,-8,39,0
20210306,3264,473,2754,37,47,-17,64,0
20210307,3285,433,2815,37,21,-40,61,0
20210308,3303,419,2847,37,18,-14,32,0
20210309,3333,381,2915,37,30,-38,68,0
20210310,3353,314,3002,37,20,-67,87,0
20210311,3372,275,3060,37,19,-39,58,0
20210312,3391,248,3106,37,19,-27,46,0
20210313,3404,220,3147,37,13,-28,41,0
20210314,3421,210,3174,37,17,-10,27,0
20210315,3442,189,3215,38,21,-21,41,1
20210316,3458,165,3254,39,16,-24,39,1
20210317,3471,147,3285,39,13,-18,31,0
20210318,3492,168,3285,39,21,21,0,0
20210319,3512,188,3285,39,20,20,0,0
20210320,3533,192,3302,39,21,4,17,0
20210321,3551,182,3330,39,18,-10,28,0
20210322,3559,161,3358,40,8,-21,28,1
20210323,3574,144,3390,40,15,-17,32,0
20210324,3582,141,3401,40,8,-3,11,0
20210325,3593,149,3404,40,11,8,3,0
20210326,3603,143,3419,41,10,-6,15,1
20210327,3609,146,3422,41,6,3,3,0
20210328,3629,152,3436,41,20,6,14,0
20210329,3634,149,3444,41,5,-3,8,0
20210330,3642,143,3457,42,8,-6,13,1
20210331,3652,145,3465,42,10,2,8,0
20210401,3659,111,3506,42,7,-34,41,0
20210402,3665,105,3518,42,6,-6,12,0
20210403,3668,99,3526,43,3,-6,8,1
20210404,3668,99,3526,43,0,0,0,0
20210405,3679,102,3534,43,11,3,8,0
20210406,3691,91,3557,43,12,-11,23,0
20210407,3691,91,3557,43,0,0,0,0
20210408,3704,84,3576,44,13,-7,19,1
20210409,3708,85,3579,44,4,1,3,0
20210410,3719,88,3587,44,11,3,8,0
20210411,3730,79,3607,44,11,-9,20,0
20210412,3734,77,3613,44,4,-2,6,0
20210413,3740,73,3623,44,6,-4,10,0
20210414,3744,66,3634,44,4,-7,11,0
20210415,3753,71,3638,44,9,5,4,0
20210416,3765,73,3648,44,12,2,10,0
20210417,3773,73,3656,44,8,0,8,0
20210418,3781,72,3665,44,8,-1,9,0
20210419,3784,59,3681,44,3,-13,16,0
20210420,3793,57,3692,44,9,-2,11,0
20210421,3797,49,3704,44,4,-8,12,0
20210422,3806,46,3716,44,9,-3,12,0
20210423,3820,58,3718,44,14,12,2,0
20210424,3820,58,3718,44,0,0,0,0
20210425,3824,54,3726,44,4,-4,8,0
20210426,3825,46,3735,44,1,-8,9,0
20210427,3828,38,3746,44,3,-8,11,0
20210428,3831,37,3750,44,3,-1,4,0
20210429,3838,35,3759,44,7,-2,9,0
20210430,3855,43,3768,44,17,8,9,0
20210501,3863,36,3783,44,8,-7,15,0
20210502,3866,22,3800,44,3,-14,17,0
20210503,3881,33,3804,44,15,11,4,0
20210504,3884,22,3817,45,3,-11,13,1
20210505,3915,49,3821,45,31,27,4,0
20210506,3929,53,3831,45,14,4,10,0
20210507,3931,39,3847,45,2,-14,16,0
20210508,3933,36,3852,45,2,-3,5,0
20210509,3942,41,3856,45,9,5,4,0
20210510,3946,40,3861,45,4,-1,5,0
20210511,3950,35,3870,45,4,-5,9,0
20210512,3957,32,3879,46,7,-3,9,1
20210513,3959,5,3908,46,2,-27,29,0
20210514,3961,15,3900,46,2,10,-8,0
20210515,3965,2,3917,46,4,-13,17,0
20210516,3967,0,3922,46,2,-2,5,0
20210517,3968,0,3922,46,1,0,0,0
20210518,3972,3,3922,47,4,3,0,1
20210519,3975,6,3922,47,3,3,0,0
20210520,3975,6,3922,47,0,0,0,0
20210521,3985,16,3922,47,10,10,0,0
20210522,3991,22,3922,47,6,6,0,0
20210523,3995,26,3922,47,4,4,0,0
20210524,3995,26,3922,47,0,0,0,0
20210525,4000,31,3922,47,5,5,0,0
20210526,4004,35,3922,47,4,4,0,0
20210527,4006,37,3922,47,2,2,0,0
20210528,4009,40,3922,47,3,3,0,0
20210529,4012,43,3922,47,3,3,0,0
20210530,4017,48,3922,47,5,5,0,0
20210531,4017,48,3922,47,0,0,0,0
20210601,4017,48,3922,47,0,0,0,0
20210602,4023,54,3922,47,6,6,0,0
20210603,4026,57,3922,47,3,3,0,0
20210604,4029,60,3922,47,3,3,0,0
20210605,4030,61,3922,47,1,1,0,0
20210606,4031,62,3922,47,1,1,0,0
20210607,4032,63,3922,47,1,1,0,0
20210608,4032,63,3922,47,0,0,0,0
20210609,4032,22,3963,47,0,-41,41,0
20210610,4033,21,3965,47,1,-1,2,0
20210611,4033,18,3968,47,0,-3,3,0
20210612,4036,18,3971,47,3,0,3,0
20210613,4036,18,3971,47,0,0,0,0
20210614,4037,19,3971,47,1,1,0,0
20210615,4038,20,3971,47,1,1,0,0
20210616,4038,20,3971,47,0,0,0,0
20210617,4039,12,3980,47,1,-8,9,0
20210618,4040,13,3980,47,1,1,0,0
20210619,4041,8,3986,47,1,-5,6,0
20210620,4043,10,3986,47,2,2,0,0
20210621,4045,10,3988,47,2,0,2,0
20210622,4045,10,3988,47,0,0,0,0
20210623,4052,13,3992,47,7,3,4,0
20210624,4057,18,3992,47,5,5,0,0
20210625,4066,27,3992,47,9,9,0,0
20210626,4074,29,3998,47,8,2,6,0
20210627,4075,30,3998,47,1,1,0,0
20210628,4077,32,3998,47,2,2,0,0
20210629,4079,33,3999,47,2,1,1,0
20210630,4081,35,3999,47,2,2,0,0
20210701,4082,36,3999,47,1,1,0,0
20210702,4082,36,3999,47,0,0,0,0
20210703,4082,36,3999,47,0,0,0,0
20210704,4086,31,4008,47,4,-5,9,0
20210705,4086,31,4008,47,0,0,0,0
20210706,4096,41,4008,47,10,10,0,0
20210707,4108,33,4028,47,12,-8,20,0
20210708,4119,40,4032,47,11,7,4,0
20210709,4128,44,4036,48,9,4,4,1
20210710,4136,52,4036,48,8,8,0,0
20210711,4176,92,4036,48,40,40,0,0
20210712,4186,64,4074,48,10,-28,38,0
20210713,4196,74,4074,48,10,10,0,0
20210714,4213,91,4074,48,17,17,0,0
20210715,4230,26,4156,48,17,-65,82,0
20210716,4241,37,4156,48,11,11,0,0
20210717,4251,47,4156,48,10,10,0,0
20210718,4258,152,4058,48,7,105,-98,0
20210719,4269,163,4058,48,11,11,0,0
20210720,4292,186,4058,48,23,23,0,0
20210721,4302,196,4058,48,10,10,0,0
20210722,4319,173,4098,48,17,-23,40,0
20210723,4330,184,4098,48,11,11,0,0
20210724,4339,193,4098,48,9,9,0,0
20210725,4345,199,4098,48,6,6,0,0
20210726,4353,169,4136,48,8,-30,38,0
20210727,4359,165,4146,48,6,-4,10,0
20210728,4364,158,4158,48,5,-7,12,0
20210729,4365,150,4167,48,1,-8,9,0
20210730,4379,133,4198,48,14,-17,31,0
20210731,4390,113,4229,48,11,-20,31,0
20210801,4407,130,4229,48,17,17,0,0
20210802,4417,118,4251,48,10,-12,22,0
20210803,4422,123,4251,48,5,5,0,0
20210804,4433,134,4251,48,11,11,0,0
20210805,4443,0,0,48,10,-134,-4251,0
20210806,4455,0,0,48,12,0,0,0
20210807,4455,0,0,48,0,0,0,0
20210808,4471,0,0,48,16,0,0,0
20210809,4480,0,0,48,9,0,0,0
20210810,4485,0,0,48,5,0,0,0
20210811,4496,0,0,48,11,0,0,0
20210812,4509,0,0,48,13,0,0,0
20210813,4515,0,0,48,6,0,0,0
20210814,4525,0,0,48,10,0,0,0
20210815,4525,0,0,48,0,0,0,0
20210816,4548,0,0,48,23,0,0,0
20210817,4581,0,0,48,33,0,0,0
20210818,4594,0,0,48,13,0,0,0
20210819,4609,0,0,48,15,0,0,0
20210820,4628,0,0,48,19,0,0,0
20210821,4628,0,0,48,0,0,0,0
20210822,4640,0,0,48,12,0,0,0
20210823,4652,0,0,48,12,0,0,0
20210824,4694,0,0,48,42,0,0,0
20210825,4720,0,0,48,26,0,0,0
20210826,4741,0,0,48,21,0,0,0
20210827,4789,0,0,48,48,0,0,0
20210828,4881,0,0,48,92,0,0,0
20210829,4931,0,0,49,50,0,0,1
20210830,4931,0,0,49,0,0,0,0
20210831,5032,0,0,50,101,0,0,1
20210901,5072,0,0,51,40,0,0,1
20210902,5152,0,0,51,80,0,0,0
20210903,5183,0,0,51,31,0,0,0
20210904,5248,0,0,51,65,0,0,0
