date,infected,active,recovered,dead,deltaInfected,deltaActive,deltaRecovered,deltaDead
20200204,1,1,0,0,1,1,0,0
20200205,1,1,0,0,0,0,0,0
20200206,1,1,0,0,0,0,0,0
20200207,1,1,0,0,0,0,0,0
20200208,1,1,0,0,0,0,0,0
20200209,1,1,0,0,0,0,0,0
20200210,1,1,0,0,0,0,0,0
20200211,1,1,0,0,0,0,0,0
20200212,1,1,0,0,0,0,0,0
20200213,1,1,0,0,0,0,0,0
20200214,1,1,0,0,0,0,0,0
20200215,1,1,0,0,0,0,0,0
20200216,1,1,0,0,0,0,0,0
20200217,1,0,1,0,0,-1,1,0
20200218,1,0,1,0,0,0,0,0
20200219,1,0,1,0,0,0,0,0
20200220,1,0,1,0,0,0,0,0
20200221,1,0,1,0,0,0,0,0
20200222,1,0,1,0,0,0,0,0
20200223,1,0,1,0,0,0,0,0
20200224,1,0,1,0,0,0,0,0
20200225,1,0,1,0,0,0,0,0
20200226,1,0,1,0,0,0,0,0
20200227,1,0,1,0,0,0,0,0
20200228,1,0,1,0,0,0,0,0
20200229,1,0,1,0,0,0,0,0
20200301,2,1,1,0,1,1,0,0
20200302,8,7,1,0,6,6,0,0
20200303,13,12,1,0,5,5,0,0
20200304,23,22,1,0,10,10,0,0
20200305,50,49,1,0,27,27,0,0
20200306,109,108,1,0,59,59,0,0
20200307,169,168,1,0,60,60,0,0
20200308,200,199,1,0,31,31,0,0
20200309,239,238,1,0,39,39,0,0
20200310,267,266,1,0,28,28,0,0
20200311,314,310,1,3,47,44,0,3
20200312,314,310,1,3,0,0,0,0
20200313,559,555,1,3,245,245,0,0
20200314,689,684,1,4,130,129,0,1
20200315,886,881,1,4,197,197,0,0
20200316,1058,1052,1,5,172,171,0,1
20200317,1243,1232,1,10,185,180,0,5
20200318,1486,1441,31,14,243,209,30,4
20200319,1795,1743,31,21,309,302,0,7
20200320,2257,2219,1,37,462,476,-30,16
20200321,2815,2485,263,67,558,266,262,30
20200322,3401,3063,263,75,586,578,0,8
20200323,3743,3254,401,88,342,191,138,13
20200324,4269,3686,461,122,526,432,60,34
20200325,4937,4212,547,178,668,526,86,56
20200326,6235,5340,675,220,1298,1128,128,42
20200327,7284,6137,858,289,1049,797,183,69
20200328,9134,7718,1063,353,1850,1581,205,64
20200329,10836,9046,1359,431,1702,1328,296,78
20200330,11899,9859,1527,513,1063,813,168,82
20200331,12775,10374,1696,705,876,515,169,192
20200401,13964,11004,2132,828,1189,630,436,123
20200402,15348,11842,2495,1011,1384,838,363,183
20200403,16770,12755,2872,1143,1422,913,377,132
20200404,18431,13901,3247,1283,1661,1146,375,140
20200405,19691,14493,3751,1447,1260,592,504,164
20200406,20814,15196,3986,1632,1123,703,235,185
20200407,22194,16002,4157,2035,1380,806,171,403
20200408,23403,16482,4681,2240,1209,480,524,205
20200409,24983,17296,5164,2523,1580,814,483,283
20200410,26667,18080,5568,3019,1684,784,404,496
20200411,28018,18686,5986,3346,1351,606,418,327
20200412,29647,19584,6463,3600,1629,898,477,254
20200413,30589,19979,6707,3903,942,395,244,303
20200414,31119,20094,6868,4157,530,115,161,254
20200415,33573,22026,7107,4440,2454,1932,239,283
20200416,34809,22390,7562,4857,1236,364,455,417
20200417,36138,23014,7961,5163,1329,624,399,306
20200418,37183,23382,8348,5453,1045,368,387,290
20200419,38496,24056,8757,5683,1313,674,409,230
20200420,39983,25260,8895,5828,1487,1204,138,145
20200421,40956,25956,9002,5998,973,696,107,170
20200422,41889,26194,9433,6262,933,238,431,264
20200423,42797,26507,9800,6490,908,313,367,228
20200424,44293,27492,10122,6679,1496,985,322,189
20200425,45325,27991,10417,6917,1032,499,295,238
20200426,46134,28255,10785,7094,809,264,368,177
20200427,46687,28602,10878,7207,553,347,93,113
20200428,47334,29060,10943,7331,647,458,65,124
20200429,47859,29075,11283,7501,525,15,340,170
20200430,48519,29349,11576,7594,660,274,293,93
20200501,49032,29437,11892,7703,513,88,316,109
20200502,49517,29541,12211,7765,485,104,319,62
20200503,49906,29753,12309,7844,389,212,98,79
20200504,50267,29965,12378,7924,361,212,69,80
20200505,50509,30052,12441,8016,242,87,63,92
20200506,50781,29711,12731,8339,272,-341,290,323
20200507,51420,30025,12980,8415,639,314,249,76
20200508,52011,30289,13201,8521,591,264,221,106
20200509,52596,30604,13411,8581,585,315,210,60
20200510,53081,30783,13642,8656,485,179,231,75
20200511,53449,31045,13697,8707,368,262,55,51
20200512,53779,31286,13732,8761,330,241,35,54
20200513,53981,31201,13937,8843,202,-85,205,82
20200514,54288,31274,14111,8903,307,73,174,60
20200515,54644,31384,14301,8959,356,110,190,56
20200516,54989,31524,14460,9005,345,140,159,46
20200517,55280,31598,14630,9052,291,74,170,47
20200518,55559,31822,14657,9080,279,224,27,28
20200519,55791,31996,14687,9108,232,174,30,28
20200520,55983,31986,14847,9150,192,-10,160,42
20200521,56235,32061,14988,9186,252,75,141,36
20200522,56511,32176,15123,9212,276,115,135,26
20200523,56810,32418,15155,9237,299,242,32,25
20200524,57092,32540,15272,9280,282,122,117,43
20200525,57342,32733,15297,9312,250,193,25,32
20200526,57455,32801,15320,9334,113,68,23,22
20200527,57592,32763,15465,9364,137,-38,145,30
20200528,57849,32889,15572,9388,257,126,107,24
20200529,58061,32949,15682,9430,212,60,110,42
20200530,58186,32964,15769,9453,125,15,87,23
20200531,58381,33027,15887,9467,195,63,118,14
20200601,58517,33112,15919,9486,136,85,32,19
20200602,58615,33176,15934,9505,98,64,15,19
20200603,58685,33204,15959,9522,70,28,25,17
20200604,58767,33171,16048,9548,82,-33,89,26
20200605,58907,33229,16112,9566,140,58,64,18
20200606,59072,33302,16190,9580,165,73,78,14
20200607,59226,33340,16291,9595,154,38,101,15
20200608,59348,33427,16315,9606,122,87,24,11
20200609,59437,33494,16324,9619,89,67,9,13
20200610,59569,33548,16392,9629,132,54,68,10
20200611,59711,33622,16453,9636,142,74,61,7
20200612,59819,33675,16498,9646,108,53,45,10
20200613,59918,33721,16547,9650,99,46,49,4
20200614,60029,33785,16589,9655,111,64,42,5
20200615,60100,33829,16610,9661,71,44,21,6
20200616,60155,33867,16625,9663,55,38,15,2
20200617,60244,33885,16684,9675,89,18,59,12
20200618,60348,33941,16724,9683,104,56,40,8
20200619,60476,34030,16751,9695,128,89,27,12
20200620,60550,34083,16771,9696,74,53,20,1
20200621,60550,34083,16771,9696,0,0,0,0
20200622,60550,34083,16771,9696,0,0,0,0
20200623,60810,34326,16771,9713,260,243,0,17
20200624,60898,34405,16771,9722,88,79,0,9
20200625,61007,34391,16890,9726,109,-14,119,4
20200626,61106,34457,16918,9731,99,66,28,5
20200627,61209,34536,16941,9732,103,79,23,1
20200628,61295,34622,16941,9732,86,86,0,0
20200629,61361,34688,16941,9732,66,66,0,0
20200630,61427,34696,16984,9747,66,8,43,15
20200701,61509,34734,17021,9754,82,38,37,7
20200702,61598,34793,17044,9761,89,59,23,7
20200703,61727,34889,17073,9765,129,96,29,4
20200704,61838,34976,17091,9771,111,87,18,6
20200705,62016,35154,17091,9771,178,178,0,0
20200706,62058,35193,17091,9774,42,39,0,3
20200707,62058,35162,17122,9774,0,-31,31,0
20200708,62123,35209,17138,9776,65,47,16,2
20200709,62210,35273,17159,9778,87,64,21,2
20200710,62357,35397,17179,9781,147,124,20,3
20200711,62469,35491,17196,9782,112,94,17,1
20200712,62707,35729,17196,9782,238,238,0,0
20200713,62707,35729,17196,9782,0,0,0,0
20200714,62781,35771,17223,9787,74,42,27,5
20200715,62872,35842,17242,9788,91,71,19,1
20200716,63238,36190,17253,9795,366,348,11,7
20200717,63499,36410,17289,9800,261,220,36,5
20200718,63706,36617,17289,9800,207,207,0,0
20200719,63706,36617,17289,9800,0,0,0,0
20200720,64094,36968,17321,9805,388,351,32,5
20200721,64258,37123,17330,9805,164,155,9,0
20200722,64627,37472,17347,9808,369,349,17,3
20200723,64847,37666,17369,9812,220,194,22,4
20200724,65199,37988,17394,9817,352,322,25,5
20200725,65727,38481,17425,9821,528,493,31,4
20200726,66026,38767,17438,9821,299,286,13,0
20200727,66428,39154,17452,9822,402,387,14,1
20200728,66662,39353,17476,9833,234,199,24,11
20200729,67335,40008,17491,9836,673,655,15,3
20200730,68006,40653,17513,9840,671,645,22,4
20200731,68751,41364,17546,9841,745,711,33,1
20200801,69402,41984,17573,9845,651,620,27,4
20200802,69849,42414,17590,9845,447,430,17,0
20200803,70314,42866,17598,9850,465,452,8,5
20200804,70648,43157,17639,9852,334,291,41,2
20200805,71158,43638,17661,9859,510,481,22,7
20200806,72016,44455,17700,9861,858,817,39,2
20200807,72784,45190,17728,9866,768,735,28,5
20200808,73401,45765,17766,9870,617,575,38,4
20200809,74152,46500,17780,9872,751,735,14,2
20200810,74620,46949,17792,9879,468,449,12,7
20200811,75008,47282,17841,9885,388,333,49,6
20200812,75647,47864,17883,9900,639,582,42,15
20200813,76191,48362,17913,9916,544,498,30,16
20200814,77113,49248,17941,9924,922,886,28,8
20200815,77869,49953,17981,9935,756,705,40,11
20200816,78323,50390,17994,9939,454,437,13,4
20200817,78534,50587,18003,9944,211,197,9,5
20200818,78897,50890,18048,9959,363,303,45,15
20200819,79479,51432,18078,9969,582,542,30,10
20200820,80178,52071,18131,9976,699,639,53,7
20200821,80894,52744,18165,9985,716,673,34,9
20200822,81468,53276,18204,9988,574,532,39,3
20200823,81936,53719,18225,9992,468,443,21,4
20200824,82092,53854,18242,9996,156,135,17,4
20200825,82447,54160,18291,9996,355,306,49,0
20200826,83030,54820,18331,9879,583,660,40,-117
20200827,83500,55256,18360,9884,470,436,29,5
20200828,83952,55706,18360,9886,452,450,0,2
20200829,84599,56305,18403,9891,647,599,43,5
20200830,85042,56733,18415,9894,443,428,12,3
20200831,85236,56919,18422,9895,194,186,7,1
20200901,85487,57133,18457,9897,251,214,35,2
20200902,85911,57523,18490,9898,424,390,33,1
20200903,86544,58132,18513,9899,633,609,23,1
20200904,87174,58739,18534,9901,630,607,21,2
20200905,87825,59364,18555,9906,651,625,21,5
20200906,88367,59895,18565,9907,542,531,10,1
20200907,88769,60284,18576,9909,402,389,11,2
20200908,89141,60627,18602,9912,372,343,26,3
20200909,89691,61139,18635,9917,550,512,33,5
20200910,90568,61992,18659,9917,877,853,24,0
20200911,91537,62929,18689,9919,969,937,30,2
20200912,92478,63846,18709,9923,941,917,20,4
20200913,93455,64807,18723,9925,977,961,14,2
20200914,94306,65642,18737,9927,851,835,14,2
20200915,94795,66076,18789,9930,489,434,52,3
20200916,95948,67203,18810,9935,1153,1127,21,5
20200917,97976,69186,18854,9936,2028,1983,44,1
20200918,99649,70804,18908,9937,1673,1618,54,1
20200919,100748,71859,18945,9944,1099,1055,37,7
20200920,102295,73382,18965,9948,1547,1523,20,4
20200921,103392,74465,18977,9950,1097,1083,12,2
20200922,105226,76232,19039,9955,1834,1767,62,5
20200923,106887,77849,19079,9959,1661,1617,40,4
20200924,108768,79680,19123,9965,1881,1831,44,6
20200925,110976,81823,19184,9969,2208,2143,61,4
20200926,112803,83583,19246,9974,1827,1760,62,5
20200927,114179,84924,19275,9980,1376,1341,29,6
20200928,115353,86065,19301,9987,1174,1141,26,7
20200929,117115,87728,19386,10001,1762,1663,85,14
20200930,118452,88982,19454,10016,1337,1254,68,15
20201001,121059,91515,19521,10023,2607,2533,67,7
20201002,124234,94676,19521,10037,3175,3161,0,14
20201003,127623,97934,19645,10044,3389,3258,124,7
20201004,130235,100492,19679,10064,2612,2558,34,20
20201005,132203,102413,19712,10078,1968,1921,33,14
20201006,134291,104387,19812,10092,2088,1974,100,14
20201007,137868,107865,19895,10108,3577,3478,83,16
20201008,143596,113489,19981,10126,5728,5624,86,18
20201009,148981,118758,20072,10151,5385,5269,91,25
20201010,156931,126554,20202,10175,7950,7796,130,24
20201011,162258,131795,20272,10191,5327,5241,70,16
20201012,165880,135345,20324,10211,3622,3550,52,20
20201013,173240,142544,20452,10244,7360,7199,128,33
20201014,181511,150646,20587,10278,8271,8102,135,34
20201015,191959,160912,20720,10327,10448,10266,133,49
20201016,202151,170925,20867,10359,10192,10013,147,32
20201017,213115,181649,21074,10392,10964,10724,207,33
20201018,222253,190683,21157,10413,9138,9034,83,21
20201019,230480,198823,21214,10443,8227,8140,57,30
20201020,240159,208194,21476,10489,9679,9371,262,46
20201021,253386,221130,21717,10539,13227,12936,241,50
20201022,270132,237331,22213,10588,16746,16201,496,49
20201023,287700,254525,22517,10658,17568,17194,304,70
20201024,305409,271794,22878,10737,17709,17269,361,79
20201025,321031,287134,23087,10810,15622,15340,209,73
20201026,333718,299732,23087,10899,12687,12598,0,89
20201027,347289,313216,23035,11038,13571,13484,-52,139
20201028,368337,333198,23969,11170,21048,19982,934,132
20201029,392258,356507,24443,11308,23921,23309,474,138
20201030,412314,375956,24906,11452,20056,19449,463,144
20201031,429229,392035,25569,11625,16915,16079,663,173
20201101,441018,403462,25819,11737,11789,11427,250,112
20201102,447355,409498,25999,11858,6337,6036,180,121
20201103,452541,413754,26661,12126,5186,4256,662,268
20201104,468213,428548,27334,12331,15672,14794,673,205
20201105,479341,438834,27987,12520,11128,10286,653,189
20201106,488044,446723,28613,12708,8703,7889,626,188
20201107,494168,451904,29357,12907,6124,5181,744,199
20201108,500789,458083,29651,13055,6621,6179,294,148
20201109,503182,460170,29796,13216,2393,2087,145,161
20201110,507475,463410,30504,13561,4293,3240,708,345
20201111,515391,470503,31130,13758,7916,7093,626,197
20201112,520393,511798,0,13891,5002,41295,-31130,133
20201113,525012,510906,0,14106,4619,-892,0,215
20201114,531280,516977,0,14303,6268,6071,0,197
20201115,535939,521518,0,14421,4659,4541,0,118
20201116,537871,523255,0,14616,1932,1737,0,195
20201117,540605,525766,0,14839,2734,2511,0,223
20201118,545787,530762,0,15025,5182,4996,0,186
20201119,550264,535068,0,15196,4477,4306,0,171
20201120,553680,538328,0,15352,3416,3260,0,156
20201121,556904,541382,0,15522,3224,3054,0,170
20201122,558779,543161,0,15618,1875,1779,0,96
20201123,559902,544147,0,15755,1123,986,0,137
20201124,561803,545865,0,15938,1901,1718,0,183
20201125,564967,548890,0,16077,3164,3025,0,139
20201126,567532,551313,0,16219,2565,2423,0,142
20201127,570829,554490,0,16339,3297,3177,0,120
20201128,574448,557987,0,16461,3619,3497,0,122
20201129,576599,560052,0,16547,2151,2065,0,86
20201130,577345,560700,0,16645,746,648,0,98
20201201,579212,562426,0,16786,1867,1726,0,141
20201202,582252,565341,0,16911,3040,2915,0,125
20201203,584857,567824,0,17033,2605,2483,0,122
20201204,587439,570297,0,17142,2582,2473,0,109
20201205,589942,572688,0,17254,2503,2391,0,112
20201206,591756,574436,0,17320,1814,1748,0,66
20201207,592615,575229,0,17386,859,793,0,66
20201208,594572,577065,0,17507,1957,1836,0,121
20201209,597643,580040,0,17603,3071,2975,0,96
20201210,600397,582705,0,17692,2754,2665,0,89
20201211,600397,582705,0,17692,0,0,0,0
20201212,603159,585367,0,17792,2762,2662,0,100
20201213,608137,590186,0,17951,4978,4819,0,159
20201214,609211,591157,0,18054,1074,971,0,103
20201215,611422,593244,0,18178,2211,2087,0,124
20201216,615058,596780,0,18278,3636,3536,0,100
20201217,618204,599833,0,18371,3146,3053,0,93
20201218,621039,602584,0,18455,2835,2751,0,84
20201219,623760,605215,0,18545,2721,2631,0,90
20201220,625930,607304,0,18626,2170,2089,0,81
20201221,626911,608214,0,18697,981,910,0,71
20201222,629109,610288,0,18821,2198,2074,0,124
20201223,632321,613382,0,18939,3212,3094,0,118
20201224,634904,615866,0,19038,2583,2484,0,99
20201225,637246,618157,0,19089,2342,2291,0,51
20201226,638030,618872,0,19158,784,715,0,69
20201227,638877,619677,0,19200,847,805,0,42
20201228,639734,620500,0,19234,857,823,0,34
20201229,641411,622050,0,19361,1677,1550,0,127
20201230,644242,624801,0,19441,2831,2751,0,80
20201231,646496,626968,0,19528,2254,2167,0,87
20210101,648289,628708,0,19581,1793,1740,0,53
20210102,649169,629525,0,19644,880,817,0,63
20210103,650011,630310,0,19701,842,785,0,57
20210104,650887,631137,0,19750,876,827,0,49
20210105,652735,632908,0,19827,1848,1771,0,77
20210106,655732,635849,0,19883,2997,2941,0,56
20210107,658655,638719,0,19936,2923,2870,0,53
20210108,660703,640711,0,19992,2048,1992,0,56
20210109,662694,642656,0,20038,1991,1945,0,46
20210110,664263,644185,0,20078,1569,1529,0,40
20210111,665223,645101,0,20122,960,916,0,44
20210112,667322,647128,0,20194,2099,2027,0,72
20210113,670249,649999,0,20250,2927,2871,0,56
20210114,672886,652592,0,20294,2637,2593,0,44
20210115,675089,654737,0,20352,2203,2145,0,58
20210116,677209,656813,0,20396,2120,2076,0,44
20210117,678839,658404,0,20435,1630,1591,0,39
20210118,679771,659299,0,20472,932,895,0,37
20210119,681250,660696,0,20554,1479,1397,0,82
20210120,684256,663684,0,20572,3006,2988,0,18
20210121,686827,666207,0,20620,2571,2523,0,48
20210122,689271,668596,0,20675,2444,2389,0,55
20210123,691854,671128,0,20726,2583,2532,0,51
20210124,693666,672887,0,20779,1812,1759,0,53
20210125,694858,674044,0,20814,1192,1157,0,35
20210126,696642,675763,0,20879,1784,1719,0,65
20210127,699662,678729,0,20933,3020,2966,0,54
20210128,702437,681455,0,20982,2775,2726,0,49
20210129,705120,684102,0,21018,2683,2647,0,36
20210130,707837,686771,0,21066,2717,2669,0,48
20210131,710153,689061,0,21092,2316,2290,0,26
20210201,711417,690293,0,21124,1264,1232,0,32
20210202,713271,692098,0,21173,1854,1805,0,49
20210203,716395,695179,0,21216,3124,3081,0,43
20210204,718847,697587,0,21260,2452,2408,0,44
20210205,721432,700137,0,21295,2585,2550,0,35
20210206,723870,702518,0,21352,2438,2381,0,57
20210207,725610,704221,0,21389,1740,1703,0,37
20210208,726483,705060,0,21423,873,839,0,34
20210209,728334,706862,0,21472,1851,1802,0,49
20210210,730951,709439,0,21512,2617,2577,0,40
20210211,733100,711549,0,21551,2149,2110,0,39
20210212,735220,713621,0,21599,2120,2072,0,48
20210213,737115,715481,0,21634,1895,1860,0,35
20210214,738631,716969,0,21662,1516,1488,0,28
20210215,739488,717786,0,21702,857,817,0,40
20210216,741205,719455,0,21750,1717,1669,0,48
20210217,743882,722089,0,21793,2677,2634,0,43
20210218,746302,724481,0,21821,2420,2392,0,28
20210219,749739,727880,0,21859,3437,3399,0,38
20210220,752379,730492,0,21887,2640,2612,0,28
20210221,754473,732570,0,21903,2094,2078,0,16
20210222,755594,733671,0,21923,1121,1101,0,20
20210223,757696,735740,0,21956,2102,2069,0,33
20210224,760809,738821,0,21988,3113,3081,0,32
20210225,763885,741879,0,22006,3076,3058,0,18
20210226,766654,744620,0,22034,2769,2741,0,28
20210227,769414,747362,0,22052,2760,2742,0,18
20210228,771511,749434,0,22077,2097,2072,0,25
20210301,772294,750188,0,22106,783,754,0,29
20210302,774344,752203,0,22141,2050,2015,0,35
20210303,777608,755439,0,22169,3264,3236,0,28
20210304,780251,758055,0,22196,2643,2616,0,27
20210305,783010,760795,0,22215,2759,2740,0,19
20210306,785809,763569,0,22240,2799,2774,0,25
20210307,787891,765630,0,22261,2082,2061,0,21
20210308,789008,766716,0,22292,1117,1086,0,31
20210309,791171,768844,0,22327,2163,2128,0,35
20210310,794605,772258,0,22347,3434,3414,0,20
20210311,798108,775738,0,22370,3503,3480,0,23
20210312,801723,779326,0,22397,3615,3588,0,27
20210313,805321,782900,0,22421,3598,3574,0,24
20210314,808283,785842,0,22441,2962,2942,0,20
20210315,809861,787316,0,22545,1578,1474,0,104
20210316,813026,790454,0,22572,3165,3138,0,27
20210317,818142,795542,0,22600,5116,5088,0,28
20210318,822801,800177,0,22624,4659,4635,0,24
20210319,827941,805291,0,22650,5140,5114,0,26
20210320,827941,805291,0,22650,0,0,0,0
20210321,837006,814299,0,22707,9065,9008,0,57
20210322,839238,816510,0,22728,2232,2211,0,21
20210323,842775,820012,0,22763,3537,3502,0,35
20210324,849090,826304,0,22786,6315,6292,0,23
20210325,854608,831792,0,22816,5518,5488,0,30
20210326,860731,837879,0,22852,6123,6087,0,36
20210327,866063,843193,0,22870,5332,5314,0,18
20210328,870757,847860,0,22897,4694,4667,0,27
20210329,872936,850015,0,22921,2179,2155,0,24
20210330,876842,853876,0,22966,3906,3861,0,45
20210331,882453,859437,0,23016,5611,5561,0,50
20210401,887920,864875,0,23045,5467,5438,0,29
20210402,892585,869502,0,23083,4665,4627,0,38
20210403,897474,874344,0,23130,4889,4842,0,47
20210404,900996,877827,0,23169,3522,3483,0,39
20210405,902964,879762,0,23202,1968,1935,0,33
20210406,904673,881426,0,23247,1709,1664,0,45
20210407,908212,884911,0,23301,3539,3485,0,54
20210408,913057,889709,0,23348,4845,4798,0,47
20210409,917917,894527,0,23390,4860,4818,0,42
20210410,922487,899059,0,23428,4570,4532,0,38
20210411,925476,902003,0,23473,2989,2944,0,45
20210412,927229,903726,0,23503,1753,1723,0,30
20210413,930603,907037,0,23566,3374,3311,0,63
20210414,935316,911713,0,23603,4713,4676,0,37
20210415,939309,915673,0,23636,3993,3960,0,33
20210416,943213,919532,0,23681,3904,3859,0,45
20210417,947000,923282,0,23718,3787,3750,0,37
20210418,949996,926249,0,23747,2996,2967,0,29
20210419,951626,927844,0,23782,1630,1595,0,35
20210420,955056,931222,0,23834,3430,3378,0,52
20210421,960169,936302,0,23867,5113,5080,0,33
20210422,964526,940617,0,23909,4357,4315,0,42
20210423,968107,944153,0,23954,3581,3536,0,45
20210424,972041,948051,0,23990,3934,3898,0,36
20210425,974418,950394,0,24024,2377,2343,0,34
20210426,976088,952023,0,24065,1670,1629,0,41
20210427,979034,954930,0,24104,2946,2907,0,39
20210428,982959,958819,0,24140,3925,3889,0,36
20210429,986622,962437,0,24185,3663,3618,0,45
20210430,990229,965999,0,24230,3607,3562,0,45
20210501,993434,969176,0,24258,3205,3177,0,28
20210502,995562,971271,0,24291,2128,2095,0,33
20210503,996896,972574,0,24322,1334,1303,0,31
20210504,999627,975260,0,24367,2731,2686,0,45
20210505,1003746,979340,0,24406,4119,4080,0,39
20210506,1007264,982820,0,24444,3518,3480,0,38
20210507,1010987,986504,0,24483,3723,3684,0,39
20210508,1014351,989840,0,24511,3364,3336,0,28
20210509,1016609,992058,0,24551,2258,2218,0,40
20210510,1017876,993293,0,24583,1267,1235,0,32
20210511,1020332,995723,0,24609,2456,2430,0,26
20210512,1023583,998953,0,24630,3251,3230,0,21
20210513,1026473,1001828,0,24645,2890,2875,0,15
20210514,1028104,1003440,0,24664,1631,1612,0,19
20210515,1030071,1005385,0,24686,1967,1945,0,22
20210516,1031923,1007214,0,24709,1852,1829,0,23
20210517,1032895,1008172,0,24723,972,958,0,14
20210518,1034714,1009965,0,24749,1819,1793,0,26
20210519,1038514,1013746,0,24768,3800,3781,0,19
20210520,1041706,1016912,0,24794,3192,3166,0,26
20210521,1044612,1019803,0,24809,2906,2891,0,15
20210522,1047128,1022305,0,24823,2516,2502,0,14
20210523,1048881,1024039,0,24842,1753,1734,0,19
20210524,1049822,1024969,0,24853,941,930,0,11
20210525,1050677,1025804,0,24873,855,835,0,20
20210526,1052652,1027763,0,24889,1975,1959,0,16
20210527,1055543,1030641,0,24902,2891,2878,0,13
20210528,1057903,1032993,0,24910,2360,2352,0,8
20210529,1059763,1034842,0,24921,1860,1849,0,11
20210530,1061200,1036260,0,24940,1437,1418,0,19
20210531,1062001,1037046,0,24955,801,786,0,15
20210601,1063499,1038531,0,24968,1498,1485,0,13
20210602,1065358,1040376,0,24982,1859,1845,0,14
20210603,1066957,1041962,0,24995,1599,1586,0,13
20210604,1068406,1043392,0,25014,1449,1430,0,19
20210605,1069874,1044855,0,25019,1468,1463,0,5
20210606,1070802,1045769,0,25033,928,914,0,14
20210607,1071271,1046230,0,25041,469,461,0,8
20210608,1072175,1047124,0,25051,904,894,0,10
20210609,1073358,1048297,0,25061,1183,1173,0,10
20210610,1074204,1049136,0,25068,846,839,0,7
20210611,1074988,1049913,0,25075,784,777,0,7
20210612,1075765,1050684,0,25081,777,771,0,6
20210613,1076338,1051250,0,25088,573,566,0,7
20210614,1076579,1051486,0,25093,241,236,0,5
20210615,1077087,1051988,0,25099,508,502,0,6
20210616,1077758,1052648,0,25110,671,660,0,11
20210617,1078251,1053134,0,25117,493,486,0,7
20210618,1078251,1053134,0,25117,0,0,0,0
20210619,1079084,1053952,0,25132,833,818,0,15
20210620,1079415,1054279,0,25136,331,327,0,4
20210621,1079640,1054499,0,25141,225,220,0,5
20210622,1080035,1054891,0,25144,395,392,0,3
20210623,1081061,1055912,0,25149,1026,1021,0,5
20210624,1081908,1056756,0,25152,847,844,0,3
20210625,1082476,1057316,0,25160,568,560,0,8
20210626,1082476,1057316,0,25160,0,0,0,0
20210627,1082476,1057316,0,25160,0,0,0,0
20210628,1083478,1058310,0,25168,1002,994,0,8
20210629,1084550,1059380,0,25170,1072,1070,0,2
20210630,1085131,1059958,0,25173,581,578,0,3
20210701,1085885,1060705,0,25180,754,747,0,7
20210702,1086508,1061323,0,25185,623,618,0,5
20210703,1086508,1061323,0,25185,0,0,0,0
20210704,1086508,1061323,0,25185,0,0,0,0
20210705,1088363,1063173,0,25190,1855,1850,0,5
20210706,1089105,1063911,0,25194,742,738,0,4
20210707,1091095,1065899,0,25196,1990,1988,0,2
20210708,1092477,1067281,0,25196,1382,1382,0,0
20210709,1093700,1068502,0,25198,1223,1221,0,2
20210710,1093700,1068502,0,25198,0,0,0,0
20210711,1093700,1068502,0,25198,0,0,0,0
20210712,1097029,1071824,0,25205,3329,3322,0,7
20210713,1098332,1073125,0,25207,1303,1301,0,2
20210714,1100616,1075409,0,25207,2284,2284,0,0
20210715,1102069,1076861,0,25208,1453,1452,0,1
20210716,1103413,1078204,0,25209,1344,1343,0,1
20210717,1103413,1078204,0,25209,0,0,0,0
20210718,1103413,1078204,0,25209,0,0,0,0
20210719,1107208,1081995,0,25213,3795,3791,0,4
20210720,1108675,1083462,0,25213,1467,1467,0,0
20210721,1108675,1083462,0,25213,0,0,0,0
20210722,1112161,1086944,0,25217,3486,3482,0,4
20210723,1113465,1086944,0,25220,1304,0,0,3
20210724,1113465,1088245,0,25220,0,1301,0,0
20210725,1113465,1088245,0,25220,0,0,0,0
20210726,1117697,1092469,0,25228,4232,4224,0,8
20210727,1119030,1093800,0,25230,1333,1331,0,2
20210728,1121089,1095858,0,25231,2059,2058,0,1
20210729,1122951,1097716,0,25235,1862,1858,0,4
20210730,1124715,1099474,0,25241,1764,1758,0,6
20210731,1124715,1099474,0,25241,0,0,0,0
20210801,1124715,1099474,0,25241,0,0,0,0
20210802,1129018,1103771,0,25247,4303,4297,0,6
20210803,1130758,1105507,0,25251,1740,1736,0,4
20210804,1132934,1107676,0,25258,2176,2169,0,7
20210805,1134907,0,0,25264,1973,-1107676,0,6
20210806,1136726,0,0,25268,1819,0,0,4
20210807,1136726,0,0,25268,0,0,0,0
20210808,1136726,0,0,25268,0,0,0,0
20210809,1141379,0,0,25274,4653,0,0,6
20210810,1143127,0,0,25279,1748,0,0,5
20210811,1145736,0,0,25282,2609,0,0,3
20210812,1147855,0,0,25285,2119,0,0,3
20210813,1149869,0,0,25287,2014,0,0,2
20210814,1149869,0,0,25287,0,0,0,0
20210815,1149869,0,0,25287,0,0,0,0
20210816,1154879,0,0,25299,5010,0,0,12
20210817,1156620,0,0,25299,1741,0,0,0
20210818,1159366,0,0,25305,2746,0,0,6
20210819,1161558,0,0,25312,2192,0,0,7
20210820,1163726,0,0,25320,2168,0,0,8
20210821,1163726,0,0,25320,0,0,0,0
20210822,1163726,0,0,25320,0,0,0,0
20210823,1168602,0,0,25341,4876,0,0,21
20210824,1170213,0,0,25342,1611,0,0,1
20210825,1173108,0,0,25348,2895,0,0,6
20210826,1175575,0,0,25354,2467,0,0,6
20210827,1177909,0,0,25360,2334,0,0,6
20210828,1177909,0,0,25360,0,0,0,0
20210829,1177909,0,0,25360,0,0,0,0
20210830,1182810,0,0,25374,4901,0,0,14
20210831,1184664,0,0,25380,1854,0,0,6
20210901,1187506,0,0,25382,2842,0,0,2
20210902,1189710,0,0,25392,2204,0,0,10
20210903,1192008,0,0,25397,2298,0,0,5
20210904,1192008,0,0,25397,0,0,0,0
