date,infected,active,recovered,dead,deltaInfected,deltaActive,deltaRecovered,deltaDead
20200316,1,1,0,0,1,1,0,0
20200317,1,1,0,0,0,0,0,0
20200318,2,2,0,0,1,1,0,0
20200319,2,2,0,0,0,0,0,0
20200320,2,2,0,0,0,0,0,0
20200321,2,2,0,0,0,0,0,0
20200322,2,2,0,0,0,0,0,0
20200323,5,5,0,0,3,3,0,0
20200324,6,6,0,0,1,1,0,0
20200325,6,6,0,0,0,0,0,0
20200326,6,6,0,0,0,0,0,0
20200327,6,6,0,0,0,0,0,0
20200328,6,6,0,0,0,0,0,0
20200329,6,6,0,0,0,0,0,0
20200330,6,6,0,0,0,0,0,0
20200331,9,8,1,0,3,2,1,0
20200401,13,12,1,0,4,4,0,0
20200402,13,12,1,0,0,0,0,0
20200403,16,14,2,0,3,2,1,0
20200404,16,14,2,0,0,0,0,0
20200405,22,17,5,0,6,3,3,0
20200406,26,20,5,1,4,3,0,1
20200407,26,20,5,1,0,0,0,0
20200408,26,20,5,1,0,0,0,0
20200409,26,20,5,1,0,0,0,0
20200410,35,29,5,1,9,9,0,0
20200411,35,29,5,1,0,0,0,0
20200412,35,29,5,1,0,0,0,0
20200413,35,29,5,1,0,0,0,0
20200414,35,16,18,1,0,-13,13,0
20200415,35,16,18,1,0,0,0,0
20200416,35,16,18,1,0,0,0,0
20200417,35,16,18,1,0,0,0,0
20200418,35,16,18,1,0,0,0,0
20200419,35,16,18,1,0,0,0,0
20200420,54,26,27,1,19,10,9,0
20200421,54,26,27,1,0,0,0,0
20200422,54,26,27,1,0,0,0,0
20200423,54,26,27,1,0,0,0,0
20200424,54,26,27,1,0,0,0,0
20200425,54,26,27,1,0,0,0,0
20200426,64,30,33,1,10,4,6,0
20200427,64,30,33,1,0,0,0,0
20200428,64,30,33,1,0,0,0,0
20200429,64,30,33,1,0,0,0,0
20200430,64,30,33,1,0,0,0,0
20200501,90,46,42,2,26,16,9,1
20200502,90,46,42,2,0,0,0,0
20200503,90,46,42,2,0,0,0,0
20200504,96,44,50,2,6,-2,8,0
20200505,96,44,50,2,0,0,0,0
20200506,96,44,50,2,0,0,0,0
20200507,140,85,53,2,44,41,3,0
20200508,242,178,62,2,102,93,9,0
20200509,284,220,62,2,42,42,0,0
20200510,319,255,62,2,35,35,0,0
20200511,319,255,62,2,0,0,0,0
20200512,327,249,76,2,8,-6,14,0
20200513,327,242,83,2,0,-7,7,0
20200514,339,254,83,2,12,12,0,0
20200515,339,254,83,2,0,0,0,0
20200516,339,254,83,2,0,0,0,0
20200517,339,254,83,2,0,0,0,0
20200518,339,254,83,2,0,0,0,0
20200519,130,45,83,2,-209,-209,0,0
20200520,130,71,57,2,0,26,-26,0
20200521,135,71,61,3,5,0,4,1
20200522,135,71,61,3,0,0,0,0
20200523,135,71,61,3,0,0,0,0
20200524,191,106,82,3,56,35,21,0
20200525,191,104,84,3,0,-2,2,0
20200526,208,87,118,3,17,-17,34,0
20200527,210,73,134,3,2,-14,16,0
20200528,210,73,134,3,0,0,0,0
20200529,224,85,136,3,14,12,2,0
20200530,224,85,136,3,0,0,0,0
20200531,232,86,143,3,8,1,7,0
20200601,243,93,147,3,11,7,4,0
20200602,244,93,148,3,1,0,1,0
20200603,244,93,148,3,0,0,0,0
20200604,261,107,151,3,17,14,3,0
20200605,261,107,151,3,0,0,0,0
20200606,261,107,151,3,0,0,0,0
20200607,261,107,151,3,0,0,0,0
20200608,288,98,186,4,27,-9,35,1
20200609,305,113,188,4,17,15,2,0
20200610,305,113,188,4,0,0,0,0
20200611,305,113,188,4,0,0,0,0
20200612,388,166,217,5,83,53,29,1
20200613,412,184,222,6,24,18,5,1
20200614,442,208,228,6,30,24,6,0
20200615,483,242,232,9,41,34,4,3
20200616,532,287,236,9,49,45,4,0
20200617,572,326,237,9,40,39,1,0
20200618,597,348,238,11,25,22,1,2
20200619,650,392,247,11,53,44,9,0
20200620,650,392,247,11,0,0,0,0
20200621,765,499,253,13,115,107,6,2
20200622,807,541,253,13,42,42,0,0
20200623,850,565,272,13,43,24,19,0
20200624,902,612,277,13,52,47,5,0
20200625,1017,715,288,14,115,103,11,1
20200626,1053,747,292,14,36,32,4,0
20200627,1124,815,295,14,71,68,3,0
20200628,1149,827,306,16,25,12,11,2
20200629,1187,845,323,19,38,18,17,3
20200630,1199,845,333,21,12,0,10,2
20200701,1199,845,333,21,0,0,0,0
20200702,1199,845,333,21,0,0,0,0
20200703,1199,845,333,21,0,0,0,0
20200704,1199,845,333,21,0,0,0,0
20200705,1199,845,333,21,0,0,0,0
20200706,1199,845,333,21,0,0,0,0
20200707,1199,845,333,21,0,0,0,0
20200708,1199,845,333,21,0,0,0,0
20200709,1285,929,333,23,86,84,0,2
20200710,1285,929,333,23,0,0,0,0
20200711,1378,795,557,26,93,-134,224,3
20200712,1378,795,557,26,0,0,0,0
20200713,1378,795,557,26,0,0,0,0
20200714,1378,795,557,26,0,0,0,0
20200715,1378,795,557,26,0,0,0,0
20200716,1463,878,557,28,85,83,0,2
20200717,1602,789,782,31,139,-89,225,3
20200718,1602,789,782,31,0,0,0,0
20200719,1602,789,782,31,0,0,0,0
20200720,1602,789,782,31,0,0,0,0
20200721,1602,789,782,31,0,0,0,0
20200722,1690,874,782,34,88,85,0,3
20200723,1694,742,918,34,4,-132,136,0
20200724,1694,742,918,34,0,0,0,0
20200725,1694,742,918,34,0,0,0,0
20200726,1770,699,1036,35,76,-43,118,1
20200727,1770,699,1036,35,0,0,0,0
20200728,1770,699,1036,35,0,0,0,0
20200729,1805,733,1036,36,35,34,0,1
20200730,1805,733,1036,36,0,0,0,0
20200731,1805,733,1036,36,0,0,0,0
20200801,1805,733,1036,36,0,0,0,0
20200802,1805,733,1036,36,0,0,0,0
20200803,1805,733,1036,36,0,0,0,0
20200804,1914,840,1036,38,109,107,0,2
20200805,1936,298,1600,38,22,-542,564,0
20200806,1936,298,1600,38,0,0,0,0
20200807,1936,298,1600,38,0,0,0,0
20200808,1936,298,1600,38,0,0,0,0
20200809,1936,298,1600,38,0,0,0,0
20200810,1936,298,1600,38,0,0,0,0
20200811,2001,282,1681,38,65,-16,81,0
20200812,2014,295,1681,38,13,13,0,0
20200813,2014,295,1681,38,0,0,0,0
20200814,2014,295,1681,38,0,0,0,0
20200815,2063,334,1690,39,49,39,9,1
20200816,2063,334,1690,39,0,0,0,0
20200817,2063,334,1690,39,0,0,0,0
20200818,2063,334,1690,39,0,0,0,0
20200819,2095,366,1690,39,32,32,0,0
20200820,2095,351,1705,39,0,-15,15,0
20200821,2095,351,1705,39,0,0,0,0
20200822,2115,371,1705,39,20,20,0,0
20200823,2115,371,1705,39,0,0,0,0
20200824,2115,371,1705,39,0,0,0,0
20200825,2115,371,1705,39,0,0,0,0
20200826,2145,367,1738,40,30,-4,33,1
20200827,2145,367,1738,40,0,0,0,0
20200828,2145,367,1738,40,0,0,0,0
20200829,2145,367,1738,40,0,0,0,0
20200830,2145,367,1738,40,0,0,0,0
20200831,2145,367,1738,40,0,0,0,0
20200901,2145,367,1738,40,0,0,0,0
20200902,2194,416,1738,40,49,49,0,0
20200903,2194,416,1738,40,0,0,0,0
20200904,2194,416,1738,40,0,0,0,0
20200905,2213,380,1793,40,19,-36,55,0
20200906,2213,380,1793,40,0,0,0,0
20200907,2213,380,1793,40,0,0,0,0
20200908,2213,380,1793,40,0,0,0,0
20200909,2242,409,1793,40,29,29,0,0
20200910,2242,409,1793,40,0,0,0,0
20200911,2242,409,1793,40,0,0,0,0
20200912,2242,409,1793,40,0,0,0,0
20200913,2267,285,1942,40,25,-124,149,0
20200914,2267,285,1942,40,0,0,0,0
20200915,2267,285,1942,40,0,0,0,0
20200916,2280,298,1942,40,13,13,0,0
20200917,2280,290,1950,40,0,-8,8,0
20200918,2280,290,1950,40,0,0,0,0
20200919,2280,290,1950,40,0,0,0,0
20200920,2280,290,1950,40,0,0,0,0
20200921,2294,300,1954,40,14,10,4,0
20200922,2294,300,1954,40,0,0,0,0
20200923,2325,331,1954,40,31,31,0,0
20200924,2325,331,1954,40,0,0,0,0
20200925,2325,325,1960,40,0,-6,6,0
20200926,2325,325,1960,40,0,0,0,0
20200927,2340,340,1960,40,15,15,0,0
20200928,2340,340,1960,40,0,0,0,0
20200929,2340,340,1960,40,0,0,0,0
20200930,2357,343,1973,41,17,3,13,1
20201001,2357,343,1973,41,0,0,0,0
20201002,2357,343,1973,41,0,0,0,0
20201003,2357,343,1973,41,0,0,0,0
20201004,2357,343,1973,41,0,0,0,0
20201005,2357,343,1973,41,0,0,0,0
20201006,2357,343,1973,41,0,0,0,0
20201007,2411,397,1973,41,54,54,0,0
20201008,2411,397,1973,41,0,0,0,0
20201009,2411,397,1973,41,0,0,0,0
20201010,2411,397,1973,41,0,0,0,0
20201011,2411,397,1973,41,0,0,0,0
20201012,2411,397,1973,41,0,0,0,0
20201013,2411,397,1973,41,0,0,0,0
20201014,2478,107,2330,41,67,-290,357,0
20201015,2496,125,2330,41,18,18,0,0
20201016,2496,125,2330,41,0,0,0,0
20201017,2496,125,2330,41,0,0,0,0
20201018,2496,125,2330,41,0,0,0,0
20201019,2496,125,2330,41,0,0,0,0
20201020,2496,125,2330,41,0,0,0,0
20201021,2557,186,2330,41,61,61,0,0
20201022,2557,186,2330,41,0,0,0,0
20201023,2557,186,2330,41,0,0,0,0
20201024,2557,186,2330,41,0,0,0,0
20201025,2557,186,2330,41,0,0,0,0
20201026,2557,186,2330,41,0,0,0,0
20201027,2557,186,2330,41,0,0,0,0
20201028,2643,272,2330,41,86,86,0,0
20201029,2643,272,2330,41,0,0,0,0
20201030,2643,272,2330,41,0,0,0,0
20201031,2643,184,2418,41,0,-88,88,0
20201101,2683,187,2455,41,40,3,37,0
20201102,2683,187,2455,41,0,0,0,0
20201103,2683,187,2455,41,0,0,0,0
20201104,2745,247,2455,43,62,60,0,2
20201105,2745,236,2466,43,0,-11,11,0
20201106,2745,236,2466,43,0,0,0,0
20201107,2745,236,2466,43,0,0,0,0
20201108,2745,236,2466,43,0,0,0,0
20201109,2781,223,2515,43,36,-13,49,0
20201110,2781,223,2515,43,0,0,0,0
20201111,2844,286,2515,43,63,63,0,0
20201112,2844,286,2515,43,0,0,0,0
20201113,2844,286,2515,43,0,0,0,0
20201114,2844,286,2515,43,0,0,0,0
20201115,2844,286,2515,43,0,0,0,0
20201116,2884,262,2579,43,40,-24,64,0
20201117,2884,262,2579,43,0,0,0,0
20201118,2916,294,2579,43,32,32,0,0
20201119,2916,294,2579,43,0,0,0,0
20201120,2916,294,2579,43,0,0,0,0
20201121,2916,294,2579,43,0,0,0,0
20201122,2916,294,2579,43,0,0,0,0
20201123,2916,294,2579,43,0,0,0,0
20201124,2916,294,2579,43,0,0,0,0
20201125,2974,352,2579,43,58,58,0,0
20201126,2974,352,2579,43,0,0,0,0
20201127,2974,352,2579,43,0,0,0,0
20201128,2974,112,2819,43,0,-240,240,0
20201129,2974,112,2819,43,0,0,0,0
20201130,3015,133,2839,43,41,21,20,0
20201201,3015,133,2839,43,0,0,0,0
20201202,3055,172,2839,44,40,39,0,1
20201203,3055,104,2907,44,0,-68,68,0
20201204,3055,104,2907,44,0,0,0,0
20201205,3055,104,2907,44,0,0,0,0
20201206,3055,104,2907,44,0,0,0,0
20201207,3073,107,2922,44,18,3,15,0
20201208,3073,107,2922,44,0,0,0,0
20201209,3090,74,2972,44,17,-33,50,0
20201210,3090,74,2972,44,0,0,0,0
20201211,3090,74,2972,44,0,0,0,0
20201212,3090,74,2972,44,0,0,0,0
20201213,3090,74,2972,44,0,0,0,0
20201214,3090,74,2972,44,0,0,0,0
20201215,3090,74,2972,44,0,0,0,0
20201216,3152,136,2972,44,62,62,0,0
20201217,3152,136,2972,44,0,0,0,0
20201218,3152,136,2972,44,0,0,0,0
20201219,3152,136,2972,44,0,0,0,0
20201220,3167,62,3061,44,15,-74,89,0
20201221,3167,62,3061,44,0,0,0,0
20201222,3167,62,3061,44,0,0,0,0
20201223,3205,100,3061,44,38,38,0,0
20201224,3205,100,3061,44,0,0,0,0
20201225,3205,100,3061,44,0,0,0,0
20201226,3205,100,3061,44,0,0,0,0
20201227,3205,100,3061,44,0,0,0,0
20201228,3205,100,3061,44,0,0,0,0
20201229,3205,100,3061,44,0,0,0,0
20201230,3251,146,3061,44,46,46,0,0
20201231,3251,146,3061,44,0,0,0,0
20210101,3251,146,3061,44,0,0,0,0
20210102,3251,146,3061,44,0,0,0,0
20210103,3251,146,3061,44,0,0,0,0
20210104,3251,146,3061,44,0,0,0,0
20210105,3304,75,3185,44,53,-71,124,0
20210106,3304,75,3185,44,0,0,0,0
20210107,3304,75,3185,44,0,0,0,0
20210108,3304,75,3185,44,0,0,0,0
20210109,3304,75,3185,44,0,0,0,0
20210110,3304,75,3185,44,0,0,0,0
20210111,3363,95,3222,46,59,20,37,2
20210112,3363,95,3222,46,0,0,0,0
20210113,3413,145,3222,46,50,50,0,0
20210114,3413,145,3222,46,0,0,0,0
20210115,3413,122,3245,46,0,-23,23,0
20210116,3413,122,3245,46,0,0,0,0
20210117,3413,122,3245,46,0,0,0,0
20210118,3413,122,3245,46,0,0,0,0
20210119,3413,122,3245,46,0,0,0,0
20210120,3557,227,3284,46,144,105,39,0
20210121,3582,250,3284,48,25,23,0,2
20210122,3643,278,3317,48,61,28,33,0
20210123,3643,278,3317,48,0,0,0,0
20210124,3643,278,3317,48,0,0,0,0
20210125,3643,278,3317,48,0,0,0,0
20210126,3643,278,3317,48,0,0,0,0
20210127,3786,421,3317,48,143,143,0,0
20210128,3786,340,3398,48,0,-81,81,0
20210129,3786,340,3398,48,0,0,0,0
20210130,3786,340,3398,48,0,0,0,0
20210131,3893,420,3421,52,107,80,23,4
20210201,3893,420,3421,52,0,0,0,0
20210202,3893,420,3421,52,0,0,0,0
20210203,4119,513,3552,54,226,93,131,2
20210204,4119,513,3552,54,0,0,0,0
20210205,4193,575,3563,55,74,62,11,1
20210206,4193,575,3563,55,0,0,0,0
20210207,4193,575,3563,55,0,0,0,0
20210208,4193,575,3563,55,0,0,0,0
20210209,4193,575,3563,55,0,0,0,0
20210210,4560,732,3772,56,367,157,209,1
20210211,4560,732,3772,56,0,0,0,0
20210212,4560,732,3772,56,0,0,0,0
20210213,4560,732,3772,56,0,0,0,0
20210214,4560,732,3772,56,0,0,0,0
20210215,5039,1017,3960,62,479,285,188,6
20210216,5039,1017,3960,62,0,0,0,0
20210217,5143,959,4119,65,104,-58,159,3
20210218,5143,959,4119,65,0,0,0,0
20210219,5143,959,4119,65,0,0,0,0
20210220,5143,959,4119,65,0,0,0,0
20210221,5434,1116,4248,70,291,157,129,5
20210222,5434,1116,4248,70,0,0,0,0
20210223,5434,1116,4248,70,0,0,0,0
20210224,5434,1116,4248,70,0,0,0,0
20210225,5434,1116,4248,70,0,0,0,0
20210226,5434,1116,4248,70,0,0,0,0
20210227,5434,1116,4248,70,0,0,0,0
20210228,5434,1116,4248,70,0,0,0,0
20210301,5434,1116,4248,70,0,0,0,0
20210302,5434,1116,4248,70,0,0,0,0
20210303,6071,1033,4963,75,637,-83,715,5
20210304,6071,1033,4963,75,0,0,0,0
20210305,6071,1033,4963,75,0,0,0,0
20210306,6071,1033,4963,75,0,0,0,0
20210307,6071,1033,4963,75,0,0,0,0
20210308,6338,874,5383,81,267,-159,420,6
20210309,6338,874,5383,81,0,0,0,0
20210310,6501,868,5552,81,163,-6,169,0
20210311,6501,868,5552,81,0,0,0,0
20210312,6501,868,5552,81,0,0,0,0
20210313,6501,868,5552,81,0,0,0,0
20210314,6501,868,5552,81,0,0,0,0
20210315,6501,868,5552,81,0,0,0,0
20210316,6501,868,5552,81,0,0,0,0
20210317,6501,868,5552,81,0,0,0,0
20210318,6501,868,5552,81,0,0,0,0
20210319,6818,1176,5552,90,317,308,0,9
20210320,6818,1176,5552,90,0,0,0,0
20210321,6818,1176,5552,90,0,0,0,0
20210322,6818,1176,5552,90,0,0,0,0
20210323,6818,1176,5552,90,0,0,0,0
20210324,7100,1458,5552,90,282,282,0,0
20210325,7100,558,6452,90,0,-900,900,0
20210326,7100,558,6452,90,0,0,0,0
20210327,7100,558,6452,90,0,0,0,0
20210328,7100,558,6452,90,0,0,0,0
20210329,7100,558,6452,90,0,0,0,0
20210330,7100,558,6452,90,0,0,0,0
20210331,7100,558,6452,90,0,0,0,0
20210401,7313,768,6452,93,213,210,0,3
20210402,7313,768,6452,93,0,0,0,0
20210403,7313,768,6452,93,0,0,0,0
20210404,7313,768,6452,93,0,0,0,0
20210405,7313,768,6452,93,0,0,0,0
20210406,7313,768,6452,93,0,0,0,0
20210407,7313,768,6452,93,0,0,0,0
20210408,7515,970,6452,93,202,202,0,0
20210409,7515,970,6452,93,0,0,0,0
20210410,7515,970,6452,93,0,0,0,0
20210411,7515,970,6452,93,0,0,0,0
20210412,7515,970,6452,93,0,0,0,0
20210413,7515,970,6452,93,0,0,0,0
20210414,7611,788,6728,95,96,-182,276,2
20210415,7611,788,6728,95,0,0,0,0
20210416,7611,788,6728,95,0,0,0,0
20210417,7611,788,6728,95,0,0,0,0
20210418,7611,788,6728,95,0,0,0,0
20210419,7611,788,6728,95,0,0,0,0
20210420,7720,113,7510,97,109,-675,782,2
20210421,7720,113,7510,97,0,0,0,0
20210422,7720,113,7510,97,0,0,0,0
20210423,7720,113,7510,97,0,0,0,0
20210424,7720,113,7510,97,0,0,0,0
20210425,7720,113,7510,97,0,0,0,0
20210426,7720,113,7510,97,0,0,0,0
20210427,7720,113,7510,97,0,0,0,0
20210428,7821,142,7580,99,101,29,70,2
20210429,7821,142,7580,99,0,0,0,0
20210430,7821,142,7580,99,0,0,0,0
20210501,7821,142,7580,99,0,0,0,0
20210502,7821,142,7580,99,0,0,0,0
20210503,7884,132,7652,100,63,-10,72,1
20210504,7884,132,7652,100,0,0,0,0
20210505,7884,132,7652,100,0,0,0,0
20210506,7884,132,7652,100,0,0,0,0
20210507,7884,132,7652,100,0,0,0,0
20210508,7884,132,7652,100,0,0,0,0
20210509,7884,132,7652,100,0,0,0,0
20210510,7884,132,7652,100,0,0,0,0
20210511,7995,242,7652,101,111,110,0,1
20210512,7995,242,7652,101,0,0,0,0
20210513,7995,242,7652,101,0,0,0,0
20210514,7995,242,7652,101,0,0,0,0
20210515,7995,242,7652,101,0,0,0,0
20210516,7995,242,7652,101,0,0,0,0
20210517,7995,242,7652,101,0,0,0,0
20210518,8025,31,7893,101,30,-211,241,0
20210519,8025,31,7893,101,0,0,0,0
20210520,8025,31,7893,101,0,0,0,0
20210521,8025,31,7893,101,0,0,0,0
20210522,8025,31,7893,101,0,0,0,0
20210523,8025,31,7893,101,0,0,0,0
20210524,8025,31,7893,101,0,0,0,0
20210525,8025,31,7893,101,0,0,0,0
20210526,8058,64,7893,101,33,33,0,0
20210527,8058,64,7893,101,0,0,0,0
20210528,8058,64,7893,101,0,0,0,0
20210529,8058,64,7893,101,0,0,0,0
20210530,8058,64,7893,101,0,0,0,0
20210531,8058,64,7893,101,0,0,0,0
20210601,8058,64,7893,101,0,0,0,0
20210602,8082,87,7893,102,24,23,0,1
20210603,8082,87,7893,102,0,0,0,0
20210604,8082,87,7893,102,0,0,0,0
20210605,8082,87,7893,102,0,0,0,0
20210606,8082,87,7893,102,0,0,0,0
20210607,8082,87,7893,102,0,0,0,0
20210608,8082,87,7893,102,0,0,0,0
20210609,8109,28,7979,102,27,-59,86,0
20210610,8109,28,7979,102,0,0,0,0
20210611,8109,28,7979,102,0,0,0,0
20210612,8109,28,7979,102,0,0,0,0
20210613,8109,28,7979,102,0,0,0,0
20210614,8109,28,7979,102,0,0,0,0
20210615,8140,58,7979,103,31,30,0,1
20210616,8140,58,7979,103,0,0,0,0
20210617,8140,58,7979,103,0,0,0,0
20210618,8140,58,7979,103,0,0,0,0
20210619,8140,58,7979,103,0,0,0,0
20210620,8140,58,7979,103,0,0,0,0
20210621,8140,58,7979,103,0,0,0,0
20210622,8170,66,8000,104,30,8,21,1
20210623,8170,66,8000,104,0,0,0,0
20210624,8170,66,8000,104,0,0,0,0
20210625,8170,66,8000,104,0,0,0,0
20210626,8170,66,8000,104,0,0,0,0
20210627,8170,66,8000,104,0,0,0,0
20210628,8170,66,8000,104,0,0,0,0
20210629,8199,95,8000,104,29,29,0,0
20210630,8199,95,8000,104,0,0,0,0
20210701,8199,95,8000,104,0,0,0,0
20210702,8199,95,8000,104,0,0,0,0
20210703,8199,95,8000,104,0,0,0,0
20210704,8199,95,8000,104,0,0,0,0
20210705,8199,95,8000,104,0,0,0,0
20210706,8199,95,8000,104,0,0,0,0
20210707,8227,122,8000,105,28,27,0,1
20210708,8227,122,8000,105,0,0,0,0
20210709,8227,122,8000,105,0,0,0,0
20210710,8227,122,8000,105,0,0,0,0
20210711,8227,122,8000,105,0,0,0,0
20210712,8227,122,8000,105,0,0,0,0
20210713,8227,122,8000,105,0,0,0,0
20210714,8244,56,8081,107,17,-66,81,2
20210715,8244,56,8081,107,0,0,0,0
20210716,8244,56,8081,107,0,0,0,0
20210717,8244,56,8081,107,0,0,0,0
20210718,8244,56,8081,107,0,0,0,0
20210719,8244,56,8081,107,0,0,0,0
20210720,8244,56,8081,107,0,0,0,0
20210721,8244,56,8081,107,0,0,0,0
20210722,8324,92,8125,107,80,36,44,0
20210723,8324,92,8125,107,0,0,0,0
20210724,8324,92,8125,107,0,0,0,0
20210725,8324,92,8125,107,0,0,0,0
20210726,8324,92,8125,107,0,0,0,0
20210727,8324,92,8125,107,0,0,0,0
20210728,8394,150,8136,108,70,58,11,1
20210729,8394,150,8136,108,0,0,0,0
20210730,8394,150,8136,108,0,0,0,0
20210731,8394,150,8136,108,0,0,0,0
20210801,8394,150,8136,108,0,0,0,0
20210802,8394,150,8136,108,0,0,0,0
20210803,8394,150,8136,108,0,0,0,0
20210804,8608,362,8136,110,214,212,0,2
20210805,8608,0,0,110,0,-362,-8136,0
20210806,8608,0,0,110,0,0,0,0
20210807,8608,0,0,110,0,0,0,0
20210808,8608,0,0,110,0,0,0,0
20210809,8608,0,0,110,0,0,0,0
20210810,9065,0,0,113,457,0,0,3
20210811,9065,0,0,113,0,0,0,0
20210812,9065,0,0,113,0,0,0,0
20210813,9065,0,0,113,0,0,0,0
20210814,9065,0,0,113,0,0,0,0
20210815,9065,0,0,113,0,0,0,0
20210816,9065,0,0,113,0,0,0,0
20210817,9065,0,0,113,0,0,0,0
20210818,10183,0,0,119,1118,0,0,6
20210819,10183,0,0,119,0,0,0,0
20210820,10183,0,0,119,0,0,0,0
20210821,10183,0,0,119,0,0,0,0
20210822,10183,0,0,119,0,0,0,0
20210823,12021,0,0,125,1838,0,0,6
20210824,12492,0,0,127,471,0,0,2
20210825,12492,0,0,127,0,0,0,0
20210826,12492,0,0,127,0,0,0,0
20210827,13366,0,0,128,874,0,0,1
20210828,13366,0,0,128,0,0,0,0
20210829,13366,0,0,128,0,0,0,0
20210830,13366,0,0,128,0,0,0,0
20210831,13366,0,0,128,0,0,0,0
20210901,15932,0,0,131,2566,0,0,3
20210902,15932,0,0,131,0,0,0,0
20210903,16946,0,0,135,1014,0,0,4
20210904,16946,0,0,135,0,0,0,0
