date,infected,active,recovered,dead,deltaInfected,deltaActive,deltaRecovered,deltaDead
20200311,2,2,0,0,2,2,0,0
20200312,2,2,0,0,0,0,0,0
20200313,3,3,0,0,1,1,0,0
20200314,10,10,0,0,7,7,0,0
20200315,10,10,0,0,0,0,0,0
20200316,11,11,0,0,1,1,0,0
20200317,11,11,0,0,0,0,0,0
20200318,12,12,0,0,1,1,0,0
20200319,12,12,0,0,0,0,0,0
20200320,15,15,0,0,3,3,0,0
20200321,19,19,0,0,4,4,0,0
20200322,24,24,0,0,5,5,0,0
20200323,27,27,0,0,3,3,0,0
20200324,29,29,0,0,2,2,0,0
20200325,32,32,0,0,3,3,0,0
20200326,43,43,0,0,11,11,0,0
20200327,61,61,0,0,18,18,0,0
20200328,74,74,0,0,13,13,0,0
20200329,81,80,0,1,7,6,0,1
20200330,97,93,0,4,16,13,0,3
20200331,107,101,0,6,10,8,0,2
20200401,115,107,1,7,8,6,1,1
20200402,123,114,1,8,8,7,0,1
20200403,132,122,1,9,9,8,0,1
20200404,139,128,1,10,7,6,0,1
20200405,157,145,2,10,18,17,1,0
20200406,183,170,2,11,26,25,0,1
20200407,194,178,2,14,11,8,0,3
20200408,210,193,2,15,16,15,0,1
20200409,264,244,2,18,54,51,0,3
20200410,268,247,2,19,4,3,0,1
20200411,275,253,2,20,7,6,0,1
20200412,300,274,2,24,25,21,0,4
20200413,330,301,2,27,30,27,0,3
20200414,354,320,6,28,24,19,4,1
20200415,397,362,7,28,43,42,1,0
20200416,441,398,14,29,44,36,7,1
20200417,465,408,26,31,24,10,12,2
20200418,493,431,31,31,28,23,5,0
20200419,520,457,31,32,27,26,0,1
20200420,564,500,31,33,44,43,0,1
20200421,598,527,37,34,34,27,6,1
20200422,609,528,44,37,11,1,7,3
20200423,703,616,44,43,94,88,0,6
20200424,807,709,54,44,104,93,10,1
20200425,866,766,54,46,59,57,0,2
20200426,950,820,80,50,84,54,26,4
20200427,1014,863,98,53,64,43,18,3
20200428,1014,863,98,53,0,0,0,0
20200429,1110,934,117,59,96,71,19,6
20200430,1110,934,117,59,0,0,0,0
20200501,1229,1029,134,66,119,95,17,7
20200502,1229,1029,134,66,0,0,0,0
20200503,1594,1352,166,76,365,323,32,10
20200504,1681,1425,174,82,87,73,8,6
20200505,1802,1529,187,86,121,104,13,4
20200506,1886,1597,198,91,84,68,11,5
20200507,2081,1760,219,102,195,163,21,11
20200508,2266,1923,237,106,185,163,18,4
20200509,2437,2065,258,114,171,142,21,8
20200510,2556,2165,273,118,119,100,15,4
20200511,2831,2410,299,122,275,245,26,4
20200512,2964,2523,313,128,133,113,14,6
20200513,3148,2667,339,142,184,144,26,14
20200514,3372,2864,356,152,224,197,17,10
20200515,3577,2979,434,164,205,115,78,12
20200516,3826,3188,473,165,249,209,39,1
20200517,4088,3426,493,169,262,238,20,4
20200518,4263,3586,503,174,175,160,10,5
20200519,4481,3759,533,189,218,173,30,15
20200520,4919,4167,553,199,438,408,20,10
20200521,5187,4411,561,215,268,244,8,16
20200522,5579,4774,575,230,392,363,14,15
20200523,5915,5066,609,240,336,292,34,10
20200524,6263,5384,629,250,348,318,20,10
20200525,6660,5752,647,261,397,368,18,11
20200526,7136,6185,677,274,476,433,30,13
20200527,7768,6799,689,280,632,614,12,6
20200528,8387,7356,738,293,619,557,49,13
20200529,8731,7682,749,300,344,326,11,7
20200530,9592,8393,889,310,861,711,140,10
20200531,9982,8701,968,313,390,308,79,3
20200601,10531,9051,1137,343,549,350,169,30
20200602,10991,9317,1298,376,460,266,161,33
20200603,11638,9731,1507,400,647,414,209,24
20200604,12245,10172,1658,415,607,441,151,15
20200605,12728,10562,1739,427,483,390,81,12
20200606,13358,11002,1902,454,630,440,163,27
20200607,13643,11092,2086,465,285,90,184,11
20200608,13949,11315,2159,475,306,223,73,10
20200609,14644,11967,2190,487,695,652,31,12
20200610,15281,12508,2261,512,637,541,71,25
20200611,16165,13260,2372,533,884,752,111,21
20200612,16929,13939,2431,559,764,679,59,26
20200613,17842,14489,2768,585,913,550,337,26
20200614,18459,14735,3113,611,617,246,345,26
20200615,19073,15011,3430,632,614,276,317,21
20200616,19883,15472,3752,659,810,461,322,27
20200617,20685,16004,4002,679,802,532,250,20
20200618,21499,16800,4002,697,814,796,0,18
20200619,22476,17091,4670,715,977,291,668,18
20200620,23512,17686,5086,740,1036,595,416,25
20200621,24388,18161,5454,773,876,475,368,33
20200622,25493,18816,5857,820,1105,655,403,47
20200623,26389,19243,6300,846,896,427,443,26
20200624,27487,19816,6795,876,1098,573,495,30
20200625,28503,20252,7338,913,1016,436,543,37
20200626,29423,20753,7736,934,920,501,398,21
20200627,30676,21548,8158,970,1253,795,422,36
20200628,31524,21993,8517,1014,848,445,359,44
20200629,32125,22126,8928,1071,601,133,411,57
20200630,33219,22756,9340,1123,1094,630,412,52
20200701,34227,23262,9764,1201,1008,506,424,78
20200702,35528,23899,10358,1271,1301,637,594,70
20200703,36818,24732,10766,1320,1290,833,408,49
20200704,38071,25421,11272,1378,1253,689,506,58
20200705,39297,26196,11667,1434,1226,775,395,56
20200706,40509,27104,11929,1476,1212,908,262,42
20200707,41545,27617,12398,1530,1036,513,469,54
20200708,42984,28524,12883,1577,1439,907,485,47
20200709,44113,29121,13354,1638,1129,597,471,61
20200710,45565,29945,13918,1702,1452,824,564,64
20200711,47200,31113,14333,1754,1635,1168,415,52
20200712,48187,31537,14843,1807,987,424,510,53
20200713,49250,32090,15294,1866,1063,553,451,59
20200714,50867,33150,15819,1898,1617,1060,525,32
20200715,52218,33919,16357,1942,1351,769,538,44
20200716,54156,35193,16979,1984,1938,1274,622,42
20200717,56102,36171,17882,2049,1946,978,903,65
20200718,58138,37832,18200,2106,2036,1661,318,57
20200719,59582,38878,18553,2151,1444,1046,353,45
20200720,60991,39898,18875,2218,1409,1020,322,67
20200721,62357,40794,19290,2273,1366,896,415,55
20200722,64135,42086,19721,2328,1778,1292,431,55
20200723,65252,42815,20030,2407,1117,729,309,79
20200724,66456,43369,20614,2473,1204,554,584,66
20200725,68281,44795,20951,2535,1825,1426,337,62
20200726,69429,45677,21169,2583,1148,882,218,48
20200727,71181,47056,21478,2647,1752,1379,309,64
20200728,72327,47636,21971,2720,1146,580,493,73
20200729,73534,48220,22506,2808,1207,584,535,88
20200730,75234,49035,23305,2894,1700,815,799,86
20200731,76789,50230,23582,2977,1555,1195,277,83
20200801,78793,51761,23968,3064,2004,1531,386,87
20200802,80153,52844,24156,3153,1360,1083,188,89
20200803,81846,54108,24510,3228,1693,1264,354,75
20200804,83361,54651,25390,3320,1515,543,880,92
20200805,85141,55319,26437,3385,1780,668,1047,65
20200806,86423,55585,27373,3465,1282,266,936,80
20200807,87891,56228,28139,3524,1468,643,766,59
20200808,89055,56564,28904,3587,1164,336,765,63
20200809,89999,56551,29808,3640,944,-13,904,53
20200810,91635,57100,30823,3712,1636,549,1015,72
20200811,93328,57814,31753,3761,1693,714,930,49
20200812,95071,58414,32830,3827,1743,600,1077,66
20200813,96459,58855,33720,3884,1388,441,890,57
20200814,97950,59288,34723,3939,1491,433,1003,55
20200815,99146,59505,35638,4003,1196,217,915,64
20200816,100344,59795,36491,4058,1198,290,853,55
20200817,101223,59629,37471,4123,879,-166,980,65
20200818,103019,60224,38623,4172,1796,595,1152,49
20200819,105050,60852,39965,4233,2031,628,1342,61
20200820,106065,60649,41111,4305,1015,-203,1146,72
20200821,107435,60928,42141,4366,1370,279,1030,61
20200822,108427,60098,43887,4442,992,-830,1746,76
20200823,109149,59244,45396,4509,722,-854,1509,67
20200824,110148,58520,47050,4578,999,-724,1654,69
20200825,110999,57460,48875,4664,851,-1060,1825,86
20200826,112094,56971,50397,4726,1095,-489,1522,62
20200827,113129,55817,52521,4791,1035,-1154,2124,65
20200828,114409,54649,54914,4846,1280,-1168,2393,55
20200829,115354,53667,56749,4938,945,-982,1835,92
20200830,115968,52505,58497,4966,614,-1162,1748,28
20200831,116598,51163,60408,5027,630,-1342,1911,61
20200901,117267,50042,62124,5101,669,-1121,1716,74
20200902,117928,48651,64074,5203,661,-1391,1950,102
20200903,118781,47609,65884,5288,853,-1042,1810,85
20200904,119580,46393,67844,5343,799,-1216,1960,55
20200905,120241,45277,69566,5398,661,-1116,1722,55
20200906,120769,43882,71489,5398,528,-1395,1923,0
20200907,121604,41400,73150,7054,835,-2482,1661,1656
20200908,122308,40113,75098,7097,704,-1287,1948,43
20200909,123345,38983,77216,7146,1037,-1130,2118,49
20200910,124205,37529,79483,7193,860,-1454,2267,47
20200911,125172,36682,81240,7250,967,-847,1757,57
20200912,125982,35889,82796,7297,810,-793,1556,47
20200913,126791,35161,84286,7344,809,-728,1490,47
20200914,127619,35027,85198,7394,828,-134,912,50
20200915,128286,34623,86216,7447,667,-404,1018,53
20200916,128872,34363,87031,7478,586,-260,815,31
20200917,129419,34192,87716,7511,547,-171,685,33
20200918,130051,34044,88457,7550,632,-148,741,39
20200919,130470,33852,89032,7586,419,-192,575,36
20200920,130676,33442,89617,7617,206,-410,585,31
20200921,130986,33092,90240,7654,310,-350,623,37
20200922,131453,32907,90853,7693,467,-185,613,39
20200923,131990,32703,91556,7731,537,-204,703,38
20200924,132618,32752,92101,7765,628,49,545,34
20200925,133222,32554,92868,7800,604,-198,767,35
20200926,133592,32358,93406,7828,370,-196,538,28
20200927,133901,32252,93791,7858,309,-106,385,30
20200928,134223,31999,94324,7900,322,-253,533,42
20200929,134641,31815,94895,7931,418,-184,571,31
20200930,135311,31817,95529,7965,670,2,634,34
20201001,135716,31550,96165,8001,405,-267,636,36
20201002,136219,31520,96654,8045,503,-30,489,44
20201003,136569,31391,97105,8073,350,-129,451,28
20201004,136868,31220,97547,8101,299,-171,442,28
20201005,137107,30971,98007,8129,239,-249,460,28
20201006,137468,30770,98542,8156,361,-201,535,27
20201007,137706,30246,99268,8192,238,-524,726,36
20201008,137969,29929,99812,8228,263,-317,544,36
20201009,138226,29617,100347,8262,257,-312,535,34
20201010,138463,29385,100786,8292,237,-232,439,30
20201011,138574,29163,101103,8308,111,-222,317,16
20201012,138695,28846,101523,8326,121,-317,420,18
20201013,138922,28488,102083,8351,227,-358,560,25
20201014,139141,28122,102642,8377,219,-366,559,26
20201015,139319,27413,103499,8407,178,-709,857,30
20201016,139562,27227,103896,8439,243,-186,397,32
20201017,139710,27045,104202,8463,148,-182,306,24
20201018,139771,26807,104483,8481,61,-238,281,18
20201019,139890,26431,104957,8502,119,-376,474,21
20201020,140037,25985,105526,8526,147,-446,569,24
20201021,140228,25340,106330,8558,191,-645,804,32
20201022,140445,24911,106950,8584,217,-429,620,26
20201023,140612,24371,107633,8608,167,-540,683,24
20201024,140779,24085,108067,8627,167,-286,434,19
20201025,140853,23550,108658,8645,74,-535,591,18
20201026,140952,23066,109228,8658,99,-484,570,13
20201027,141124,22683,109769,8672,172,-383,541,14
20201028,141321,22324,110303,8694,197,-359,534,22
20201029,141484,22020,110759,8705,163,-304,456,11
20201030,141631,21738,111178,8715,147,-282,419,10
20201031,141757,21529,111503,8725,126,-209,325,10
20201101,141833,21254,111848,8731,76,-275,345,6
20201102,141867,21071,112055,8741,34,-183,207,10
20201103,141936,20659,112526,8751,69,-412,471,10
20201104,142062,20462,112842,8758,126,-197,316,7
20201105,142201,20047,113386,8768,139,-415,544,10
20201106,142343,19663,113899,8781,142,-384,513,13
20201107,142427,19412,114225,8790,84,-251,326,9
20201108,142475,19214,114466,8795,48,-198,241,5
20201109,142561,18878,114881,8802,86,-336,415,7
20201110,142664,18657,115199,8808,103,-221,318,6
20201111,142776,18240,115718,8818,112,-417,519,10
20201112,142889,17927,116137,8825,113,-313,419,7
20201113,143069,17729,116505,8835,180,-198,368,10
20201114,143181,17512,116828,8841,112,-217,323,6
20201115,143246,17260,117137,8849,65,-252,309,8
20201116,143371,17058,117454,8859,125,-202,317,10
20201117,143473,16818,117789,8866,102,-240,335,7
20201118,143569,16361,118333,8875,96,-457,544,9
20201119,143756,16176,118691,8889,187,-185,358,14
20201120,143854,15925,119029,8900,98,-251,338,11
20201121,143922,15838,119180,8904,68,-87,151,4
20201122,143978,15733,119338,8907,56,-105,158,3
20201123,144034,15570,119548,8916,56,-163,210,9
20201124,144147,15384,119835,8928,113,-186,287,12
20201125,144276,15134,120209,8933,129,-250,374,5
20201126,144390,14731,120720,8939,114,-403,511,6
20201127,144494,14501,121050,8943,104,-230,330,4
20201128,144592,14363,121280,8949,98,-138,230,6
20201129,144622,14198,121472,8952,30,-165,192,3
20201130,144708,14049,121702,8957,86,-149,230,5
20201201,144810,13352,122495,8963,102,-697,793,6
20201202,144994,12349,123673,8972,184,-1003,1178,9
20201203,145186,12189,124015,8982,192,-160,342,10
20201204,145325,11948,124390,8987,139,-241,375,5
20201205,145492,11904,124596,8992,167,-44,206,5
20201206,145560,11766,124799,8995,68,-138,203,3
20201207,145657,11679,124981,8997,97,-87,182,2
20201208,145846,11614,125230,9002,189,-65,249,5
20201209,146060,11566,125490,9004,214,-48,260,2
20201210,146385,11661,125716,9008,325,95,226,4
20201211,146697,11798,125886,9013,312,137,170,5
20201212,147030,11924,126092,9014,333,126,206,1
20201213,147150,11911,126221,9018,120,-13,129,4
20201214,147345,11882,126439,9024,195,-29,218,6
20201215,147716,11970,126720,9026,371,88,281,2
20201216,148214,12235,126950,9029,498,265,230,3
20201217,148665,12479,127155,9031,451,244,205,2
20201218,149149,12576,127540,9033,484,97,385,2
20201219,149770,12920,127815,9035,621,344,275,2
20201220,150023,13018,127969,9036,253,98,154,1
20201221,150385,13034,128308,9043,362,16,339,7
20201222,151059,13467,128540,9052,674,433,232,9
20201223,152064,13947,129052,9065,1005,480,512,13
20201224,153121,14658,129387,9076,1057,711,335,11
20201225,153590,14753,129754,9083,469,95,367,7
20201226,154349,15287,129969,9093,759,534,215,10
20201227,154843,15523,130222,9098,494,236,253,5
20201228,155594,15868,130620,9106,751,345,398,8
20201229,156887,16842,130910,9135,1293,974,290,29
20201230,158372,17644,131579,9149,1485,802,669,14
20201231,160124,18862,132097,9165,1752,1218,518,16
20210101,160985,19300,132510,9175,861,438,413,10
20210102,162055,19856,133013,9186,1070,556,503,11
20210103,162661,20213,133247,9201,606,357,234,15
20210104,163671,20781,133671,9219,1010,568,424,18
20210105,165268,21524,134503,9241,1597,743,832,22
20210106,166981,22508,135186,9287,1713,984,683,46
20210107,168891,23321,136266,9304,1910,813,1080,17
20210108,171154,24944,136882,9328,2263,1623,616,24
20210109,172798,25743,137704,9351,1644,799,822,23
20210110,173896,26433,138087,9376,1098,690,383,25
20210111,175288,27064,138809,9415,1392,631,722,39
20210112,176761,27635,139672,9454,1473,571,863,39
20210113,178818,28654,140671,9493,2057,1019,999,39
20210114,181016,29750,141736,9530,2198,1096,1065,37
20210115,183589,31739,142279,9571,2573,1989,543,41
20210116,185680,33136,142948,9596,2091,1397,669,25
20210117,187183,34110,143437,9636,1503,974,489,40
20210118,188733,34826,144227,9680,1550,716,790,44
20210119,191090,35831,145537,9722,2357,1005,1310,42
20210120,193745,37403,146578,9764,2655,1572,1041,42
20210121,196393,38831,147744,9818,2648,1428,1166,54
20210122,198257,39636,148750,9871,1864,805,1006,53
20210123,199989,40167,149895,9927,1732,531,1145,56
20210124,201037,40613,150439,9985,1048,446,544,58
20210125,202818,41298,151469,10051,1781,685,1030,66
20210126,205208,42548,152555,10105,2390,1250,1086,54
20210127,208074,43530,154377,10167,2866,982,1822,62
20210128,210726,44778,155722,10226,2652,1248,1345,59
20210129,213392,45850,157263,10279,2666,1072,1541,53
20210130,215397,46568,158499,10330,2005,718,1236,51
20210131,216835,47234,159222,10379,1438,666,723,49
20210201,218299,47534,160326,10439,1464,300,1104,60
20210202,220426,48149,161764,10513,2127,615,1438,74
20210203,222447,48538,163338,10571,2021,389,1574,58
20210204,224234,48701,164900,10633,1787,163,1562,62
20210205,225910,48777,166446,10687,1676,76,1546,54
20210206,227128,49021,167354,10753,1218,244,908,66
20210207,227967,49131,168040,10796,839,110,686,43
20210208,229187,48908,169415,10864,1220,-223,1375,68
20210209,230731,48830,170972,10929,1544,-78,1557,65
20210210,232502,48796,172710,10996,1771,-34,1738,67
20210211,233854,48481,174329,11044,1352,-315,1619,48
20210212,235098,48033,175958,11107,1244,-448,1629,63
20210213,236036,47599,177282,11155,938,-434,1324,48
20210214,236732,47755,177775,11202,696,156,493,47
20210215,237144,46853,179057,11234,412,-902,1282,32
20210216,237706,46277,180155,11274,562,-576,1098,40
20210217,238495,45854,181338,11303,789,-423,1183,29
20210218,239524,45637,182534,11353,1029,-217,1196,50
20210219,240676,45453,183833,11390,1152,-184,1299,37
20210220,241771,45637,184717,11417,1095,184,884,27
20210221,242292,45696,185155,11441,521,59,438,24
20210222,243176,45588,186118,11470,884,-108,963,29
20210223,244380,44227,188645,11508,1204,-1361,2527,38
20210224,245719,44340,189832,11547,1339,113,1187,39
20210225,246822,44164,191081,11577,1103,-176,1249,30
20210226,247891,44332,191950,11609,1069,168,869,32
20210227,248547,44366,192553,11628,656,34,603,19
20210228,249010,44329,193032,11649,463,-37,479,21
20210301,249767,44449,193652,11666,757,120,620,17
20210302,250557,44484,194370,11703,790,35,718,37
20210303,251391,44558,195099,11734,834,74,729,31
20210304,252360,44894,195705,11761,969,336,606,27
20210305,253297,44777,196731,11789,937,-117,1026,28
20210306,253950,44716,197427,11807,653,-61,696,18
20210307,254273,44214,198236,11823,323,-502,809,16
20210308,254736,43891,199000,11845,463,-323,764,22
20210309,255621,43921,199842,11858,885,30,842,13
20210310,256462,43678,200900,11884,841,-243,1058,26
20210311,257240,43121,202216,11903,778,-557,1316,19
20210312,258324,42928,203466,11930,1084,-193,1250,27
20210313,259004,42849,204211,11944,680,-79,745,14
20210314,259389,42618,204813,11958,385,-231,602,14
20210315,260059,42457,205628,11974,670,-161,815,16
20210316,260988,42405,206586,11997,929,-52,958,23
20210317,262056,42398,207643,12015,1068,-7,1057,18
20210318,262941,41071,209842,12028,885,-1327,2199,13
20210319,263808,41031,210736,12041,867,-40,894,13
20210320,264411,40904,211456,12051,603,-127,720,10
20210321,264634,40468,212106,12060,223,-436,650,9
20210322,265207,40442,212691,12074,573,-26,585,14
20210323,266086,40214,213779,12093,879,-228,1088,19
20210324,267059,39964,214988,12107,973,-250,1209,14
20210325,267833,39645,216057,12131,774,-319,1069,24
20210326,268711,39465,217103,12143,878,-180,1046,12
20210327,269302,39216,217921,12165,591,-249,818,22
20210328,269628,38939,218503,12186,326,-277,582,21
20210329,270347,38747,219389,12211,719,-192,886,25
20210330,271419,38324,220856,12239,1072,-423,1467,28
20210331,272411,38192,221962,12257,992,-132,1106,18
20210401,273327,38123,222924,12280,916,-69,962,23
20210402,273947,37882,223760,12305,620,-241,836,25
20210403,274467,37603,224548,12316,520,-279,788,11
20210404,274934,37612,224998,12324,467,9,450,8
20210405,275392,37565,225483,12344,458,-47,485,20
20210406,276890,37737,226787,12366,1498,172,1304,22
20210407,277966,37769,227812,12385,1076,32,1025,19
20210408,279207,37759,229036,12412,1241,-10,1224,27
20210409,280649,38200,230021,12428,1442,441,985,16
20210410,281570,38321,230807,12442,921,121,786,14
20210411,282095,38098,231546,12451,525,-223,739,9
20210412,283084,38193,232422,12469,989,95,876,18
20210413,284183,38041,233646,12496,1099,-152,1224,27
20210414,285291,38176,234596,12519,1108,135,950,23
20210415,286114,38016,235495,12603,823,-160,899,84
20210416,287360,38280,236455,12625,1246,264,960,22
20210417,287360,38280,236455,12625,0,0,0,0
20210418,289066,38223,238195,12648,1706,-57,1740,23
20210419,290362,38502,239194,12666,1296,279,999,18
20210420,291675,38644,240336,12695,1313,142,1142,29
20210421,293061,38767,241563,12731,1386,123,1227,36
20210422,294391,38569,243064,12758,1330,-198,1501,27
20210423,295892,39030,244079,12783,1501,461,1015,25
20210424,297185,39492,244881,12812,1293,462,802,29
20210425,297659,39202,245633,12824,474,-290,752,12
20210426,298778,39244,246673,12861,1119,42,1040,37
20210427,300258,39412,247961,12885,1480,168,1288,24
20210428,301831,39808,249103,12920,1573,396,1142,35
20210429,301831,39808,249103,12920,0,0,0,0
20210430,303732,40401,250380,12951,1901,593,1277,31
20210501,306527,40738,252780,13009,2795,337,2400,58
20210502,306527,40738,252780,13009,0,0,0,0
20210503,308984,41266,254683,13035,2457,528,1903,26
20210504,308984,41266,254683,13035,0,0,0,0
20210505,310572,41562,255928,13082,1588,296,1245,47
20210506,314190,42971,258068,13151,3618,1409,2140,69
20210507,314190,42971,258068,13151,0,0,0,0
20210508,317547,43904,260438,13205,3357,933,2370,54
20210509,317547,43904,260438,13205,0,0,0,0
20210510,318610,43830,261552,13228,1063,-74,1114,23
20210511,320209,43981,262970,13258,1599,151,1418,30
20210512,322578,44253,265017,13308,2369,272,2047,50
20210513,324868,45011,266512,13345,2290,758,1495,37
20210514,327224,45842,267973,13409,2356,831,1461,64
20210515,329733,46994,269288,13451,2509,1152,1315,42
20210516,332567,47360,271690,13517,2834,366,2402,66
20210517,334824,47855,273403,13566,2257,495,1713,49
20210518,334824,47855,273403,13566,0,0,0,0
20210519,337441,48737,275069,13635,2617,882,1666,69
20210520,340207,49965,276549,13693,2766,1228,1480,58
20210521,343065,51574,277711,13780,2858,1609,1162,87
20210522,346070,52868,279345,13857,3005,1294,1634,77
20210523,349653,53678,282010,13965,3583,810,2665,108
20210524,349653,53678,282010,13965,0,0,0,0
20210525,355349,56055,285170,14124,5696,2377,3160,159
20210526,358562,57692,286644,14226,3213,1637,1474,102
20210527,361580,59162,288106,14312,3018,1470,1462,86
20210528,364570,60384,289809,14377,2990,1222,1703,65
20210529,366714,60954,291325,14435,2144,570,1516,58
20210530,368474,61290,292713,14471,1760,336,1388,36
20210531,371279,61482,295273,14524,2805,192,2560,53
20210601,374718,62499,297580,14639,3439,1017,2307,115
20210602,378028,63834,299462,14732,3310,1335,1882,93
20210603,380457,64465,301160,14832,2429,631,1698,100
20210604,383457,65199,303358,14900,3000,734,2198,68
20210605,385734,65534,305219,14981,2277,335,1861,81
20210606,387162,65319,306819,15024,1428,-215,1600,43
20210607,387162,65319,306819,15024,0,0,0,0
20210608,392975,66458,311340,15177,5813,1139,4521,153
20210609,392975,66458,311340,15177,0,0,0,0
20210610,400047,69422,315304,15321,7072,2964,3964,144
20210611,400047,69422,315304,15321,0,0,0,0
20210612,405347,70196,319666,15485,5300,774,4362,164
20210613,406954,69747,321665,15542,1607,-449,1999,57
20210614,409106,69464,324028,15614,2152,-283,2363,72
20210615,411677,69455,326484,15738,2571,-9,2456,124
20210616,414513,68539,330148,15826,2836,-916,3664,88
20210617,417195,68609,332662,15924,2682,70,2514,98
20210618,417195,68609,332662,15924,0,0,0,0
20210619,420961,67737,337136,16088,3766,-872,4474,164
20210620,422047,66811,339104,16132,1086,-926,1968,44
20210621,422811,65678,340959,16174,764,-1133,1855,42
20210622,424478,63626,344609,16243,1667,-2052,3650,69
20210623,426748,63540,346879,16329,2270,-86,2270,86
20210624,429178,63849,348915,16414,2430,309,2036,85
20210625,431360,63547,351317,16496,2182,-302,2402,82
20210626,433013,63430,353032,16551,1653,-117,1715,55
20210627,433935,62785,354569,16581,922,-645,1537,30
20210628,435568,62362,356575,16631,1633,-423,2006,50
20210629,437623,62070,358851,16702,2055,-292,2276,71
20210630,439624,61931,360926,16767,2001,-139,2075,65
20210701,441286,61033,363431,16822,1662,-898,2505,55
20210702,442884,60474,365531,16879,1598,-559,2100,57
20210703,444090,60231,366939,16920,1206,-243,1408,41
20210704,444968,59690,368327,16951,878,-541,1388,31
20210705,446362,58999,370378,16985,1394,-691,2051,34
20210706,448213,59062,372138,17013,1851,63,1760,28
20210707,449687,58996,373624,17067,1474,-66,1486,54
20210708,451224,58422,375676,17126,1537,-574,2052,59
20210709,451224,58422,375676,17126,0,0,0,0
20210710,453595,57662,378733,17200,2371,-760,3057,74
20210711,454241,56522,380500,17219,646,-1140,1767,19
20210712,455436,56241,381945,17250,1195,-281,1445,31
20210713,456815,56087,383441,17287,1379,-154,1496,37
20210714,456815,56087,383441,17287,0,0,0,0
20210715,459579,55613,386591,17375,2764,-474,3150,88
20210716,459579,55613,386591,17375,0,0,0,0
20210717,461714,55101,389170,17443,2135,-512,2579,68
20210718,462154,53951,390745,17458,440,-1150,1575,15
20210719,463125,53102,392548,17475,971,-849,1803,17
20210720,463125,53102,392548,17475,0,0,0,0
20210721,465351,52452,395353,17546,2226,-650,2805,71
20210722,466318,51828,396914,17576,967,-624,1561,30
20210723,467343,51828,398595,17613,1025,0,1681,37
20210724,467975,50689,399649,17637,632,-1139,1054,24
20210725,468423,50090,400682,17651,448,-599,1033,14
20210726,468423,50090,400682,17651,0,0,0,0
20210727,470024,48912,403396,17716,1601,-1178,2714,65
20210728,470929,48666,404509,17754,905,-246,1113,38
20210729,471958,48321,405853,17784,1029,-345,1344,30
20210730,471958,48321,405853,17784,0,0,0,0
20210731,473506,47753,407932,17821,1548,-568,2079,37
20210801,473899,47483,408577,17839,393,-270,645,18
20210802,474538,46911,409768,17859,639,-572,1191,20
20210803,475265,46550,410833,17882,727,-361,1065,23
20210804,476097,46357,411830,17910,832,-193,997,28
20210805,476795,0,0,17935,698,-46357,-411830,25
20210806,476795,0,0,17935,0,0,0,0
20210807,477262,0,0,17959,467,0,0,24
20210808,477696,0,0,17971,434,0,0,12
20210809,478671,0,0,18004,975,0,0,33
20210810,478671,0,0,18004,0,0,0,0
20210811,480229,0,0,18109,1558,0,0,105
20210812,480229,0,0,18109,0,0,0,0
20210813,481631,0,0,18152,1402,0,0,43
20210814,481631,0,0,18152,0,0,0,0
20210815,482428,0,0,18185,797,0,0,33
20210816,482428,0,0,18185,0,0,0,0
20210817,483731,0,0,18222,1303,0,0,37
20210818,484446,0,0,18236,715,0,0,14
20210819,484446,0,0,18236,0,0,0,0
20210820,485184,0,0,18256,738,0,0,20
20210821,486394,0,0,18296,1210,0,0,40
20210822,486643,0,0,18302,249,0,0,6
20210823,487131,0,0,18313,488,0,0,11
20210824,487721,0,0,18330,590,0,0,17
20210825,488403,0,0,18350,682,0,0,20
20210826,488933,0,0,18371,530,0,0,21
20210827,488933,0,0,18371,0,0,0,0
20210828,489802,0,0,18402,869,0,0,31
20210829,490056,0,0,18411,254,0,0,9
20210830,490467,0,0,18429,411,0,0,18
20210831,490879,0,0,18452,412,0,0,23
20210901,491340,0,0,18473,461,0,0,21
20210902,491759,0,0,18486,419,0,0,13
20210903,491759,0,0,18486,0,0,0,0
20210904,492509,0,0,18507,750,0,0,21
