date,infected,active,recovered,dead,deltaInfected,deltaActive,deltaRecovered,deltaDead
20200306,1,1,0,0,1,1,0,0
20200307,1,1,0,0,0,0,0,0
20200308,1,1,0,0,0,0,0,0
20200309,1,1,0,0,0,0,0,0
20200310,1,1,0,0,0,0,0,0
20200311,1,1,0,0,0,0,0,0
20200312,1,1,0,0,0,0,0,0
20200313,1,1,0,0,0,0,0,0
20200314,1,1,0,0,0,0,0,0
20200315,1,1,0,0,0,0,0,0
20200316,1,1,0,0,0,0,0,0
20200317,1,1,0,0,0,0,0,0
20200318,1,1,0,0,0,0,0,0
20200319,1,1,0,0,0,0,0,0
20200320,2,2,0,0,1,1,0,0
20200321,2,2,0,0,0,0,0,0
20200322,2,2,0,0,0,0,0,0
20200323,2,2,0,0,0,0,0,0
20200324,2,2,0,0,0,0,0,0
20200325,2,2,0,0,0,0,0,0
20200326,2,2,0,0,0,0,0,0
20200327,3,3,0,0,1,1,0,0
20200328,3,3,0,0,0,0,0,0
20200329,4,4,0,0,1,1,0,0
20200330,4,4,0,0,0,0,0,0
20200331,4,4,0,0,0,0,0,0
20200401,4,4,0,0,0,0,0,0
20200402,5,4,1,0,1,0,1,0
20200403,5,3,2,0,0,-1,1,0
20200404,5,3,2,0,0,0,0,0
20200405,5,3,2,0,0,0,0,0
20200406,5,3,2,0,0,0,0,0
20200407,5,3,2,0,0,0,0,0
20200408,5,3,2,0,0,0,0,0
20200409,5,3,2,0,0,0,0,0
20200410,5,3,2,0,0,0,0,0
20200411,5,3,2,0,0,0,0,0
20200412,5,3,2,0,0,0,0,0
20200413,5,3,2,0,0,0,0,0
20200414,5,3,2,0,0,0,0,0
20200415,5,3,2,0,0,0,0,0
20200416,5,3,2,0,0,0,0,0
20200417,5,3,2,0,0,0,0,0
20200418,5,3,2,0,0,0,0,0
20200419,5,3,2,0,0,0,0,0
20200420,5,3,2,0,0,0,0,0
20200421,6,4,2,0,1,1,0,0
20200422,6,4,2,0,0,0,0,0
20200423,7,4,3,0,1,0,1,0
20200424,7,4,3,0,0,0,0,0
20200425,7,4,3,0,0,0,0,0
20200426,7,3,4,0,0,-1,1,0
20200427,7,3,4,0,0,0,0,0
20200428,7,2,5,0,0,-1,1,0
20200429,7,2,5,0,0,0,0,0
20200430,7,2,5,0,0,0,0,0
20200501,7,2,5,0,0,0,0,0
20200502,7,2,5,0,0,0,0,0
20200503,7,2,5,0,0,0,0,0
20200504,7,2,5,0,0,0,0,0
20200505,7,2,5,0,0,0,0,0
20200506,7,2,5,0,0,0,0,0
20200507,7,2,5,0,0,0,0,0
20200508,7,2,5,0,0,0,0,0
20200509,7,2,5,0,0,0,0,0
20200510,7,2,5,0,0,0,0,0
20200511,11,6,5,0,4,4,0,0
20200512,11,6,5,0,0,0,0,0
20200513,15,10,5,0,4,4,0,0
20200514,20,15,5,0,5,5,0,0
20200515,21,16,5,0,1,1,0,0
20200516,21,16,5,0,0,0,0,0
20200517,21,16,5,0,0,0,0,0
20200518,21,16,5,0,0,0,0,0
20200519,21,16,5,0,0,0,0,0
20200520,21,16,5,0,0,0,0,0
20200521,21,15,6,0,0,-1,1,0
20200522,21,15,6,0,0,0,0,0
20200523,24,18,6,0,3,3,0,0
20200524,24,18,6,0,0,0,0,0
20200525,27,21,6,0,3,3,0,0
20200526,27,21,6,0,0,0,0,0
20200527,28,22,6,0,1,1,0,0
20200528,31,25,6,0,3,3,0,0
20200529,31,25,6,0,0,0,0,0
20200530,33,27,6,0,2,2,0,0
20200531,43,37,6,0,10,10,0,0
20200601,43,37,6,0,0,0,0,0
20200602,47,38,9,0,4,1,3,0
20200603,47,38,9,0,0,0,0,0
20200604,47,38,9,0,0,0,0,0
20200605,48,37,11,0,1,-1,2,0
20200606,48,37,11,0,0,0,0,0
20200607,59,48,11,0,11,11,0,0
20200608,59,45,14,0,0,-3,3,0
20200609,59,42,17,0,0,-3,3,0
20200610,59,41,18,0,0,-1,1,0
20200611,62,43,19,0,3,2,1,0
20200612,62,43,19,0,0,0,0,0
20200613,66,45,21,0,4,2,2,0
20200614,66,45,21,0,0,0,0,0
20200615,67,45,22,0,1,0,1,0
20200616,67,43,24,0,0,-2,2,0
20200617,67,43,24,0,0,0,0,0
20200618,67,42,25,0,0,-1,1,0
20200619,68,40,28,0,1,-2,3,0
20200620,68,38,30,0,0,-2,2,0
20200621,68,38,30,0,0,0,0,0
20200622,68,36,32,0,0,-2,2,0
20200623,70,36,34,0,2,0,2,0
20200624,70,36,34,0,0,0,0,0
20200625,70,36,34,0,0,0,0,0
20200626,70,32,38,0,0,-4,4,0
20200627,75,37,38,0,5,5,0,0
20200628,76,38,38,0,1,1,0,0
20200629,77,33,44,0,1,-5,6,0
20200630,77,29,48,0,0,-4,4,0
20200701,77,27,50,0,0,-2,2,0
20200702,77,27,50,0,0,0,0,0
20200703,77,27,50,0,0,0,0,0
20200704,78,27,51,0,1,0,1,0
20200705,80,27,53,0,2,0,2,0
20200706,80,27,53,0,0,0,0,0
20200707,80,25,55,0,0,-2,2,0
20200708,80,25,55,0,0,0,0,0
20200709,80,25,55,0,0,0,0,0
20200710,80,25,55,0,0,0,0,0
20200711,82,25,57,0,2,0,2,0
20200712,84,8,76,0,2,-17,19,0
20200713,84,8,76,0,0,0,0,0
20200714,84,6,78,0,0,-2,2,0
20200715,84,6,78,0,0,0,0,0
20200716,86,8,78,0,2,2,0,0
20200717,87,9,78,0,1,1,0,0
20200718,87,9,78,0,0,0,0,0
20200719,89,7,82,0,2,-2,4,0
20200720,90,7,83,0,1,0,1,0
20200721,92,9,83,0,2,2,0,0
20200722,92,9,83,0,0,0,0,0
20200723,92,9,83,0,0,0,0,0
20200724,92,7,85,0,0,-2,2,0
20200725,92,7,85,0,0,0,0,0
20200726,95,10,85,0,3,3,0,0
20200727,99,13,86,0,4,3,1,0
20200728,99,13,86,0,0,0,0,0
20200729,99,13,86,0,0,0,0,0
20200730,101,13,88,0,2,0,2,0
20200731,101,12,89,0,0,-1,1,0
20200801,102,13,89,0,1,1,0,0
20200802,102,13,89,0,0,0,0,0
20200803,103,13,90,0,1,0,1,0
20200804,105,12,93,0,2,-1,3,0
20200805,105,12,93,0,0,0,0,0
20200806,108,12,96,0,3,0,3,0
20200807,108,12,96,0,0,0,0,0
20200808,108,12,96,0,0,0,0,0
20200809,110,14,96,0,2,2,0,0
20200810,110,14,96,0,0,0,0,0
20200811,113,16,97,0,3,2,1,0
20200812,113,16,97,0,0,0,0,0
20200813,128,28,100,0,15,12,3,0
20200814,133,31,102,0,5,3,2,0
20200815,133,31,102,0,0,0,0,0
20200816,138,36,102,0,5,5,0,0
20200817,141,38,103,0,3,2,1,0
20200818,147,44,103,0,6,6,0,0
20200819,147,44,103,0,0,0,0,0
20200820,153,45,108,0,6,1,5,0
20200821,154,44,110,0,1,-1,2,0
20200822,155,43,112,0,1,-1,2,0
20200823,155,43,112,0,0,0,0,0
20200824,156,39,117,0,1,-4,5,0
20200825,173,55,118,0,17,16,1,0
20200826,173,55,118,0,0,0,0,0
20200827,184,65,119,0,11,10,1,0
20200828,195,75,120,0,11,10,1,0
20200829,195,60,135,0,0,-15,15,0
20200830,224,84,140,0,29,24,5,0
20200831,225,83,142,0,1,-1,2,0
20200901,227,85,142,0,2,2,0,0
20200902,227,83,144,0,0,-2,2,0
20200903,227,77,150,0,0,-6,6,0
20200904,228,78,150,0,1,1,0,0
20200905,228,78,150,0,0,0,0,0
20200906,228,78,150,0,0,0,0,0
20200907,233,82,151,0,5,4,1,0
20200908,234,81,153,0,1,-1,2,0
20200909,234,79,155,0,0,-2,2,0
20200910,238,83,155,0,4,4,0,0
20200911,241,83,158,0,3,0,3,0
20200912,244,85,159,0,3,2,1,0
20200913,245,84,161,0,1,-1,2,0
20200914,245,84,161,0,0,0,0,0
20200915,246,71,175,0,1,-13,14,0
20200916,246,71,175,0,0,0,0,0
20200917,246,71,175,0,0,0,0,0
20200918,252,70,182,0,6,-1,7,0
20200919,259,69,190,0,7,-1,8,0
20200920,261,69,192,0,2,0,2,0
20200921,261,67,194,0,0,-2,2,0
20200922,261,66,195,0,0,-1,1,0
20200923,261,65,196,0,0,-1,1,0
20200924,263,65,198,0,2,0,2,0
20200925,263,64,199,0,0,-1,1,0
20200926,271,66,205,0,8,2,6,0
20200927,273,63,210,0,2,-3,5,0
20200928,280,70,210,0,7,7,0,0
20200929,281,62,219,0,1,-8,9,0
20200930,282,60,222,0,1,-2,3,0
20201001,282,57,225,0,0,-3,3,0
20201002,283,54,229,0,1,-3,4,0
20201003,283,53,230,0,0,-1,1,0
20201004,298,61,237,0,15,8,7,0
20201005,299,51,248,0,1,-10,11,0
20201006,300,50,250,0,1,-1,2,0
20201007,304,52,252,0,4,2,2,0
20201008,304,49,255,0,0,-3,3,0
20201009,306,24,282,0,2,-25,27,0
20201010,306,19,287,0,0,-5,5,0
20201011,309,21,288,0,3,2,1,0
20201012,309,18,291,0,0,-3,3,0
20201013,313,20,293,0,4,2,2,0
20201014,316,22,294,0,3,2,1,0
20201015,316,20,296,0,0,-2,2,0
20201016,316,18,298,0,0,-2,2,0
20201017,325,26,299,0,9,8,1,0
20201018,327,26,301,0,2,0,2,0
20201019,330,29,301,0,3,3,0,0
20201020,331,29,302,0,1,0,1,0
20201021,332,26,306,0,1,-3,4,0
20201022,336,30,306,0,4,4,0,0
20201023,336,30,306,0,0,0,0,0
20201024,340,34,306,0,4,4,0,0
20201025,342,35,307,0,2,1,1,0
20201026,342,30,312,0,0,-5,5,0
20201027,345,31,314,0,3,1,2,0
20201028,346,31,315,0,1,0,1,0
20201029,346,30,316,0,0,-1,1,0
20201030,348,29,319,0,2,-1,3,0
20201031,349,25,324,0,1,-4,5,0
20201101,354,29,325,0,5,4,1,0
20201102,356,30,326,0,2,1,1,0
20201103,358,31,327,0,2,1,1,0
20201104,358,29,329,0,0,-2,2,0
20201105,358,25,333,0,0,-4,4,0
20201106,358,20,338,0,0,-5,5,0
20201107,359,21,338,0,1,1,0,0
20201108,359,21,338,0,0,0,0,0
20201109,364,22,342,0,5,1,4,0
20201110,364,21,343,0,0,-1,1,0
20201111,364,19,345,0,0,-2,2,0
20201112,369,24,345,0,5,5,0,0
20201113,369,21,348,0,0,-3,3,0
20201114,375,22,353,0,6,1,5,0
20201115,375,20,355,0,0,-2,2,0
20201116,377,22,355,0,2,2,0,0
20201117,378,22,356,0,1,0,1,0
20201118,378,21,357,0,0,-1,1,0
20201119,378,21,357,0,0,0,0,0
20201120,378,20,358,0,0,-1,1,0
20201121,379,19,360,0,1,-1,2,0
20201122,382,22,360,0,3,3,0,0
20201123,386,23,363,0,4,1,3,0
20201124,386,23,363,0,0,0,0,0
20201125,386,19,367,0,0,-4,4,0
20201126,389,21,368,0,3,2,1,0
20201127,395,23,372,0,6,2,4,0
20201128,396,23,373,0,1,0,1,0
20201129,396,19,377,0,0,-4,4,0
20201130,410,29,381,0,14,10,4,0
20201201,414,28,386,0,4,-1,5,0
20201202,415,29,386,0,1,1,0,0
20201203,418,32,386,0,3,3,0,0
20201204,424,37,387,0,6,5,1,0
20201205,426,39,387,0,2,2,0,0
20201206,430,42,388,0,4,3,1,0
20201207,432,42,390,0,2,0,2,0
20201208,433,40,393,0,1,-2,3,0
20201209,433,38,395,0,0,-2,2,0
20201210,434,39,395,0,1,1,0,0
20201211,436,40,396,0,2,1,1,0
20201212,437,37,400,0,1,-3,4,0
20201213,438,35,403,0,1,-2,3,0
20201214,438,34,404,0,0,-1,1,0
20201215,439,31,408,0,1,-3,4,0
20201216,440,31,409,0,1,0,1,0
20201217,440,31,409,0,0,0,0,0
20201218,443,21,422,0,3,-10,13,0
20201219,443,20,423,0,0,-1,1,0
20201220,446,23,423,0,3,3,0,0
20201221,479,49,430,0,33,26,7,0
20201222,479,49,430,0,0,0,0,0
20201223,519,81,438,0,40,32,8,0
20201224,519,81,438,0,0,0,0,0
20201225,576,132,444,0,57,51,6,0
20201226,597,152,445,0,21,20,1,0
20201227,623,178,445,0,26,26,0,0
20201228,623,178,445,0,0,0,0,0
20201229,636,191,445,0,13,13,0,0
20201230,655,208,447,0,19,17,2,0
20201231,670,222,448,0,15,14,1,0
20210101,689,240,449,0,19,18,1,0
20210102,710,260,450,0,21,20,1,0
20210103,716,266,450,0,6,6,0,0
20210104,734,281,453,0,18,15,3,0
20210105,734,278,456,0,0,-3,3,0
20210106,755,299,456,0,21,21,0,0
20210107,767,308,459,0,12,9,3,0
20210108,771,305,459,1,4,-3,0,1
20210109,810,343,459,1,39,38,0,0
20210110,813,345,459,1,3,2,0,0
20210111,825,355,469,1,12,10,10,0
20210112,831,349,481,1,6,-6,12,0
20210113,833,328,504,1,2,-21,23,0
20210114,834,300,533,1,1,-28,29,0
20210115,837,303,533,1,3,3,0,0
20210116,842,288,553,1,5,-15,20,0
20210117,842,267,574,1,0,-21,21,0
20210118,843,259,583,1,1,-8,9,0
20210119,848,242,605,1,5,-17,22,0
20210120,850,218,631,1,2,-24,26,0
20210121,850,218,631,1,0,0,0,0
20210122,851,171,679,1,1,-47,48,0
20210123,854,151,702,1,3,-20,23,0
20210124,855,129,725,1,1,-22,23,0
20210125,856,121,734,1,1,-8,9,0
20210126,856,100,755,1,0,-21,21,0
20210127,856,91,764,1,0,-9,9,0
20210128,857,80,776,1,1,-11,12,0
20210129,858,77,780,1,1,-3,4,0
20210130,858,75,782,1,0,-2,2,0
20210131,859,44,814,1,1,-31,32,0
20210201,859,37,821,1,0,-7,7,0
20210202,859,17,841,1,0,-20,20,0
20210203,859,11,847,1,0,-6,6,0
20210204,859,11,847,1,0,0,0,0
20210205,861,8,852,1,2,-3,5,0
20210206,861,7,853,1,0,-1,1,0
20210207,861,6,854,1,0,-1,1,0
20210208,861,6,854,1,0,0,0,0
20210209,861,6,854,1,0,0,0,0
20210210,861,6,854,1,0,0,0,0
20210211,861,6,854,1,0,0,0,0
20210212,863,7,855,1,2,1,1,0
20210213,863,7,855,1,0,0,0,0
20210214,864,7,856,1,1,0,1,0
20210215,866,9,856,1,2,2,0,0
20210216,866,9,856,1,0,0,0,0
20210217,866,9,856,1,0,0,0,0
20210218,866,8,857,1,0,-1,1,0
20210219,866,8,857,1,0,0,0,0
20210220,866,8,857,1,0,0,0,0
20210221,866,8,857,1,0,0,0,0
20210222,866,3,862,1,0,-5,5,0
20210223,867,4,862,1,1,1,0,0
20210224,867,4,862,1,0,0,0,0
20210225,867,4,862,1,0,0,0,0
20210226,867,4,862,1,0,0,0,0
20210227,867,4,862,1,0,0,0,0
20210228,867,1,865,1,0,-3,3,0
20210301,867,1,865,1,0,0,0,0
20210302,867,1,865,1,0,0,0,0
20210303,867,1,865,1,0,0,0,0
20210304,867,1,865,1,0,0,0,0
20210305,867,0,866,1,0,-1,1,0
20210306,868,1,866,1,1,1,0,0
20210307,868,1,866,1,0,0,0,0
20210308,868,1,866,1,0,0,0,0
20210309,868,1,866,1,0,0,0,0
20210310,868,1,866,1,0,0,0,0
20210311,868,1,866,1,0,0,0,0
20210312,868,1,866,1,0,0,0,0
20210313,868,1,866,1,0,0,0,0
20210314,868,1,866,1,0,0,0,0
20210315,868,1,866,1,0,0,0,0
20210316,868,1,866,1,0,0,0,0
20210317,868,1,866,1,0,0,0,0
20210318,868,0,867,1,0,-1,1,0
20210319,868,0,867,1,0,0,0,0
20210320,869,1,867,1,1,1,0,0
20210321,869,1,867,1,0,0,0,0
20210322,869,1,867,1,0,0,0,0
20210323,869,1,867,1,0,0,0,0
20210324,870,2,867,1,1,1,0,0
20210325,870,2,867,1,0,0,0,0
20210326,870,2,867,1,0,0,0,0
20210327,871,3,867,1,1,1,0,0
20210328,872,4,867,1,1,1,0,0
20210329,872,4,867,1,0,0,0,0
20210330,872,4,867,1,0,0,0,0
20210331,873,3,869,1,1,-1,2,0
20210401,886,16,869,1,13,13,0,0
20210402,889,18,870,1,3,2,1,0
20210403,891,20,870,1,2,2,0,0
20210404,891,20,870,1,0,0,0,0
20210405,891,20,870,1,0,0,0,0
20210406,896,25,870,1,5,5,0,0
20210407,900,25,874,1,4,0,4,0
20210408,900,25,874,1,0,0,0,0
20210409,906,30,875,1,6,5,1,0
20210410,910,34,875,1,4,4,0,0
20210411,918,42,875,1,8,8,0,0
20210412,921,45,875,1,3,3,0,0
20210413,927,51,875,1,6,6,0,0
20210414,929,52,876,1,2,1,1,0
20210415,934,57,876,1,5,5,0,0
20210416,941,64,876,1,7,7,0,0
20210417,952,73,878,1,11,9,2,0
20210418,957,78,878,1,5,5,0,0
20210419,961,79,881,1,4,1,3,0
20210420,966,82,883,1,5,3,2,0
20210421,986,102,883,1,20,20,0,0
20210422,992,85,906,1,6,-17,23,0
20210423,1008,81,926,1,16,-4,20,0
20210424,1018,90,927,1,10,9,1,0
20210425,1022,94,927,1,4,4,0,0
20210426,1026,87,938,1,4,-7,11,0
20210427,1053,101,951,1,27,14,13,0
20210428,1059,97,961,1,6,-4,10,0
20210429,1066,104,961,1,7,7,0,0
20210430,1074,112,961,1,8,8,0,0
20210501,1106,115,990,1,32,3,29,0
20210502,1111,117,993,1,5,2,3,0
20210503,1119,119,999,1,8,2,6,0
20210504,1135,135,999,1,16,16,0,0
20210505,1144,126,1017,1,9,-9,18,0
20210506,1161,132,1028,1,17,6,11,0
20210507,1190,152,1037,1,29,20,9,0
20210508,1202,136,1065,1,12,-16,28,0
20210509,1221,153,1067,1,19,17,2,0
20210510,1241,151,1089,1,20,-2,22,0
20210511,1247,145,1101,1,6,-6,12,0
20210512,1257,135,1121,1,10,-10,20,0
20210513,1263,141,1121,1,6,6,0,0
20210514,1276,154,1121,1,13,13,0,0
20210515,1279,124,1154,1,3,-30,33,0
20210516,1286,130,1155,1,7,6,1,0
20210517,1296,118,1177,1,10,-12,22,0
20210518,1309,122,1186,1,13,4,9,0
20210519,1322,135,1186,1,13,13,0,0
20210520,1338,151,1186,1,16,16,0,0
20210521,1374,187,1186,1,36,36,0,0
20210522,1392,205,1186,1,18,18,0,0
20210523,1394,207,1186,1,2,2,0,0
20210524,1411,224,1186,1,17,17,0,0
20210525,1423,236,1186,1,12,12,0,0
20210526,1464,277,1186,1,41,41,0,0
20210527,1491,304,1186,1,27,27,0,0
20210528,1503,261,1241,1,12,-43,55,0
20210529,1603,361,1241,1,100,100,0,0
20210530,1612,336,1275,1,9,-25,34,0
20210531,1620,311,1308,1,8,-25,33,0
20210601,1632,323,1308,1,12,12,0,0
20210602,1639,330,1308,1,7,7,0,0
20210603,1654,326,1327,1,15,-4,19,0
20210604,1669,341,1327,1,15,15,0,0
20210605,1682,311,1370,1,13,-30,43,0
20210606,1687,298,1388,1,5,-13,18,0
20210607,1703,297,1405,1,16,-1,17,0
20210608,1724,307,1416,1,21,10,11,0
20210609,1739,314,1424,1,15,7,8,0
20210610,1769,328,1440,1,30,14,16,0
20210611,1789,348,1440,1,20,20,0,0
20210612,1808,367,1440,1,19,19,0,0
20210613,1813,345,1467,1,5,-22,27,0
20210614,1826,358,1467,1,13,13,0,0
20210615,1842,345,1496,1,16,-13,29,0
20210616,1854,352,1501,1,12,7,5,0
20210617,1882,351,1530,1,28,-1,29,0
20210618,1889,344,1544,1,7,-7,14,0
20210619,1903,358,1544,1,14,14,0,0
20210620,1924,247,1676,1,21,-111,132,0
20210621,1939,253,1685,1,15,6,9,0
20210622,1963,260,1702,1,24,7,17,0
20210623,1970,267,1702,1,7,7,0,0
20210624,2006,268,1737,1,36,1,35,0
20210625,2013,272,1740,1,7,4,3,0
20210626,2027,286,1740,1,14,14,0,0
20210627,2052,304,1747,1,25,18,7,0
20210628,2062,294,1767,1,10,-10,20,0
20210629,2076,302,1773,1,14,8,6,0
20210630,2100,326,1773,1,24,24,0,0
20210701,2104,292,1811,1,4,-34,38,0
20210702,2122,301,1820,1,18,9,9,0
20210703,2133,312,1820,1,11,11,0,0
20210704,2159,288,1870,1,26,-24,50,0
20210705,2169,288,1880,1,10,0,10,0
20210706,2210,318,1891,1,41,30,11,0
20210707,2249,333,1915,1,39,15,24,0
20210708,2252,321,1930,1,3,-12,15,0
20210709,2258,324,1933,1,6,3,3,0
20210710,2266,332,1933,1,8,8,0,0
20210711,2275,301,1973,1,9,-31,40,0
20210712,2290,303,1986,1,15,2,13,0
20210713,2324,337,1986,1,34,34,0,0
20210714,2370,351,2018,1,46,14,32,0
20210715,2380,351,2027,2,10,0,9,1
20210716,2398,358,2038,2,18,7,11,0
20210717,2411,371,2038,2,13,13,0,0
20210718,2421,377,2042,2,10,6,4,0
20210719,2427,300,2125,2,6,-77,83,0
20210720,2455,328,2125,2,28,28,0,0
20210721,2456,275,2179,2,1,-53,54,0
20210722,2458,275,2181,2,2,0,2,0
20210723,2470,253,2215,2,12,-22,34,0
20210724,2482,258,2222,2,12,5,7,0
20210725,2486,245,2239,2,4,-13,17,0
20210726,2489,237,2250,2,3,-8,11,0
20210727,2500,223,2275,2,11,-14,25,0
20210728,2501,168,2331,2,1,-55,56,0
20210729,2506,151,2353,2,5,-17,22,0
20210730,2508,135,2371,2,2,-16,18,0
20210731,2515,139,2374,2,7,4,3,0
20210801,2518,132,2384,2,3,-7,10,0
20210802,2524,123,2399,2,6,-9,15,0
20210803,2532,130,2400,2,8,7,1,0
20210804,2540,120,2418,2,8,-10,18,0
20210805,2543,0,0,2,3,-120,-2418,0
20210806,2544,0,0,2,1,0,0,0
20210807,2544,0,0,2,0,0,0,0
20210808,2544,0,0,2,0,0,0,0
20210809,2546,0,0,2,2,0,0,0
20210810,2550,0,0,2,4,0,0,0
20210811,2551,0,0,2,1,0,0,0
20210812,2553,0,0,3,2,0,0,1
20210813,2566,0,0,3,13,0,0,0
20210814,2570,0,0,3,4,0,0,0
20210815,2571,0,0,3,1,0,0,0
20210816,2577,0,0,3,6,0,0,0
20210817,2577,0,0,3,0,0,0,0
20210818,2577,0,0,3,0,0,0,0
20210819,2580,0,0,3,3,0,0,0
20210820,2580,0,0,3,0,0,0,0
20210821,2585,0,0,3,5,0,0,0
20210822,2585,0,0,3,0,0,0,0
20210823,2585,0,0,3,0,0,0,0
20210824,2591,0,0,3,6,0,0,0
20210825,2591,0,0,3,0,0,0,0
20210826,2591,0,0,3,0,0,0,0
20210827,2592,0,0,3,1,0,0,0
20210828,2594,0,0,3,2,0,0,0
20210829,2594,0,0,3,0,0,0,0
20210830,2595,0,0,3,1,0,0,0
20210831,2596,0,0,3,1,0,0,0
20210901,2596,0,0,3,0,0,0,0
20210902,2596,0,0,3,0,0,0,0
20210903,2596,0,0,3,0,0,0,0
20210904,2596,0,0,3,0,0,0,0
