date,infected,active,recovered,dead,deltaInfected,deltaActive,deltaRecovered,deltaDead
20200315,1,1,0,0,1,1,0,0
20200316,1,1,0,0,0,0,0,0
20200317,1,1,0,0,0,0,0,0
20200318,1,1,0,0,0,0,0,0
20200319,3,3,0,0,2,2,0,0
20200320,3,3,0,0,0,0,0,0
20200321,3,3,0,0,0,0,0,0
20200322,3,3,0,0,0,0,0,0
20200323,4,4,0,0,1,1,0,0
20200324,4,4,0,0,0,0,0,0
20200325,4,4,0,0,0,0,0,0
20200326,4,4,0,0,0,0,0,0
20200327,4,4,0,0,0,0,0,0
20200328,4,4,0,0,0,0,0,0
20200329,19,19,0,0,15,15,0,0
20200330,19,19,0,0,0,0,0,0
20200331,19,19,0,0,0,0,0,0
20200401,19,19,0,0,0,0,0,0
20200402,22,18,2,2,3,-1,2,2
20200403,22,18,2,2,0,0,0,0
20200404,22,18,2,2,0,0,0,0
20200405,45,38,2,5,23,20,0,3
20200406,45,38,2,5,0,0,0,0
20200407,45,38,2,5,0,0,0,0
20200408,45,38,2,5,0,0,0,0
20200409,60,50,5,5,15,12,3,0
20200410,60,50,5,5,0,0,0,0
20200411,60,50,5,5,0,0,0,0
20200412,60,50,5,5,0,0,0,0
20200413,60,50,5,5,0,0,0,0
20200414,60,50,5,5,0,0,0,0
20200415,117,101,11,5,57,51,6,0
20200416,117,101,11,5,0,0,0,0
20200417,143,126,11,6,26,25,0,1
20200418,143,126,11,6,0,0,0,0
20200419,143,126,11,6,0,0,0,0
20200420,160,138,16,6,17,12,5,0
20200421,165,143,16,6,5,5,0,0
20200422,186,164,16,6,21,21,0,0
20200423,186,164,16,6,0,0,0,0
20200424,200,175,19,6,14,11,3,0
20200425,200,175,19,6,0,0,0,0
20200426,200,175,19,6,0,0,0,0
20200427,200,175,19,6,0,0,0,0
20200428,207,180,19,8,7,5,0,2
20200429,207,180,19,8,0,0,0,0
20200430,220,192,19,9,13,12,0,1
20200501,229,195,25,9,9,3,6,0
20200502,229,195,25,9,0,0,0,0
20200503,229,195,25,9,0,0,0,0
20200504,236,200,26,10,7,5,1,1
20200505,236,200,26,10,0,0,0,0
20200506,264,224,30,10,28,24,4,0
20200507,264,224,30,10,0,0,0,0
20200508,274,231,33,10,10,7,3,0
20200509,274,231,33,10,0,0,0,0
20200510,274,231,33,10,0,0,0,0
20200511,333,269,53,11,59,38,20,1
20200512,333,269,53,11,0,0,0,0
20200513,333,269,53,11,0,0,0,0
20200514,391,289,87,15,58,20,34,4
20200515,391,289,87,15,0,0,0,0
20200516,391,289,87,15,0,0,0,0
20200517,391,289,87,15,0,0,0,0
20200518,412,287,110,15,21,-2,23,0
20200519,420,273,132,15,8,-14,22,0
20200520,420,273,132,15,0,0,0,0
20200521,469,316,137,16,49,43,5,1
20200522,469,316,137,16,0,0,0,0
20200523,487,324,147,16,18,8,10,0
20200524,487,324,147,16,0,0,0,0
20200525,487,324,147,16,0,0,0,0
20200526,487,324,147,16,0,0,0,0
20200527,571,391,161,19,84,67,14,3
20200528,571,391,161,19,0,0,0,0
20200529,571,391,161,19,0,0,0,0
20200530,571,391,161,19,0,0,0,0
20200531,611,412,179,20,40,21,18,1
20200601,611,412,179,20,0,0,0,0
20200602,611,412,179,20,0,0,0,0
20200603,611,412,179,20,0,0,0,0
20200604,611,412,179,20,0,0,0,0
20200605,635,433,182,20,24,21,3,0
20200606,683,451,210,22,48,18,28,2
20200607,683,451,210,22,0,0,0,0
20200608,683,451,210,22,0,0,0,0
20200609,728,483,221,24,45,32,11,2
20200610,728,483,221,24,0,0,0,0
20200611,728,483,221,24,0,0,0,0
20200612,728,483,221,24,0,0,0,0
20200613,728,483,221,24,0,0,0,0
20200614,728,483,221,24,0,0,0,0
20200615,883,465,391,27,155,-18,170,3
20200616,883,465,391,27,0,0,0,0
20200617,883,465,391,27,0,0,0,0
20200618,883,465,391,27,0,0,0,0
20200619,883,465,391,27,0,0,0,0
20200620,883,465,391,27,0,0,0,0
20200621,883,465,391,27,0,0,0,0
20200622,1087,594,456,37,204,129,65,10
20200623,1087,594,456,37,0,0,0,0
20200624,1087,594,456,37,0,0,0,0
20200625,1087,594,456,37,0,0,0,0
20200626,1087,594,456,37,0,0,0,0
20200627,1087,594,456,37,0,0,0,0
20200628,1087,594,456,37,0,0,0,0
20200629,1087,594,456,37,0,0,0,0
20200630,1087,594,456,37,0,0,0,0
20200701,1382,855,486,41,295,261,30,4
20200702,1382,855,486,41,0,0,0,0
20200703,1557,1012,501,44,175,157,15,3
20200704,1557,1012,501,44,0,0,0,0
20200705,1557,1012,501,44,0,0,0,0
20200706,1557,1012,501,44,0,0,0,0
20200707,1557,1012,501,44,0,0,0,0
20200708,1821,1249,525,47,264,237,24,3
20200709,1821,1249,525,47,0,0,0,0
20200710,2028,1392,589,47,207,143,64,0
20200711,2028,1392,589,47,0,0,0,0
20200712,2028,1392,589,47,0,0,0,0
20200713,2028,1392,589,47,0,0,0,0
20200714,2028,1392,589,47,0,0,0,0
20200715,2222,1586,589,47,194,194,0,0
20200716,2358,1721,589,48,136,135,0,1
20200717,2633,1958,626,49,275,237,37,1
20200718,2633,1958,626,49,0,0,0,0
20200719,2633,1958,626,49,0,0,0,0
20200720,2851,2135,666,50,218,177,40,1
20200721,2851,2135,666,50,0,0,0,0
20200722,2851,2135,666,50,0,0,0,0
20200723,2851,2135,666,50,0,0,0,0
20200724,3038,2231,756,51,187,96,90,1
20200725,3038,2231,756,51,0,0,0,0
20200726,3038,2231,756,51,0,0,0,0
20200727,3200,2317,829,54,162,86,73,3
20200728,3200,2317,829,54,0,0,0,0
20200729,3200,2317,829,54,0,0,0,0
20200730,3200,2317,829,54,0,0,0,0
20200731,3200,2317,829,54,0,0,0,0
20200801,3200,2317,829,54,0,0,0,0
20200802,3200,2317,829,54,0,0,0,0
20200803,3546,1899,1589,58,346,-418,760,4
20200804,3546,1899,1589,58,0,0,0,0
20200805,3546,1899,1589,58,0,0,0,0
20200806,3546,1899,1589,58,0,0,0,0
20200807,3637,1990,1589,58,91,91,0,0
20200808,3664,2017,1589,58,27,27,0,0
20200809,3664,2017,1589,58,0,0,0,0
20200810,3664,2017,1589,58,0,0,0,0
20200811,3745,2060,1625,60,81,43,36,2
20200812,3745,2060,1625,60,0,0,0,0
20200813,3745,2060,1625,60,0,0,0,0
20200814,3745,2060,1625,60,0,0,0,0
20200815,3745,2060,1625,60,0,0,0,0
20200816,3831,2130,1625,76,86,70,0,16
20200817,3831,2130,1625,76,0,0,0,0
20200818,3831,2130,1625,76,0,0,0,0
20200819,3850,2148,1625,77,19,18,0,1
20200820,3850,2148,1625,77,0,0,0,0
20200821,3850,2148,1625,77,0,0,0,0
20200822,3850,2148,1625,77,0,0,0,0
20200823,3850,2148,1625,77,0,0,0,0
20200824,3979,2159,1742,78,129,11,117,1
20200825,3979,2159,1742,78,0,0,0,0
20200826,3979,2159,1742,78,0,0,0,0
20200827,3979,2159,1742,78,0,0,0,0
20200828,3979,2159,1742,78,0,0,0,0
20200829,3979,2159,1742,78,0,0,0,0
20200830,3979,2159,1742,78,0,0,0,0
20200831,3979,2159,1742,78,0,0,0,0
20200901,3979,2159,1742,78,0,0,0,0
20200902,4628,2784,1742,102,649,625,0,24
20200903,4628,2784,1742,102,0,0,0,0
20200904,4628,2784,1742,102,0,0,0,0
20200905,4628,2784,1742,102,0,0,0,0
20200906,4628,2784,1742,102,0,0,0,0
20200907,4891,902,3887,102,263,-1882,2145,0
20200908,4891,890,3887,114,0,-12,0,12
20200909,4891,921,3887,114,0,31,0,0
20200910,4891,921,3887,83,0,0,0,-31
20200911,4928,953,3887,88,37,32,0,5
20200912,4928,953,3887,88,0,0,0,0
20200913,4928,953,3887,88,0,0,0,0
20200914,4934,959,3887,88,6,6,0,0
20200915,4934,959,3887,88,0,0,0,0
20200916,4934,959,3887,88,0,0,0,0
20200917,4934,959,3887,88,0,0,0,0
20200918,4980,1004,3887,89,46,45,0,1
20200919,4986,1010,3887,89,6,6,0,0
20200920,4986,1010,3887,89,0,0,0,0
20200921,5002,1026,3887,89,16,16,0,0
20200922,5002,1026,3887,89,0,0,0,0
20200923,5005,1029,3887,89,3,3,0,0
20200924,5005,1029,3887,89,0,0,0,0
20200925,5005,1029,3887,89,0,0,0,0
20200926,5005,1029,3887,89,0,0,0,0
20200927,5008,1032,3887,89,3,3,0,0
20200928,5008,1032,3887,89,0,0,0,0
20200929,5008,1032,3887,89,0,0,0,0
20200930,5089,1113,3887,89,81,81,0,0
20201001,5089,1113,3887,89,0,0,0,0
20201002,5089,1113,3887,89,0,0,0,0
20201003,5089,1113,3887,89,0,0,0,0
20201004,5089,1113,3887,89,0,0,0,0
20201005,5089,1113,3887,89,0,0,0,0
20201006,5089,1113,3887,89,0,0,0,0
20201007,5089,1113,3887,89,0,0,0,0
20201008,5089,1113,3887,89,0,0,0,0
20201009,5118,1141,3887,90,29,28,0,1
20201010,5118,1141,3887,90,0,0,0,0
20201011,5118,1141,3887,90,0,0,0,0
20201012,5118,1141,3887,90,0,0,0,0
20201013,5118,1141,3887,90,0,0,0,0
20201014,5156,1177,3887,92,38,36,0,2
20201015,5156,1177,3887,92,0,0,0,0
20201016,5156,1177,3887,92,0,0,0,0
20201017,5156,1177,3887,92,0,0,0,0
20201018,5156,1177,3887,92,0,0,0,0
20201019,5156,1177,3887,92,0,0,0,0
20201020,5156,1177,3887,92,0,0,0,0
20201021,5156,1177,3887,92,0,0,0,0
20201022,5156,1177,3887,92,0,0,0,0
20201023,5156,1177,3887,92,0,0,0,0
20201024,5253,1274,3887,92,97,97,0,0
20201025,5253,1274,3887,92,0,0,0,0
20201026,5253,1274,3887,92,0,0,0,0
20201027,5253,1274,3887,92,0,0,0,0
20201028,5253,1274,3887,92,0,0,0,0
20201029,5290,1311,3887,92,37,37,0,0
20201030,5290,1311,3887,92,0,0,0,0
20201031,5290,1311,3887,92,0,0,0,0
20201101,5290,1311,3887,92,0,0,0,0
20201102,5290,1311,3887,92,0,0,0,0
20201103,5348,1369,3887,92,58,58,0,0
20201104,5348,1369,3887,92,0,0,0,0
20201105,5348,1369,3887,92,0,0,0,0
20201106,5379,1400,3887,92,31,31,0,0
20201107,5379,1400,3887,92,0,0,0,0
20201108,5379,1400,3887,92,0,0,0,0
20201109,5379,1400,3887,92,0,0,0,0
20201110,5379,1400,3887,92,0,0,0,0
20201111,5379,1400,3887,92,0,0,0,0
20201112,5379,1400,3887,92,0,0,0,0
20201113,5515,1536,3887,92,136,136,0,0
20201114,5515,1536,3887,92,0,0,0,0
20201115,5515,1536,3887,92,0,0,0,0
20201116,5515,1536,3887,92,0,0,0,0
20201117,5515,1536,3887,92,0,0,0,0
20201118,5515,1536,3887,92,0,0,0,0
20201119,5632,1652,3887,93,117,116,0,1
20201120,5632,1652,3887,93,0,0,0,0
20201121,5632,1652,3887,93,0,0,0,0
20201122,5632,1652,3887,93,0,0,0,0
20201123,5632,551,4988,93,0,-1101,1101,0
20201124,5632,551,4988,93,0,0,0,0
20201125,5632,551,4988,93,0,0,0,0
20201126,5632,551,4988,93,0,0,0,0
20201127,5774,692,4988,94,142,141,0,1
20201128,5774,692,4988,94,0,0,0,0
20201129,5774,692,4988,94,0,0,0,0
20201130,5774,692,4988,94,0,0,0,0
20201201,5774,692,4988,94,0,0,0,0
20201202,5774,692,4988,94,0,0,0,0
20201203,5774,692,4988,94,0,0,0,0
20201204,5774,692,4988,94,0,0,0,0
20201205,5774,692,4988,94,0,0,0,0
20201206,5774,692,4988,94,0,0,0,0
20201207,5774,692,4988,94,0,0,0,0
20201208,5774,692,4988,94,0,0,0,0
20201209,6049,962,4988,99,275,270,0,5
20201210,6049,962,4988,99,0,0,0,0
20201211,6049,962,4988,99,0,0,0,0
20201212,6049,962,4988,99,0,0,0,0
20201213,6049,962,4988,99,0,0,0,0
20201214,6200,1112,4988,100,151,150,0,1
20201215,6200,1112,4988,100,0,0,0,0
20201216,6200,1112,4988,100,0,0,0,0
20201217,6200,1112,4988,100,0,0,0,0
20201218,6200,1112,4988,100,0,0,0,0
20201219,6200,1112,4988,100,0,0,0,0
20201220,6200,1112,4988,100,0,0,0,0
20201221,6200,1112,4988,100,0,0,0,0
20201222,6571,1483,4988,100,371,371,0,0
20201223,6571,1483,4988,100,0,0,0,0
20201224,6571,1483,4988,100,0,0,0,0
20201225,6571,1483,4988,100,0,0,0,0
20201226,6908,970,5831,107,337,-513,843,7
20201227,6908,970,5831,107,0,0,0,0
20201228,6908,970,5831,107,0,0,0,0
20201229,6908,970,5831,107,0,0,0,0
20201230,6908,970,5831,107,0,0,0,0
20201231,7107,1153,5846,108,199,183,15,1
20210101,7107,1153,5846,108,0,0,0,0
20210102,7107,1153,5846,108,0,0,0,0
20210103,7107,1153,5846,108,0,0,0,0
20210104,7107,1153,5846,108,0,0,0,0
20210105,7107,1153,5846,108,0,0,0,0
20210106,7127,1173,5846,108,20,20,0,0
20210107,7127,1173,5846,108,0,0,0,0
20210108,7127,1173,5846,108,0,0,0,0
20210109,7127,1173,5846,108,0,0,0,0
20210110,7127,1173,5846,108,0,0,0,0
20210111,7127,1173,5846,108,0,0,0,0
20210112,7160,1202,5846,112,33,29,0,4
20210113,7160,1202,5846,112,0,0,0,0
20210114,7160,1202,5846,112,0,0,0,0
20210115,7709,1749,5846,114,549,547,0,2
20210116,7709,1749,5846,114,0,0,0,0
20210117,7709,1749,5846,114,0,0,0,0
20210118,7709,1749,5846,114,0,0,0,0
20210119,7709,1749,5846,114,0,0,0,0
20210120,7709,1749,5846,114,0,0,0,0
20210121,7794,1831,5846,117,85,82,0,3
20210122,7794,1831,5846,117,0,0,0,0
20210123,7794,1831,5846,117,0,0,0,0
20210124,7794,1831,5846,117,0,0,0,0
20210125,7887,1924,5846,117,93,93,0,0
20210126,7887,1924,5846,117,0,0,0,0
20210127,7887,1924,5846,117,0,0,0,0
20210128,7887,1924,5846,117,0,0,0,0
20210129,7887,1924,5846,117,0,0,0,0
20210130,7887,1924,5846,117,0,0,0,0
20210131,7887,1924,5846,117,0,0,0,0
20210201,7887,1924,5846,117,0,0,0,0
20210202,7887,1924,5846,117,0,0,0,0
20210203,7887,1924,5846,117,0,0,0,0
20210204,8060,2092,5846,122,173,168,0,5
20210205,8060,2092,5846,122,0,0,0,0
20210206,8060,2092,5846,122,0,0,0,0
20210207,8060,2092,5846,122,0,0,0,0
20210208,8060,2092,5846,122,0,0,0,0
20210209,8060,2092,5846,122,0,0,0,0
20210210,8354,2386,5846,122,294,294,0,0
20210211,8354,1213,7019,122,0,-1173,1173,0
20210212,8419,1277,7019,123,65,64,0,1
20210213,8419,1277,7019,123,0,0,0,0
20210214,8419,1277,7019,123,0,0,0,0
20210215,8419,1277,7019,123,0,0,0,0
20210216,8419,1277,7019,123,0,0,0,0
20210217,8419,1277,7019,123,0,0,0,0
20210218,8419,1277,7019,123,0,0,0,0
20210219,8419,1277,7019,123,0,0,0,0
20210220,8419,1277,7019,123,0,0,0,0
20210221,8625,1479,7019,127,206,202,0,4
20210222,8625,1479,7019,127,0,0,0,0
20210223,8625,1479,7019,127,0,0,0,0
20210224,8820,1673,7019,128,195,194,0,1
20210225,8820,1673,7019,128,0,0,0,0
20210226,8820,1673,7019,128,0,0,0,0
20210227,8820,1673,7019,128,0,0,0,0
20210228,8820,1673,7019,128,0,0,0,0
20210301,8820,1673,7019,128,0,0,0,0
20210302,8820,1673,7019,128,0,0,0,0
20210303,8820,1673,7019,128,0,0,0,0
20210304,9179,2029,7019,131,359,356,0,3
20210305,9179,1534,7514,131,0,-495,495,0
20210306,9179,1534,7514,131,0,0,0,0
20210307,9179,1534,7514,131,0,0,0,0
20210308,9179,1534,7514,131,0,0,0,0
20210309,9179,1534,7514,131,0,0,0,0
20210310,9329,1684,7514,131,150,150,0,0
20210311,9329,1684,7514,131,0,0,0,0
20210312,9329,1684,7514,131,0,0,0,0
20210313,9329,1684,7514,131,0,0,0,0
20210314,9329,1684,7514,131,0,0,0,0
20210315,9329,1684,7514,131,0,0,0,0
20210316,9329,1684,7514,131,0,0,0,0
20210317,9329,1684,7514,131,0,0,0,0
20210318,9564,1916,7514,134,235,232,0,3
20210319,9564,1916,7514,134,0,0,0,0
20210320,9564,1916,7514,134,0,0,0,0
20210321,9564,1916,7514,134,0,0,0,0
20210322,9564,1916,7514,134,0,0,0,0
20210323,9564,1916,7514,134,0,0,0,0
20210324,9681,2032,7514,135,117,116,0,1
20210325,9681,1338,8208,135,0,-694,694,0
20210326,9681,1338,8208,135,0,0,0,0
20210327,9681,1338,8208,135,0,0,0,0
20210328,9681,1338,8208,135,0,0,0,0
20210329,9681,1338,8208,135,0,0,0,0
20210330,9681,1338,8208,135,0,0,0,0
20210331,9681,1338,8208,135,0,0,0,0
20210401,9681,1338,8208,135,0,0,0,0
20210402,9681,1338,8208,135,0,0,0,0
20210403,9681,1338,8208,135,0,0,0,0
20210404,9681,1338,8208,135,0,0,0,0
20210405,9681,1338,8208,135,0,0,0,0
20210406,10084,1739,8208,137,403,401,0,2
20210407,10084,1739,8208,137,0,0,0,0
20210408,10084,1739,8208,137,0,0,0,0
20210409,10084,1739,8208,137,0,0,0,0
20210410,10084,1739,8208,137,0,0,0,0
20210411,10084,1739,8208,137,0,0,0,0
20210412,10084,1739,8208,137,0,0,0,0
20210413,10084,1739,8208,137,0,0,0,0
20210414,10084,1737,8208,139,0,-2,0,2
20210415,10084,1737,8208,139,0,0,0,0
20210416,10084,1737,8208,139,0,0,0,0
20210417,10084,1737,8208,139,0,0,0,0
20210418,10084,1737,8208,139,0,0,0,0
20210419,10084,1737,8208,139,0,0,0,0
20210420,10084,1737,8208,139,0,0,0,0
20210421,10084,1737,8208,139,0,0,0,0
20210422,10084,1737,8208,139,0,0,0,0
20210423,10084,1737,8208,139,0,0,0,0
20210424,10084,1737,8208,139,0,0,0,0
20210425,10678,2326,8208,144,594,589,0,5
20210426,10678,2326,8208,144,0,0,0,0
20210427,10678,2326,8208,144,0,0,0,0
20210428,10678,2326,8208,144,0,0,0,0
20210429,10678,2326,8208,144,0,0,0,0
20210430,10678,2326,8208,144,0,0,0,0
20210501,10678,2326,8208,144,0,0,0,0
20210502,10678,2326,8208,144,0,0,0,0
20210503,11016,2661,8208,147,338,335,0,3
20210504,11016,2661,8208,147,0,0,0,0
20210505,11016,2661,8208,147,0,0,0,0
20210506,11016,2661,8208,147,0,0,0,0
20210507,11147,2791,8208,148,131,130,0,1
20210508,11147,2791,8208,148,0,0,0,0
20210509,11147,2791,8208,148,0,0,0,0
20210510,11343,2987,8208,148,196,196,0,0
20210511,11343,2987,8208,148,0,0,0,0
20210512,11343,2987,8208,148,0,0,0,0
20210513,11343,2987,8208,148,0,0,0,0
20210514,11343,2987,8208,148,0,0,0,0
20210515,11343,2987,8208,148,0,0,0,0
20210516,11343,2987,8208,148,0,0,0,0
20210517,11343,2987,8208,148,0,0,0,0
20210518,11343,2987,8208,148,0,0,0,0
20210519,11476,3118,8208,150,133,131,0,2
20210520,11476,3118,8208,150,0,0,0,0
20210521,11476,3118,8208,150,0,0,0,0
20210522,11476,3118,8208,150,0,0,0,0
20210523,11476,3118,8208,150,0,0,0,0
20210524,11476,3118,8208,150,0,0,0,0
20210525,11658,3297,8208,153,182,179,0,3
20210526,11658,3297,8208,153,0,0,0,0
20210527,11658,3297,8208,153,0,0,0,0
20210528,11658,3297,8208,153,0,0,0,0
20210529,11658,3297,8208,153,0,0,0,0
20210530,11658,3297,8208,153,0,0,0,0
20210531,11658,3297,8208,153,0,0,0,0
20210601,11658,914,10591,153,0,-2383,2383,0
20210602,11845,1100,10591,154,187,186,0,1
20210603,11845,1100,10591,154,0,0,0,0
20210604,11920,1174,10591,155,75,74,0,1
20210605,11920,1174,10591,155,0,0,0,0
20210606,11920,1174,10591,155,0,0,0,0
20210607,12026,759,11110,157,106,-415,519,2
20210608,12026,759,11110,157,0,0,0,0
20210609,12026,759,11110,157,0,0,0,0
20210610,12026,759,11110,157,0,0,0,0
20210611,12026,759,11110,157,0,0,0,0
20210612,12121,750,11211,160,95,-9,101,3
20210613,12121,750,11211,160,0,0,0,0
20210614,12121,750,11211,160,0,0,0,0
20210615,12121,750,11211,160,0,0,0,0
20210616,12121,750,11211,160,0,0,0,0
20210617,12298,926,11211,161,177,176,0,1
20210618,12298,926,11211,161,0,0,0,0
20210619,12298,926,11211,161,0,0,0,0
20210620,12298,926,11211,161,0,0,0,0
20210621,12298,926,11211,161,0,0,0,0
20210622,12404,1029,11211,164,106,103,0,3
20210623,12404,1029,11211,164,0,0,0,0
20210624,12404,1029,11211,164,0,0,0,0
20210625,12485,1109,11211,165,81,80,0,1
20210626,12485,1109,11211,165,0,0,0,0
20210627,12485,1109,11211,165,0,0,0,0
20210628,12485,1109,11211,165,0,0,0,0
20210629,12596,1220,11211,165,111,111,0,0
20210630,12596,1220,11211,165,0,0,0,0
20210701,12695,1318,11211,166,99,98,0,1
20210702,12695,1318,11211,166,0,0,0,0
20210703,12695,1318,11211,166,0,0,0,0
20210704,12695,1318,11211,166,0,0,0,0
20210705,12790,864,11759,167,95,-454,548,1
20210706,12790,864,11759,167,0,0,0,0
20210707,12790,864,11759,167,0,0,0,0
20210708,12790,864,11759,167,0,0,0,0
20210709,12790,864,11759,167,0,0,0,0
20210710,12790,864,11759,167,0,0,0,0
20210711,12790,864,11759,167,0,0,0,0
20210712,12790,864,11759,167,0,0,0,0
20210713,12790,864,11759,167,0,0,0,0
20210714,12790,864,11759,167,0,0,0,0
20210715,12933,1002,11759,172,143,138,0,5
20210716,12933,1002,11759,172,0,0,0,0
20210717,12933,1002,11759,172,0,0,0,0
20210718,12933,1002,11759,172,0,0,0,0
20210719,12998,1065,11759,174,65,63,0,2
20210720,13050,1115,11759,176,52,50,0,2
20210721,13050,1115,11759,176,0,0,0,0
20210722,13050,1115,11759,176,0,0,0,0
20210723,13117,1182,11759,176,67,67,0,0
20210724,13117,1182,11759,176,0,0,0,0
20210725,13117,1182,11759,176,0,0,0,0
20210726,13156,1220,11759,177,39,38,0,1
20210727,13156,1220,11759,177,0,0,0,0
20210728,13156,1220,11759,177,0,0,0,0
20210729,13156,1220,11759,177,0,0,0,0
20210730,13186,587,12421,178,30,-633,662,1
20210731,13186,587,12421,178,0,0,0,0
20210801,13186,587,12421,178,0,0,0,0
20210802,13216,617,12421,178,30,30,0,0
20210803,13216,617,12421,178,0,0,0,0
20210804,13216,617,12421,178,0,0,0,0
20210805,13216,0,0,178,0,-617,-12421,0
20210806,13216,0,0,178,0,0,0,0
20210807,13216,0,0,178,0,0,0,0
20210808,13216,0,0,178,0,0,0,0
20210809,13293,0,0,179,77,0,0,1
20210810,13293,0,0,179,0,0,0,0
20210811,13293,0,0,179,0,0,0,0
20210812,13356,0,0,179,63,0,0,0
20210813,13356,0,0,179,0,0,0,0
20210814,13356,0,0,179,0,0,0,0
20210815,13356,0,0,179,0,0,0,0
20210816,13398,0,0,179,42,0,0,0
20210817,13398,0,0,179,0,0,0,0
20210818,13398,0,0,179,0,0,0,0
20210819,13398,0,0,179,0,0,0,0
20210820,13398,0,0,179,0,0,0,0
20210821,13398,0,0,179,0,0,0,0
20210822,13398,0,0,179,0,0,0,0
20210823,13493,0,0,179,95,0,0,0
20210824,13493,0,0,179,0,0,0,0
20210825,13493,0,0,179,0,0,0,0
20210826,13533,0,0,183,40,0,0,4
20210827,13533,0,0,183,0,0,0,0
20210828,13533,0,0,183,0,0,0,0
20210829,13533,0,0,183,0,0,0,0
20210830,13588,0,0,183,55,0,0,0
20210831,13588,0,0,183,0,0,0,0
20210901,13588,0,0,183,0,0,0,0
20210902,13588,0,0,183,0,0,0,0
20210903,13588,0,0,183,0,0,0,0
20210904,13588,0,0,183,0,0,0,0
