date,infected,active,recovered,dead,deltaInfected,deltaActive,deltaRecovered,deltaDead
20200311,1,1,0,0,1,1,0,0
20200312,1,1,0,0,0,0,0,0
20200313,1,1,0,0,0,0,0,0
20200314,1,1,0,0,0,0,0,0
20200315,1,1,0,0,0,0,0,0
20200316,1,1,0,0,0,0,0,0
20200317,5,4,1,0,4,3,1,0
20200318,6,5,1,0,1,1,0,0
20200319,9,8,1,0,3,3,0,0
20200320,9,8,1,0,0,0,0,0
20200321,14,13,1,0,5,5,0,0
20200322,14,13,1,0,0,0,0,0
20200323,25,23,2,0,11,10,1,0
20200324,73,71,2,0,48,48,0,0
20200325,80,77,3,0,7,6,1,0
20200326,96,93,3,0,16,16,0,0
20200327,101,98,3,0,5,5,0,0
20200328,101,98,3,0,0,0,0,0
20200329,165,160,4,1,64,62,1,1
20200330,168,161,6,1,3,1,2,0
20200331,179,171,7,1,11,10,1,0
20200401,190,180,9,1,11,9,2,0
20200402,194,178,15,1,4,-2,6,0
20200403,218,198,19,1,24,20,4,0
20200404,245,219,25,1,27,21,6,0
20200405,261,221,37,3,16,2,12,2
20200406,323,279,41,3,62,58,4,0
20200407,349,305,41,3,26,26,0,0
20200408,384,333,48,3,35,28,7,0
20200409,444,389,52,3,60,56,4,0
20200410,444,389,52,3,0,0,0,0
20200411,533,471,58,4,89,82,6,1
20200412,574,484,85,5,41,13,27,1
20200413,626,531,89,6,52,47,4,1
20200414,638,518,114,6,12,-13,25,0
20200415,638,518,114,6,0,0,0,0
20200416,654,502,146,6,16,-16,32,0
20200417,688,489,193,6,34,-13,47,0
20200418,801,554,239,8,113,65,46,2
20200419,847,578,260,9,46,24,21,1
20200420,847,578,260,9,0,0,0,0
20200421,916,600,303,13,69,22,43,4
20200422,952,628,310,14,36,28,7,1
20200423,1004,631,359,14,52,3,49,0
20200424,1077,644,419,14,73,13,60,0
20200425,1077,644,419,14,0,0,0,0
20200426,1150,668,468,14,73,24,49,0
20200427,1164,651,499,14,14,-17,31,0
20200428,1183,644,525,14,19,-7,26,0
20200429,1238,667,557,14,55,23,32,0
20200430,1275,687,574,14,37,20,17,0
20200501,1333,721,597,15,58,34,23,1
20200502,1362,725,622,15,29,4,25,0
20200503,1398,728,653,17,36,3,31,2
20200504,1432,722,693,17,34,-6,40,0
20200505,1464,745,701,18,32,23,8,1
20200506,1516,777,721,18,52,32,20,0
20200507,1571,809,742,20,55,32,21,2
20200508,1602,828,754,20,31,19,12,0
20200509,1667,877,769,21,65,49,15,1
20200510,1700,885,794,21,33,8,25,0
20200511,1730,891,818,21,30,6,24,0
20200512,1857,1016,820,21,127,125,2,0
20200513,1912,986,902,24,55,-30,82,3
20200514,1971,1017,930,24,59,31,28,0
20200515,2017,1051,942,24,46,34,12,0
20200516,2061,1049,987,25,44,-2,45,1
20200517,2109,1078,1004,27,48,29,17,2
20200518,2119,1051,1040,28,10,-27,36,1
20200519,2153,1075,1050,28,34,24,10,0
20200520,2231,1119,1083,29,78,44,33,1
20200521,2301,1172,1100,29,70,53,17,0
20200522,2341,1166,1146,29,40,-6,46,0
20200523,2366,1148,1188,30,25,-18,42,1
20200524,2376,1127,1219,30,10,-21,31,0
20200525,2423,1136,1257,30,47,9,38,0
20200526,2477,1161,1286,30,54,25,29,0
20200527,2556,1223,1302,31,79,62,16,1
20200528,2641,1283,1326,32,85,60,24,1
20200529,2750,1348,1370,32,109,65,44,0
20200530,2799,1381,1385,33,49,33,15,1
20200531,2833,1365,1435,33,34,-16,50,0
20200601,2951,1451,1467,33,118,86,32,0
20200602,3024,1490,1501,33,73,39,34,0
20200603,3110,1545,1530,35,86,55,29,2
20200604,3262,1643,1584,35,152,98,54,0
20200605,3431,1791,1604,36,169,148,20,1
20200606,3557,1771,1750,36,126,-20,146,0
20200607,3739,1885,1818,36,182,114,68,0
20200608,3881,1974,1869,38,142,89,51,2
20200609,3995,1912,2045,38,114,-62,176,0
20200610,4181,1966,2174,41,186,54,129,3
20200611,4404,2151,2212,41,223,185,38,0
20200612,4684,2376,2263,45,280,225,51,4
20200613,4848,2406,2397,45,164,30,134,0
20200614,5084,2534,2505,45,236,128,108,0
20200615,5439,2803,2590,46,355,269,85,1
20200616,5679,2996,2637,46,240,193,47,0
20200617,6063,3266,2749,48,384,270,112,2
20200618,6444,3532,2863,49,381,266,114,1
20200619,6874,3883,2942,49,430,351,79,0
20200620,7276,4232,2992,52,402,349,50,3
20200621,7492,4370,3068,54,216,138,76,2
20200622,7677,4128,3493,56,185,-242,425,2
20200623,7904,4664,3182,58,227,536,-311,2
20200624,8164,4687,3419,58,260,23,237,0
20200625,8334,4787,3487,60,170,100,68,2
20200626,8739,5088,3587,64,405,301,100,4
20200627,8944,5156,3722,66,205,68,135,2
20200628,9101,5227,3808,66,157,71,86,0
20200629,9214,5152,3996,66,113,-75,188,0
20200630,9499,5158,4273,68,285,6,277,2
20200701,9702,5253,4381,68,203,95,108,0
20200702,9992,5264,4660,68,290,11,279,0
20200703,10244,5448,4726,70,252,184,66,2
20200704,10462,5583,4807,72,218,135,81,2
20200705,10772,5631,5067,74,310,48,260,2
20200706,10966,5507,5384,75,194,-124,317,1
20200707,11194,5631,5487,76,228,124,103,1
20200708,11504,5855,5571,78,310,224,84,2
20200709,11750,5919,5752,79,246,64,181,1
20200710,12052,5891,6080,81,302,-28,328,2
20200711,12443,6004,6357,82,391,113,277,1
20200712,12766,6028,6654,84,323,24,297,2
20200713,12872,5978,6810,84,106,-50,156,0
20200714,13037,6042,6908,87,165,64,98,3
20200715,13403,6170,7146,87,366,128,238,0
20200716,13554,6104,7363,87,151,-66,217,0
20200717,13696,6002,7607,87,142,-102,244,0
20200718,13912,5821,8000,91,216,-181,393,4
20200719,14119,5661,8366,92,207,-160,366,1
20200720,14312,5561,8659,92,193,-100,293,0
20200721,14531,5581,8857,93,219,20,198,1
20200722,14733,5645,8995,93,202,64,138,0
20200723,15001,5626,9282,93,268,-19,287,0
20200724,15253,5660,9499,94,252,34,217,1
20200725,15494,5520,9880,94,241,-140,381,0
20200726,15596,5322,10178,96,102,-198,298,2
20200727,15655,5198,10361,96,59,-124,183,0
20200728,15713,5078,10537,98,58,-120,176,2
20200729,15813,4921,10793,99,100,-157,256,1
20200730,15978,4718,11160,100,165,-203,367,1
20200731,16047,4517,11428,102,69,-201,268,2
20200801,16109,4257,11750,102,62,-260,322,0
20200802,16182,4279,11801,102,73,22,51,0
20200803,16220,4231,11887,102,38,-48,86,0
20200804,16293,4235,11955,103,73,4,68,1
20200805,16349,4055,12191,103,56,-180,236,0
20200806,16447,3860,12484,103,98,-195,293,0
20200807,16524,3618,12802,104,77,-242,318,1
20200808,16620,3623,12893,104,96,5,91,0
20200809,16715,3684,12926,105,95,61,33,1
20200810,16798,3641,13052,105,83,-43,126,0
20200811,16847,3421,13321,105,49,-220,269,0
20200812,16847,3421,13321,105,0,0,0,0
20200813,16889,3260,13522,107,42,-161,201,2
20200814,16935,3106,13721,108,46,-154,199,1
20200815,16993,3126,13759,108,58,20,38,0
20200816,17026,2969,13947,110,33,-157,188,2
20200817,17107,3007,13990,110,81,38,43,0
20200818,17150,2857,14183,110,43,-150,193,0
20200819,17232,2699,14422,111,82,-158,239,1
20200820,17249,2526,14611,112,17,-173,189,1
20200821,17310,2378,14820,112,61,-148,209,0
20200822,17374,2155,15106,113,64,-223,286,1
20200823,17471,2057,15301,113,97,-98,195,0
20200824,17506,1759,15633,114,35,-298,332,1
20200825,17562,1540,15908,114,56,-219,275,0
20200826,17603,1548,15941,114,41,8,33,0
20200827,17702,1448,16139,115,99,-100,198,1
20200828,17797,1367,16315,115,95,-81,176,0
20200829,17893,1338,16440,115,96,-29,125,0
20200830,17948,1280,16553,115,55,-58,113,0
20200831,18067,1251,16699,117,119,-29,146,2
20200901,18103,1172,16814,117,36,-79,115,0
20200902,18161,1111,16933,117,58,-61,119,0
20200903,18208,1044,17045,119,47,-67,112,2
20200904,18269,988,17162,119,61,-56,117,0
20200905,18472,1030,17323,119,203,42,161,0
20200906,18588,997,17472,119,116,-33,149,0
20200907,18701,983,17599,119,113,-14,127,0
20200908,18778,971,17688,119,77,-12,89,0
20200909,18815,926,17770,119,37,-45,82,0
20200910,18869,866,17884,119,54,-60,114,0
20200911,18916,837,17960,119,47,-29,76,0
20200912,18916,837,17960,119,0,0,0,0
20200913,19013,781,18112,120,97,-56,152,1
20200914,19066,772,18174,120,53,-9,62,0
20200915,19100,752,18228,120,34,-20,54,0
20200916,19132,723,18289,120,32,-29,61,0
20200917,19158,708,18330,120,26,-15,41,0
20200918,19200,688,18392,120,42,-20,62,0
20200919,19269,757,18392,120,69,69,0,0
20200920,19320,740,18460,120,51,-17,68,0
20200921,19327,577,18630,120,7,-163,170,0
20200922,19343,541,18682,120,16,-36,52,0
20200923,19430,435,18875,120,87,-106,193,0
20200924,19501,378,19003,120,71,-57,128,0
20200925,19556,371,19065,120,55,-7,62,0
20200926,19600,358,19122,120,44,-13,57,0
20200927,19629,346,19163,120,29,-12,41,0
20200928,19641,319,19202,120,12,-27,39,0
20200929,19669,308,19241,120,28,-11,39,0
20200930,19724,313,19291,120,55,5,50,0
20201001,19755,315,19320,120,31,2,29,0
20201002,19793,316,19357,120,38,1,37,0
20201003,19849,308,19421,120,56,-8,64,0
20201004,19882,313,19449,120,33,5,28,0
20201005,19885,275,19490,120,3,-38,41,0
20201006,19903,244,19539,120,18,-31,49,0
20201007,19935,265,19550,120,32,21,11,0
20201008,19982,236,19626,120,47,-29,76,0
20201009,20036,220,19696,120,54,-16,70,0
20201010,20128,256,19752,120,92,36,56,0
20201011,20154,236,19798,120,26,-20,46,0
20201012,20155,204,19831,120,1,-32,33,0
20201013,20183,203,19860,120,28,-1,29,0
20201014,20217,225,19872,120,34,22,12,0
20201015,20257,239,19898,120,40,14,26,0
20201016,20275,201,19953,121,18,-38,55,1
20201017,20301,197,19983,121,26,-4,30,0
20201018,20323,181,20021,121,22,-16,38,0
20201019,20324,174,20029,121,1,-7,8,0
20201020,20342,177,20044,121,18,3,15,0
20201021,20363,172,20070,121,21,-5,26,0
20201022,20390,181,20088,121,27,9,18,0
20201023,20405,184,20100,121,15,3,12,0
20201024,20429,171,20137,121,24,-13,37,0
20201025,20470,182,20166,122,41,11,29,1
20201026,20486,152,20212,122,16,-30,46,0
20201027,20488,137,20229,122,2,-15,17,0
20201028,20555,190,20241,124,67,53,12,2
20201029,20628,194,20310,124,73,4,69,0
20201030,20692,219,20349,124,64,25,39,0
20201031,20716,225,20365,126,24,6,16,2
20201101,20716,225,20365,126,0,0,0,0
20201102,20753,217,20410,126,37,-8,45,0
20201103,20765,212,20427,126,12,-5,17,0
20201104,20778,205,20447,126,13,-7,20,0
20201105,20789,197,20466,126,11,-8,19,0
20201106,20801,198,20477,126,12,1,11,0
20201107,20813,198,20489,126,12,0,12,0
20201108,20832,198,20508,126,19,0,19,0
20201109,20835,193,20516,126,3,-5,8,0
20201110,20847,175,20546,126,12,-18,30,0
20201111,20855,156,20572,127,8,-19,26,1
20201112,20882,171,20584,127,27,15,12,0
20201113,20899,173,20599,127,17,2,15,0
20201114,20945,188,20630,127,46,15,31,0
20201115,20976,201,20647,128,31,13,17,1
20201116,20988,197,20663,128,12,-4,16,0
20201117,21004,200,20675,129,16,3,12,1
20201118,21045,204,20712,129,41,4,37,0
20201119,21083,225,20729,129,38,21,17,0
20201120,21099,222,20748,129,16,-3,19,0
20201121,21126,220,20777,129,27,-2,29,0
20201122,21138,209,20798,131,12,-11,21,2
20201123,21148,198,20819,131,10,-11,21,0
20201124,21156,192,20833,131,8,-6,14,0
20201125,21168,194,20843,131,12,2,10,0
20201126,21199,216,20852,131,31,22,9,0
20201127,21232,228,20873,131,33,12,21,0
20201128,21261,218,20912,131,29,-10,39,0
20201129,21310,232,20947,131,49,14,35,0
20201130,21331,235,20964,132,21,3,17,1
20201201,21334,221,20981,132,3,-14,17,0
20201202,21361,219,21010,132,27,-2,29,0
20201203,21389,235,21022,132,28,16,12,0
20201204,21412,226,21054,132,23,-9,32,0
20201205,21441,219,21090,132,29,-7,36,0
20201206,21485,244,21109,132,44,25,19,0
20201207,21507,225,21150,132,22,-19,41,0
20201208,21513,220,21161,132,6,-5,11,0
20201209,21547,238,21176,133,34,18,15,1
20201210,21590,254,21203,133,43,16,27,0
20201211,21618,251,21234,133,28,-3,31,0
20201212,21639,245,21261,133,21,-6,27,0
20201213,21680,249,21298,133,41,4,37,0
20201214,21705,254,21318,133,25,5,20,0
20201215,21775,307,21335,133,70,53,17,0
20201216,21741,244,21364,133,-34,-63,29,0
20201217,21772,238,21401,133,31,-6,37,0
20201218,21845,292,21420,133,73,54,19,0
20201219,21890,306,21451,133,45,14,31,0
20201220,21918,307,21478,133,28,1,27,0
20201221,21932,282,21517,133,14,-25,39,0
20201222,21942,273,21536,133,10,-9,19,0
20201223,21984,278,21573,133,42,5,37,0
20201224,22071,309,21629,133,87,31,56,0
20201225,22081,251,21697,133,10,-58,68,0
20201226,22081,251,21697,133,0,0,0,0
20201227,22152,265,21752,135,71,14,55,2
20201228,22176,263,21776,137,24,-2,24,2
20201229,22250,241,21872,137,74,-22,96,0
20201230,22366,320,21909,137,116,79,37,0
20201231,22490,419,21934,137,124,99,25,0
20210101,22563,444,21981,138,73,25,47,1
20210102,22563,444,21981,138,0,0,0,0
20210103,22648,512,21998,138,85,68,17,0
20210104,22800,517,22145,138,152,5,147,0
20210105,22855,563,22154,138,55,46,9,0
20210106,22963,613,22212,138,108,50,58,0
20210107,23173,734,22301,138,210,121,89,0
20210108,23254,790,22325,139,81,56,24,1
20210109,23482,932,22411,139,228,142,86,0
20210110,23750,1041,22570,139,268,109,159,0
20210111,23894,1087,22668,139,144,46,98,0
20210112,24186,1306,22740,140,292,219,72,1
20210113,24369,1373,22856,140,183,67,116,0
20210114,24578,1582,22856,140,209,209,0,0
20210115,24856,1611,23104,141,278,29,248,1
20210116,24856,1611,23104,141,0,0,0,0
20210117,25241,1769,23331,141,385,158,227,0
20210118,25304,1635,23527,142,63,-134,196,1
20210119,25383,1598,23643,142,79,-37,116,0
20210120,25597,1588,23867,142,214,-10,224,0
20210121,25751,1490,24119,142,154,-98,252,0
20210122,26315,1816,24356,143,564,326,237,1
20210123,26612,1872,24595,145,297,56,239,2
20210124,26850,1942,24762,146,238,70,167,1
20210125,27096,1950,25000,146,246,8,238,0
20210126,27237,1894,25196,147,141,-56,196,1
20210127,27455,1916,25388,151,218,22,192,4
20210128,27694,2001,25542,151,239,85,154,0
20210129,27934,2112,25670,152,240,111,128,1
20210130,28178,2208,25818,152,244,96,148,0
20210131,28399,2238,26007,154,221,30,189,2
20210201,28475,1824,26495,156,76,-414,488,2
20210202,28607,1725,26724,158,132,-99,229,2
20210203,28739,1621,26960,158,132,-104,236,0
20210204,29102,1787,27157,158,363,166,197,0
20210205,29295,1870,27265,160,193,83,108,2
20210206,29567,1632,27773,162,272,-238,508,2
20210207,29825,1682,27981,162,258,50,208,0
20210208,29967,1616,28186,165,142,-66,205,3
20210209,29967,1616,28186,165,0,0,0,0
20210210,30240,1751,28320,169,273,135,134,4
20210211,30526,1619,28736,171,286,-132,416,2
20210212,30717,1630,28914,173,191,11,178,2
20210213,30884,1649,29062,173,167,19,148,0
20210214,31140,1628,29338,174,256,-21,276,1
20210215,31235,1614,29446,175,95,-14,108,1
20210216,31365,1583,29603,179,130,-31,157,4
20210217,31497,1576,29741,180,132,-7,138,1
20210218,31612,1492,29937,183,115,-84,196,3
20210219,31825,1584,30056,185,213,92,119,2
20210220,31914,1486,30243,185,89,-98,187,0
20210221,32026,1251,30589,186,112,-235,346,1
20210222,32039,1083,30768,188,13,-168,179,2
20210223,32124,840,31096,188,85,-243,328,0
20210224,32295,883,31224,188,171,43,128,0
20210225,32295,883,31224,188,0,0,0,0
20210226,32478,857,31431,190,183,-26,207,2
20210227,32631,923,31516,192,153,66,85,2
20210228,32754,-62,32624,192,123,-985,1108,0
20210301,32791,886,31712,193,37,948,-912,1
20210302,32929,870,31866,193,138,-16,154,0
20210303,33285,1054,32037,194,356,184,171,1
20210304,33976,1535,32245,196,691,481,208,2
20210305,34412,1859,32354,199,436,324,109,3
20210306,34935,2222,32513,200,523,363,159,1
20210307,35187,2277,32708,202,252,55,195,2
20210308,35331,2327,32800,204,144,50,92,2
20210309,35477,2389,32882,206,146,62,82,2
20210310,36028,2856,32966,206,551,467,84,0
20210311,36511,3174,33128,209,483,318,162,3
20210312,36824,3346,33267,211,313,172,139,2
20210313,37304,3490,33603,211,480,144,336,0
20210314,37653,3354,34088,211,349,-136,485,0
20210315,37908,3079,34616,213,255,-275,528,2
20210316,38120,2795,35111,214,212,-284,495,1
20210317,38282,2581,35487,214,162,-214,376,0
20210318,38923,2785,35923,215,641,204,436,1
20210319,39434,3066,36152,216,511,281,229,1
20210320,39913,3417,36279,217,479,351,127,1
20210321,40310,3695,36395,220,397,278,116,3
20210322,40601,3877,36502,222,291,182,107,2
20210323,40868,3702,36944,222,267,-175,442,0
20210324,41307,3763,37320,224,439,61,376,2
20210325,42074,4048,37797,229,767,285,477,5
20210326,42468,3993,38246,229,394,-55,449,0
20210327,42861,4039,38590,232,393,46,344,3
20210328,43180,4224,38719,237,319,185,129,5
20210329,43422,3888,39295,239,242,-336,576,2
20210330,43542,3458,39842,242,120,-430,547,3
20210331,43889,3391,40254,244,347,-67,412,2
20210401,43889,3391,40254,244,0,0,0,0
20210402,44445,2914,41281,250,556,-477,1027,6
20210403,44618,2679,41687,252,173,-235,406,2
20210404,44749,2423,42071,255,131,-256,384,3
20210405,44841,2147,42438,256,92,-276,367,1
20210406,44854,1468,43130,256,13,-679,692,0
20210407,44880,1177,43446,257,26,-291,316,1
20210408,44975,959,43758,258,95,-218,312,1
20210409,45089,632,44197,260,114,-327,439,2
20210410,45089,632,44197,260,0,0,0,0
20210411,45206,314,44629,263,117,-318,432,3
20210412,45227,276,44683,268,21,-38,54,5
20210413,45265,225,44771,269,38,-51,88,1
20210414,45388,284,44833,271,123,59,62,2
20210415,45444,246,44925,273,56,-38,92,2
20210416,45474,207,44993,274,30,-39,68,1
20210417,45519,181,45064,274,45,-26,71,0
20210418,45560,157,45129,274,41,-24,65,0
20210419,45570,135,45161,274,10,-22,32,0
20210420,45614,140,45199,275,44,5,38,1
20210421,45697,193,45227,277,83,53,28,2
20210422,45715,155,45283,277,18,-38,56,0
20210423,45765,175,45311,279,50,20,28,2
20210424,45820,196,45343,281,55,21,32,2
20210425,45852,196,45374,282,32,0,31,1
20210426,45863,167,45413,283,11,-29,39,1
20210427,45885,149,45451,285,22,-18,38,2
20210428,45943,188,45469,286,58,39,18,1
20210429,45998,214,45498,286,55,26,29,0
20210430,46036,224,45526,286,38,10,28,0
20210501,46114,246,45582,286,78,22,56,0
20210502,46114,246,45582,286,0,0,0,0
20210503,46154,205,45662,287,40,-41,80,1
20210504,46173,188,45694,291,19,-17,32,4
20210505,46231,207,45733,291,58,19,39,0
20210506,46315,260,45764,291,84,53,31,0
20210507,46344,263,45790,291,29,3,26,0
20210508,46385,283,45811,291,41,20,21,0
20210509,46442,304,45847,291,57,21,36,0
20210510,46443,278,45874,291,1,-26,27,0
20210511,46484,282,45910,292,41,4,36,1
20210512,46516,282,45942,292,32,0,32,0
20210513,46520,249,45977,294,4,-33,35,2
20210514,46535,234,46006,295,15,-15,29,1
20210515,46535,234,46006,295,0,0,0,0
20210516,46656,279,46079,298,121,45,73,3
20210517,46661,248,46115,298,5,-31,36,0
20210518,46708,234,46176,298,47,-14,61,0
20210519,46777,262,46217,298,69,28,41,0
20210520,46834,283,46253,298,57,21,36,0
20210521,46874,294,46282,298,40,11,29,0
20210522,46942,298,46346,298,68,4,64,0
20210523,46942,298,46346,298,0,0,0,0
20210524,47033,293,46442,298,91,-5,96,0
20210525,47036,262,46476,298,3,-31,34,0
20210526,47085,280,46504,301,49,18,28,3
20210527,47146,301,46544,301,61,21,40,0
20210528,47195,303,46591,301,49,2,47,0
20210529,47233,288,46642,303,38,-15,51,2
20210530,47233,288,46642,303,0,0,0,0
20210531,47292,285,46702,305,59,-3,60,2
20210601,47319,255,46758,306,27,-30,56,1
20210602,47356,246,46804,306,37,-9,46,0
20210603,47389,236,46847,306,33,-10,43,0
20210604,47435,214,46915,306,46,-22,68,0
20210605,47476,229,46941,306,41,15,26,0
20210606,47490,215,46969,306,14,-14,28,0
20210607,47493,198,46989,306,3,-17,20,0
20210608,47511,168,47037,306,18,-30,48,0
20210609,47547,180,47061,306,36,12,24,0
20210610,47605,207,47092,306,58,27,31,0
20210611,47638,197,47135,306,33,-10,43,0
20210612,47662,178,47178,306,24,-19,43,0
20210613,47662,178,47178,306,0,0,0,0
20210614,47760,215,47239,306,98,37,61,0
20210615,47909,337,47266,306,149,122,27,0
20210616,47933,305,47322,306,24,-32,56,0
20210617,47973,321,47346,306,40,16,24,0
20210618,47973,321,47346,306,0,0,0,0
20210619,48031,304,47420,307,58,-17,74,1
20210620,48044,291,47445,308,13,-13,25,1
20210621,48047,252,47487,308,3,-39,42,0
20210622,48058,238,47511,309,11,-14,24,1
20210623,48058,238,47511,309,0,0,0,0
20210624,48058,238,47511,309,0,0,0,0
20210625,48058,238,47511,309,0,0,0,0
20210626,48176,116,47749,311,118,-122,238,2
20210627,48192,107,47773,312,16,-9,24,1
20210628,48203,106,47784,313,11,-1,11,1
20210629,48242,113,47816,313,39,7,32,0
20210630,48305,158,47834,313,63,45,18,0
20210701,48378,201,47862,315,73,43,28,2
20210702,48378,201,47862,315,0,0,0,0
20210703,48513,281,47917,315,135,80,55,0
20210704,48564,313,47936,315,51,32,19,0
20210705,48580,295,47970,315,16,-18,34,0
20210706,48634,325,47994,315,54,30,24,0
20210707,48693,355,48022,316,59,30,28,1
20210708,48739,376,48046,317,46,21,24,1
20210709,48776,373,48085,318,37,-3,39,1
20210710,48776,373,48085,318,0,0,0,0
20210711,48776,373,48085,318,0,0,0,0
20210712,48869,308,48242,319,93,-65,157,1
20210713,48903,306,48278,319,34,-2,36,0
20210714,48959,309,48331,319,56,3,53,0
20210715,48999,330,48350,319,40,21,19,0
20210716,49069,373,48376,320,70,43,26,1
20210717,49125,400,48405,320,56,27,29,0
20210718,49196,431,48445,320,71,31,40,0
20210719,49219,404,48493,322,23,-27,48,2
20210720,49288,429,48537,322,69,25,44,0
20210721,49288,429,48537,322,0,0,0,0
20210722,49386,407,48655,324,98,-22,118,2
20210723,49473,407,48724,324,87,0,69,0
20210724,49554,452,48778,324,81,45,54,0
20210725,49592,435,48833,324,38,-17,55,0
20210726,49647,422,48901,324,55,-13,68,0
20210727,49699,407,48966,326,52,-15,65,2
20210728,49775,409,49040,326,76,2,74,0
20210729,49911,468,49117,326,136,59,77,0
20210730,50004,489,49187,328,93,21,70,2
20210731,50135,545,49261,329,131,56,74,1
20210801,50278,559,49389,330,143,14,128,1
20210802,50341,548,49461,332,63,-11,72,2
20210803,50499,614,49553,332,158,66,92,0
20210804,50650,674,49642,334,151,60,89,2
20210805,50893,0,0,338,243,-674,-49642,4
20210806,51028,0,0,338,135,0,0,0
20210807,51198,0,0,341,170,0,0,3
20210808,51380,0,0,341,182,0,0,0
20210809,51399,0,0,341,19,0,0,0
20210810,51548,0,0,347,149,0,0,6
20210811,51732,0,0,347,184,0,0,0
20210812,51926,0,0,354,194,0,0,7
20210813,52136,0,0,358,210,0,0,4
20210814,52202,0,0,359,66,0,0,1
20210815,52202,0,0,359,0,0,0,0
20210816,52423,0,0,363,221,0,0,4
20210817,52583,0,0,365,160,0,0,2
20210818,52836,0,0,369,253,0,0,4
20210819,52936,0,0,373,100,0,0,4
20210820,53247,0,0,380,311,0,0,7
20210821,53456,0,0,389,209,0,0,9
20210822,53645,0,0,395,189,0,0,6
20210823,53730,0,0,397,85,0,0,2
20210824,53787,0,0,402,57,0,0,5
20210825,54038,0,0,413,251,0,0,11
20210826,54299,0,0,415,261,0,0,2
20210827,54566,0,0,416,267,0,0,1
20210828,54856,0,0,424,290,0,0,8
20210829,55108,0,0,430,252,0,0,6
20210830,55518,0,0,436,410,0,0,6
20210831,55669,0,0,441,151,0,0,5
20210901,56148,0,0,445,479,0,0,4
20210902,56521,0,0,451,373,0,0,6
20210903,56608,0,0,455,87,0,0,4
20210904,56735,0,0,464,127,0,0,9
