date,infected,active,recovered,dead,deltaInfected,deltaActive,deltaRecovered,deltaDead
20200306,1,1,0,0,1,1,0,0
20200307,1,1,0,0,0,0,0,0
20200308,2,2,0,0,1,1,0,0
20200309,2,2,0,0,0,0,0,0
20200310,2,2,0,0,0,0,0,0
20200311,2,2,0,0,0,0,0,0
20200312,2,2,0,0,0,0,0,0
20200313,2,2,0,0,0,0,0,0
20200314,2,2,0,0,0,0,0,0
20200315,2,2,0,0,0,0,0,0
20200316,4,4,0,0,2,2,0,0
20200317,10,10,0,0,6,6,0,0
20200318,10,10,0,0,0,0,0,0
20200319,13,13,0,0,3,3,0,0
20200320,20,20,0,0,7,7,0,0
20200321,27,27,0,0,7,7,0,0
20200322,40,38,2,0,13,11,2,0
20200323,56,54,2,0,16,16,0,0
20200324,66,64,2,0,10,10,0,0
20200325,75,72,2,1,9,8,0,1
20200326,75,72,2,1,0,0,0,0
20200327,91,87,2,2,16,15,0,1
20200328,91,87,2,2,0,0,0,0
20200329,139,128,5,6,48,41,3,4
20200330,139,128,5,6,0,0,0,0
20200331,193,182,5,6,54,54,0,0
20200401,233,217,10,6,40,35,5,0
20200402,306,289,10,7,73,72,0,1
20200403,509,484,17,8,203,195,7,1
20200404,555,529,17,9,46,45,0,1
20200405,650,624,17,9,95,95,0,0
20200406,658,632,17,9,8,8,0,0
20200407,658,606,43,9,0,-26,26,0
20200408,730,660,60,10,72,54,17,1
20200409,730,660,60,10,0,0,0,0
20200410,820,710,98,12,90,50,38,2
20200411,820,710,98,12,0,0,0,0
20200412,820,710,98,12,0,0,0,0
20200413,820,710,98,12,0,0,0,0
20200414,848,704,130,14,28,-6,32,2
20200415,848,666,165,17,0,-38,35,3
20200416,996,810,164,22,148,144,-1,5
20200417,996,810,164,22,0,0,0,0
20200418,1017,818,177,22,21,8,13,0
20200419,1017,670,305,42,0,-148,128,20
20200420,1163,816,305,42,146,146,0,0
20200421,1163,791,329,43,0,-25,24,1
20200422,1163,723,397,43,0,-68,68,0
20200423,1334,623,668,43,171,-100,271,0
20200424,1430,719,668,43,96,96,0,0
20200425,1518,768,697,53,88,49,29,10
20200426,1621,779,786,56,103,11,89,3
20200427,1705,842,805,58,84,63,19,2
20200428,1705,732,915,58,0,-110,110,0
20200429,1832,837,934,61,127,105,19,3
20200430,1832,837,934,61,0,0,0,0
20200501,1832,837,934,61,0,0,0,0
20200502,2077,1060,953,64,245,223,19,3
20200503,2077,1060,953,64,0,0,0,0
20200504,2104,1087,953,64,27,27,0,0
20200505,2104,1087,953,64,0,0,0,0
20200506,2265,1157,1000,108,161,70,47,44
20200507,2267,1157,1002,108,2,0,2,0
20200508,2267,1157,1002,108,0,0,0,0
20200509,2274,934,1232,108,7,-223,230,0
20200510,2579,1000,1465,114,305,66,233,6
20200511,2689,1040,1524,125,110,40,59,11
20200512,2689,1040,1524,125,0,0,0,0
20200513,2800,1121,1543,136,111,81,19,11
20200514,2954,1262,1553,139,154,141,10,3
20200515,3105,1398,1567,140,151,136,14,1
20200516,3105,1398,1567,140,0,0,0,0
20200517,3105,1398,1567,140,0,0,0,0
20200518,3529,1822,1567,140,424,424,0,0
20200519,3529,1822,1567,140,0,0,0,0
20200520,3733,1992,1595,146,204,170,28,6
20200521,4288,2324,1808,156,555,332,213,10
20200522,4400,2419,1822,159,112,95,14,3
20200523,4400,2419,1822,159,0,0,0,0
20200524,4890,2860,1865,165,490,441,43,6
20200525,4890,2860,1865,165,0,0,0,0
20200526,5436,3265,1996,175,546,405,131,10
20200527,5436,3265,1996,175,0,0,0,0
20200528,5436,3265,1996,175,0,0,0,0
20200529,5436,1933,3326,177,0,-1332,1330,2
20200530,5904,2145,3568,191,468,212,242,14
20200531,5904,2145,3568,191,0,0,0,0
20200601,6397,2569,3629,199,493,424,61,8
20200602,6585,2709,3676,200,188,140,47,1
20200603,6585,2709,3676,200,0,0,0,0
20200604,6789,2881,3705,203,204,172,29,3
20200605,7392,2612,4575,205,603,-269,870,2
20200606,7599,2800,4587,212,207,188,12,7
20200607,7908,2961,4735,212,309,161,148,0
20200608,8060,3100,4748,212,152,139,13,0
20200609,8312,3306,4794,212,252,206,46,0
20200610,8681,3633,4836,212,369,327,42,0
20200611,8681,3633,4836,212,0,0,0,0
20200612,8681,3633,4836,212,0,0,0,0
20200613,8681,3633,4836,212,0,0,0,0
20200614,8681,3633,4836,212,0,0,0,0
20200615,9864,4018,5570,276,1183,385,734,64
20200616,9864,4018,5570,276,0,0,0,0
20200617,9864,4018,5570,276,0,0,0,0
20200618,9864,4018,5570,276,0,0,0,0
20200619,10638,2808,7548,282,774,-1210,1978,6
20200620,11610,3607,7702,301,972,799,154,19
20200621,11892,3879,7710,303,282,272,8,2
20200622,12041,3993,7740,308,149,114,30,5
20200623,12270,4183,7774,313,229,190,34,5
20200624,12592,2179,10100,313,322,-2004,2326,0
20200625,12592,2179,10100,313,0,0,0,0
20200626,12592,2179,10100,313,0,0,0,0
20200627,12592,2179,10100,313,0,0,0,0
20200628,12592,2179,10100,313,0,0,0,0
20200629,12592,2179,10100,313,0,0,0,0
20200630,12592,2179,10100,313,0,0,0,0
20200701,12592,2179,10100,313,0,0,0,0
20200702,12592,2179,10100,313,0,0,0,0
20200703,12592,2179,10100,313,0,0,0,0
20200704,12592,2179,10100,313,0,0,0,0
20200705,12592,2179,10100,313,0,0,0,0
20200706,12592,2179,10100,313,0,0,0,0
20200707,14916,3032,11525,359,2324,853,1425,46
20200708,14916,3032,11525,359,0,0,0,0
20200709,14916,3032,11525,359,0,0,0,0
20200710,14916,3032,11525,359,0,0,0,0
20200711,15173,2886,11928,359,257,-146,403,0
20200712,15173,2886,11928,359,0,0,0,0
20200713,15173,2886,11928,359,0,0,0,0
20200714,15173,2886,11928,359,0,0,0,0
20200715,15173,2886,11928,359,0,0,0,0
20200716,16157,2056,13728,373,984,-830,1800,14
20200717,16157,2056,13728,373,0,0,0,0
20200718,16157,2056,13728,373,0,0,0,0
20200719,16157,2056,13728,373,0,0,0,0
20200720,16157,2056,13728,373,0,0,0,0
20200721,16522,2412,13728,382,365,356,0,9
20200722,16522,2412,13728,382,0,0,0,0
20200723,16522,2412,13728,382,0,0,0,0
20200724,16708,1784,14539,385,186,-628,811,3
20200725,16708,1784,14539,385,0,0,0,0
20200726,16708,1784,14539,385,0,0,0,0
20200727,17110,2180,14539,391,402,396,0,6
20200728,17179,2249,14539,391,69,69,0,0
20200729,17255,1544,15320,391,76,-705,781,0
20200730,17255,1544,15320,391,0,0,0,0
20200731,17255,1544,15320,391,0,0,0,0
20200801,17255,1544,15320,391,0,0,0,0
20200802,17255,1544,15320,391,0,0,0,0
20200803,17255,1544,15320,391,0,0,0,0
20200804,17718,2007,15320,391,463,463,0,0
20200805,17718,2007,15320,391,0,0,0,0
20200806,17718,2007,15320,391,0,0,0,0
20200807,17718,2007,15320,391,0,0,0,0
20200808,18042,2327,15320,395,324,320,0,4
20200809,18042,2327,15320,395,0,0,0,0
20200810,18042,2327,15320,395,0,0,0,0
20200811,18213,2495,15320,398,171,168,0,3
20200812,18263,2542,15320,401,50,47,0,3
20200813,18308,2587,15320,401,45,45,0,0
20200814,18469,2748,15320,401,161,161,0,0
20200815,18469,1528,16540,401,0,-1220,1220,0
20200816,18469,1528,16540,401,0,0,0,0
20200817,18582,1639,16540,403,113,111,0,2
20200818,18599,1653,16540,406,17,14,0,3
20200819,18624,1678,16540,406,25,25,0,0
20200820,18762,1814,16540,408,138,136,0,2
20200821,18762,1814,16540,408,0,0,0,0
20200822,18762,1814,16540,408,0,0,0,0
20200823,18762,1814,16540,408,0,0,0,0
20200824,18762,1814,16540,408,0,0,0,0
20200825,18973,2023,16540,410,211,209,0,2
20200826,18973,2023,16540,410,0,0,0,0
20200827,19142,1080,17651,411,169,-943,1111,1
20200828,19142,1080,17651,411,0,0,0,0
20200829,19142,1080,17651,411,0,0,0,0
20200830,19142,1080,17651,411,0,0,0,0
20200831,19142,1080,17651,411,0,0,0,0
20200901,19409,1344,17651,414,267,264,0,3
20200902,19460,1394,17651,415,51,50,0,1
20200903,19604,741,18448,415,144,-653,797,0
20200904,19604,741,18448,415,0,0,0,0
20200905,19604,741,18448,415,0,0,0,0
20200906,19604,741,18448,415,0,0,0,0
20200907,19604,741,18448,415,0,0,0,0
20200908,19848,985,18448,415,244,244,0,0
20200909,19848,985,18448,415,0,0,0,0
20200910,20009,757,18837,415,161,-228,389,0
20200911,20009,757,18837,415,0,0,0,0
20200912,20009,757,18837,415,0,0,0,0
20200913,20167,915,18837,415,158,158,0,0
20200914,20228,976,18837,415,61,61,0,0
20200915,20271,1019,18837,415,43,43,0,0
20200916,20303,1051,18837,415,32,32,0,0
20200917,20303,1051,18837,415,0,0,0,0
20200918,20371,831,19124,416,68,-220,287,1
20200919,20431,891,19124,416,60,60,0,0
20200920,20431,891,19124,416,0,0,0,0
20200921,20598,1058,19124,416,167,167,0,0
20200922,20598,1058,19124,416,0,0,0,0
20200923,20690,1150,19124,416,92,92,0,0
20200924,20712,854,19440,418,22,-296,316,2
20200925,20712,854,19440,418,0,0,0,0
20200926,20735,877,19440,418,23,23,0,0
20200927,20735,877,19440,418,0,0,0,0
20200928,20838,980,19440,418,103,103,0,0
20200929,20838,980,19440,418,0,0,0,0
20200930,20838,980,19440,418,0,0,0,0
20201001,20838,980,19440,418,0,0,0,0
20201002,20924,740,19764,420,86,-240,324,2
20201003,20924,740,19764,420,0,0,0,0
20201004,20924,740,19764,420,0,0,0,0
20201005,20924,740,19764,420,0,0,0,0
20201006,20924,740,19764,420,0,0,0,0
20201007,20924,740,19764,420,0,0,0,0
20201008,21203,663,20117,423,279,-77,353,3
20201009,21203,663,20117,423,0,0,0,0
20201010,21203,663,20117,423,0,0,0,0
20201011,21203,663,20117,423,0,0,0,0
20201012,21203,663,20117,423,0,0,0,0
20201013,21203,663,20117,423,0,0,0,0
20201014,21441,901,20117,423,238,238,0,0
20201015,21441,901,20117,423,0,0,0,0
20201016,21441,901,20117,423,0,0,0,0
20201017,21441,901,20117,423,0,0,0,0
20201018,21441,901,20117,423,0,0,0,0
20201019,21506,965,20117,424,65,64,0,1
20201020,21570,1028,20117,425,64,63,0,1
20201021,21570,1028,20117,425,0,0,0,0
20201022,21570,1028,20117,425,0,0,0,0
20201023,21570,1028,20117,425,0,0,0,0
20201024,21570,1028,20117,425,0,0,0,0
20201025,21570,1028,20117,425,0,0,0,0
20201026,21793,1250,20117,426,223,222,0,1
20201027,21793,1250,20117,426,0,0,0,0
20201028,21793,1250,20117,426,0,0,0,0
20201029,21793,1250,20117,426,0,0,0,0
20201030,21793,1250,20117,426,0,0,0,0
20201031,21793,1250,20117,426,0,0,0,0
20201101,22103,523,21151,429,310,-727,1034,3
20201102,22103,523,21151,429,0,0,0,0
20201103,22103,523,21151,429,0,0,0,0
20201104,22103,523,21151,429,0,0,0,0
20201105,22103,523,21151,429,0,0,0,0
20201106,22103,523,21151,429,0,0,0,0
20201107,22342,762,21151,429,239,239,0,0
20201108,22421,478,21510,433,79,-284,359,4
20201109,22421,478,21510,433,0,0,0,0
20201110,22421,478,21510,433,0,0,0,0
20201111,22490,547,21510,433,69,69,0,0
20201112,22490,547,21510,433,0,0,0,0
20201113,22583,640,21510,433,93,93,0,0
20201114,22692,749,21510,433,109,109,0,0
20201115,22692,749,21510,433,0,0,0,0
20201116,22692,749,21510,433,0,0,0,0
20201117,22896,953,21510,433,204,204,0,0
20201118,22896,953,21510,433,0,0,0,0
20201119,23528,916,22177,435,632,-37,667,2
20201120,23528,916,22177,435,0,0,0,0
20201121,23528,916,22177,435,0,0,0,0
20201122,23528,916,22177,435,0,0,0,0
20201123,23842,1230,22177,435,314,314,0,0
20201124,23869,1256,22177,436,27,26,0,1
20201125,23915,1301,22177,437,46,45,0,1
20201126,24022,1408,22177,437,107,107,0,0
20201127,24117,1503,22177,437,95,95,0,0
20201128,24117,1503,22177,437,0,0,0,0
20201129,24117,1503,22177,437,0,0,0,0
20201130,24445,1831,22177,437,328,328,0,0
20201201,24487,1869,22177,441,42,38,0,4
20201202,24487,1869,22177,441,0,0,0,0
20201203,24487,1869,22177,441,0,0,0,0
20201204,24752,965,23344,443,265,-904,1167,2
20201205,24752,965,23344,443,0,0,0,0
20201206,24752,965,23344,443,0,0,0,0
20201207,24752,965,23344,443,0,0,0,0
20201208,24752,965,23344,443,0,0,0,0
20201209,24963,1176,23344,443,211,211,0,0
20201210,24963,1176,23344,443,0,0,0,0
20201211,25087,793,23851,443,124,-383,507,0
20201212,25143,849,23851,443,56,56,0,0
20201213,25143,849,23851,443,0,0,0,0
20201214,25214,920,23851,443,71,71,0,0
20201215,25359,1063,23851,445,145,143,0,2
20201216,25472,1176,23851,445,113,113,0,0
20201217,25472,1176,23851,445,0,0,0,0
20201218,25472,1176,23851,445,0,0,0,0
20201219,25724,1428,23851,445,252,252,0,0
20201220,25849,1550,23851,448,125,122,0,3
20201221,25849,1550,23851,448,0,0,0,0
20201222,25849,1550,23851,448,0,0,0,0
20201223,25849,1550,23851,448,0,0,0,0
20201224,26277,937,24892,448,428,-613,1041,0
20201225,26277,937,24892,448,0,0,0,0
20201226,26277,937,24892,448,0,0,0,0
20201227,26277,937,24892,448,0,0,0,0
20201228,26277,937,24892,448,0,0,0,0
20201229,26277,937,24892,448,0,0,0,0
20201230,26277,937,24892,448,0,0,0,0
20201231,26277,937,24892,448,0,0,0,0
20210101,26848,1508,24892,448,571,571,0,0
20210102,26848,1508,24892,448,0,0,0,0
20210103,26848,1508,24892,448,0,0,0,0
20210104,26848,1508,24892,448,0,0,0,0
20210105,26848,1508,24892,448,0,0,0,0
20210106,26848,1508,24892,448,0,0,0,0
20210107,26848,1508,24892,448,0,0,0,0
20210108,26848,1508,24892,448,0,0,0,0
20210109,26848,1508,24892,448,0,0,0,0
20210110,26848,1508,24892,448,0,0,0,0
20210111,26848,1508,24892,448,0,0,0,0
20210112,27336,1993,24892,451,488,485,0,3
20210113,27336,1993,24892,451,0,0,0,0
20210114,27336,1993,24892,451,0,0,0,0
20210115,27336,1993,24892,451,0,0,0,0
20210116,28010,694,26861,455,674,-1299,1969,4
20210117,28010,694,26861,455,0,0,0,0
20210118,28010,694,26861,455,0,0,0,0
20210119,28010,694,26861,455,0,0,0,0
20210120,28010,694,26861,455,0,0,0,0
20210121,28010,694,26861,455,0,0,0,0
20210122,28010,694,26861,455,0,0,0,0
20210123,29617,1110,28045,462,1607,416,1184,7
20210124,29617,1110,28045,462,0,0,0,0
20210125,29617,1110,28045,462,0,0,0,0
20210126,29617,1110,28045,462,0,0,0,0
20210127,29617,1110,28045,462,0,0,0,0
20210128,29617,1110,28045,462,0,0,0,0
20210129,29617,1110,28045,462,0,0,0,0
20210130,29617,1110,28045,462,0,0,0,0
20210131,29617,1110,28045,462,0,0,0,0
20210201,29617,1110,28045,462,0,0,0,0
20210202,30313,1794,28045,474,696,684,0,12
20210203,30313,1794,28045,474,0,0,0,0
20210204,30313,1794,28045,474,0,0,0,0
20210205,30313,1794,28045,474,0,0,0,0
20210206,31394,1419,29501,474,1081,-375,1456,0
20210207,31394,1419,29501,474,0,0,0,0
20210208,31394,1419,29501,474,0,0,0,0
20210209,31394,1419,29501,474,0,0,0,0
20210210,31394,1419,29501,474,0,0,0,0
20210211,31394,1419,29501,474,0,0,0,0
20210212,32098,2010,29609,479,704,591,108,5
20210213,32098,2010,29609,479,0,0,0,0
20210214,32098,2010,29609,479,0,0,0,0
20210215,32098,2010,29609,479,0,0,0,0
20210216,32098,2010,29609,479,0,0,0,0
20210217,32098,2010,29609,479,0,0,0,0
20210218,33749,1864,31362,523,1651,-146,1753,44
20210219,33749,1864,31362,523,0,0,0,0
20210220,33749,1864,31362,523,0,0,0,0
20210221,33749,1864,31362,523,0,0,0,0
20210222,33749,1864,31362,523,0,0,0,0
20210223,33749,1864,31362,523,0,0,0,0
20210224,33749,1864,31362,523,0,0,0,0
20210225,35714,2569,32594,551,1965,705,1232,28
20210226,35714,2569,32594,551,0,0,0,0
20210227,35714,2569,32594,551,0,0,0,0
20210228,35714,2569,32594,551,0,0,0,0
20210301,35714,2569,32594,551,0,0,0,0
20210302,35714,2569,32594,551,0,0,0,0
20210303,35714,2569,32594,551,0,0,0,0
20210304,35714,2569,32594,551,0,0,0,0
20210305,35714,2569,32594,551,0,0,0,0
20210306,35714,2569,32594,551,0,0,0,0
20210307,35714,2569,32594,551,0,0,0,0
20210308,36794,3292,32936,566,1080,723,342,15
20210309,36794,3292,32936,566,0,0,0,0
20210310,36794,3292,32936,566,0,0,0,0
20210311,40622,4760,35261,601,3828,1468,2325,35
20210312,40622,4760,35261,601,0,0,0,0
20210313,40622,4760,35261,601,0,0,0,0
20210314,40622,4760,35261,601,0,0,0,0
20210315,40622,4760,35261,601,0,0,0,0
20210316,40622,4760,35261,601,0,0,0,0
20210317,40622,4760,35261,601,0,0,0,0
20210318,40622,4760,35261,601,0,0,0,0
20210319,40622,4760,35261,601,0,0,0,0
20210320,40622,4760,35261,601,0,0,0,0
20210321,40622,4760,35261,601,0,0,0,0
20210322,40622,4760,35261,601,0,0,0,0
20210323,40622,4760,35261,601,0,0,0,0
20210324,40622,4760,35261,601,0,0,0,0
20210325,40622,4760,35261,601,0,0,0,0
20210326,47669,11687,35261,721,7047,6927,0,120
20210327,47669,11687,35261,721,0,0,0,0
20210328,47669,11687,35261,721,0,0,0,0
20210329,47669,11687,35261,721,0,0,0,0
20210330,47669,11687,35261,721,0,0,0,0
20210331,47669,11687,35261,721,0,0,0,0
20210401,57337,21225,35261,851,9668,9538,0,130
20210402,57337,21225,35261,851,0,0,0,0
20210403,57337,21225,35261,851,0,0,0,0
20210404,57337,21225,35261,851,0,0,0,0
20210405,57337,21225,35261,851,0,0,0,0
20210406,57337,21225,35261,851,0,0,0,0
20210407,57337,21225,35261,851,0,0,0,0
20210408,61731,25551,35261,919,4394,4326,0,68
20210409,61731,25551,35261,919,0,0,0,0
20210410,61731,25551,35261,919,0,0,0,0
20210411,61731,25551,35261,919,0,0,0,0
20210412,61731,25551,35261,919,0,0,0,0
20210413,61731,25551,35261,919,0,0,0,0
20210414,61731,25551,35261,919,0,0,0,0
20210415,61731,25551,35261,919,0,0,0,0
20210416,61731,25551,35261,919,0,0,0,0
20210417,64809,28609,35261,939,3078,3058,0,20
20210418,64809,28609,35261,939,0,0,0,0
20210419,64809,28609,35261,939,0,0,0,0
20210420,64809,28609,35261,939,0,0,0,0
20210421,64809,28609,35261,939,0,0,0,0
20210422,64809,28609,35261,939,0,0,0,0
20210423,65998,29746,35261,991,1189,1137,0,52
20210424,65998,29746,35261,991,0,0,0,0
20210425,65998,29746,35261,991,0,0,0,0
20210426,65998,29746,35261,991,0,0,0,0
20210427,65998,29746,35261,991,0,0,0,0
20210428,65998,29746,35261,991,0,0,0,0
20210429,72250,35882,35261,1107,6252,6136,0,116
20210430,72250,35882,35261,1107,0,0,0,0
20210501,72250,35882,35261,1107,0,0,0,0
20210502,72250,35882,35261,1107,0,0,0,0
20210503,72250,35882,35261,1107,0,0,0,0
20210504,72250,35882,35261,1107,0,0,0,0
20210505,72250,35882,35261,1107,0,0,0,0
20210506,74946,38533,35261,1152,2696,2651,0,45
20210507,74946,38533,35261,1152,0,0,0,0
20210508,74946,38533,35261,1152,0,0,0,0
20210509,74946,38533,35261,1152,0,0,0,0
20210510,74946,38533,35261,1152,0,0,0,0
20210511,74946,38533,35261,1152,0,0,0,0
20210512,74946,38533,35261,1152,0,0,0,0
20210513,74946,38533,35261,1152,0,0,0,0
20210514,74946,38533,35261,1152,0,0,0,0
20210515,74946,38533,35261,1152,0,0,0,0
20210516,74946,38533,35261,1152,0,0,0,0
20210517,74946,38533,35261,1152,0,0,0,0
20210518,77429,40979,35261,1189,2483,2446,0,37
20210519,77429,40979,35261,1189,0,0,0,0
20210520,77429,40979,35261,1189,0,0,0,0
20210521,77733,41233,35261,1239,304,254,0,50
20210522,77733,41233,35261,1239,0,0,0,0
20210523,77733,41233,35261,1239,0,0,0,0
20210524,77733,41233,35261,1239,0,0,0,0
20210525,77733,41233,35261,1239,0,0,0,0
20210526,77982,41451,35261,1270,249,218,0,31
20210527,77982,41451,35261,1270,0,0,0,0
20210528,77982,41451,35261,1270,0,0,0,0
20210529,78929,42393,35261,1275,947,942,0,5
20210530,78929,42393,35261,1275,0,0,0,0
20210531,78929,42393,35261,1275,0,0,0,0
20210601,78929,42393,35261,1275,0,0,0,0
20210602,78929,42393,35261,1275,0,0,0,0
20210603,78929,42393,35261,1275,0,0,0,0
20210604,78929,42393,35261,1275,0,0,0,0
20210605,78929,42393,35261,1275,0,0,0,0
20210606,78929,42393,35261,1275,0,0,0,0
20210607,78929,42393,35261,1275,0,0,0,0
20210608,79904,43341,35261,1302,975,948,0,27
20210609,79904,43341,35261,1302,0,0,0,0
20210610,79904,43341,35261,1302,0,0,0,0
20210611,80090,43519,35261,1310,186,178,0,8
20210612,80090,43519,35261,1310,0,0,0,0
20210613,80090,43519,35261,1310,0,0,0,0
20210614,80090,43519,35261,1310,0,0,0,0
20210615,80090,43519,35261,1310,0,0,0,0
20210616,80328,43754,35261,1313,238,235,0,3
20210617,80328,43754,35261,1313,0,0,0,0
20210618,80328,43754,35261,1313,0,0,0,0
20210619,80328,43754,35261,1313,0,0,0,0
20210620,80328,43754,35261,1313,0,0,0,0
20210621,80328,43754,35261,1313,0,0,0,0
20210622,80487,43906,35261,1320,159,152,0,7
20210623,80487,43906,35261,1320,0,0,0,0
20210624,80487,43906,35261,1320,0,0,0,0
20210625,80487,43906,35261,1320,0,0,0,0
20210626,80487,43906,35261,1320,0,0,0,0
20210627,80487,43906,35261,1320,0,0,0,0
20210628,80487,43906,35261,1320,0,0,0,0
20210629,80858,44273,35261,1324,371,367,0,4
20210630,80858,44273,35261,1324,0,0,0,0
20210701,80858,44273,35261,1324,0,0,0,0
20210702,80858,44273,35261,1324,0,0,0,0
20210703,80858,44273,35261,1324,0,0,0,0
20210704,80858,44273,35261,1324,0,0,0,0
20210705,80858,44273,35261,1324,0,0,0,0
20210706,80858,44273,35261,1324,0,0,0,0
20210707,80858,44273,35261,1324,0,0,0,0
20210708,80858,44273,35261,1324,0,0,0,0
20210709,80858,44273,35261,1324,0,0,0,0
20210710,80858,44273,35261,1324,0,0,0,0
20210711,80858,44273,35261,1324,0,0,0,0
20210712,80858,44273,35261,1324,0,0,0,0
20210713,80858,44273,35261,1324,0,0,0,0
20210714,80858,44273,35261,1324,0,0,0,0
20210715,80858,44273,35261,1324,0,0,0,0
20210716,81467,44876,35261,1330,609,603,0,6
20210717,81467,44876,35261,1330,0,0,0,0
20210718,81467,44876,35261,1330,0,0,0,0
20210719,81467,44876,35261,1330,0,0,0,0
20210720,81467,44876,35261,1330,0,0,0,0
20210721,81467,44876,35261,1330,0,0,0,0
20210722,81871,45278,35261,1332,404,402,0,2
20210723,82003,45278,35261,1334,132,0,0,2
20210724,82003,45408,35261,1334,0,130,0,0
20210725,82003,45408,35261,1334,0,0,0,0
20210726,82064,45469,35261,1334,61,61,0,0
20210727,82064,45469,35261,1334,0,0,0,0
20210728,82064,45469,35261,1334,0,0,0,0
20210729,82064,45469,35261,1334,0,0,0,0
20210730,82064,45469,35261,1334,0,0,0,0
20210731,82064,45469,35261,1334,0,0,0,0
20210801,82064,45469,35261,1334,0,0,0,0
20210802,82064,45469,35261,1334,0,0,0,0
20210803,82064,45469,35261,1334,0,0,0,0
20210804,82064,45469,35261,1334,0,0,0,0
20210805,82064,0,0,1334,0,-45469,-35261,0
20210806,82064,0,0,1334,0,0,0,0
20210807,82064,0,0,1334,0,0,0,0
20210808,82064,0,0,1334,0,0,0,0
20210809,82064,0,0,1334,0,0,0,0
20210810,82064,0,0,1334,0,0,0,0
20210811,82454,0,0,1338,390,0,0,4
20210812,82454,0,0,1338,0,0,0,0
20210813,82454,0,0,1338,0,0,0,0
20210814,82454,0,0,1338,0,0,0,0
20210815,82454,0,0,1338,0,0,0,0
20210816,82454,0,0,1338,0,0,0,0
20210817,82454,0,0,1338,0,0,0,0
20210818,82454,0,0,1338,0,0,0,0
20210819,82454,0,0,1338,0,0,0,0
20210820,82454,0,0,1338,0,0,0,0
20210821,82454,0,0,1338,0,0,0,0
20210822,82454,0,0,1338,0,0,0,0
20210823,82454,0,0,1338,0,0,0,0
20210824,82454,0,0,1338,0,0,0,0
20210825,82454,0,0,1338,0,0,0,0
20210826,83425,0,0,1350,971,0,0,12
20210827,83425,0,0,1350,0,0,0,0
20210828,83425,0,0,1350,0,0,0,0
20210829,83425,0,0,1350,0,0,0,0
20210830,83425,0,0,1350,0,0,0,0
20210831,83425,0,0,1350,0,0,0,0
20210901,84210,0,0,1357,785,0,0,7
20210902,84210,0,0,1357,0,0,0,0
20210903,84210,0,0,1357,0,0,0,0
20210904,84210,0,0,1357,0,0,0,0
