date,infected,active,recovered,dead,deltaInfected,deltaActive,deltaRecovered,deltaDead
20200320,1,1,0,0,1,1,0,0
20200321,3,3,0,0,2,2,0,0
20200322,3,3,0,0,0,0,0,0
20200323,3,3,0,0,0,0,0,0
20200324,3,2,0,1,0,-1,0,1
20200325,4,3,0,1,1,1,0,0
20200326,4,3,0,1,0,0,0,0
20200327,5,4,0,1,1,1,0,0
20200328,5,4,0,1,0,0,0,0
20200329,6,5,0,1,1,1,0,0
20200330,6,5,0,1,0,0,0,0
20200331,6,5,0,1,0,0,0,0
20200401,6,5,0,1,0,0,0,0
20200402,6,5,0,1,0,0,0,0
20200403,6,5,0,1,0,0,0,0
20200404,7,6,0,1,1,1,0,0
20200405,7,6,0,1,0,0,0,0
20200406,7,5,1,1,0,-1,1,0
20200407,7,5,1,1,0,0,0,0
20200408,7,5,1,1,0,0,0,0
20200409,7,5,1,1,0,0,0,0
20200410,7,5,1,1,0,0,0,0
20200411,8,6,1,1,1,1,0,0
20200412,8,6,1,1,0,0,0,0
20200413,10,8,1,1,2,2,0,0
20200414,11,9,1,1,1,1,0,0
20200415,56,54,1,1,45,45,0,0
20200416,56,54,1,1,0,0,0,0
20200417,56,54,1,1,0,0,0,0
20200418,58,56,1,1,2,2,0,0
20200419,61,59,1,1,3,3,0,0
20200420,67,65,1,1,6,6,0,0
20200421,68,66,1,1,1,1,0,0
20200422,73,71,1,1,5,5,0,0
20200423,82,80,1,1,9,9,0,0
20200424,88,86,1,1,6,6,0,0
20200425,90,88,1,1,2,2,0,0
20200426,106,104,1,1,16,16,0,0
20200427,109,107,1,1,3,3,0,0
20200428,114,111,2,1,5,4,1,0
20200429,114,111,2,1,0,0,0,0
20200430,121,116,4,1,7,5,2,0
20200501,122,103,18,1,1,-13,14,0
20200502,152,132,18,2,30,29,0,1
20200503,165,130,33,2,13,-2,15,0
20200504,175,136,37,2,10,6,4,0
20200505,186,147,37,2,11,11,0,0
20200506,191,151,38,2,5,4,1,0
20200507,218,178,38,2,27,27,0,0
20200508,230,184,44,2,12,6,6,0
20200509,236,178,56,2,6,-6,12,0
20200510,246,188,56,2,10,10,0,0
20200511,260,200,58,2,14,12,2,0
20200512,267,207,58,2,7,7,0,0
20200513,289,226,61,2,22,19,3,0
20200514,315,246,67,2,26,20,6,0
20200515,326,257,67,2,11,11,0,0
20200516,328,241,84,3,2,-16,17,1
20200517,328,241,84,3,0,0,0,0
20200518,328,240,85,3,0,-1,1,0
20200519,335,247,85,3,7,7,0,0
20200520,349,261,85,3,14,14,0,0
20200521,356,258,95,3,7,-3,10,0
20200522,362,264,95,3,6,6,0,0
20200523,371,226,142,3,9,-38,47,0
20200524,380,222,155,3,9,-4,13,0
20200525,390,232,155,3,10,10,0,0
20200526,390,231,155,4,0,-1,0,1
20200527,390,231,155,4,0,0,0,0
20200528,390,231,155,4,0,0,0,0
20200529,405,246,155,4,15,15,0,0
20200530,421,250,167,4,16,4,12,0
20200531,435,238,193,4,14,-12,26,0
20200601,458,261,193,4,23,23,0,0
20200602,466,224,237,5,8,-37,44,1
20200603,477,234,238,5,11,10,1,0
20200604,502,258,239,5,25,24,1,0
20200605,536,292,239,5,34,34,0,0
20200606,542,297,240,5,6,5,1,0
20200607,554,309,240,5,12,12,0,0
20200608,567,296,266,5,13,-13,26,0
20200609,585,310,270,5,18,14,4,0
20200610,615,316,294,5,30,6,24,0
20200611,657,357,294,6,42,41,0,1
20200612,697,397,294,6,40,40,0,0
20200613,726,426,294,6,29,29,0,0
20200614,750,443,301,6,24,17,7,0
20200615,760,413,340,7,10,-30,39,1
20200616,781,420,354,7,21,7,14,0
20200617,792,408,377,7,11,-12,23,0
20200618,823,439,377,7,31,31,0,0
20200619,848,463,377,8,25,24,0,1
20200620,863,478,377,8,15,15,0,0
20200621,890,469,413,8,27,-9,36,0
20200622,944,517,419,8,54,48,6,0
20200623,982,548,426,8,38,31,7,0
20200624,999,512,479,8,17,-36,53,0
20200625,1003,433,562,8,4,-79,83,0
20200626,1027,449,568,10,24,16,6,2
20200627,1091,511,568,12,64,62,0,2
20200628,1155,573,570,12,64,62,2,0
20200629,1165,545,608,12,10,-28,38,0
20200630,1227,583,629,15,62,38,21,3
20200701,1267,623,629,15,40,40,0,0
20200702,1301,657,629,15,34,34,0,0
20200703,1382,738,629,15,81,81,0,0
20200704,1421,751,654,16,39,13,25,1
20200705,1451,779,655,17,30,28,1,1
20200706,1463,724,722,17,12,-55,67,0
20200707,1499,757,724,18,36,33,2,1
20200708,1542,794,730,18,43,37,6,0
20200709,1552,804,730,18,10,10,0,0
20200710,1591,842,730,19,39,38,0,1
20200711,1623,856,748,19,32,14,18,0
20200712,1623,856,748,19,0,0,0,0
20200713,1698,931,748,19,75,75,0,0
20200714,1722,931,772,19,24,0,24,0
20200715,1780,911,850,19,58,-20,78,0
20200716,1894,973,902,19,114,62,52,0
20200717,1939,1018,902,19,45,45,0,0
20200718,2014,1080,913,21,75,62,11,2
20200719,2045,1051,973,21,31,-29,60,0
20200720,2071,987,1063,21,26,-64,90,0
20200721,2107,986,1100,21,36,-1,37,0
20200722,2154,1001,1132,21,47,15,32,0
20200723,2190,1019,1150,21,36,18,18,0
20200724,2220,982,1216,22,30,-37,66,1
20200725,2258,873,1363,22,38,-109,147,0
20200726,2307,838,1447,22,49,-35,84,0
20200727,2328,756,1550,22,21,-82,103,0
20200728,2354,716,1616,22,26,-40,66,0
20200729,2373,656,1694,23,19,-60,78,1
20200730,2418,701,1694,23,45,45,0,0
20200731,2451,604,1824,23,33,-97,130,0
20200801,2480,619,1837,24,29,15,13,1
20200802,2547,663,1860,24,67,44,23,0
20200803,2583,647,1911,25,36,-16,51,1
20200804,2631,675,1930,26,48,28,19,1
20200805,2689,707,1955,27,58,32,25,1
20200806,2734,697,2010,27,45,-10,55,0
20200807,2780,709,2042,29,46,12,32,2
20200808,2835,730,2073,32,55,21,31,3
20200809,2858,740,2086,32,23,10,13,0
20200810,2883,723,2128,32,25,-17,42,0
20200811,2920,739,2148,33,37,16,20,1
20200812,3000,795,2172,33,80,56,24,0
20200813,3073,808,2232,33,73,13,60,0
20200814,3136,849,2254,33,63,41,22,0
20200815,3163,827,2302,34,27,-22,48,1
20200816,3179,827,2317,35,16,0,15,1
20200817,3203,831,2336,36,24,4,19,1
20200818,3253,827,2390,36,50,-4,54,0
20200819,3321,843,2442,36,68,16,52,0
20200820,3368,869,2462,37,47,26,20,1
20200821,3412,877,2498,37,44,8,36,0
20200822,3455,880,2538,37,43,3,40,0
20200823,3509,932,2540,37,54,52,2,0
20200824,3532,896,2599,37,23,-36,59,0
20200825,3568,858,2673,37,36,-38,74,0
20200826,3630,879,2713,38,62,21,40,1
20200827,3699,912,2749,38,69,33,36,0
20200828,3745,900,2807,38,46,-12,58,0
20200829,3778,884,2855,39,33,-16,48,1
20200830,3852,945,2867,40,74,61,12,1
20200831,3884,928,2916,40,32,-17,49,0
20200901,3970,507,3423,40,86,-421,507,0
20200902,4048,547,3460,41,78,40,37,1
20200903,4125,582,3502,41,77,35,42,0
20200904,4200,597,3562,41,75,15,60,0
20200905,4275,622,3611,42,75,25,49,1
20200906,4330,660,3628,42,55,38,17,0
20200907,4358,526,3790,42,28,-134,162,0
20200908,4400,507,3851,42,42,-19,61,0
20200909,4473,515,3915,43,73,8,64,1
20200910,4557,521,3993,43,84,6,78,0
20200911,4651,531,4076,44,94,10,83,1
20200912,4711,563,4104,44,60,32,28,0
20200913,4813,650,4119,44,102,87,15,0
20200914,4839,554,4240,45,26,-96,121,1
20200915,4904,564,4294,46,65,10,54,1
20200916,4978,501,4430,47,74,-63,136,1
20200917,5063,549,4465,49,85,48,35,2
20200918,5141,543,4548,50,78,-6,83,1
20200919,5186,555,4581,50,45,12,33,0
20200920,5257,607,4599,51,71,52,18,1
20200921,5281,555,4674,52,24,-52,75,1
20200922,5337,543,4742,52,56,-12,68,0
20200923,5412,521,4837,54,75,-22,95,2
20200924,5479,507,4917,55,67,-14,80,1
20200925,5628,591,4982,55,149,84,65,0
20200926,5701,627,5018,56,73,36,36,1
20200927,5771,683,5031,57,70,56,13,1
20200928,5817,624,5134,59,46,-59,103,2
20200929,5900,613,5228,59,83,-11,94,0
20200930,6024,687,5277,60,124,74,49,1
20201001,6126,727,5338,61,102,40,61,1
20201002,6205,744,5399,62,79,17,61,1
20201003,6296,825,5409,62,91,81,10,0
20201004,6360,879,5416,65,64,54,7,3
20201005,6433,841,5524,68,73,-38,108,3
20201006,6518,817,5632,69,85,-24,108,1
20201007,6624,869,5684,71,106,52,52,2
20201008,6717,825,5821,71,93,-44,137,0
20201009,6809,804,5932,73,92,-21,111,2
20201010,6913,869,5970,74,104,65,38,1
20201011,7072,1016,5981,75,159,147,11,1
20201012,7155,1005,6075,75,83,-11,94,0
20201013,7254,967,6210,77,99,-38,135,2
20201014,7371,1022,6270,79,117,55,60,2
20201015,7444,1017,6348,79,73,-5,78,0
20201016,7526,1019,6425,82,82,2,77,3
20201017,7638,1080,6473,85,112,61,48,3
20201018,7752,1140,6526,86,114,60,53,1
20201019,7800,1093,6620,87,48,-47,94,1
20201020,7901,1022,6792,87,101,-71,172,0
20201021,8033,1108,6835,90,132,86,43,3
20201022,8122,1091,6940,91,89,-17,105,1
20201023,8198,1070,7034,94,76,-21,94,3
20201024,8322,994,7234,94,124,-76,200,0
20201025,8396,1017,7285,94,74,23,51,0
20201026,8423,874,7455,94,27,-143,170,0
20201027,8472,779,7599,94,49,-95,144,0
20201028,8548,753,7701,94,76,-26,102,0
20201029,8603,712,7796,95,55,-41,95,1
20201030,8694,686,7913,95,91,-26,117,0
20201031,8793,717,7981,95,99,31,68,0
20201101,8848,741,8012,95,55,24,31,0
20201102,8882,677,8110,95,34,-64,98,0
20201103,8944,694,8155,95,62,17,45,0
20201104,9053,738,8220,95,109,44,65,0
20201105,9149,763,8289,97,96,25,69,2
20201106,9224,761,8363,100,75,-2,74,3
20201107,9291,760,8431,100,67,-1,68,0
20201108,9369,804,8465,100,78,44,34,0
20201109,9419,602,8717,100,50,-202,252,0
20201110,9499,660,8738,101,80,58,21,1
20201111,9560,629,8829,102,61,-31,91,1
20201112,9694,588,9004,102,134,-41,175,0
20201113,9741,563,9076,102,47,-25,72,0
20201114,9780,530,9148,102,39,-33,72,0
20201115,9822,499,9220,103,42,-31,72,1
20201116,9840,351,9386,103,18,-148,166,0
20201117,9960,419,9438,103,120,68,52,0
20201118,10000,412,9484,104,40,-7,46,1
20201119,10082,421,9557,104,82,9,73,0
20201120,10152,422,9626,104,70,1,69,0
20201121,10234,481,9649,104,82,59,23,0
20201122,10276,442,9730,104,42,-39,81,0
20201123,10302,407,9791,104,26,-35,61,0
20201124,10400,463,9833,104,98,56,42,0
20201125,10526,522,9900,104,126,59,67,0
20201126,10570,509,9956,105,44,-13,56,1
20201127,10626,433,10088,105,56,-76,132,0
20201128,10700,434,10161,105,74,1,73,0
20201129,10747,413,10229,105,47,-21,68,0
20201130,10761,327,10329,105,14,-86,100,0
20201201,10816,344,10366,106,55,17,37,1
20201202,10867,339,10422,106,51,-5,56,0
20201203,10938,377,10454,107,71,38,32,1
20201204,10996,392,10496,108,58,15,42,1
20201205,11036,386,10541,109,40,-6,45,1
20201206,11063,358,10596,109,27,-28,55,0
20201207,11098,313,10676,109,35,-45,80,0
20201208,11118,297,10712,109,20,-16,36,0
20201209,11192,323,10760,109,74,26,48,0
20201210,11203,258,10836,109,11,-65,76,0
20201211,11262,258,10894,110,59,0,58,1
20201212,11302,270,10922,110,40,12,28,0
20201213,11357,285,10962,110,55,15,40,0
20201214,11361,215,11036,110,4,-70,74,0
20201215,11395,230,11055,110,34,15,19,0
20201216,11458,242,11106,110,63,12,51,0
20201217,11502,255,11137,110,44,13,31,0
20201218,11526,252,11164,110,24,-3,27,0
20201219,11567,241,11215,111,41,-11,51,1
20201220,11579,220,11248,111,12,-21,33,0
20201221,11600,219,11270,111,21,-1,22,0
20201222,11636,249,11275,112,36,30,5,1
20201223,11668,245,11311,112,32,-4,36,0
20201224,11688,210,11366,112,20,-35,55,0
20201225,11696,203,11381,112,8,-7,15,0
20201226,11698,160,11426,112,2,-43,45,0
20201227,11714,155,11447,112,16,-5,21,0
20201228,11723,112,11499,112,9,-43,52,0
20201229,11752,136,11504,112,29,24,5,0
20201230,11793,151,11530,112,41,15,26,0
20201231,11840,168,11559,113,47,17,29,1
20210101,11872,190,11569,113,32,22,10,0
20210102,11883,192,11578,113,11,2,9,0
20210103,11920,227,11580,113,37,35,2,0
20210104,11949,239,11597,113,29,12,17,0
20210105,11983,262,11608,113,34,23,11,0
20210106,12052,306,11633,113,69,44,25,0
20210107,12146,368,11665,113,94,62,32,0
20210108,12237,432,11691,114,91,64,26,1
20210109,12316,471,11731,114,79,39,40,0
20210110,12392,545,11733,114,76,74,2,0
20210111,12433,525,11793,115,41,-20,60,1
20210112,12506,576,11815,115,73,51,22,0
20210113,12592,577,11900,115,86,1,85,0
20210114,12664,560,11989,115,72,-17,89,0
20210115,12776,604,12054,118,112,44,65,3
20210116,12901,648,12134,119,125,44,80,1
20210117,12993,655,12219,119,92,7,85,0
20210118,13046,639,12287,120,53,-16,68,1
20210119,13139,700,12319,120,93,61,32,0
20210120,13224,703,12400,121,85,3,81,1
20210121,13307,668,12517,122,83,-35,117,1
20210122,13381,669,12590,122,74,1,73,0
20210123,13414,644,12646,124,33,-25,56,2
20210124,13489,652,12710,127,75,8,64,3
20210125,13557,679,12751,127,68,27,41,0
20210126,13619,649,12841,129,62,-30,90,2
20210127,13722,685,12908,129,103,36,67,0
20210128,13784,672,12981,131,62,-13,73,2
20210129,13897,728,13038,131,113,56,57,0
20210130,13981,745,13103,133,84,17,65,2
20210131,14070,792,13144,134,89,47,41,1
20210201,14098,713,13251,134,28,-79,107,0
20210202,14152,683,13335,134,54,-30,84,0
20210203,14214,678,13401,135,62,-5,66,1
20210204,14290,642,13513,135,76,-36,112,0
20210205,14306,549,13622,135,16,-93,109,0
20210206,14380,561,13684,135,74,12,62,0
20210207,14423,565,13723,135,43,4,39,0
20210208,14451,464,13851,136,28,-101,128,1
20210209,14479,441,13901,137,28,-23,50,1
20210210,14543,422,13983,138,64,-19,82,1
20210211,14601,379,14084,138,58,-43,101,0
20210212,14647,374,14134,139,46,-5,50,1
20210213,14700,397,14164,139,53,23,30,0
20210214,14741,404,14198,139,41,7,34,0
20210215,14761,382,14240,139,20,-22,42,0
20210216,14785,363,14282,140,24,-19,42,1
20210217,14848,369,14338,141,63,6,56,1
20210218,14885,350,14393,142,37,-19,55,1
20210219,14948,336,14470,142,63,-14,77,0
20210220,14999,358,14498,143,51,22,28,1
20210221,15048,366,14538,144,49,8,40,1
20210222,15072,347,14581,144,24,-19,43,0
20210223,15089,337,14608,144,17,-10,27,0
20210224,15161,378,14638,145,72,41,30,1
20210225,15201,362,14694,145,40,-16,56,0
20210226,15253,353,14754,146,52,-9,60,1
20210227,15324,393,14784,147,71,40,30,1
20210228,15400,439,14814,147,76,46,30,0
20210301,15432,410,14875,147,32,-29,61,0
20210302,15483,437,14898,148,51,27,23,1
20210303,15558,487,14921,150,75,50,23,2
20210304,15621,510,14959,152,63,23,38,2
20210305,15683,524,15007,152,62,14,48,0
20210306,15724,550,15022,152,41,26,15,0
20210307,15782,588,15040,154,58,38,18,2
20210308,15806,519,15133,154,24,-69,93,0
20210309,15826,513,15159,154,20,-6,26,0
20210310,15892,501,15236,155,66,-12,77,1
20210311,15932,502,15275,155,40,1,39,0
20210312,15986,487,15344,155,54,-15,69,0
20210313,16035,478,15401,156,49,-9,57,1
20210314,16101,493,15452,156,66,15,51,0
20210315,16120,453,15511,156,19,-40,59,0
20210316,16154,448,15549,157,34,-5,38,1
20210317,16250,493,15599,158,96,45,50,1
20210318,16298,494,15646,158,48,1,47,0
20210319,16374,516,15699,159,76,22,53,1
20210320,16440,549,15732,159,66,33,33,0
20210321,16491,580,15752,159,51,31,20,0
20210322,16517,553,15804,160,26,-27,52,1
20210323,16555,547,15845,163,38,-6,41,3
20210324,16661,609,15889,163,106,62,44,0
20210325,16787,687,15936,164,126,78,47,1
20210326,16911,735,16011,165,124,48,75,1
20210327,17018,803,16050,165,107,68,39,0
20210328,17125,885,16075,165,107,82,25,0
20210329,17190,865,16160,165,65,-20,85,0
20210330,17279,920,16191,168,89,55,31,3
20210331,17470,1025,16277,168,191,105,86,0
20210401,17587,1078,16340,169,117,53,63,1
20210402,17717,1148,16398,171,130,70,58,2
20210403,17821,1207,16443,171,104,59,45,0
20210404,17871,1218,16480,173,50,11,37,2
20210405,17939,1179,16587,173,68,-39,107,0
20210406,18023,1180,16670,173,84,1,83,0
20210407,18214,1228,16811,175,191,48,141,2
20210408,18422,1321,16925,176,208,93,114,1
20210409,18629,1375,17077,177,207,54,152,1
20210410,18629,1375,17077,177,0,0,0,0
20210411,19005,1626,17197,182,376,251,120,5
20210412,19110,1527,17399,184,105,-99,202,2
20210413,19231,1557,17487,187,121,30,88,3
20210414,19525,1692,17645,188,294,135,158,1
20210415,19780,1790,17802,188,255,98,157,0
20210416,19975,1916,17870,189,195,126,68,1
20210417,19975,1916,17870,189,0,0,0,0
20210418,20466,2233,18041,192,491,317,171,3
20210419,20627,2243,18191,193,161,10,150,1
20210420,20781,2237,18350,194,154,-6,159,1
20210421,21179,2481,18500,198,398,244,150,4
20210422,21500,2612,18689,199,321,131,189,1
20210423,21784,2624,18959,201,284,12,270,2
20210424,22094,2784,19109,201,310,160,150,0
20210425,22349,2942,19204,203,255,158,95,2
20210426,22586,2853,19525,208,237,-89,321,5
20210427,22772,2846,19715,211,186,-7,190,3
20210428,23181,3010,19958,213,409,164,243,2
20210429,23554,3084,20257,213,373,74,299,0
20210430,23882,3100,20565,217,328,16,308,4
20210501,24127,3196,20711,220,245,96,146,3
20210502,24368,3246,20899,223,241,50,188,3
20210503,24548,3073,21249,226,180,-173,350,3
20210504,24742,3045,21469,228,194,-28,220,2
20210505,25159,3167,21763,229,417,122,294,1
20210506,25526,3191,22105,230,367,24,342,1
20210507,25837,3283,22323,231,311,92,218,1
20210508,26111,3161,22718,232,274,-122,395,1
20210509,26441,3172,23037,232,330,11,319,0
20210510,26578,2941,23402,235,137,-231,365,3
20210511,26709,2781,23692,236,131,-160,290,1
20210512,27029,2866,23925,238,320,85,233,2
20210513,27386,2854,24289,243,357,-12,364,5
20210514,27672,2882,24546,244,286,28,257,1
20210515,27951,3022,24683,246,279,140,137,2
20210516,28168,2896,25023,249,217,-126,340,3
20210517,28281,2598,25432,251,113,-298,409,2
20210518,28410,2577,25581,252,129,-21,149,1
20210519,28699,2630,25816,253,289,53,235,1
20210520,28898,2529,26116,253,199,-101,300,0
20210521,29033,2323,26456,254,135,-206,340,1
20210522,29198,2285,26657,256,165,-38,201,2
20210523,29334,2236,26842,256,136,-49,185,0
20210524,29411,1964,27189,258,77,-272,347,2
20210525,29549,1892,27398,259,138,-72,209,1
20210526,29763,1860,27644,259,214,-32,246,0
20210527,29939,1766,27914,259,176,-94,270,0
20210528,30122,1698,28163,261,183,-68,249,2
20210529,30273,1690,28320,263,151,-8,157,2
20210530,30359,1667,28428,264,86,-23,108,1
20210531,30439,1465,28710,264,80,-202,282,0
20210601,30523,1455,28804,264,84,-10,94,0
20210602,30694,1484,28944,266,171,29,140,2
20210603,30774,1383,29125,266,80,-101,181,0
20210604,30907,1319,29321,267,133,-64,196,1
20210605,31003,1304,29432,267,96,-15,111,0
20210606,31097,1183,29647,267,94,-121,215,0
20210607,31147,1054,29826,267,50,-129,179,0
20210608,31225,1048,29908,269,78,-6,82,2
20210609,31339,1027,30042,270,114,-21,134,1
20210610,31433,1019,30143,271,94,-8,101,1
20210611,31512,1009,30231,272,79,-10,88,1
20210612,31571,982,30316,273,59,-27,85,1
20210613,31571,982,30316,273,0,0,0,0
20210614,31647,829,30542,276,76,-153,226,3
20210615,31704,838,30590,276,57,9,48,0
20210616,31783,793,30711,279,79,-45,121,3
20210617,31858,782,30796,280,75,-11,85,1
20210618,31910,722,30907,281,52,-60,111,1
20210619,31964,740,30943,281,54,18,36,0
20210620,32002,731,30988,283,38,-9,45,2
20210621,32039,665,31091,283,37,-66,103,0
20210622,32111,689,31138,284,72,24,47,1
20210623,32192,706,31202,284,81,17,64,0
20210624,32257,696,31276,285,65,-10,74,1
20210625,32313,679,31348,286,56,-17,72,1
20210626,32344,687,31371,286,31,8,23,0
20210627,32372,670,31416,286,28,-17,45,0
20210628,32399,583,31530,286,27,-87,114,0
20210629,32457,606,31565,286,58,23,35,0
20210630,32457,606,31565,286,0,0,0,0
20210701,32594,615,31692,287,137,9,127,1
20210702,32666,622,31757,287,72,7,65,0
20210703,32705,603,31815,287,39,-19,58,0
20210704,32735,605,31842,288,30,2,27,1
20210705,32745,551,31906,288,10,-54,64,0
20210706,32788,568,31931,289,43,17,25,1
20210707,32827,576,31962,289,39,8,31,0
20210708,32883,586,32008,289,56,10,46,0
20210709,32928,554,32085,289,45,-32,77,0
20210710,32969,539,32141,289,41,-15,56,0
20210711,33006,538,32179,289,37,-1,38,0
20210712,33026,500,32236,290,20,-38,57,1
20210713,33053,505,32258,290,27,5,22,0
20210714,33127,559,32276,292,74,54,18,2
20210715,33180,576,32310,294,53,17,34,2
20210716,33234,568,32371,295,54,-8,61,1
20210717,33270,554,32421,295,36,-14,50,0
20210718,33302,552,32455,295,32,-2,34,0
20210719,33317,526,32496,295,15,-26,41,0
20210720,33356,535,32525,296,39,9,29,1
20210721,33395,528,32570,297,39,-7,45,1
20210722,33452,538,32617,297,57,10,47,0
20210723,33452,538,32617,297,0,0,0,0
20210724,33541,545,32699,297,89,7,82,0
20210725,33577,540,32739,298,36,-5,40,1
20210726,33592,486,32808,298,15,-54,69,0
20210727,33626,493,32835,298,34,7,27,0
20210728,33682,505,32879,298,56,12,44,0
20210729,33721,488,32935,298,39,-17,56,0
20210730,33763,489,32976,298,42,1,41,0
20210731,33791,482,33011,298,28,-7,35,0
20210801,33822,488,33036,298,31,6,25,0
20210802,33830,464,33068,298,8,-24,32,0
20210803,33858,432,33128,298,28,-32,60,0
20210804,33906,435,33173,298,48,3,45,0
20210805,33941,0,0,298,35,-435,-33173,0
20210806,33976,0,0,298,35,0,0,0
20210807,34010,0,0,298,34,0,0,0
20210808,34052,0,0,298,42,0,0,0
20210809,34078,0,0,298,26,0,0,0
20210810,34112,0,0,298,34,0,0,0
20210811,34171,0,0,298,59,0,0,0
20210812,34235,0,0,298,64,0,0,0
20210813,34286,0,0,298,51,0,0,0
20210814,34344,0,0,299,58,0,0,1
20210815,34397,0,0,300,53,0,0,1
20210816,34407,0,0,300,10,0,0,0
20210817,34445,0,0,300,38,0,0,0
20210818,34529,0,0,300,84,0,0,0
20210819,34598,0,0,300,69,0,0,0
20210820,34645,0,0,302,47,0,0,2
20210821,34686,0,0,302,41,0,0,0
20210822,34738,0,0,303,52,0,0,1
20210823,34773,0,0,305,35,0,0,2
20210824,34825,0,0,306,52,0,0,1
20210825,34919,0,0,307,94,0,0,1
20210826,34992,0,0,307,73,0,0,0
20210827,35079,0,0,308,87,0,0,1
20210828,35147,0,0,308,68,0,0,0
20210829,35227,0,0,309,80,0,0,1
20210830,35283,0,0,310,56,0,0,1
20210831,35354,0,0,313,71,0,0,3
20210901,35506,0,0,314,152,0,0,1
20210902,35624,0,0,314,118,0,0,0
20210903,35739,0,0,315,115,0,0,1
20210904,35739,0,0,315,0,0,0,0
