date,infected,active,recovered,dead,deltaInfected,deltaActive,deltaRecovered,deltaDead
20200309,2,2,0,0,2,2,0,0
20200310,3,3,0,0,1,1,0,0
20200311,6,6,0,0,3,3,0,0
20200312,6,6,0,0,0,0,0,0
20200313,14,14,0,0,8,8,0,0
20200314,26,26,0,0,12,12,0,0
20200315,26,26,0,0,0,0,0,0
20200316,33,33,0,0,7,7,0,0
20200317,46,46,0,0,13,13,0,0
20200318,49,49,0,0,3,3,0,0
20200319,67,67,0,0,18,18,0,0
20200320,67,67,0,0,0,0,0,0
20200321,84,84,0,0,17,17,0,0
20200322,95,91,3,1,11,7,3,1
20200323,116,112,3,1,21,21,0,0
20200324,124,118,3,3,8,6,0,2
20200325,132,126,3,3,8,8,0,0
20200326,146,139,4,3,14,13,1,0
20200327,162,142,15,5,16,3,11,2
20200328,179,159,15,5,17,17,0,0
20200329,214,194,15,5,35,35,0,0
20200330,230,201,22,7,16,7,7,2
20200331,262,231,23,8,32,30,1,1
20200401,320,283,28,9,58,52,5,1
20200402,356,318,28,10,36,35,0,1
20200403,396,357,28,11,40,39,0,1
20200404,426,382,33,11,30,25,5,0
20200405,446,400,37,9,20,18,4,-2
20200406,465,411,45,9,19,11,8,0
20200407,494,438,47,9,29,27,2,0
20200408,526,465,52,9,32,27,5,0
20200409,564,501,53,10,38,36,1,1
20200410,595,527,58,10,31,26,5,0
20200411,616,545,61,10,21,18,3,0
20200412,633,557,65,11,17,12,4,1
20200413,662,585,65,12,29,28,0,1
20200414,695,618,65,12,33,33,0,0
20200415,715,638,65,12,20,20,0,0
20200416,735,646,77,12,20,8,12,0
20200417,750,661,77,12,15,15,0,0
20200418,761,670,79,12,11,9,2,0
20200419,767,674,81,12,6,4,2,0
20200420,772,679,81,12,5,5,0,0
20200421,784,674,98,12,12,-5,17,0
20200422,790,679,98,13,6,5,0,1
20200423,795,684,98,13,5,5,0,0
20200424,804,692,98,14,9,8,0,1
20200425,810,648,148,14,6,-44,50,0
20200426,817,655,148,14,7,7,0,0
20200427,822,659,148,15,5,4,0,1
20200428,837,674,148,15,15,15,0,0
20200429,843,680,148,15,6,6,0,0
20200430,850,539,296,15,7,-141,148,0
20200501,857,546,296,15,7,7,0,0
20200502,864,553,296,15,7,7,0,0
20200503,872,561,296,15,8,8,0,0
20200504,874,563,296,15,2,2,0,0
20200505,878,567,296,15,4,4,0,0
20200506,883,572,296,15,5,5,0,0
20200507,889,474,400,15,6,-98,104,0
20200508,891,476,400,15,2,2,0,0
20200509,892,476,401,15,1,0,1,0
20200510,898,481,401,16,6,5,0,1
20200511,901,484,401,16,3,3,0,0
20200512,903,438,449,16,2,-46,48,0
20200513,905,439,449,17,2,1,0,1
20200514,907,409,481,17,2,-30,32,0
20200515,910,412,481,17,3,3,0,0
20200516,914,382,515,17,4,-30,34,0
20200517,916,384,515,17,2,2,0,0
20200518,917,385,515,17,1,1,0,0
20200519,918,386,515,17,1,1,0,0
20200520,922,389,516,17,4,3,1,0
20200521,923,345,561,17,1,-44,45,0
20200522,927,349,561,17,4,4,0,0
20200523,927,316,594,17,0,-33,33,0
20200524,935,324,594,17,8,8,0,0
20200525,937,326,594,17,2,2,0,0
20200526,939,328,594,17,2,2,0,0
20200527,939,328,594,17,0,0,0,0
20200528,941,140,784,17,2,-188,190,0
20200529,942,141,784,17,1,1,0,0
20200530,944,137,790,17,2,-4,6,0
20200531,944,137,790,17,0,0,0,0
20200601,949,142,790,17,5,5,0,0
20200602,952,145,790,17,3,3,0,0
20200603,958,151,790,17,6,6,0,0
20200604,958,151,790,17,0,0,0,0
20200605,960,136,807,17,2,-15,17,0
20200606,960,135,807,18,0,-1,0,1
20200607,964,139,807,18,4,4,0,0
20200608,970,145,807,18,6,6,0,0
20200609,972,147,807,18,2,2,0,0
20200610,974,149,807,18,2,2,0,0
20200611,975,150,807,18,1,1,0,0
20200612,980,155,807,18,5,5,0,0
20200613,980,155,807,18,0,0,0,0
20200614,983,158,807,18,3,3,0,0
20200615,985,160,807,18,2,2,0,0
20200616,985,151,816,18,0,-9,9,0
20200617,985,151,816,18,0,0,0,0
20200618,985,148,818,19,0,-3,2,1
20200619,985,148,818,19,0,0,0,0
20200620,985,142,824,19,0,-6,6,0
20200621,986,143,824,19,1,1,0,0
20200622,988,145,824,19,2,2,0,0
20200623,990,147,824,19,2,2,0,0
20200624,991,148,824,19,1,1,0,0
20200625,992,149,824,19,1,1,0,0
20200626,992,149,824,19,0,0,0,0
20200627,994,151,824,19,2,2,0,0
20200628,994,142,833,19,0,-9,9,0
20200629,996,144,833,19,2,2,0,0
20200630,998,146,833,19,2,2,0,0
20200701,999,147,833,19,1,1,0,0
20200702,999,147,833,19,0,0,0,0
20200703,999,141,839,19,0,-6,6,0
20200704,1002,144,839,19,3,3,0,0
20200705,1003,145,839,19,1,1,0,0
20200706,1004,146,839,19,1,1,0,0
20200707,1005,147,839,19,1,1,0,0
20200708,1008,150,839,19,3,3,0,0
20200709,1010,152,839,19,2,2,0,0
20200710,1013,155,839,19,3,3,0,0
20200711,1014,156,839,19,1,1,0,0
20200712,1021,163,839,19,7,7,0,0
20200713,1022,164,839,19,1,1,0,0
20200714,1023,165,839,19,1,1,0,0
20200715,1025,167,839,19,2,2,0,0
20200716,1031,167,845,19,6,0,6,0
20200717,1033,169,845,19,2,2,0,0
20200718,1037,173,845,19,4,4,0,0
20200719,1038,174,845,19,1,1,0,0
20200720,1038,172,847,19,0,-2,2,0
20200721,1040,174,847,19,2,2,0,0
20200722,1040,174,847,19,0,0,0,0
20200723,1045,179,847,19,5,5,0,0
20200724,1047,181,847,19,2,2,0,0
20200725,1053,182,852,19,6,1,5,0
20200726,1057,186,852,19,4,4,0,0
20200727,1060,189,852,19,3,3,0,0
20200728,1067,196,852,19,7,7,0,0
20200729,1080,209,852,19,13,13,0,0
20200730,1090,219,852,19,10,10,0,0
20200731,1114,243,852,19,24,24,0,0
20200801,1124,253,852,19,10,10,0,0
20200802,1150,275,856,19,26,22,4,0
20200803,1155,280,856,19,5,5,0,0
20200804,1180,305,856,19,25,25,0,0
20200805,1195,320,856,19,15,15,0,0
20200806,1208,333,856,19,13,13,0,0
20200807,1222,347,856,19,14,14,0,0
20200808,1233,358,856,19,11,11,0,0
20200809,1242,353,870,19,9,-5,14,0
20200810,1252,363,870,19,10,10,0,0
20200811,1277,387,870,20,25,24,0,1
20200812,1291,401,870,20,14,14,0,0
20200813,1305,415,870,20,14,14,0,0
20200814,1318,428,870,20,13,13,0,0
20200815,1332,442,870,20,14,14,0,0
20200816,1339,449,870,20,7,7,0,0
20200817,1351,461,870,20,12,12,0,0
20200818,1359,461,878,20,8,0,8,0
20200819,1385,487,878,20,26,26,0,0
20200820,1395,497,878,20,10,10,0,0
20200821,1406,508,878,20,11,11,0,0
20200822,1417,519,878,20,11,11,0,0
20200823,1421,523,878,20,4,4,0,0
20200824,1451,553,878,20,30,30,0,0
20200825,1474,519,935,20,23,-34,57,0
20200826,1484,529,935,20,10,10,0,0
20200827,1467,512,935,20,-17,-17,0,0
20200828,1481,526,935,20,14,14,0,0
20200829,1483,528,935,20,2,2,0,0
20200830,1487,532,935,20,4,4,0,0
20200831,1488,329,1139,20,1,-203,204,0
20200901,1490,330,1139,21,2,1,0,1
20200902,1495,335,1139,21,5,5,0,0
20200903,1498,338,1139,21,3,3,0,0
20200904,1502,342,1139,21,4,4,0,0
20200905,1507,249,1237,21,5,-93,98,0
20200906,1509,251,1237,21,2,2,0,0
20200907,1510,251,1237,22,1,0,0,1
20200908,1511,252,1237,22,1,1,0,0
20200909,1514,255,1237,22,3,3,0,0
20200910,1517,258,1237,22,3,3,0,0
20200911,1520,261,1237,22,3,3,0,0
20200912,1523,220,1281,22,3,-41,44,0
20200913,1526,223,1281,22,3,3,0,0
20200914,1534,230,1282,22,8,7,1,0
20200915,1540,236,1282,22,6,6,0,0
20200916,1548,244,1282,22,8,8,0,0
20200917,1558,254,1282,22,10,10,0,0
20200918,1565,261,1282,22,7,7,0,0
20200919,1590,286,1282,22,25,25,0,0
20200920,1600,296,1282,22,10,10,0,0
20200921,1603,212,1369,22,3,-84,87,0
20200922,1618,227,1369,22,15,15,0,0
20200923,1654,263,1369,22,36,36,0,0
20200924,1663,272,1369,22,9,9,0,0
20200925,1671,280,1369,22,8,8,0,0
20200926,1684,293,1369,22,13,13,0,0
20200927,1696,305,1369,22,12,12,0,0
20200928,1713,322,1369,22,17,17,0,0
20200929,1743,352,1369,22,30,30,0,0
20200930,1755,364,1369,22,12,12,0,0
20201001,1772,381,1369,22,17,17,0,0
20201002,1789,398,1369,22,17,17,0,0
20201003,1811,420,1369,22,22,22,0,0
20201004,1824,433,1369,22,13,13,0,0
20201005,1847,456,1369,22,23,23,0,0
20201006,1876,484,1369,23,29,28,0,1
20201007,1897,504,1369,24,21,20,0,1
20201008,1918,525,1369,24,21,21,0,0
20201009,1951,557,1369,25,33,32,0,1
20201010,1986,517,1444,25,35,-40,75,0
20201011,2006,537,1444,25,20,20,0,0
20201012,2047,578,1444,25,41,41,0,0
20201013,2130,661,1444,25,83,83,0,0
20201014,2181,712,1444,25,51,51,0,0
20201015,2285,816,1444,25,104,104,0,0
20201016,2379,910,1444,25,94,94,0,0
20201017,2581,1112,1444,25,202,202,0,0
20201018,2644,1175,1444,25,63,63,0,0
20201019,2687,1218,1444,25,43,43,0,0
20201020,2839,1370,1444,25,152,152,0,0
20201021,2966,1497,1444,25,127,127,0,0
20201022,3154,1685,1444,25,188,188,0,0
20201023,3314,1845,1444,25,160,160,0,0
20201024,3444,1537,1882,25,130,-308,438,0
20201025,3545,1638,1882,25,101,101,0,0
20201026,3636,1729,1882,25,91,91,0,0
20201027,3817,1910,1882,25,181,181,0,0
20201028,3930,2023,1882,25,113,113,0,0
20201029,4051,2144,1882,25,121,121,0,0
20201030,4217,2310,1882,25,166,166,0,0
20201031,4366,2458,1882,26,149,148,0,1
20201101,4563,2655,1882,26,197,197,0,0
20201102,4760,2851,1882,27,197,196,0,1
20201103,4934,3025,1882,27,174,174,0,0
20201104,5100,3191,1882,27,166,166,0,0
20201105,5333,3424,1882,27,233,233,0,0
20201106,5557,3648,1882,27,224,224,0,0
20201107,5871,3954,1882,35,314,306,0,8
20201108,5987,4077,1882,28,116,123,0,-7
20201109,6098,4188,1882,28,111,111,0,0
20201110,6296,4385,1882,29,198,197,0,1
20201111,6461,4546,1882,33,165,161,0,4
20201112,6646,4730,1882,34,185,184,0,1
20201113,6853,4794,2021,38,207,64,139,4
20201114,7051,4991,2021,39,198,197,0,1
20201115,7178,5118,2021,39,127,127,0,0
20201116,7285,5224,2021,40,107,106,0,1
20201117,7513,5452,2021,40,228,228,0,0
20201118,7711,5649,2021,41,198,197,0,1
20201119,7979,5917,2021,41,268,268,0,0
20201120,8211,6113,2055,43,232,196,34,2
20201121,8456,6358,2055,43,245,245,0,0
20201122,8643,6544,2055,44,187,186,0,1
20201123,8947,6848,2055,44,304,304,0,0
20201124,9199,7098,2055,46,252,250,0,2
20201125,9453,7351,2055,47,254,253,0,1
20201126,9673,7570,2055,48,220,219,0,1
20201127,9983,7878,2057,48,310,308,2,0
20201128,10231,8126,2057,48,248,248,0,0
20201129,10383,8278,2057,48,152,152,0,0
20201130,10565,8459,2057,49,182,181,0,1
20201201,10883,8777,2057,49,318,318,0,0
20201202,11175,9066,2057,52,292,289,0,3
20201203,11523,9412,2057,54,348,346,0,2
20201204,11812,9698,2057,57,289,286,0,3
20201205,12181,10067,2057,57,369,369,0,0
20201206,12451,10333,2057,61,270,266,0,4
20201207,12867,10747,2057,63,416,414,0,2
20201208,13286,11161,2057,68,419,414,0,5
20201209,13286,11161,2057,68,0,0,0,0
20201210,13649,11522,2057,70,363,361,0,2
20201211,13649,11522,2057,70,0,0,0,0
20201212,14476,12344,2057,75,827,822,0,5
20201213,15101,12966,2057,78,625,622,0,3
20201214,15450,13311,2057,82,349,345,0,4
20201215,15789,13648,2057,84,339,337,0,2
20201216,16190,14048,2057,85,401,400,0,1
20201217,16190,14048,2057,85,0,0,0,0
20201218,16647,14505,2057,85,457,457,0,0
20201219,17476,15330,2057,89,829,825,0,4
20201220,17688,15540,2057,91,212,210,0,2
20201221,18004,15851,2057,96,316,311,0,5
20201222,18004,15851,2057,96,0,0,0,0
20201223,18883,16722,2057,104,879,871,0,8
20201224,19316,17152,2057,107,433,430,0,3
20201225,19366,17200,2057,109,50,48,0,2
20201226,19391,17223,2057,111,25,23,0,2
20201227,19657,17488,2057,112,266,265,0,1
20201228,20408,18238,2057,113,751,750,0,1
20201229,21315,19141,2057,117,907,903,0,4
20201230,22019,19843,2057,119,704,702,0,2
20201231,22019,19843,2057,119,0,0,0,0
20210101,22818,20634,2057,127,799,791,0,8
20210102,23445,21259,2057,129,627,625,0,2
20210103,23974,21786,2057,131,529,527,0,2
20210104,24639,22449,2057,133,665,663,0,2
20210105,25208,23017,2057,134,569,568,0,1
20210106,25781,23586,2057,138,573,569,0,4
20210107,26208,24011,2057,140,427,425,0,2
20210108,26674,24476,2057,141,466,465,0,1
20210109,27011,24807,2057,147,337,331,0,6
20210110,27350,25145,2057,148,339,338,0,1
20210111,27638,25428,2057,153,288,283,0,5
20210112,27897,25683,2057,157,259,255,0,4
20210113,28124,25904,2057,163,227,221,0,6
20210114,28124,25904,2057,163,0,0,0,0
20210115,28609,26386,2057,166,485,482,0,3
20210116,28811,26587,2057,167,202,201,0,1
20210117,28968,26741,2057,170,157,154,0,3
20210118,29130,26898,2057,175,162,157,0,5
20210119,29294,27061,2057,176,164,163,0,1
20210120,29472,27239,2057,176,178,178,0,0
20210121,29636,27401,2057,178,164,162,0,2
20210122,29758,27522,2057,179,122,121,0,1
20210123,29887,27647,2057,183,129,125,0,4
20210124,30017,27774,2057,186,130,127,0,3
20210125,30143,27898,2057,188,126,124,0,2
20210126,30252,28005,2057,190,109,107,0,2
20210127,30380,28130,2057,193,128,125,0,3
20210128,30538,28284,2057,197,158,154,0,4
20210129,30657,28403,2057,197,119,119,0,0
20210130,30770,28516,2057,197,113,113,0,0
20210131,30876,28620,2057,199,106,104,0,2
20210201,30996,28737,2057,202,120,117,0,3
20210202,31124,28865,2057,202,128,128,0,0
20210203,31263,29003,2057,203,139,138,0,1
20210204,31379,29114,2057,208,116,111,0,5
20210205,31512,29245,2057,210,133,131,0,2
20210206,31644,29376,2057,211,132,131,0,1
20210207,31759,29490,2057,212,115,114,0,1
20210208,31864,29593,2057,214,105,103,0,2
20210209,31959,29688,2057,214,95,95,0,0
20210210,32072,29798,2057,217,113,110,0,3
20210211,32175,29900,2057,218,103,102,0,1
20210212,32288,30012,2057,219,113,112,0,1
20210213,32390,30113,2057,220,102,101,0,1
20210214,32513,30235,2057,221,123,122,0,1
20210215,32626,30347,2057,222,113,112,0,1
20210216,32707,30425,2057,225,81,78,0,3
20210217,32828,30544,2057,227,121,119,0,2
20210218,32935,30650,2057,228,107,106,0,1
20210219,33046,30760,2057,229,111,110,0,1
20210220,33153,30867,2057,229,107,107,0,0
20210221,33260,30974,2057,229,107,107,0,0
20210222,33391,31104,2057,230,131,130,0,1
20210223,33567,31280,2057,230,176,176,0,0
20210224,33710,31422,2057,231,143,142,0,1
20210225,33909,31621,2057,231,199,199,0,0
20210226,34181,31893,2057,231,272,272,0,0
20210227,34424,32136,2057,231,243,243,0,0
20210228,34707,32419,2057,231,283,283,0,0
20210301,35009,32721,2057,231,302,302,0,0
20210302,35297,33008,2057,232,288,287,0,1
20210303,35620,33331,2057,232,323,323,0,0
20210304,36004,33715,2057,232,384,384,0,0
20210305,36277,33988,2057,232,273,273,0,0
20210306,36575,34286,2057,232,298,298,0,0
20210307,36878,34588,2057,233,303,302,0,1
20210308,37230,34940,2057,233,352,352,0,0
20210309,37650,35360,2057,233,420,420,0,0
20210310,38065,35773,2057,235,415,413,0,2
20210311,38496,36203,2057,236,431,430,0,1
20210312,38879,36584,2057,238,383,381,0,2
20210313,39277,36982,2057,238,398,398,0,0
20210314,39651,37354,2057,240,374,372,0,2
20210315,39869,37572,2057,240,218,218,0,0
20210316,40344,38046,2057,241,475,474,0,1
20210317,40726,38428,2057,241,382,382,0,0
20210318,41111,38813,2057,241,385,385,0,0
20210319,41475,39177,2057,241,364,364,0,0
20210320,41882,39583,2057,242,407,406,0,1
20210321,42218,39918,2057,243,336,335,0,1
20210322,42628,40326,2057,245,410,408,0,2
20210323,42993,40690,2057,246,365,364,0,1
20210324,43286,40981,2057,248,293,291,0,2
20210325,43610,41305,2057,248,324,324,0,0
20210326,43971,41666,2057,248,361,361,0,0
20210327,44305,41998,2057,250,334,332,0,2
20210328,44631,42322,2057,252,326,324,0,2
20210329,44991,42680,2057,254,360,358,0,2
20210330,45430,43117,2057,256,439,437,0,2
20210331,45864,43551,2057,256,434,434,0,0
20210401,46173,43856,2057,260,309,305,0,4
20210402,46878,44560,2057,261,705,704,0,1
20210403,47282,44964,2057,261,404,404,0,0
20210404,47713,45395,2057,261,431,431,0,0
20210405,48278,45959,2057,262,565,564,0,1
20210406,48837,46516,2057,264,559,557,0,2
20210407,49366,47043,2057,266,529,527,0,2
20210408,49988,47663,2057,268,622,620,0,2
20210409,50589,13449,36872,268,601,-34214,34815,0
20210410,51035,11702,39061,272,446,-1747,2189,4
20210411,51505,12172,39061,272,470,470,0,0
20210412,52033,12699,39061,273,528,527,0,1
20210413,52652,13317,39061,274,619,618,0,1
20210414,53254,13916,39061,277,602,599,0,3
20210415,53944,14600,39061,283,690,684,0,6
20210416,54621,15276,39061,284,677,676,0,1
20210417,55407,16058,39061,288,786,782,0,4
20210418,56259,16907,39061,291,852,849,0,3
20210419,57081,17726,39061,294,822,819,0,3
20210420,58022,18666,39061,295,941,940,0,1
20210421,58865,19509,39061,295,843,843,0,0
20210422,59792,20435,39061,296,927,926,0,1
20210423,60681,21323,39061,297,889,888,0,1
20210424,61576,22217,39061,298,895,894,0,1
20210425,62349,22990,39061,298,773,773,0,0
20210426,62960,23598,39061,301,611,608,0,3
20210427,63720,24356,39061,303,760,758,0,2
20210428,64565,25198,39061,306,845,842,0,3
20210429,65233,25864,39061,308,668,666,0,2
20210430,65233,25864,39061,308,0,0,0,0
20210501,65909,26536,39061,312,676,672,0,4
20210502,66372,26998,39061,313,463,462,0,1
20210503,66911,27529,39061,321,539,531,0,8
20210504,67420,28033,39061,326,509,504,0,5
20210505,67982,28594,39061,327,562,561,0,1
20210506,68442,29053,39061,328,460,459,0,1
20210507,68766,29373,39061,332,324,320,0,4
20210508,69163,29768,39061,334,397,395,0,2
20210509,69432,30035,39061,336,269,267,0,2
20210510,69708,30310,39061,337,276,275,0,1
20210511,70098,30698,39061,339,390,388,0,2
20210512,70358,30956,39061,341,260,258,0,2
20210513,70571,31168,39061,342,213,212,0,1
20210514,70742,31335,39061,346,171,167,0,4
20210515,70899,31492,39061,346,157,157,0,0
20210516,71064,31657,39061,346,165,165,0,0
20210517,71231,31823,39061,347,167,166,0,1
20210518,71398,31989,39061,348,167,166,0,1
20210519,71533,32124,39061,348,135,135,0,0
20210520,71610,32199,39061,350,77,75,0,2
20210521,71745,32332,39061,352,135,133,0,2
20210522,71836,32422,39061,353,91,90,0,1
20210523,71911,32496,39061,354,75,74,0,1
20210524,72011,5098,39061,356,100,-27398,0,2
20210525,72090,32672,39061,357,79,27574,0,1
20210526,72159,32741,39061,357,69,69,0,0
20210527,72234,32816,39061,357,75,75,0,0
20210528,72307,32886,39061,360,73,70,0,3
20210529,72363,32942,39061,360,56,56,0,0
20210530,72407,32986,39061,360,44,44,0,0
20210531,72457,33036,39061,360,50,50,0,0
20210601,72515,33094,39061,360,58,58,0,0
20210602,72573,33151,39061,361,58,57,0,1
20210603,72626,33203,39061,362,53,52,0,1
20210604,72709,33285,39061,363,83,82,0,1
20210605,72750,33326,39061,363,41,41,0,0
20210606,72779,33355,39061,363,29,29,0,0
20210607,72859,33434,39061,364,80,79,0,1
20210608,72919,33493,39061,365,60,59,0,1
20210609,72996,33568,39061,367,77,75,0,2
20210610,73055,33623,39061,371,59,55,0,4
20210611,73115,33682,39061,372,60,59,0,1
20210612,73115,33682,39061,372,0,0,0,0
20210613,73190,33756,39061,373,75,74,0,1
20210614,73247,33812,39061,374,57,56,0,1
20210615,73311,33876,39061,374,64,64,0,0
20210616,73379,33944,39061,374,68,68,0,0
20210617,73444,34009,39061,374,65,65,0,0
20210618,73520,34085,39061,374,76,76,0,0
20210619,73582,34147,39061,374,62,62,0,0
20210620,73643,34208,39061,374,61,61,0,0
20210621,73710,34275,39061,374,67,67,0,0
20210622,73832,34397,39061,374,122,122,0,0
20210623,73999,34564,39061,374,167,167,0,0
20210624,74174,34739,39061,374,175,175,0,0
20210625,74343,34908,39061,374,169,169,0,0
20210626,74569,35134,39061,374,226,226,0,0
20210627,74785,35350,39061,374,216,216,0,0
20210628,75099,35664,39061,374,314,314,0,0
20210629,75431,35996,39061,374,332,332,0,0
20210630,75860,36425,39061,374,429,429,0,0
20210701,76333,36898,39061,374,473,473,0,0
20210702,76862,37427,39061,374,529,529,0,0
20210703,77445,38010,39061,374,583,583,0,0
20210704,78022,38582,39061,379,577,572,0,5
20210705,78809,39368,39061,380,787,786,0,1
20210706,79636,40195,39061,380,827,827,0,0
20210707,80588,41147,39061,380,952,952,0,0
20210708,81581,42140,39061,380,993,993,0,0
20210709,82463,43022,39061,380,882,882,0,0
20210710,83423,43982,39061,380,960,960,0,0
20210711,84272,44831,39061,380,849,849,0,0
20210712,85104,45663,39061,380,832,832,0,0
20210713,86185,46742,39061,382,1081,1079,0,2
20210714,87305,47861,39061,383,1120,1119,0,1
20210715,88457,49013,39061,383,1152,1152,0,0
20210716,89410,49965,39061,384,953,952,0,1
20210717,90338,50893,39061,384,928,928,0,0
20210718,91196,51750,39061,385,858,857,0,1
20210719,92252,52801,39061,390,1056,1051,0,5
20210720,93247,53795,39061,391,995,994,0,1
20210721,94261,54806,39061,394,1014,1011,0,3
20210722,95307,55848,39061,398,1046,1042,0,4
20210723,96202,55848,39061,398,895,0,0,0
20210724,96991,57531,39061,399,789,1683,0,1
20210725,97718,58256,39061,401,727,725,0,2
20210726,98569,59104,39061,404,851,848,0,3
20210727,99360,59889,39061,410,791,785,0,6
20210728,100129,60656,39061,412,769,767,0,2
20210729,100784,61307,39061,416,655,651,0,4
20210730,101419,61939,39061,419,635,632,0,3
20210731,101419,61939,39061,419,0,0,0,0
20210801,102223,62740,39061,422,804,801,0,3
20210802,102716,63229,39061,426,493,489,0,4
20210803,103314,63824,39061,429,598,595,0,3
20210804,103889,64398,39061,430,575,574,0,1
20210805,104469,0,0,433,580,-64398,-39061,3
20210806,104994,0,0,437,525,0,0,4
20210807,105593,0,0,438,599,0,0,1
20210808,105982,0,0,441,389,0,0,3
20210809,106428,0,0,444,446,0,0,3
20210810,107001,0,0,447,573,0,0,3
20210811,107485,0,0,452,484,0,0,5
20210812,107887,0,0,454,402,0,0,2
20210813,108306,0,0,455,419,0,0,1
20210814,108707,0,0,456,401,0,0,1
20210815,108872,0,0,456,165,0,0,0
20210816,109253,0,0,461,381,0,0,5
20210817,109665,0,0,464,412,0,0,3
20210818,110098,0,0,467,433,0,0,3
20210819,110518,0,0,470,420,0,0,3
20210820,110829,0,0,475,311,0,0,5
20210821,111140,0,0,477,311,0,0,2
20210822,111333,0,0,483,193,0,0,6
20210823,111666,0,0,484,333,0,0,1
20210824,112021,0,0,486,355,0,0,2
20210825,112278,0,0,486,257,0,0,0
20210826,112532,0,0,491,254,0,0,5
20210827,112856,0,0,496,324,0,0,5
20210828,113069,0,0,497,213,0,0,1
20210829,113277,0,0,499,208,0,0,2
20210830,113588,0,0,501,311,0,0,2
20210831,113875,0,0,503,287,0,0,2
20210901,114131,0,0,507,256,0,0,4
20210902,114366,0,0,508,235,0,0,1
20210903,114604,0,0,512,238,0,0,4
20210904,114899,0,0,513,295,0,0,1
