date,infected,active,recovered,dead,deltaInfected,deltaActive,deltaRecovered,deltaDead
20200227,1,1,0,0,1,1,0,0
20200228,1,1,0,0,0,0,0,0
20200229,3,3,0,0,2,2,0,0
20200301,4,4,0,0,1,1,0,0
20200302,4,4,0,0,0,0,0,0
20200303,6,6,0,0,2,2,0,0
20200304,10,10,0,0,4,4,0,0
20200305,10,10,0,0,0,0,0,0
20200306,23,22,1,0,13,12,1,0
20200307,23,22,1,0,0,0,0,0
20200308,35,34,1,0,12,12,0,0
20200309,90,89,1,0,55,55,0,0
20200310,262,261,1,0,172,172,0,0
20200311,444,443,1,0,182,182,0,0
20200312,617,616,1,0,173,173,0,0
20200313,804,803,1,0,187,187,0,0
20200314,836,834,1,1,32,31,0,1
20200315,875,872,1,2,39,38,0,1
20200316,932,928,1,3,57,56,0,1
20200317,1024,1019,1,4,92,91,0,1
20200318,1115,1110,1,4,91,91,0,0
20200319,1225,1218,1,6,110,108,0,2
20200320,1337,1327,1,9,112,109,0,3
20200321,1420,1406,1,13,83,79,0,4
20200322,1514,1497,4,13,94,91,3,0
20200323,1572,1524,24,24,58,27,20,11
20200324,1718,1650,36,32,146,126,12,8
20200325,1862,1787,41,34,144,137,5,2
20200326,2023,1932,50,41,161,145,9,7
20200327,2200,2091,57,52,177,159,7,11
20200328,2366,2244,57,65,166,153,0,13
20200329,2564,2419,73,72,198,175,16,7
20200330,2755,2605,73,77,191,186,0,5
20200331,3039,2872,77,90,284,267,4,13
20200401,3290,2215,971,104,251,-657,894,14
20200402,3573,2278,1172,123,283,63,201,19
20200403,3946,2520,1287,139,373,242,115,16
20200404,4269,2729,1379,161,323,209,92,22
20200405,4561,2953,1429,179,292,224,50,18
20200406,4875,3199,1489,187,314,246,60,8
20200407,5266,3442,1621,203,391,243,132,16
20200408,5597,3616,1763,218,331,174,142,15
20200409,5830,3710,1883,237,233,94,120,19
20200410,6014,3838,1929,247,184,128,46,10
20200411,6191,3820,2111,260,177,-18,182,13
20200412,6369,3805,2291,273,178,-15,180,13
20200413,6513,3825,2403,285,144,20,112,12
20200414,6706,3718,2689,299,193,-107,286,14
20200415,6876,3642,2925,309,170,-76,236,10
20200416,7074,3550,3203,321,198,-92,278,12
20200417,7268,3361,3571,336,194,-189,368,15
20200418,7437,3060,4031,346,169,-301,460,10
20200419,7580,2897,4328,355,143,-163,297,9
20200420,7711,2848,4499,364,131,-49,171,9
20200421,7891,2632,4889,370,180,-216,390,6
20200422,8108,2448,5276,384,217,-184,387,14
20200423,8271,2304,5573,394,163,-144,297,10
20200424,8408,2290,5715,403,137,-14,142,9
20200425,8643,2367,5858,418,235,77,143,15
20200426,8773,2357,5994,422,130,-10,136,4
20200427,8896,2321,6148,427,123,-36,154,5
20200428,9049,2302,6313,434,153,-19,165,7
20200429,9206,2205,6558,443,157,-97,245,9
20200430,9356,2163,6741,452,150,-42,183,9
20200501,9509,2125,6924,460,153,-38,183,8
20200502,9605,2046,7084,475,96,-79,160,15
20200503,9721,2054,7183,484,116,8,99,9
20200504,9868,2091,7284,493,147,37,101,9
20200505,10019,2024,7492,503,151,-67,208,10
20200506,10136,1941,7689,506,117,-83,197,3
20200507,10281,1860,7907,514,145,-81,218,8
20200508,10416,1769,8125,522,135,-91,218,8
20200509,10517,1700,8291,526,101,-69,166,4
20200510,10627,1683,8415,529,110,-17,124,3
20200511,10711,1652,8526,533,84,-31,111,4
20200512,10789,1484,8778,527,78,-168,252,-6
20200513,10865,1471,8861,533,76,-13,83,6
20200514,10911,1371,9003,537,46,-100,142,4
20200515,10989,1295,9157,537,78,-76,154,0
20200516,11056,1208,9305,543,67,-87,148,6
20200517,11125,1153,9425,547,69,-55,120,4
20200518,11166,1119,9499,548,41,-34,74,1
20200519,11242,1077,9614,551,76,-42,115,3
20200520,11315,1027,9734,554,73,-50,120,3
20200521,11380,978,9841,561,65,-49,107,7
20200522,11428,905,9962,561,48,-73,121,0
20200523,11487,892,10034,561,59,-13,72,0
20200524,11559,899,10098,562,72,7,64,1
20200525,11586,861,10162,563,27,-38,64,1
20200526,11627,822,10242,563,41,-39,80,0
20200527,11680,811,10304,565,53,-11,62,2
20200528,11712,766,10378,568,32,-45,74,3
20200529,11793,787,10438,568,81,21,60,0
20200530,11833,737,10525,571,40,-50,87,3
20200531,11869,735,10560,574,36,-2,35,3
20200601,11899,713,10610,576,30,-22,50,2
20200602,11934,667,10687,580,35,-46,77,4
20200603,11971,641,10750,580,37,-26,63,0
20200604,12011,609,10820,582,40,-32,70,2
20200605,12075,636,10853,586,64,27,33,4
20200606,12124,616,10921,587,49,-20,68,1
20200607,12148,604,10955,589,24,-12,34,2
20200608,12162,577,10992,593,14,-27,37,4
20200609,12201,559,11049,593,39,-18,57,0
20200610,12216,519,11104,593,15,-40,55,0
20200611,12235,487,11155,593,19,-32,51,0
20200612,12299,512,11193,594,64,25,38,1
20200613,12339,507,11235,597,40,-5,42,3
20200614,12393,528,11268,597,54,21,33,0
20200615,12417,529,11290,598,24,1,22,1
20200616,12450,527,11325,598,33,-2,35,0
20200617,12494,511,11385,598,44,-16,60,0
20200618,12544,502,11442,600,50,-9,57,2
20200619,12591,509,11482,600,47,7,40,0
20200620,12591,509,11482,600,0,0,0,0
20200621,12591,509,11482,600,0,0,0,0
20200622,12727,578,11547,602,136,69,65,2
20200623,12761,565,11593,603,34,-13,46,1
20200624,12815,590,11622,603,54,25,29,0
20200625,12836,573,11660,603,21,-17,38,0
20200626,12875,563,11708,604,39,-10,48,1
20200627,12875,563,11708,604,0,0,0,0
20200628,12875,563,11708,604,0,0,0,0
20200629,12951,534,11812,605,76,-29,104,1
20200630,12968,514,11849,605,17,-20,37,0
20200701,12994,495,11893,606,26,-19,44,1
20200702,13015,440,11969,606,21,-55,76,0
20200703,13032,409,12017,606,17,-31,48,0
20200704,13032,409,12017,606,0,0,0,0
20200705,13033,410,12017,606,1,1,0,0
20200706,13079,337,12135,607,46,-73,118,1
20200707,13089,296,12184,609,10,-41,49,2
20200708,13101,290,12202,609,12,-6,18,0
20200709,13117,262,12246,609,16,-28,44,0
20200710,13147,260,12278,609,30,-2,32,0
20200711,13147,260,12278,609,0,0,0,0
20200712,13147,260,12278,609,0,0,0,0
20200713,13238,297,12331,610,91,37,53,1
20200714,13262,291,12361,610,24,-6,30,0
20200715,13293,300,12383,610,31,9,22,0
20200716,13325,319,12396,610,32,19,13,0
20200717,13374,353,12410,611,49,34,14,1
20200718,13374,353,12410,611,0,0,0,0
20200719,13377,356,12410,611,3,3,0,0
20200720,13466,403,12452,611,89,47,42,0
20200721,13506,433,12462,611,40,30,10,0
20200722,13554,468,12475,611,48,35,13,0
20200723,13594,482,12500,612,40,14,25,1
20200724,13642,488,12541,613,48,6,41,1
20200725,13643,489,12541,613,1,1,0,0
20200726,13665,511,12541,613,22,22,0,0
20200727,13775,544,12618,613,110,33,77,0
20200728,13811,546,12652,613,36,2,34,0
20200729,13868,568,12686,614,57,22,34,1
20200730,13964,622,12727,615,96,54,41,1
20200731,14028,633,12780,615,64,11,53,0
20200801,14028,633,12780,615,0,0,0,0
20200802,14028,630,12783,615,0,-3,3,0
20200803,14235,732,12887,616,207,102,104,1
20200804,14314,778,12920,616,79,46,33,0
20200805,14440,866,12958,616,126,88,38,0
20200806,14586,976,12993,617,146,110,35,1
20200807,14747,1084,13046,617,161,108,53,0
20200808,14751,1087,13047,617,4,3,1,0
20200809,14759,1073,13069,617,8,-14,22,0
20200810,15135,1361,13154,620,376,288,85,3
20200811,15291,1443,13227,621,156,82,73,1
20200812,15423,1497,13305,621,132,54,78,0
20200813,15590,1599,13370,621,167,102,65,0
20200814,15758,1682,13455,621,168,83,85,0
20200815,15867,1732,13514,621,109,50,59,0
20200816,16003,1803,13579,621,136,71,65,0
20200817,16127,1846,13660,621,124,43,81,0
20200818,16246,1847,13778,621,119,1,118,0
20200819,16336,1794,13921,621,90,-53,143,0
20200820,16453,1775,14057,621,117,-19,136,0
20200821,16525,1646,14258,621,72,-129,201,0
20200822,16637,1757,14258,622,112,111,0,1
20200823,16715,1599,14494,622,78,-158,236,0
20200824,16821,1537,14661,623,106,-62,167,1
20200825,16905,1459,14823,623,84,-78,162,0
20200826,16962,1365,14974,623,57,-94,151,0
20200827,17052,1293,15135,624,90,-72,161,1
20200828,17125,1249,15252,624,73,-44,117,0
20200829,17204,1215,15365,624,79,-34,113,0
20200830,17316,1200,15492,624,112,-15,127,0
20200831,17410,1193,15593,624,94,-7,101,0
20200901,17509,1196,15688,625,99,3,95,1
20200902,17620,1193,15801,626,111,-3,113,1
20200903,17800,1282,15892,626,180,89,91,0
20200904,17974,1368,15979,627,174,86,87,1
20200905,18163,1472,16064,627,189,104,85,0
20200906,18310,1530,16153,627,147,58,89,0
20200907,18540,1656,16256,628,230,126,103,1
20200908,18784,1826,16330,628,244,170,74,0
20200909,19036,1994,16414,628,252,168,84,0
20200910,19353,2231,16493,629,317,237,79,1
20200911,19646,2454,16563,629,293,223,70,0
20200912,19989,2688,16671,630,343,234,108,1
20200913,20327,2939,16757,631,338,251,86,1
20200914,20674,3178,16863,633,347,239,106,2
20200915,21013,3397,16983,633,339,219,120,0
20200916,21013,3397,16983,633,0,0,0,0
20200917,21836,3857,17344,635,823,460,361,2
20200918,22291,4120,17536,635,455,263,192,0
20200919,22881,4504,17742,635,590,384,206,0
20200920,23353,4775,17940,638,472,271,198,3
20200921,23774,4969,18165,640,421,194,225,2
20200922,24261,5157,18463,641,487,188,298,1
20200923,24822,5390,18789,643,561,233,326,2
20200924,25385,5664,19076,645,563,274,287,2
20200925,26066,5978,19441,647,681,314,365,2
20200926,26687,6258,19781,648,621,280,340,1
20200927,27111,6375,20087,649,424,117,306,1
20200928,27546,6518,20379,649,435,143,292,0
20200929,27941,6529,20762,650,395,11,383,1
20200930,28479,6632,21197,650,538,103,435,0
20201001,28882,6479,21752,651,403,-153,555,1
20201002,29418,6496,22270,652,536,17,518,1
20201003,29789,6392,22743,654,371,-104,473,2
20201004,30168,6345,23165,658,379,-47,422,4
20201005,30546,6310,23577,659,378,-35,412,1
20201006,30868,6084,24121,663,322,-226,544,4
20201007,31201,5832,24706,663,333,-252,585,0
20201008,31648,5614,25369,665,447,-218,663,2
20201009,32131,5491,25975,665,483,-123,606,0
20201010,32575,5446,26462,667,444,-45,487,2
20201011,32915,5391,26855,669,340,-55,393,2
20201012,33304,5415,27218,671,389,24,363,2
20201013,33594,5216,27704,674,290,-199,486,3
20201014,34087,5251,28161,675,493,35,457,1
20201015,34519,5239,28603,677,432,-12,442,2
20201016,34939,5226,29036,677,420,-13,433,0
20201017,35440,5358,29403,679,501,132,367,2
20201018,35893,5472,29741,680,453,114,338,1
20201019,36345,5611,30048,686,452,139,307,6
20201020,36877,5703,30486,688,532,92,438,2
20201021,37507,5896,30921,690,630,193,435,2
20201022,38270,6210,31366,694,763,314,445,4
20201023,39129,6648,31784,697,859,438,418,3
20201024,39918,7028,32190,700,789,380,406,3
20201025,40863,7682,32479,702,945,654,289,2
20201026,41919,8480,32731,708,1056,798,252,6
20201027,42668,8768,33191,709,749,288,460,1
20201028,43685,9350,33620,715,1017,582,429,6
20201029,44545,9733,34096,716,860,383,476,1
20201030,45736,10469,34548,719,1191,736,452,3
20201031,46863,11122,35020,721,1127,653,472,2
20201101,47811,11623,35465,723,948,501,445,2
20201102,48753,12112,35917,724,942,489,452,1
20201103,50106,12761,36617,728,1353,649,700,4
20201104,51042,12915,37398,729,936,154,781,1
20201105,52265,13269,38263,733,1223,354,865,4
20201106,53692,13818,39136,738,1427,549,873,5
20201107,54742,14002,40000,740,1050,184,864,2
20201108,55635,14077,40815,743,893,75,815,3
20201109,56406,13917,41742,747,771,-160,927,4
20201110,57472,13963,42759,750,1066,46,1017,3
20201111,58466,13719,43994,753,994,-244,1235,3
20201112,59478,13519,45204,755,1012,-200,1210,2
20201113,60515,13543,46216,756,1037,24,1012,1
20201114,61593,13551,47285,757,1078,8,1069,1
20201115,62652,13633,48259,760,1059,82,974,3
20201116,63847,13875,49208,764,1195,242,949,4
20201117,65067,13826,50473,768,1220,-49,1265,4
20201118,66324,13825,51729,770,1257,-1,1256,2
20201119,67621,13890,52958,773,1297,65,1229,3
20201120,68878,14117,53983,778,1257,227,1025,5
20201121,70152,14422,54949,781,1274,305,966,3
20201122,71003,14430,55789,784,851,8,840,3
20201123,72172,14836,56547,789,1169,406,758,5
20201124,73539,15151,57591,797,1367,315,1044,8
20201125,74722,15256,58664,802,1183,105,1073,5
20201126,75913,15336,59766,811,1191,80,1102,9
20201127,77236,15592,60828,816,1323,256,1062,5
20201128,78874,16074,61977,823,1638,482,1149,7
20201129,79872,16013,63030,829,998,-61,1053,6
20201130,81002,16134,64031,837,1130,121,1001,8
20201201,82470,16349,65275,846,1468,215,1244,9
20201202,84056,16600,66604,852,1586,251,1329,6
20201203,85663,16871,67934,858,1607,271,1330,6
20201204,87266,17249,69150,867,1603,378,1216,9
20201205,89382,18117,70387,878,2116,868,1237,11
20201206,91131,18851,71395,885,1749,734,1008,7
20201207,93177,19882,72401,894,2046,1031,1006,9
20201208,95332,20859,73572,901,2155,977,1171,7
20201209,97895,22103,74888,904,2563,1244,1316,3
20201210,101027,23924,76185,918,3132,1821,1297,14
20201211,104103,25728,77448,927,3076,1804,1263,9
20201212,107660,27965,78760,935,3557,2237,1312,8
20201213,110305,29446,79918,941,2645,1481,1158,6
20201214,113642,31604,81088,950,3337,2158,1170,9
20201215,116636,33052,82623,961,2994,1448,1535,11
20201216,120330,35024,84331,975,3694,1972,1708,14
20201217,124366,37182,86192,992,4036,2158,1861,17
20201218,128874,39773,88094,1007,4508,2591,1902,15
20201219,132164,41040,90105,1019,3290,1267,2011,12
20201220,134999,42164,91800,1035,2835,1124,1695,16
20201221,138204,43400,93751,1053,3205,1236,1951,18
20201222,140750,43204,96476,1070,2546,-196,2725,17
20201223,144053,43387,99570,1096,3303,183,3094,26
20201224,146927,43084,102729,1114,2874,-303,3159,18
20201225,149926,42822,105970,1134,2999,-262,3241,20
20201226,151764,41403,109208,1153,1838,-1419,3238,19
20201227,153952,40510,112268,1174,2188,-893,3060,21
20201228,156434,39835,115395,1204,2482,-675,3127,30
20201229,159074,38567,119281,1226,2640,-1268,3886,22
20201230,161862,37091,123515,1256,2788,-1476,4234,30
20201231,164116,34974,127844,1298,2254,-2117,4329,42
20210101,166567,33855,131390,1322,2451,-1119,3546,24
20210102,168182,32369,134468,1345,1615,-1486,3078,23
20210103,169358,30801,137183,1374,1176,-1568,2715,29
20210104,171436,30447,139600,1389,2078,-354,2417,15
20210105,173433,29363,142650,1420,1997,-1084,3050,31
20210106,175663,28753,145459,1451,2230,-610,2809,31
20210107,177507,27543,148476,1488,1844,-1210,3017,37
20210108,179170,27694,149958,1518,1663,151,1482,30
20210109,180915,27816,151556,1543,1745,122,1598,25
20210110,182161,26390,154200,1571,1246,-1426,2644,28
20210111,183400,25451,156351,1598,1239,-939,2151,27
20210112,184476,23463,159389,1624,1076,-1988,3038,26
20210113,185835,22333,161841,1661,1359,-1130,2452,37
20210114,185836,22329,161846,1661,1,-4,5,0
20210115,187998,20456,165821,1721,2162,-1873,3975,60
20210116,188878,20104,167026,1748,880,-352,1205,27
20210117,189767,18942,169049,1776,889,-1162,2023,28
20210118,190574,18085,170683,1806,807,-857,1634,30
20210119,191299,16332,173129,1838,725,-1753,2446,32
20210120,192187,15267,175047,1873,888,-1065,1918,35
20210121,192947,14361,176676,1910,760,-906,1629,37
20210122,193720,13554,178224,1942,773,-807,1548,32
20210123,194599,12988,179641,1970,879,-566,1417,28
20210124,195353,12570,180799,1984,754,-418,1158,14
20210125,195978,12212,181755,2011,625,-358,956,27
20210126,196632,11506,183095,2031,654,-706,1340,20
20210127,197224,10851,184322,2051,592,-655,1227,20
20210128,197892,10292,185528,2072,668,-559,1206,21
20210129,198348,9816,186447,2085,456,-476,919,13
20210130,198779,9382,187290,2107,431,-434,843,22
20210131,199156,9034,187996,2126,377,-348,706,19
20210201,199644,8853,188645,2146,488,-181,649,20
20210202,200041,8327,189553,2161,397,-526,908,15
20210203,200466,7845,190450,2171,425,-482,897,10
20210204,201020,7606,191229,2185,554,-239,779,14
20210205,201458,7175,192081,2202,438,-431,852,17
20210206,201871,6869,192786,2216,413,-306,705,14
20210207,202307,6713,193377,2217,436,-156,591,1
20210208,202737,6636,193884,2217,430,-77,507,0
20210209,203104,6260,194599,2245,367,-376,715,28
20210210,203574,6035,195283,2256,470,-225,684,11
20210211,204052,5976,195806,2270,478,-59,523,14
20210212,204480,5891,196308,2281,428,-85,502,11
20210213,204754,5759,196710,2285,274,-132,402,4
20210214,205049,5689,197067,2293,295,-70,357,8
20210215,205486,5735,197449,2302,437,46,382,9
20210216,205871,5620,197942,2309,385,-115,493,7
20210217,206285,5538,198430,2317,414,-82,488,8
20210218,206753,5570,198863,2320,468,32,433,3
20210219,207305,5674,199303,2328,552,104,440,8
20210220,207769,5724,199711,2334,464,50,408,6
20210221,208265,5792,200134,2339,496,68,423,5
20210222,208715,5868,200503,2344,450,76,369,5
20210223,209244,5952,200948,2344,529,84,445,0
20210224,209767,6020,201401,2346,523,68,453,2
20210225,210370,6178,201840,2352,603,158,439,6
20210226,210900,6328,202218,2354,530,150,378,2
20210227,211420,6526,202535,2359,520,198,317,5
20210228,211883,6653,202868,2362,463,127,333,3
20210301,212380,6810,203204,2366,497,157,336,4
20210302,212912,6943,203601,2368,532,133,397,2
20210303,213486,6995,204120,2371,574,52,519,3
20210304,214007,7011,204621,2375,521,16,501,4
20210305,214621,7073,205170,2378,614,62,549,3
20210306,215015,7014,205623,2378,394,-59,453,0
20210307,215528,7096,206052,2380,513,82,429,2
20210308,215955,7054,206519,2382,427,-42,467,2
20210309,216482,6991,207109,2382,527,-63,590,0
20210310,218489,7979,208127,2383,2007,988,1018,1
20210311,219351,8258,208708,2385,862,279,581,2
20210312,219996,8319,209289,2388,645,61,581,3
20210313,220609,8397,209821,2391,613,78,532,3
20210314,221151,8469,210290,2392,542,72,469,1
20210315,221763,8567,210802,2394,612,98,512,2
20210316,222534,8722,211416,2396,771,155,614,2
20210317,223321,8880,212044,2397,787,158,628,1
20210318,224107,9059,212650,2398,786,179,606,1
20210319,224950,9282,213270,2398,843,223,620,0
20210320,225540,9277,213863,2400,590,-5,593,2
20210321,226197,9405,214391,2401,657,128,528,1
20210322,227469,10087,214979,2403,1272,682,588,2
20210323,227723,9593,215726,2404,254,-494,747,1
20210324,225722,9719,216461,2405,-2001,126,735,1
20210325,226536,9719,216461,2410,814,0,0,5
20210326,227325,8626,216287,2412,789,-1093,-174,2
20210327,227741,8510,216817,2414,416,-116,530,2
20210328,228705,9009,217281,2415,964,499,464,1
20210329,229384,9206,217762,2416,679,197,481,1
20210330,230594,9239,218937,2418,1210,33,1175,2
20210331,231295,9199,219676,2420,701,-40,739,2
20210401,231957,9147,220386,2424,662,-52,710,4
20210402,232665,9195,221045,2425,708,48,659,1
20210403,233410,9286,221695,2429,745,91,650,4
20210404,234010,9299,222281,2430,600,13,586,1
20210405,234489,9215,222843,2431,479,-84,562,1
20210406,235009,8873,223703,2433,520,-342,860,2
20210407,235623,8672,224515,2436,614,-201,812,3
20210408,236340,8604,225299,2437,717,-68,784,1
20210409,237038,8655,225946,2437,698,51,647,0
20210410,237793,8694,226659,2440,755,39,713,3
20210411,238484,8721,227321,2442,691,27,662,2
20210412,238998,8619,227935,2444,514,-102,614,2
20210413,239561,8416,228698,2447,563,-203,763,3
20210414,240225,8401,229376,2448,664,-15,678,1
20210415,241023,8510,230063,2450,798,109,687,2
20210416,241700,8472,230775,2453,677,-38,712,3
20210417,242424,8642,231329,2453,724,170,554,0
20210418,243326,9013,231857,2456,902,371,528,3
20210419,244067,9288,232319,2460,741,275,462,4
20210420,244759,9413,232882,2464,692,125,563,4
20210421,245562,9506,233590,2466,803,93,708,2
20210422,246455,9682,234305,2468,893,176,715,2
20210423,247157,9652,235032,2473,702,-30,727,5
20210424,247704,9472,235757,2475,547,-180,725,2
20210425,248316,9526,236314,2476,612,54,557,1
20210426,249020,9691,236851,2478,704,165,537,2
20210427,249644,9547,237617,2480,624,-144,766,2
20210428,250479,9552,238445,2482,835,5,828,2
20210429,251248,10314,238450,2484,769,762,5,2
20210430,251249,10315,238450,2484,1,1,0,0
20210501,252740,9644,240606,2490,1491,-671,2156,6
20210502,253607,9854,241262,2491,867,210,656,1
20210503,254368,9905,241972,2491,761,51,710,0
20210504,255178,9834,242852,2492,810,-71,880,1
20210505,255181,9837,242852,2492,3,3,0,0
20210506,257181,10276,244411,2494,2000,439,1559,2
20210507,258204,10651,245057,2496,1023,375,646,2
20210508,258881,10692,245691,2498,677,41,634,2
20210509,259755,11002,246255,2498,874,310,564,0
20210510,260687,11327,246862,2498,932,325,607,0
20210511,261613,11517,247596,2500,926,190,734,2
20210512,262859,11810,248549,2500,1246,293,953,0
20210513,264214,12337,249377,2500,1355,527,828,0
20210514,265165,12484,250181,2500,951,147,804,0
20210515,266240,12786,250951,2503,1075,302,770,3
20210516,267204,13056,251645,2503,964,270,694,0
20210517,268040,13173,252363,2504,836,117,718,1
20210518,268956,13068,253384,2504,916,-105,1021,0
20210519,270047,13164,254377,2506,1091,96,993,2
20210520,271261,13316,255438,2507,1214,152,1061,1
20210521,272613,13783,256323,2507,1352,467,885,0
20210522,273366,13623,257235,2508,753,-160,912,1
20210523,274204,13608,258087,2509,838,-15,852,1
20210524,275139,13745,258884,2510,935,137,797,1
20210525,275935,13411,260013,2511,796,-334,1129,1
20210526,277011,13153,261346,2512,1076,-258,1333,1
20210527,278136,13078,262546,2512,1125,-75,1200,0
20210528,279139,13176,263450,2513,1003,98,904,1
20210529,280183,13346,264320,2517,1044,170,870,4
20210530,281141,13360,265264,2517,958,14,944,0
20210531,281985,13286,266182,2517,844,-74,918,0
20210601,282896,13045,267334,2517,911,-241,1152,0
20210602,283852,12817,268518,2517,956,-228,1184,0
20210603,284888,12711,269659,2518,1036,-106,1141,1
20210604,285823,12624,270681,2518,935,-87,1022,0
20210605,286420,12392,271509,2519,597,-232,828,1
20210606,287275,12457,272299,2519,855,65,790,0
20210607,287735,12110,273104,2521,460,-347,805,2
20210608,288115,11610,273984,2521,380,-500,880,0
20210609,289024,11424,275079,2521,909,-186,1095,0
20210610,289501,10700,276278,2523,477,-724,1199,2
20210611,289919,10124,277271,2524,418,-576,993,1
20210612,290358,9625,278207,2526,439,-499,936,2
20210613,290674,9125,279023,2526,316,-500,816,0
20210614,290912,8546,279839,2527,238,-579,816,1
20210615,291139,7759,280852,2528,227,-787,1013,1
20210616,291492,6990,281974,2528,353,-769,1122,0
20210617,291824,6392,282903,2529,332,-598,929,1
20210618,292029,5838,283662,2529,205,-554,759,0
20210619,292273,5360,284382,2531,244,-478,720,2
20210620,292467,4930,285006,2531,194,-430,624,0
20210621,292618,4539,285547,2532,151,-391,541,1
20210622,292775,4073,286170,2532,157,-466,623,0
20210623,292999,3780,286687,2532,224,-293,517,0
20210624,293172,3478,287162,2532,173,-302,475,0
20210625,293394,3278,287584,2532,222,-200,422,0
20210626,293590,3160,287898,2532,196,-118,314,0
20210627,293765,3090,288142,2533,175,-70,244,1
20210628,293916,3014,288368,2534,151,-76,226,1
20210629,294162,2943,288684,2535,246,-71,316,1
20210630,294503,2968,289000,2535,341,25,316,0
20210701,294980,3154,289290,2536,477,186,290,1
20210702,295306,3264,289505,2537,326,110,215,1
20210703,295756,3507,289711,2538,450,243,206,1
20210704,296148,3727,289883,2538,392,220,172,0
20210705,296489,3913,290038,2538,341,186,155,0
20210706,297040,4266,290235,2539,551,353,197,1
20210707,297739,4777,290423,2539,699,511,188,0
20210708,298411,5243,290629,2539,672,466,206,0
20210709,298970,5578,290853,2539,559,335,224,0
20210710,299511,5922,291049,2540,541,344,196,1
20210711,300146,6411,291195,2540,635,489,146,0
20210712,301006,7085,291381,2540,860,674,186,0
20210713,302081,7871,291670,2540,1075,786,289,0
20210714,303291,8682,292069,2540,1210,811,399,0
20210715,304439,9356,292542,2541,1148,674,473,1
20210716,305412,9940,292930,2542,973,584,388,1
20210717,306452,10589,293320,2543,1040,649,390,1
20210718,307103,10863,293697,2543,651,274,377,0
20210719,307958,11313,294102,2543,855,450,405,0
20210720,308788,11445,294800,2543,830,132,698,0
20210721,309647,11635,295469,2543,859,190,669,0
20210722,310462,11808,296111,2543,815,173,642,0
20210723,311170,11974,296653,2543,708,166,542,0
20210724,311935,12163,297229,2543,765,189,576,0
20210725,312582,12158,297881,2543,647,-5,652,0
20210726,313354,12010,298800,2544,772,-148,919,1
20210727,313922,11448,299927,2547,568,-562,1127,3
20210728,315223,11532,301143,2548,1301,84,1216,1
20210729,316080,11192,302339,2549,857,-340,1196,1
20210730,317168,11237,303382,2549,1088,45,1043,0
20210731,317909,11155,304203,2551,741,-82,821,2
20210801,318807,11271,304985,2551,898,116,782,0
20210802,319592,11338,305702,2552,785,67,717,1
20210803,320412,11300,306560,2552,820,-38,858,0
20210804,321344,11418,307374,2552,932,118,814,0
20210805,322292,0,0,2554,948,-11418,-307374,2
20210806,323166,0,0,2554,874,0,0,0
20210807,324120,0,0,2554,954,0,0,0
20210808,324948,0,0,2554,828,0,0,0
20210809,325890,0,0,2554,942,0,0,0
20210810,326899,0,0,2556,1009,0,0,2
20210811,328075,0,0,2556,1176,0,0,0
20210812,329180,0,0,2557,1105,0,0,1
20210813,330236,0,0,2560,1056,0,0,3
20210814,331163,0,0,2561,927,0,0,1
20210815,332013,0,0,2562,850,0,0,1
20210816,332977,0,0,2562,964,0,0,0
20210817,333872,0,0,2564,895,0,0,2
20210818,335081,0,0,2564,1209,0,0,0
20210819,336079,0,0,2564,998,0,0,0
20210820,337013,0,0,2565,934,0,0,1
20210821,338039,0,0,2566,1026,0,0,1
20210822,338759,0,0,2568,720,0,0,2
20210823,339542,0,0,2569,783,0,0,1
20210824,340887,0,0,2570,1345,0,0,1
20210825,341879,0,0,2573,992,0,0,3
20210826,342866,0,0,2575,987,0,0,2
20210827,343802,0,0,2578,936,0,0,3
20210828,344679,0,0,2579,877,0,0,1
20210829,345421,0,0,2582,742,0,0,3
20210830,346183,0,0,2582,762,0,0,0
20210831,347028,0,0,2586,845,0,0,4
20210901,347862,0,0,2586,834,0,0,0
20210902,348561,0,0,2586,699,0,0,0
20210903,349258,0,0,2589,697,0,0,3
20210904,349702,0,0,2592,444,0,0,3
