date,infected,active,recovered,dead,deltaInfected,deltaActive,deltaRecovered,deltaDead
20200322,1,1,0,0,1,1,0,0
20200323,2,2,0,0,1,1,0,0
20200324,2,2,0,0,0,0,0,0
20200325,7,7,0,0,5,5,0,0
20200326,11,11,0,0,4,4,0,0
20200327,11,11,0,0,0,0,0,0
20200328,11,11,0,0,0,0,0,0
20200329,11,11,0,0,0,0,0,0
20200330,11,11,0,0,0,0,0,0
20200331,12,12,0,0,1,1,0,0
20200401,12,12,0,0,0,0,0,0
20200402,12,12,0,0,0,0,0,0
20200403,12,12,0,0,0,0,0,0
20200404,14,14,0,0,2,2,0,0
20200405,14,14,0,0,0,0,0,0
20200406,15,14,1,0,1,0,1,0
20200407,15,14,1,0,0,0,0,0
20200408,15,14,1,0,0,0,0,0
20200409,15,14,1,0,0,0,0,0
20200410,16,11,5,0,1,-3,4,0
20200411,16,11,5,0,0,0,0,0
20200412,16,8,8,0,0,-3,3,0
20200413,16,8,8,0,0,0,0,0
20200414,16,8,8,0,0,0,0,0
20200415,16,8,8,0,0,0,0,0
20200416,16,8,8,0,0,0,0,0
20200417,16,8,8,0,0,0,0,0
20200418,16,8,8,0,0,0,0,0
20200419,16,8,8,0,0,0,0,0
20200420,16,8,8,0,0,0,0,0
20200421,16,8,8,0,0,0,0,0
20200422,16,7,9,0,0,-1,1,0
20200423,16,7,9,0,0,0,0,0
20200424,16,6,10,0,0,-1,1,0
20200425,16,3,13,0,0,-3,3,0
20200426,16,3,13,0,0,0,0,0
20200427,16,3,13,0,0,0,0,0
20200428,16,3,13,0,0,0,0,0
20200429,16,3,13,0,0,0,0,0
20200430,16,3,13,0,0,0,0,0
20200501,16,3,13,0,0,0,0,0
20200502,16,3,13,0,0,0,0,0
20200503,16,3,13,0,0,0,0,0
20200504,16,3,13,0,0,0,0,0
20200505,16,2,14,0,0,-1,1,0
20200506,16,2,14,0,0,0,0,0
20200507,16,2,14,0,0,0,0,0
20200508,16,2,14,0,0,0,0,0
20200509,16,2,14,0,0,0,0,0
20200510,16,1,15,0,0,-1,1,0
20200511,16,1,15,0,0,0,0,0
20200512,16,1,15,0,0,0,0,0
20200513,16,1,15,0,0,0,0,0
20200514,16,1,15,0,0,0,0,0
20200515,16,1,15,0,0,0,0,0
20200516,16,1,15,0,0,0,0,0
20200517,16,0,16,0,0,-1,1,0
20200518,16,0,16,0,0,0,0,0
20200519,16,0,16,0,0,0,0,0
20200520,16,0,16,0,0,0,0,0
20200521,16,0,16,0,0,0,0,0
20200522,16,0,16,0,0,0,0,0
20200523,16,0,16,0,0,0,0,0
20200524,16,0,16,0,0,0,0,0
20200525,16,0,16,0,0,0,0,0
20200526,16,0,16,0,0,0,0,0
20200527,16,0,16,0,0,0,0,0
20200528,16,0,16,0,0,0,0,0
20200529,16,0,16,0,0,0,0,0
20200530,16,0,16,0,0,0,0,0
20200531,16,0,16,0,0,0,0,0
20200601,16,0,16,0,0,0,0,0
20200602,18,2,16,0,2,2,0,0
20200603,18,2,16,0,0,0,0,0
20200604,18,2,16,0,0,0,0,0
20200605,18,2,16,0,0,0,0,0
20200606,18,2,16,0,0,0,0,0
20200607,18,2,16,0,0,0,0,0
20200608,18,2,16,0,0,0,0,0
20200609,18,2,16,0,0,0,0,0
20200610,18,2,16,0,0,0,0,0
20200611,18,2,16,0,0,0,0,0
20200612,18,2,16,0,0,0,0,0
20200613,18,2,16,0,0,0,0,0
20200614,18,2,16,0,0,0,0,0
20200615,18,2,16,0,0,0,0,0
20200616,18,2,16,0,0,0,0,0
20200617,18,2,16,0,0,0,0,0
20200618,18,0,18,0,0,-2,2,0
20200619,18,0,18,0,0,0,0,0
20200620,18,0,18,0,0,0,0,0
20200621,18,0,18,0,0,0,0,0
20200622,18,0,18,0,0,0,0,0
20200623,18,0,18,0,0,0,0,0
20200624,18,0,18,0,0,0,0,0
20200625,18,0,18,0,0,0,0,0
20200626,18,0,18,0,0,0,0,0
20200627,18,0,18,0,0,0,0,0
20200628,18,0,18,0,0,0,0,0
20200629,18,0,18,0,0,0,0,0
20200630,18,0,18,0,0,0,0,0
20200701,18,0,18,0,0,0,0,0
20200702,18,0,18,0,0,0,0,0
20200703,18,0,18,0,0,0,0,0
20200704,18,0,18,0,0,0,0,0
20200705,18,0,18,0,0,0,0,0
20200706,18,0,18,0,0,0,0,0
20200707,18,0,18,0,0,0,0,0
20200708,18,0,18,0,0,0,0,0
20200709,18,0,18,0,0,0,0,0
20200710,18,0,18,0,0,0,0,0
20200711,18,0,18,0,0,0,0,0
20200712,18,0,18,0,0,0,0,0
20200713,18,0,18,0,0,0,0,0
20200714,18,0,18,0,0,0,0,0
20200715,18,0,18,0,0,0,0,0
20200716,18,0,18,0,0,0,0,0
20200717,18,0,18,0,0,0,0,0
20200718,18,0,18,0,0,0,0,0
20200719,18,0,18,0,0,0,0,0
20200720,18,0,18,0,0,0,0,0
20200721,18,0,18,0,0,0,0,0
20200722,18,0,18,0,0,0,0,0
20200723,18,0,18,0,0,0,0,0
20200724,18,0,18,0,0,0,0,0
20200725,18,0,18,0,0,0,0,0
20200726,18,0,18,0,0,0,0,0
20200727,18,0,18,0,0,0,0,0
20200728,18,0,18,0,0,0,0,0
20200729,18,0,18,0,0,0,0,0
20200730,18,0,18,0,0,0,0,0
20200731,18,0,18,0,0,0,0,0
20200801,18,0,18,0,0,0,0,0
20200802,18,0,18,0,0,0,0,0
20200803,18,0,18,0,0,0,0,0
20200804,18,0,18,0,0,0,0,0
20200805,18,0,18,0,0,0,0,0
20200806,18,0,18,0,0,0,0,0
20200807,18,0,18,0,0,0,0,0
20200808,18,0,18,0,0,0,0,0
20200809,18,0,18,0,0,0,0,0
20200810,18,0,18,0,0,0,0,0
20200811,18,0,18,0,0,0,0,0
20200812,18,0,18,0,0,0,0,0
20200813,18,0,18,0,0,0,0,0
20200814,18,0,18,0,0,0,0,0
20200815,18,0,18,0,0,0,0,0
20200816,18,0,18,0,0,0,0,0
20200817,18,0,18,0,0,0,0,0
20200818,18,0,18,0,0,0,0,0
20200819,18,0,18,0,0,0,0,0
20200820,18,0,18,0,0,0,0,0
20200821,18,0,18,0,0,0,0,0
20200822,19,1,18,0,1,1,0,0
20200823,19,1,18,0,0,0,0,0
20200824,20,2,18,0,1,1,0,0
20200825,20,2,18,0,0,0,0,0
20200826,20,2,18,0,0,0,0,0
20200827,20,2,18,0,0,0,0,0
20200828,20,2,18,0,0,0,0,0
20200829,20,2,18,0,0,0,0,0
20200830,20,2,18,0,0,0,0,0
20200831,20,2,18,0,0,0,0,0
20200901,20,2,18,0,0,0,0,0
20200902,20,2,18,0,0,0,0,0
20200903,20,2,18,0,0,0,0,0
20200904,20,2,18,0,0,0,0,0
20200905,22,4,18,0,2,2,0,0
20200906,22,4,18,0,0,0,0,0
20200907,22,4,18,0,0,0,0,0
20200908,22,4,18,0,0,0,0,0
20200909,22,4,18,0,0,0,0,0
20200910,24,6,18,0,2,2,0,0
20200911,24,6,18,0,0,0,0,0
20200912,24,6,18,0,0,0,0,0
20200913,24,6,18,0,0,0,0,0
20200914,24,6,18,0,0,0,0,0
20200915,24,6,18,0,0,0,0,0
20200916,24,6,18,0,0,0,0,0
20200917,24,6,18,0,0,0,0,0
20200918,24,6,18,0,0,0,0,0
20200919,24,6,18,0,0,0,0,0
20200920,24,6,18,0,0,0,0,0
20200921,24,6,18,0,0,0,0,0
20200922,24,6,18,0,0,0,0,0
20200923,24,6,18,0,0,0,0,0
20200924,24,6,18,0,0,0,0,0
20200925,24,6,18,0,0,0,0,0
20200926,24,6,18,0,0,0,0,0
20200927,30,6,24,0,6,0,6,0
20200928,30,6,24,0,0,0,0,0
20200929,30,6,24,0,0,0,0,0
20200930,30,6,24,0,0,0,0,0
20201001,31,7,24,0,1,1,0,0
20201002,31,7,24,0,0,0,0,0
20201003,31,7,24,0,0,0,0,0
20201004,31,7,24,0,0,0,0,0
20201005,31,7,24,0,0,0,0,0
20201006,31,7,24,0,0,0,0,0
20201007,31,7,24,0,0,0,0,0
20201008,31,7,24,0,0,0,0,0
20201009,32,8,24,0,1,1,0,0
20201010,32,8,24,0,0,0,0,0
20201011,32,8,24,0,0,0,0,0
20201012,32,8,24,0,0,0,0,0
20201013,32,8,24,0,0,0,0,0
20201014,32,8,24,0,0,0,0,0
20201015,33,4,29,0,1,-4,5,0
20201016,33,4,29,0,0,0,0,0
20201017,33,4,29,0,0,0,0,0
20201018,33,4,29,0,0,0,0,0
20201019,33,4,29,0,0,0,0,0
20201020,33,4,29,0,0,0,0,0
20201021,33,4,29,0,0,0,0,0
20201022,33,4,29,0,0,0,0,0
20201023,37,8,29,0,4,4,0,0
20201024,38,9,29,0,1,1,0,0
20201025,38,9,29,0,0,0,0,0
20201026,38,9,29,0,0,0,0,0
20201027,38,9,29,0,0,0,0,0
20201028,38,9,29,0,0,0,0,0
20201029,38,9,29,0,0,0,0,0
20201030,42,13,29,0,4,4,0,0
20201031,50,17,33,0,8,4,4,0
20201101,50,17,33,0,0,0,0,0
20201102,50,17,33,0,0,0,0,0
20201103,50,17,33,0,0,0,0,0
20201104,50,17,33,0,0,0,0,0
20201105,57,22,35,0,7,5,2,0
20201106,57,22,35,0,0,0,0,0
20201107,63,28,35,0,6,6,0,0
20201108,63,28,35,0,0,0,0,0
20201109,63,28,35,0,0,0,0,0
20201110,63,28,35,0,0,0,0,0
20201111,68,27,41,0,5,-1,6,0
20201112,68,27,41,0,0,0,0,0
20201113,68,27,41,0,0,0,0,0
20201114,68,27,41,0,0,0,0,0
20201115,68,27,41,0,0,0,0,0
20201116,68,27,41,0,0,0,0,0
20201117,68,27,41,0,0,0,0,0
20201118,68,27,41,0,0,0,0,0
20201119,68,27,41,0,0,0,0,0
20201120,68,27,41,0,0,0,0,0
20201121,72,17,55,0,4,-10,14,0
20201122,72,17,55,0,0,0,0,0
20201123,77,14,63,0,5,-3,8,0
20201124,77,14,63,0,0,0,0,0
20201125,77,14,63,0,0,0,0,0
20201126,77,14,63,0,0,0,0,0
20201127,80,17,63,0,3,3,0,0
20201128,85,22,63,0,5,5,0,0
20201129,85,22,63,0,0,0,0,0
20201130,85,22,63,0,0,0,0,0
20201201,85,22,63,0,0,0,0,0
20201202,85,22,63,0,0,0,0,0
20201203,85,22,63,0,0,0,0,0
20201204,85,13,72,0,0,-9,9,0
20201205,85,13,72,0,0,0,0,0
20201206,85,13,72,0,0,0,0,0
20201207,85,13,72,0,0,0,0,0
20201208,85,13,72,0,0,0,0,0
20201209,85,13,72,0,0,0,0,0
20201210,85,9,76,0,0,-4,4,0
20201211,87,11,76,0,2,2,0,0
20201212,87,11,76,0,0,0,0,0
20201213,88,5,83,0,1,-6,7,0
20201214,88,5,83,0,0,0,0,0
20201215,88,5,83,0,0,0,0,0
20201216,88,5,83,0,0,0,0,0
20201217,88,5,83,0,0,0,0,0
20201218,88,5,83,0,0,0,0,0
20201219,88,5,83,0,0,0,0,0
20201220,88,5,83,0,0,0,0,0
20201221,88,5,83,0,0,0,0,0
20201222,88,5,83,0,0,0,0,0
20201223,88,5,83,0,0,0,0,0
20201224,88,5,83,0,0,0,0,0
20201225,88,5,83,0,0,0,0,0
20201226,88,5,83,0,0,0,0,0
20201227,88,5,83,0,0,0,0,0
20201228,88,5,83,0,0,0,0,0
20201229,88,5,83,0,0,0,0,0
20201230,88,5,83,0,0,0,0,0
20201231,88,5,83,0,0,0,0,0
20210101,88,5,83,0,0,0,0,0
20210102,88,5,83,0,0,0,0,0
20210103,88,5,83,0,0,0,0,0
20210104,88,5,83,0,0,0,0,0
20210105,88,5,83,0,0,0,0,0
20210106,105,12,93,0,17,7,10,0
20210107,105,12,93,0,0,0,0,0
20210108,106,8,98,0,1,-4,5,0
20210109,106,8,98,0,0,0,0,0
20210110,106,8,98,0,0,0,0,0
20210111,109,8,101,0,3,0,3,0
20210112,109,8,101,0,0,0,0,0
20210113,109,8,101,0,0,0,0,0
20210114,109,8,101,0,0,0,0,0
20210115,109,8,101,0,0,0,0,0
20210116,110,8,102,0,1,0,1,0
20210117,110,8,102,0,0,0,0,0
20210118,110,8,102,0,0,0,0,0
20210119,110,8,102,0,0,0,0,0
20210120,113,9,104,0,3,1,2,0
20210121,113,9,104,0,0,0,0,0
20210122,113,8,105,0,0,-1,1,0
20210123,113,8,105,0,0,0,0,0
20210124,113,8,105,0,0,0,0,0
20210125,113,8,105,0,0,0,0,0
20210126,113,8,105,0,0,0,0,0
20210127,113,8,105,0,0,0,0,0
20210128,117,11,106,0,4,3,1,0
20210129,117,11,106,0,0,0,0,0
20210130,117,11,106,0,0,0,0,0
20210131,117,11,106,0,0,0,0,0
20210201,117,11,106,0,0,0,0,0
20210202,121,11,110,0,4,0,4,0
20210203,121,11,110,0,0,0,0,0
20210204,121,11,110,0,0,0,0,0
20210205,121,11,110,0,0,0,0,0
20210206,121,11,110,0,0,0,0,0
20210207,121,11,110,0,0,0,0,0
20210208,121,11,110,0,0,0,0,0
20210209,121,11,110,0,0,0,0,0
20210210,121,11,110,0,0,0,0,0
20210211,121,11,110,0,0,0,0,0
20210212,121,11,110,0,0,0,0,0
20210213,121,11,110,0,0,0,0,0
20210214,121,11,110,0,0,0,0,0
20210215,134,13,121,0,13,2,11,0
20210216,134,13,121,0,0,0,0,0
20210217,134,13,121,0,0,0,0,0
20210218,134,13,121,0,0,0,0,0
20210219,134,13,121,0,0,0,0,0
20210220,134,13,121,0,0,0,0,0
20210221,134,13,121,0,0,0,0,0
20210222,134,13,121,0,0,0,0,0
20210223,141,15,126,0,7,2,5,0
20210224,141,15,126,0,0,0,0,0
20210225,142,15,127,0,1,0,1,0
20210226,142,15,127,0,0,0,0,0
20210227,142,15,127,0,0,0,0,0
20210228,142,15,127,0,0,0,0,0
20210301,142,15,127,0,0,0,0,0
20210302,144,14,130,0,2,-1,3,0
20210303,144,14,130,0,0,0,0,0
20210304,144,14,130,0,0,0,0,0
20210305,144,14,130,0,0,0,0,0
20210306,144,14,130,0,0,0,0,0
20210307,144,14,130,0,0,0,0,0
20210308,144,14,130,0,0,0,0,0
20210309,151,13,138,0,7,-1,8,0
20210310,151,13,138,0,0,0,0,0
20210311,151,13,138,0,0,0,0,0
20210312,156,15,141,0,5,2,3,0
20210313,156,15,141,0,0,0,0,0
20210314,156,15,141,0,0,0,0,0
20210315,156,15,141,0,0,0,0,0
20210316,156,15,141,0,0,0,0,0
20210317,156,15,141,0,0,0,0,0
20210318,156,15,141,0,0,0,0,0
20210319,156,15,141,0,0,0,0,0
20210320,156,15,141,0,0,0,0,0
20210321,156,15,141,0,0,0,0,0
20210322,156,15,141,0,0,0,0,0
20210323,156,15,141,0,0,0,0,0
20210324,160,9,151,0,4,-6,10,0
20210325,160,9,151,0,0,0,0,0
20210326,161,8,153,0,1,-1,2,0
20210327,161,8,153,0,0,0,0,0
20210328,161,8,153,0,0,0,0,0
20210329,161,8,153,0,0,0,0,0
20210330,161,8,153,0,0,0,0,0
20210331,161,8,153,0,0,0,0,0
20210401,164,7,157,0,3,-1,4,0
20210402,165,6,159,0,1,-1,2,0
20210403,165,6,159,0,0,0,0,0
20210404,165,6,159,0,0,0,0,0
20210405,165,6,159,0,0,0,0,0
20210406,165,6,159,0,0,0,0,0
20210407,165,6,159,0,0,0,0,0
20210408,165,6,159,0,0,0,0,0
20210409,165,6,159,0,0,0,0,0
20210410,165,6,159,0,0,0,0,0
20210411,165,6,159,0,0,0,0,0
20210412,165,6,159,0,0,0,0,0
20210413,165,6,159,0,0,0,0,0
20210414,165,6,159,0,0,0,0,0
20210415,165,6,159,0,0,0,0,0
20210416,165,6,159,0,0,0,0,0
20210417,165,6,159,0,0,0,0,0
20210418,165,6,159,0,0,0,0,0
20210419,165,6,159,0,0,0,0,0
20210420,165,6,159,0,0,0,0,0
20210421,172,7,165,0,7,1,6,0
20210422,172,7,165,0,0,0,0,0
20210423,173,2,171,0,1,-5,6,0
20210424,173,2,171,0,0,0,0,0
20210425,173,2,171,0,0,0,0,0
20210426,173,2,171,0,0,0,0,0
20210427,173,2,171,0,0,0,0,0
20210428,173,2,171,0,0,0,0,0
20210429,174,2,172,0,1,0,1,0
20210430,174,2,172,0,0,0,0,0
20210501,174,2,172,0,0,0,0,0
20210502,174,2,172,0,0,0,0,0
20210503,174,2,172,0,0,0,0,0
20210504,174,2,172,0,0,0,0,0
20210505,174,2,172,0,0,0,0,0
20210506,174,2,172,0,0,0,0,0
20210507,174,2,172,0,0,0,0,0
20210508,175,0,175,0,1,-2,3,0
20210509,175,0,175,0,0,0,0,0
20210510,175,0,175,0,0,0,0,0
20210511,175,0,175,0,0,0,0,0
20210512,175,0,175,0,0,0,0,0
20210513,178,2,176,0,3,2,1,0
20210514,178,2,176,0,0,0,0,0
20210515,178,2,176,0,0,0,0,0
20210516,178,2,176,0,0,0,0,0
20210517,178,2,176,0,0,0,0,0
20210518,184,8,176,0,6,6,0,0
20210519,184,8,176,0,0,0,0,0
20210520,184,8,176,0,0,0,0,0
20210521,184,8,176,0,0,0,0,0
20210522,184,8,176,0,0,0,0,0
20210523,184,8,176,0,0,0,0,0
20210524,184,8,176,0,0,0,0,0
20210525,184,8,176,0,0,0,0,0
20210526,184,8,176,0,0,0,0,0
20210527,184,8,176,0,0,0,0,0
20210528,188,6,182,0,4,-2,6,0
20210529,188,6,182,0,0,0,0,0
20210530,188,2,186,0,0,-4,4,0
20210531,188,2,186,0,0,0,0,0
20210601,188,2,186,0,0,0,0,0
20210602,188,1,187,0,0,-1,1,0
20210603,188,1,187,0,0,0,0,0
20210604,188,1,187,0,0,0,0,0
20210605,188,1,187,0,0,0,0,0
20210606,188,1,187,0,0,0,0,0
20210607,188,0,188,0,0,-1,1,0
20210608,188,0,188,0,0,0,0,0
20210609,188,0,188,0,0,0,0,0
20210610,188,0,188,0,0,0,0,0
20210611,189,1,188,0,1,1,0,0
20210612,189,1,188,0,0,0,0,0
20210613,189,1,188,0,0,0,0,0
20210614,189,1,188,0,0,0,0,0
20210615,189,1,188,0,0,0,0,0
20210616,189,1,188,0,0,0,0,0
20210617,191,2,189,0,2,1,1,0
20210618,191,2,189,0,0,0,0,0
20210619,191,2,189,0,0,0,0,0
20210620,191,2,189,0,0,0,0,0
20210621,191,2,189,0,0,0,0,0
20210622,191,2,189,0,0,0,0,0
20210623,191,2,189,0,0,0,0,0
20210624,192,3,189,0,1,1,0,0
20210625,192,3,189,0,0,0,0,0
20210626,192,3,189,0,0,0,0,0
20210627,193,2,191,0,1,-1,2,0
20210628,193,2,191,0,0,0,0,0
20210629,193,2,191,0,0,0,0,0
20210630,193,2,191,0,0,0,0,0
20210701,193,2,191,0,0,0,0,0
20210702,194,3,191,0,1,1,0,0
20210703,194,3,191,0,0,0,0,0
20210704,194,3,191,0,0,0,0,0
20210705,194,3,191,0,0,0,0,0
20210706,194,3,191,0,0,0,0,0
20210707,197,5,192,0,3,2,1,0
20210708,197,5,192,0,0,0,0,0
20210709,197,5,192,0,0,0,0,0
20210710,197,5,192,0,0,0,0,0
20210711,197,5,192,0,0,0,0,0
20210712,199,5,194,0,2,0,2,0
20210713,199,5,194,0,0,0,0,0
20210714,199,5,194,0,0,0,0,0
20210715,199,5,194,0,0,0,0,0
20210716,199,5,194,0,0,0,0,0
20210717,206,11,195,0,7,6,1,0
20210718,206,11,195,0,0,0,0,0
20210719,206,11,195,0,0,0,0,0
20210720,206,11,195,0,0,0,0,0
20210721,206,11,195,0,0,0,0,0
20210722,209,13,196,0,3,2,1,0
20210723,209,13,196,0,0,0,0,0
20210724,209,13,196,0,0,0,0,0
20210725,209,13,196,0,0,0,0,0
20210726,209,13,196,0,0,0,0,0
20210727,209,13,196,0,0,0,0,0
20210728,210,10,200,0,1,-3,4,0
20210729,210,10,200,0,0,0,0,0
20210730,210,10,200,0,0,0,0,0
20210731,210,10,200,0,0,0,0,0
20210801,218,9,209,0,8,-1,9,0
20210802,218,9,209,0,0,0,0,0
20210803,218,9,209,0,0,0,0,0
20210804,218,9,209,0,0,0,0,0
20210805,218,0,0,0,0,-9,-209,0
20210806,218,0,0,0,0,0,0,0
20210807,218,0,0,0,0,0,0,0
20210808,367,0,0,0,149,0,0,0
20210809,388,0,0,0,21,0,0,0
20210810,412,0,0,0,24,0,0,0
20210811,412,0,0,0,0,0,0,0
20210812,412,0,0,0,0,0,0,0
20210813,412,0,0,0,0,0,0,0
20210814,576,0,0,0,164,0,0,0
20210815,943,0,0,0,367,0,0,0
20210816,953,0,0,0,10,0,0,0
20210817,953,0,0,0,0,0,0,0
20210818,953,0,0,0,0,0,0,0
20210819,953,0,0,0,0,0,0,0
20210820,953,0,0,0,0,0,0,0
20210821,953,0,0,0,0,0,0,0
20210822,1339,0,0,1,386,0,0,1
20210823,1339,0,0,1,0,0,0,0
20210824,1339,0,0,1,0,0,0,0
20210825,1339,0,0,1,0,0,0,0
20210826,1339,0,0,1,0,0,0,0
20210827,1339,0,0,1,0,0,0,0
20210828,1638,0,0,4,299,0,0,3
20210829,1638,0,0,4,0,0,0,0
20210830,1638,0,0,4,0,0,0,0
20210831,1638,0,0,4,0,0,0,0
20210901,1638,0,0,4,0,0,0,0
20210902,1832,0,0,4,194,0,0,0
20210903,1832,0,0,4,0,0,0,0
20210904,1832,0,0,4,0,0,0,0
