date,infected,active,recovered,dead,deltaInfected,deltaActive,deltaRecovered,deltaDead
20200214,1,1,0,0,1,1,0,0
20200215,1,1,0,0,0,0,0,0
20200216,1,1,0,0,0,0,0,0
20200217,1,1,0,0,0,0,0,0
20200218,1,1,0,0,0,0,0,0
20200219,1,1,0,0,0,0,0,0
20200220,1,1,0,0,0,0,0,0
20200221,1,1,0,0,0,0,0,0
20200222,1,1,0,0,0,0,0,0
20200223,1,1,0,0,0,0,0,0
20200224,1,1,0,0,0,0,0,0
20200225,1,1,0,0,0,0,0,0
20200226,1,1,0,0,0,0,0,0
20200227,1,1,0,0,0,0,0,0
20200228,1,0,1,0,0,-1,1,0
20200229,1,0,1,0,0,0,0,0
20200301,2,1,1,0,1,1,0,0
20200302,2,1,1,0,0,0,0,0
20200303,2,1,1,0,0,0,0,0
20200304,2,1,1,0,0,0,0,0
20200305,3,2,1,0,1,1,0,0
20200306,15,14,1,0,12,12,0,0
20200307,15,14,1,0,0,0,0,0
20200308,49,47,1,1,34,33,0,1
20200309,55,42,12,1,6,-5,11,0
20200310,59,57,1,1,4,15,-11,0
20200311,60,32,27,1,1,-25,26,0
20200312,67,39,27,1,7,7,0,0
20200313,80,51,27,2,13,12,0,1
20200314,109,80,27,2,29,29,0,0
20200315,110,87,21,2,1,7,-6,0
20200316,150,121,27,2,40,34,6,0
20200317,196,160,32,4,46,39,5,2
20200318,196,158,32,6,0,-2,0,2
20200319,256,218,32,6,60,60,0,0
20200320,285,238,39,8,29,20,7,2
20200321,294,243,41,10,9,5,2,2
20200322,327,257,56,14,33,14,15,4
20200323,366,279,68,19,39,22,12,5
20200324,402,302,80,20,36,23,12,1
20200325,456,340,95,21,54,38,15,1
20200326,495,369,102,24,39,29,7,3
20200327,536,390,116,30,41,21,14,6
20200328,576,419,121,36,40,29,5,6
20200329,609,437,132,40,33,18,11,4
20200330,656,465,150,41,47,28,18,1
20200331,710,507,157,46,54,42,7,5
20200401,779,548,179,52,69,41,22,6
20200402,865,606,201,58,86,58,22,6
20200403,985,703,216,66,120,97,15,8
20200404,1070,758,241,71,85,55,25,5
20200405,1173,848,247,78,103,90,6,7
20200406,1322,978,259,85,149,130,12,7
20200407,1450,1080,276,94,128,102,17,9
20200408,1560,1152,305,103,110,72,29,9
20200409,1699,1233,348,118,139,81,43,15
20200410,1794,1275,384,135,95,42,36,17
20200411,1939,1367,426,146,145,92,42,11
20200412,2065,1317,589,159,126,-50,163,13
20200413,2190,1437,589,164,125,120,0,5
20200414,2350,1583,589,178,160,146,0,14
20200415,2505,1733,589,183,155,150,0,5
20200416,2673,1881,596,196,168,148,7,13
20200417,2844,1993,646,205,171,112,50,9
20200418,3032,2107,701,224,188,114,55,19
20200419,3144,2173,732,239,112,66,31,15
20200420,3333,2262,821,250,189,89,89,11
20200421,3490,2356,870,264,157,94,49,14
20200422,3659,2448,935,276,169,92,65,12
20200423,3891,2600,1004,287,232,152,69,11
20200424,4092,2723,1075,294,201,123,71,7
20200425,4319,2898,1114,307,227,175,39,13
20200426,4534,3041,1176,317,215,143,62,10
20200427,4782,3209,1236,337,248,168,60,20
20200428,5042,3379,1304,359,260,170,68,22
20200429,5268,3553,1335,380,226,174,31,21
20200430,5537,3764,1381,392,269,211,46,12
20200501,5895,4029,1460,406,358,265,79,14
20200502,6193,4256,1522,415,298,227,62,9
20200503,6465,4474,1562,429,272,218,40,14
20200504,6813,4745,1632,436,348,271,70,7
20200505,7201,5019,1730,452,388,274,98,16
20200506,7588,5304,1815,469,387,285,85,17
20200507,7981,5612,1887,482,393,308,72,13
20200508,8476,6028,1945,503,495,416,58,21
20200509,8964,6448,2002,514,488,420,57,11
20200510,9400,6800,2075,525,436,352,73,11
20200511,9746,7041,2172,533,346,241,97,8
20200512,10093,7223,2326,544,347,182,154,11
20200513,10431,7389,2486,556,338,166,160,12
20200514,10829,7632,2626,571,398,243,140,15
20200515,11228,7837,2799,592,399,205,173,21
20200516,11719,8157,2950,612,491,320,151,20
20200517,12229,8427,3172,630,510,270,222,18
20200518,12764,8679,3440,645,535,252,268,15
20200519,13484,9083,3742,659,720,404,302,14
20200520,14229,9555,3994,680,745,472,252,21
20200521,15003,10090,4217,696,774,535,223,16
20200522,15786,10705,4374,707,783,615,157,11
20200523,16513,11150,4628,735,727,445,254,28
20200524,17265,11694,4807,764,752,544,179,29
20200525,17967,12284,4900,783,702,590,93,19
20200526,18756,12932,5027,797,789,648,127,14
20200527,19666,13645,5205,816,910,713,178,19
20200528,20793,14589,5359,845,1127,944,154,29
20200529,22082,15692,5511,879,1289,1103,152,34
20200530,23449,16843,5693,913,1367,1151,182,34
20200531,24985,17989,6037,959,1536,1146,344,46
20200601,26384,18932,6447,1005,1399,943,410,46
20200602,27536,19657,6827,1052,1152,725,380,47
20200603,28615,20177,7350,1088,1079,520,523,36
20200604,29767,20885,7756,1126,1152,708,406,38
20200605,31115,21791,8158,1166,1348,906,402,40
20200606,32612,22876,8538,1198,1497,1085,380,32
20200607,34079,23881,8961,1237,1467,1005,423,39
20200608,35444,24798,9375,1271,1365,917,414,34
20200609,36829,25737,9786,1306,1385,939,411,35
20200610,38284,26653,10289,1342,1455,916,503,36
20200611,39726,27658,10691,1377,1442,1005,402,35
20200612,41303,28773,11108,1422,1577,1115,417,45
20200613,42980,29967,11529,1484,1677,1194,421,62
20200614,44598,31092,11931,1575,1618,1125,402,91
20200615,46289,32288,12329,1672,1691,1196,398,97
20200616,47856,33360,12730,1766,1567,1072,401,94
20200617,49219,34228,13141,1850,1363,868,411,84
20200618,50437,34971,13528,1938,1218,743,387,88
20200619,52211,36266,13928,2017,1774,1295,400,79
20200620,53758,37325,14327,2106,1547,1059,399,89
20200621,55233,38304,14736,2193,1475,979,409,87
20200622,56809,39398,15133,2278,1576,1094,397,85
20200623,58141,40241,15535,2365,1332,843,402,87
20200624,59561,41176,15935,2450,1420,935,400,85
20200625,61130,42259,16338,2533,1569,1083,403,83
20200626,62755,43398,16737,2620,1625,1139,399,87
20200627,63923,44075,17140,2708,1168,677,403,88
20200628,65188,44860,17539,2789,1265,785,399,81
20200629,66754,45931,17951,2872,1566,1071,412,83
20200630,68311,46898,18460,2953,1557,967,509,81
20200701,69814,47899,18881,3034,1503,1001,421,81
20200702,71299,48891,19288,3120,1485,992,407,86
20200703,72711,49820,19690,3201,1412,929,402,81
20200704,74035,50652,20103,3280,1324,832,413,79
20200705,75253,51184,20726,3343,1218,532,623,63
20200706,76222,51562,21238,3422,969,378,512,79
20200707,77279,52072,21718,3489,1057,510,480,67
20200708,78304,52499,22241,3564,1025,427,523,75
20200709,79254,52884,22753,3617,950,385,512,53
20200710,80235,53259,23274,3702,981,375,521,85
20200711,81158,53513,23876,3769,923,254,602,67
20200712,82070,53793,24419,3858,912,280,543,89
20200713,83001,54091,24975,3935,931,298,556,77
20200714,83930,54378,25544,4008,929,287,569,73
20200715,84843,54641,26135,4067,913,263,591,59
20200716,85771,54960,26691,4120,928,319,556,53
20200717,86474,54984,27302,4188,703,24,611,68
20200718,87172,55053,27868,4251,698,69,566,63
20200719,87775,55093,28380,4302,603,40,512,51
20200720,88402,55126,28924,4352,627,33,544,50
20200721,89078,55206,29473,4399,676,80,549,47
20200722,89745,55230,30075,4440,667,24,602,41
20200723,90413,54867,31066,4480,668,-363,991,40
20200724,91072,54584,31970,4518,659,-283,904,38
20200725,91583,54122,32903,4558,511,-462,933,40
20200726,92062,53625,33831,4606,479,-497,928,48
20200727,92482,52992,34838,4652,420,-633,1007,46
20200728,92947,52297,35959,4691,465,-695,1121,39
20200729,93356,51603,37025,4728,409,-694,1066,37
20200730,93757,50747,38236,4774,401,-856,1211,46
20200731,94078,49635,39638,4805,321,-1112,1402,31
20200801,94316,48345,41137,4834,238,-1290,1499,29
20200802,94483,47163,42455,4865,167,-1182,1318,31
20200803,94640,45686,44066,4888,157,-1477,1611,23
20200804,94752,44271,45569,4912,112,-1415,1503,24
20200805,94875,42763,47182,4930,123,-1508,1613,18
20200806,95006,41157,48898,4951,131,-1606,1716,21
20200807,95147,39623,50553,4971,141,-1534,1655,20
20200808,95314,38650,51672,4992,167,-973,1119,21
20200809,95492,37805,52678,5009,178,-845,1006,17
20200810,95666,36852,53779,5035,174,-953,1101,26
20200811,95834,35887,54888,5059,168,-965,1109,24
20200812,95963,34977,55901,5085,129,-910,1013,26
20200813,96108,34111,56890,5107,145,-866,989,22
20200814,96220,33238,57858,5124,112,-873,968,17
20200815,96336,32360,58835,5141,116,-878,977,17
20200816,96475,31572,59743,5160,139,-788,908,19
20200817,96590,30766,60651,5173,115,-806,908,13
20200818,96753,30007,61562,5184,163,-759,911,11
20200819,96914,29164,62553,5197,161,-843,991,13
20200820,97025,28351,63462,5212,111,-813,909,15
20200821,97148,27599,64318,5231,123,-752,856,19
20200822,97237,26876,65118,5243,89,-723,800,12
20200823,97340,26151,65927,5262,103,-725,809,19
20200824,97478,25381,66817,5280,138,-770,890,18
20200825,97619,24604,67717,5298,141,-777,900,18
20200826,97825,23795,68713,5317,206,-809,996,19
20200827,98062,23108,69612,5342,237,-687,899,25
20200828,98285,22504,70419,5362,223,-604,807,20
20200829,98497,21819,71302,5376,212,-685,883,14
20200830,98727,21208,72120,5399,230,-611,818,23
20200831,98939,20589,72929,5421,212,-619,809,22
20200901,99115,19847,73828,5440,176,-742,899,19
20200902,99280,19193,74626,5461,165,-654,798,21
20200903,99425,18531,75415,5479,145,-662,789,18
20200904,99582,17782,76305,5495,157,-749,890,16
20200905,99712,16993,77208,5511,130,-789,903,16
20200906,99863,16225,78108,5530,151,-768,900,19
20200907,100041,15492,79008,5541,178,-733,900,11
20200908,100228,14782,79886,5560,187,-710,878,19
20200909,100403,14137,80689,5577,175,-645,803,17
20200910,100557,13370,81597,5590,154,-767,908,13
20200911,100708,12628,82473,5607,151,-742,876,17
20200912,100856,11968,83261,5627,148,-660,788,20
20200913,101009,11200,84161,5648,153,-768,900,21
20200914,101177,10547,84969,5661,168,-653,808,13
20200915,101340,9916,85745,5679,163,-631,776,18
20200916,101500,9255,86549,5696,160,-661,804,17
20200917,101641,8768,87158,5715,141,-487,609,19
20200918,101772,8081,87958,5733,131,-687,800,18
20200919,101900,7484,88666,5750,128,-597,708,17
20200920,102015,6713,89532,5770,115,-771,866,20
20200921,102141,6022,90332,5787,126,-691,800,17
20200922,102254,5305,91143,5806,113,-717,811,19
20200923,102375,4710,91843,5822,121,-595,700,16
20200924,102513,4034,92644,5835,138,-676,801,13
20200925,102625,3241,93531,5853,112,-793,887,18
20200926,102736,2493,94374,5869,111,-748,843,16
20200927,102840,1877,95080,5883,104,-616,706,14
20200928,102955,1468,95586,5901,115,-409,506,18
20200929,103079,1071,96094,5914,124,-397,508,13
20200930,103198,774,96494,5930,119,-297,400,16
20201001,103317,516,96855,5946,119,-258,361,16
20201002,103466,367,97143,5956,149,-149,288,10
20201003,103575,331,97274,5970,109,-36,131,14
20201004,103683,347,97355,5981,108,16,81,11
20201005,103781,393,97398,5990,98,46,43,9
20201006,103902,452,97449,6001,121,59,51,11
20201007,104035,533,97492,6010,133,81,43,9
20201008,104156,615,97524,6017,121,82,32,7
20201009,104262,641,97592,6029,106,26,68,12
20201010,104387,704,97643,6040,125,63,51,11
20201011,104516,776,97688,6052,129,72,45,12
20201012,104648,843,97743,6062,132,67,55,10
20201013,104787,875,97841,6071,139,32,98,9
20201014,104915,918,97920,6077,128,43,79,6
20201015,105033,934,98011,6088,118,16,91,11
20201016,105159,971,98089,6099,126,37,78,11
20201017,105297,1031,98157,6109,138,60,68,10
20201018,105424,1057,98247,6120,127,26,90,11
20201019,105547,1103,98314,6130,123,46,67,10
20201020,105705,1150,98413,6142,158,47,99,12
20201021,105883,1212,98516,6155,178,62,103,13
20201022,106060,1270,98624,6166,177,58,108,11
20201023,106230,1341,98713,6176,170,71,89,10
20201024,106397,1397,98813,6187,167,56,100,11
20201025,106540,1438,98903,6199,143,41,90,12
20201026,106707,1515,98981,6211,167,77,78,12
20201027,106877,1571,99084,6222,170,56,103,11
20201028,107030,1622,99174,6234,153,51,90,12
20201029,107209,1689,99273,6247,179,67,99,13
20201030,107376,1765,99353,6258,167,76,80,11
20201031,107555,1837,99452,6266,179,72,99,8
20201101,107736,1903,99555,6278,181,66,103,12
20201102,107925,1982,99652,6291,189,79,97,13
20201103,108122,2052,99765,6305,197,70,113,14
20201104,108329,2137,99874,6318,207,85,109,13
20201105,108530,2195,100006,6329,201,58,132,11
20201106,108754,2305,100106,6343,224,110,100,14
20201107,108962,2368,100239,6355,208,63,133,12
20201108,109201,2491,100342,6368,239,123,103,13
20201109,109422,2603,100439,6380,221,112,97,12
20201110,109654,2720,100540,6394,232,117,101,14
20201111,109881,2814,100662,6405,227,94,122,11
20201112,110095,2918,100760,6417,214,104,98,12
20201113,110319,3043,100847,6429,224,125,87,12
20201114,110547,3159,100946,6442,228,116,99,13
20201115,110767,3268,101046,6453,220,109,100,11
20201116,111009,3365,101179,6465,242,97,133,12
20201117,111284,3515,101288,6481,275,150,109,16
20201118,111613,3697,101421,6495,329,182,133,14
20201119,111955,3883,101564,6508,342,186,143,13
20201120,112318,4112,101685,6521,363,229,121,13
20201121,112676,4358,101783,6535,358,246,98,14
20201122,113027,4598,101881,6548,351,240,98,13
20201123,113381,4840,101981,6560,354,242,100,12
20201124,113742,5066,102103,6573,361,226,122,13
20201125,114107,5321,102201,6585,365,255,98,12
20201126,114475,5611,102268,6596,368,290,67,11
20201127,114832,5834,102390,6608,357,223,122,12
20201128,115183,6072,102490,6621,351,238,100,13
20201129,115541,6309,102596,6636,358,237,106,15
20201130,115911,6543,102718,6650,370,234,122,14
20201201,116303,6821,102816,6666,392,278,98,16
20201202,116724,7081,102949,6694,421,260,133,28
20201203,117156,7361,103082,6713,432,280,133,19
20201204,117583,7660,103191,6732,427,299,109,19
20201205,118014,7940,103324,6750,431,280,133,18
20201206,118432,8160,103501,6771,418,220,177,21
20201207,118847,8354,103703,6790,415,194,202,19
20201208,119281,8555,103913,6813,434,201,210,23
20201209,119702,8796,104074,6832,421,241,161,19
20201210,120147,9012,104281,6854,445,216,207,22
20201211,120611,9235,104499,6877,464,223,218,23
20201212,121089,9481,104710,6898,478,246,211,21
20201213,121575,9780,104875,6920,486,299,165,22
20201214,122086,10011,105132,6943,511,231,257,23
20201215,122609,10193,105450,6966,523,182,318,23
20201216,123153,10444,105719,6990,544,251,269,24
20201217,123701,10767,105919,7015,548,323,200,25
20201218,124280,11082,106157,7041,579,315,238,26
20201219,124891,11341,106481,7069,611,259,324,28
20201220,125555,11640,106817,7098,664,299,336,29
20201221,126273,11981,107162,7130,718,341,345,32
20201222,127061,12331,107563,7167,788,350,401,37
20201223,127972,12802,107961,7209,911,471,398,42
20201224,128993,13259,108474,7260,1021,457,513,51
20201225,130126,13832,108985,7309,1133,573,511,49
20201226,131315,14501,109462,7352,1189,669,477,43
20201227,132541,15121,110015,7405,1226,620,553,53
20201228,133900,15998,110436,7466,1359,877,421,61
20201229,135233,16673,111040,7520,1333,675,604,54
20201230,136644,17617,111451,7576,1411,944,411,56
20201231,138062,18326,112105,7631,1418,709,654,55
20210101,139471,18958,112826,7687,1409,632,721,56
20210102,140878,19657,113480,7741,1407,699,654,54
20210103,142187,20484,113898,7805,1309,827,418,64
20210104,143464,21000,114601,7863,1277,516,703,58
20210105,144583,21251,115414,7918,1119,251,813,55
20210106,145590,21640,115975,7975,1007,389,561,57
20210107,146809,22005,116775,8029,1219,365,800,54
20210108,147810,22196,117529,8085,1001,191,754,56
20210109,148799,22363,118294,8142,989,167,765,57
20210110,149792,22695,118900,8197,993,332,606,55
20210111,150753,23292,119212,8249,961,597,312,52
20210112,151723,23784,119635,8304,970,492,423,55
20210113,152719,24045,120312,8362,996,261,677,58
20210114,153741,24248,121072,8421,1022,203,760,59
20210115,154620,24355,121792,8473,879,107,720,52
20210116,155507,24689,122291,8527,887,334,499,54
20210117,156397,24821,122993,8583,890,132,702,56
20210118,157275,25146,123491,8638,878,325,498,55
20210119,158174,25384,124094,8696,899,238,603,58
20210120,158963,25611,124605,8747,789,227,511,51
20210121,159715,25743,125171,8801,752,132,566,54
20210122,160463,26007,125603,8853,748,264,432,52
20210123,161143,26065,126176,8902,680,58,573,49
20210124,161817,26361,126497,8959,674,296,321,57
20210125,162486,26473,127001,9012,669,112,504,53
20210126,163129,26629,127433,9067,643,156,432,55
20210127,163761,26683,127963,9115,632,54,530,48
20210128,164282,26673,128440,9169,521,-10,477,54
20210129,164871,26854,128800,9217,589,181,360,48
20210130,165418,26862,129293,9263,547,8,493,46
20210131,165951,26999,129636,9316,533,137,343,53
20210201,166492,27025,130107,9360,541,26,471,44
20210202,167013,27092,130514,9407,521,67,407,47
20210203,167525,27153,130912,9460,512,61,398,53
20210204,168057,27334,131211,9512,532,181,299,52
20210205,168597,27405,131632,9560,540,71,421,48
20210206,169106,27448,132054,9604,509,43,422,44
20210207,169640,27614,132375,9651,534,166,321,47
20210208,170207,27810,132698,9699,567,196,323,48
20210209,170780,27931,133098,9751,573,121,400,52
20210210,171390,28255,133331,9804,610,324,233,53
20210211,171993,28429,133707,9857,603,174,376,53
20210212,172602,28488,134215,9899,609,59,508,42
20210213,173202,28629,134638,9935,600,141,423,36
20210214,173813,28859,134960,9994,611,230,322,59
20210215,174426,29027,135349,10050,613,168,389,56
20210216,175059,29288,135670,10101,633,261,321,51
20210217,175677,29446,136081,10150,618,158,411,49
20210218,176333,29642,136490,10201,656,196,409,51
20210219,176943,29804,136889,10250,610,162,399,49
20210220,177543,29951,137294,10298,600,147,405,48
20210221,178151,29961,137837,10353,608,10,543,55
20210222,178774,30187,138183,10404,623,226,346,51
20210223,179407,30281,138683,10443,633,94,500,39
20210224,180051,30484,139072,10495,644,203,389,52
20210225,180640,30605,139494,10541,589,121,422,46
20210226,181241,30724,139927,10590,601,119,433,49
20210227,181829,30730,140460,10639,588,6,533,49
20210228,182424,30844,140892,10688,595,114,432,49
20210301,183010,30927,141347,10736,586,83,455,48
20210302,183591,31158,141655,10778,581,231,308,42
20210303,184168,31191,142155,10822,577,33,500,44
20210304,184755,31274,142610,10871,587,83,455,49
20210305,185334,31275,143143,10916,579,1,533,45
20210306,185922,31393,143575,10954,588,118,432,38
20210307,186503,31489,144019,10995,581,96,444,41
20210308,187094,31571,144485,11038,591,82,466,43
20210309,187716,31717,144917,11082,622,146,432,44
20210310,188361,31815,145418,11128,645,98,501,46
20210311,189000,31908,145923,11169,639,93,505,41
20210312,189639,31991,146434,11214,639,83,511,45
20210313,190280,32221,146803,11256,641,230,369,42
20210314,190924,32390,147234,11300,644,169,431,44
20210315,191555,32448,147767,11340,631,58,533,40
20210316,192195,32722,148089,11384,640,274,322,44
20210317,192840,32985,148424,11431,645,263,335,47
20210318,193482,33187,148823,11472,642,202,399,41
20210319,194127,33359,149256,11512,645,172,433,40
20210320,194771,33725,149489,11557,644,366,233,45
20210321,195418,33886,149934,11598,647,161,445,41
20210322,196061,34000,150424,11637,643,114,490,39
20210323,196709,34105,150924,11680,648,105,500,43
20210324,197350,34186,151444,11720,641,81,520,40
20210325,198011,34478,151765,11768,661,292,321,48
20210326,198681,34679,152198,11804,670,201,433,36
20210327,199364,34877,152642,11845,683,198,444,41
20210328,200050,34993,153175,11882,686,116,533,37
20210329,200739,35195,153630,11914,689,202,455,32
20210330,201432,35282,154194,11956,693,87,564,42
20210331,202131,35442,154694,11995,699,160,500,39
20210401,202843,35786,155016,12041,712,344,322,46
20210402,203546,36014,155448,12084,703,228,432,43
20210403,204256,36247,155886,12123,710,233,438,39
20210404,204965,36583,156219,12163,709,336,333,40
20210405,205732,36948,156574,12210,767,365,355,47
20210406,206510,37251,157006,12253,778,303,432,43
20210407,207293,37553,157450,12290,783,302,444,37
20210408,208082,37870,157889,12323,789,317,439,33
20210409,208876,38060,158454,12362,794,190,565,39
20210410,209677,38218,159054,12405,801,158,600,43
20210411,210489,38545,159499,12445,812,327,445,40
20210412,211307,38821,159999,12487,818,276,500,42
20210413,212130,39173,160431,12526,823,352,432,39
20210414,212961,39360,161031,12570,831,187,600,44
20210415,213798,39717,161470,12611,837,357,439,41
20210416,214639,39816,162170,12653,841,99,700,42
20210417,215484,40076,162714,12694,845,260,544,41
20210418,216334,40117,163479,12738,850,41,765,44
20210419,217186,40596,163812,12778,852,479,333,40
20210420,218041,40853,164368,12820,855,257,556,42
20210421,218902,41233,164803,12866,861,380,435,46
20210422,219774,41512,165348,12914,872,279,545,48
20210423,220658,41675,166024,12959,884,163,676,45
20210424,221570,42115,166457,12998,912,440,433,39
20210425,222523,42450,167024,13049,953,335,567,51
20210426,223514,42507,167900,13107,991,57,876,58
20210427,224517,42684,168665,13168,1003,177,765,61
20210428,225528,43001,169308,13219,1011,317,643,51
20210429,226531,43245,170008,13278,1003,244,700,59
20210430,227552,43440,170773,13339,1021,195,765,61
20210501,228584,43640,171542,13402,1032,200,769,63
20210502,229635,43824,172342,13469,1051,184,800,67
20210503,230713,44408,172774,13531,1078,584,432,62
20210504,231803,44871,173341,13591,1090,463,567,60
20210505,232905,45033,174217,13655,1102,162,876,64
20210506,234015,45184,175117,13714,1110,151,900,59
20210507,235140,45433,175928,13779,1125,249,811,65
20210508,236272,46064,176363,13845,1132,631,435,66
20210509,237410,46743,176763,13904,1138,679,400,59
20210510,238560,47148,177440,13972,1150,405,677,68
20210511,239740,47466,178241,14033,1180,318,801,61
20210512,240927,48031,178805,14091,1187,565,564,58
20210513,242120,48709,179261,14150,1193,678,456,59
20210514,243317,49294,179817,14206,1197,585,556,56
20210515,244520,49674,180577,14269,1203,380,760,63
20210516,245721,49916,181478,14327,1201,242,901,58
20210517,246909,50497,182024,14388,1188,581,546,61
20210518,248078,50944,182693,14441,1169,447,669,53
20210519,249238,51044,183696,14498,1160,100,1003,57
20210520,250391,51459,184373,14559,1153,415,677,61
20210521,251539,51685,185243,14611,1148,226,870,52
20210522,252690,51797,186223,14670,1151,112,980,59
20210523,253835,52436,186678,14721,1145,639,455,51
20210524,254984,52772,187446,14766,1149,336,768,45
20210525,256124,53626,187691,14807,1140,854,245,41
20210526,257275,53858,188567,14850,1151,232,876,43
20210527,258407,54027,189476,14904,1132,169,909,54
20210528,259540,54336,190254,14950,1133,309,778,46
20210529,260659,54183,191475,15001,1119,-153,1221,51
20210530,261666,55144,191475,15047,1007,961,0,46
20210531,262650,55442,192112,15096,984,298,637,49
20210601,263606,55647,192823,15136,956,205,711,40
20210602,264557,55888,193491,15178,951,241,668,42
20210603,265489,55976,194291,15222,932,88,800,44
20210604,266350,56010,195072,15268,861,34,781,46
20210605,267171,55991,195871,15309,821,-19,799,41
20210606,267972,56016,196604,15352,801,25,733,43
20210607,268754,56074,197281,15399,782,58,677,47
20210608,269527,56258,197832,15437,773,184,551,38
20210609,270292,56189,198632,15471,765,-69,800,34
20210610,271047,56252,199285,15510,755,63,653,39
20210611,271780,56393,199840,15547,733,141,555,37
20210612,272491,56636,200273,15582,711,243,433,35
20210613,273182,56521,201038,15623,691,-115,765,41
20210614,273795,56402,201739,15654,613,-119,701,31
20210615,274404,56063,202650,15691,609,-339,911,37
20210616,275010,56094,203193,15723,606,31,543,32
20210617,275601,56039,203802,15760,591,-55,609,37
20210618,276190,55698,204701,15791,589,-341,899,31
20210619,276756,55770,205157,15829,566,72,456,38
20210620,277288,55816,205613,15859,532,46,456,30
20210621,277797,55846,206053,15898,509,30,440,39
20210622,278295,55508,206852,15935,498,-338,799,37
20210623,278761,55383,207411,15967,466,-125,559,32
20210624,279184,54990,208192,16002,423,-393,781,35
20210625,279596,54608,208957,16031,412,-382,765,29
20210626,280005,54548,209395,16062,409,-60,438,31
20210627,280394,54250,210052,16092,389,-298,657,30
20210628,280770,54163,210482,16125,376,-87,430,33
20210629,281031,54078,210805,16148,261,-85,323,23
20210630,281282,53729,211384,16169,251,-349,579,21
20210701,281524,53271,212059,16194,242,-458,675,25
20210702,281722,52782,212725,16215,198,-489,666,21
20210703,281903,52033,213628,16242,181,-749,903,27
20210704,282082,51731,214087,16264,179,-302,459,22
20210705,282257,51121,214852,16284,175,-610,765,20
20210706,282421,50696,215419,16306,164,-425,567,22
20210707,282582,50033,216217,16332,161,-663,798,26
20210708,282737,49404,216982,16351,155,-629,765,19
20210709,282864,49172,217324,16368,127,-232,342,17
20210710,282985,48846,217756,16383,121,-326,432,15
20210711,283102,48294,218412,16396,117,-552,656,13
20210712,283212,47518,219291,16403,110,-776,879,7
20210713,283320,47383,219525,16412,108,-135,234,9
20210714,283409,46461,220530,16418,89,-922,1005,6
20210715,283490,45549,221516,16425,81,-912,986,7
20210716,283567,44821,222315,16431,77,-728,799,6
20210717,283636,43984,223213,16439,69,-837,898,8
20210718,283636,43984,223213,16439,0,0,0,0
20210719,283762,43011,224299,16452,126,-973,1086,13
20210720,283813,42288,225068,16457,51,-723,769,5
20210721,283862,41528,225869,16465,49,-760,801,8
20210722,283906,40901,226535,16470,44,-627,666,5
20210723,283947,40901,227068,16477,41,0,533,7
20210724,283985,40014,227490,16481,38,-887,422,4
20210725,284024,39925,227612,16487,39,-89,122,6
20210726,284059,39595,227970,16494,35,-330,358,7
20210727,284090,38968,228624,16498,31,-627,654,4
20210728,284128,38785,228836,16507,38,-183,212,9
20210729,284170,38489,229167,16514,42,-296,331,7
20210730,284215,37985,229712,16518,45,-504,545,4
20210731,284262,37370,230368,16524,47,-615,656,6
20210801,284311,37084,230699,16528,49,-286,331,4
20210802,284362,36568,231259,16535,51,-516,560,7
20210803,284415,35815,232060,16540,53,-753,801,5
20210804,284472,35743,232179,16550,57,-72,119,10
20210805,284523,0,0,16557,51,-35743,-232179,7
20210806,284580,0,0,16562,57,0,0,5
20210807,284641,0,0,16566,61,0,0,4
20210808,284706,0,0,16575,65,0,0,9
20210809,284789,0,0,16582,83,0,0,7
20210810,284875,0,0,16588,86,0,0,6
20210811,284966,0,0,16597,91,0,0,9
20210812,285061,0,0,16604,95,0,0,7
20210813,285158,0,0,16609,97,0,0,5
20210814,285257,0,0,16615,99,0,0,6
20210815,285358,0,0,16619,101,0,0,4
20210816,285465,0,0,16625,107,0,0,6
20210817,285577,0,0,16630,112,0,0,5
20210818,285700,0,0,16638,123,0,0,8
20210819,285831,0,0,16647,131,0,0,9
20210820,285995,0,0,16654,164,0,0,7
20210821,286168,0,0,16663,173,0,0,9
20210822,286352,0,0,16671,184,0,0,8
20210823,286541,0,0,16676,189,0,0,5
20210824,286735,0,0,16683,194,0,0,7
20210825,286938,0,0,16691,203,0,0,8
20210826,287159,0,0,16701,221,0,0,10
20210827,287393,0,0,16706,234,0,0,5
20210828,287644,0,0,16714,251,0,0,8
20210829,287899,0,0,16721,255,0,0,7
20210830,288162,0,0,16727,263,0,0,6
20210831,288441,0,0,16736,279,0,0,9
20210901,288732,0,0,16743,291,0,0,7
20210902,289035,0,0,16755,303,0,0,12
20210903,289353,0,0,16766,318,0,0,11
20210904,289684,0,0,16776,331,0,0,10
