date,infected,active,recovered,dead,deltaInfected,deltaActive,deltaRecovered,deltaDead
20200313,1,1,0,0,1,1,0,0
20200314,1,1,0,0,0,0,0,0
20200315,1,1,0,0,0,0,0,0
20200316,5,5,0,0,4,4,0,0
20200317,5,5,0,0,0,0,0,0
20200318,6,6,0,0,1,1,0,0
20200319,6,6,0,0,0,0,0,0
20200320,9,9,0,0,3,3,0,0
20200321,9,9,0,0,0,0,0,0
20200322,11,11,0,0,2,2,0,0
20200323,11,11,0,0,0,0,0,0
20200324,12,12,0,0,1,1,0,0
20200325,12,12,0,0,0,0,0,0
20200326,12,12,0,0,0,0,0,0
20200327,16,16,0,0,4,4,0,0
20200328,16,15,1,0,0,-1,1,0
20200329,21,20,1,0,5,5,0,0
20200330,23,19,4,0,2,-1,3,0
20200331,26,24,2,0,3,5,-2,0
20200401,29,27,2,0,3,3,0,0
20200402,29,26,3,0,0,-1,1,0
20200403,35,32,3,0,6,6,0,0
20200404,38,34,4,0,3,2,1,0
20200405,43,37,4,2,5,3,0,2
20200406,44,38,4,2,1,1,0,0
20200407,52,46,4,2,8,8,0,0
20200408,55,49,4,2,3,3,0,0
20200409,56,50,4,2,1,1,0,0
20200410,65,58,4,3,9,8,0,1
20200411,69,56,10,3,4,-2,6,0
20200412,71,58,10,3,2,2,0,0
20200413,74,57,14,3,3,-1,4,0
20200414,82,65,14,3,8,8,0,0
20200415,85,67,15,3,3,2,1,0
20200416,92,74,15,3,7,7,0,0
20200417,96,78,15,3,4,4,0,0
20200418,105,86,16,3,9,8,1,0
20200419,108,89,16,3,3,3,0,0
20200420,111,92,16,3,3,3,0,0
20200421,114,95,16,3,3,3,0,0
20200422,116,92,21,3,2,-3,5,0
20200423,116,92,21,3,0,0,0,0
20200424,117,89,25,3,1,-3,4,0
20200425,122,90,29,3,5,1,4,0
20200426,123,79,41,3,1,-11,12,0
20200427,124,71,50,3,1,-8,9,0
20200428,126,73,50,3,2,2,0,0
20200429,130,69,58,3,4,-4,8,0
20200430,131,69,59,3,1,0,1,0
20200501,133,64,66,3,2,-5,7,0
20200502,133,61,69,3,0,-3,3,0
20200503,135,57,75,3,2,-4,6,0
20200504,140,62,75,3,5,5,0,0
20200505,145,50,91,4,5,-12,16,1
20200506,162,65,93,4,17,15,2,0
20200507,191,94,93,4,29,29,0,0
20200508,194,95,95,4,3,1,2,0
20200509,210,108,97,5,16,13,2,1
20200510,239,135,99,5,29,27,2,0
20200511,250,140,105,5,11,5,6,0
20200512,261,150,106,5,11,10,1,0
20200513,263,150,108,5,2,0,2,0
20200514,272,159,108,5,9,9,0,0
20200515,287,170,112,5,15,11,4,0
20200516,306,188,113,5,19,18,1,0
20200517,317,199,113,5,11,11,0,0
20200518,352,231,116,5,35,32,3,0
20200519,365,240,120,5,13,9,4,0
20200520,389,262,122,5,24,22,2,0
20200521,399,271,123,5,10,9,1,0
20200522,433,300,128,5,34,29,5,0
20200523,494,338,151,5,61,38,23,0
20200524,582,425,152,5,88,87,1,0
20200525,655,491,159,5,73,66,7,0
20200526,701,528,167,6,46,37,8,1
20200527,731,544,181,6,30,16,14,0
20200528,831,633,191,7,100,89,10,1
20200529,968,763,197,8,137,130,6,1
20200530,1063,847,208,8,95,84,11,0
20200531,1172,952,209,11,109,105,1,3
20200601,1257,1028,217,12,85,76,8,1
20200602,1344,1099,231,14,87,71,14,2
20200603,1486,1223,246,17,142,124,15,3
20200604,1636,1368,250,18,150,145,4,1
20200605,1805,1524,262,19,169,156,12,1
20200606,1934,1633,281,20,129,109,19,1
20200607,2020,1649,344,27,86,16,63,7
20200608,2156,1768,361,27,136,119,17,0
20200609,2336,1925,379,32,180,157,18,5
20200610,2506,2070,401,35,170,145,22,3
20200611,2670,2196,434,40,164,126,33,5
20200612,2915,2417,451,47,245,221,17,7
20200613,3166,2616,495,55,251,199,44,8
20200614,3345,2743,545,57,179,127,50,2
20200615,3521,2841,620,60,176,98,75,3
20200616,3630,2831,738,61,109,-10,118,1
20200617,3759,2847,849,63,129,16,111,2
20200618,3954,2955,934,65,195,108,85,2
20200619,4070,2969,1029,72,116,14,95,7
20200620,4469,3275,1122,72,399,306,93,0
20200621,4532,3245,1213,74,63,-30,91,2
20200622,4663,3291,1297,75,131,46,84,1
20200623,4848,3361,1412,75,185,70,115,0
20200624,5034,3470,1486,78,186,109,74,3
20200625,5175,3550,1544,81,141,80,58,3
20200626,5425,3648,1688,89,250,98,144,8
20200627,5570,3461,2015,94,145,-187,327,5
20200628,5689,3459,2132,98,119,-2,117,4
20200629,5846,3313,2430,103,157,-146,298,5
20200630,5846,3313,2430,103,0,0,0,0
20200701,5846,3313,2430,103,0,0,0,0
20200702,5846,3313,2430,103,0,0,0,0
20200703,5846,3313,2430,103,0,0,0,0
20200704,5846,3313,2430,103,0,0,0,0
20200705,5846,3313,2430,103,0,0,0,0
20200706,5846,3313,2430,103,0,0,0,0
20200707,5846,3313,2430,103,0,0,0,0
20200708,6774,4224,2430,120,928,911,0,17
20200709,6973,4423,2430,120,199,199,0,0
20200710,7120,4566,2430,124,147,143,0,4
20200711,7402,4848,2430,124,282,282,0,0
20200712,7560,5003,2430,127,158,155,0,3
20200713,7766,5208,2430,128,206,205,0,1
20200714,7969,5400,2430,139,203,192,0,11
20200715,8181,5605,2430,146,212,205,0,7
20200716,8475,5897,2430,148,294,292,0,2
20200717,8803,6223,2430,150,328,326,0,2
20200718,9147,6554,2430,163,344,331,0,13
20200719,9503,6906,2430,167,356,352,0,4
20200720,10207,7607,2430,170,704,701,0,3
20200721,11072,5444,5448,180,865,-2163,3018,10
20200722,11524,5830,5506,188,452,386,58,8
20200723,11933,6091,5645,197,409,261,139,9
20200724,12693,6708,5785,200,760,617,140,3
20200725,13248,7073,5966,209,555,365,181,9
20200726,13968,7529,6216,223,720,456,250,14
20200727,14547,7933,6386,228,579,404,170,5
20200728,15200,8435,6526,239,653,502,140,11
20200729,15810,8872,6685,253,610,437,159,14
20200730,16615,9589,6763,263,805,717,78,10
20200731,17530,10306,6950,274,915,717,187,11
20200801,17999,10520,7195,284,469,214,245,10
20200802,18706,10795,7601,310,707,275,406,26
20200803,19289,11022,7931,336,583,227,330,26
20200804,19877,11294,8240,343,588,272,309,7
20200805,20336,11382,8598,356,459,88,358,13
20200806,20900,11508,9027,365,564,126,429,9
20200807,21452,11657,9415,380,552,149,388,15
20200808,22253,12156,9707,390,801,499,292,10
20200809,22818,12205,10206,407,565,49,499,17
20200810,23591,12760,10411,420,773,555,205,13
20200811,24175,13039,10696,440,584,279,285,20
20200812,25118,13621,11034,463,943,582,338,23
20200813,26204,14297,11428,479,1086,676,394,16
20200814,27242,15090,11660,492,1038,793,232,13
20200815,28894,16348,12037,509,1652,1258,377,17
20200816,29876,16989,12359,528,982,641,322,19
20200817,31336,18268,12524,544,1460,1279,165,16
20200818,32722,19212,12938,572,1386,944,414,28
20200819,34058,20150,13308,600,1336,938,370,28
20200820,35836,21680,13536,620,1778,1530,228,20
20200821,37665,23115,13913,637,1829,1435,377,17
20200822,39033,23891,14480,662,1368,776,567,25
20200823,40671,24998,14995,678,1638,1107,515,16
20200824,42143,26189,15262,692,1472,1191,267,14
20200825,43688,27183,15796,709,1545,994,534,17
20200826,45221,28185,16311,725,1533,1002,515,16
20200827,46407,28833,16829,745,1186,648,518,20
20200828,48140,29967,17415,758,1733,1134,586,13
20200829,49654,30768,18116,770,1514,801,701,12
20200830,51122,31947,18382,793,1468,1179,266,23
20200831,52131,32328,18994,809,1009,381,612,16
20200901,53304,32989,19487,828,1173,661,493,19
20200902,54409,33660,19903,846,1105,671,416,18
20200903,55213,34074,20283,856,804,414,380,10
20200904,56516,35024,20612,880,1303,950,329,24
20200905,57466,35793,20776,897,950,769,164,17
20200906,58672,36447,21307,918,1206,654,531,21
20200907,59648,36926,21789,933,976,479,482,15
20200908,60784,37158,22677,949,1136,232,888,16
20200909,61700,37680,23054,966,916,522,377,17
20200910,62578,37964,23640,974,878,284,586,8
20200911,63367,38357,24024,986,789,393,384,12
20200912,63888,38399,24493,996,521,42,469,10
20200913,64301,38305,24983,1013,413,-94,490,17
20200914,64786,38431,25333,1022,485,126,350,9
20200915,65486,38463,25988,1035,700,32,655,13
20200916,66224,38514,26665,1045,738,51,677,10
20200917,66913,38768,27085,1060,689,254,420,15
20200918,67515,38805,27638,1072,602,37,553,12
20200919,68131,39103,27939,1089,616,298,301,17
20200920,68820,39410,28314,1096,689,307,375,7
20200921,69709,39967,28634,1108,889,557,320,12
20200922,70422,40304,28991,1127,713,337,357,19
20200923,71083,40689,29253,1141,661,385,262,14
20200924,71687,41078,29461,1148,604,389,208,7
20200925,72173,41155,29863,1155,486,77,402,7
20200926,72700,41506,30029,1165,527,351,166,10
20200927,73332,41799,30363,1170,632,293,334,5
20200928,73944,42014,30753,1177,612,215,390,7
20200929,74584,42441,30952,1191,640,427,199,14
20200930,75368,42966,31204,1198,784,525,252,7
20201001,76098,43463,31430,1205,730,497,226,7
20201002,76988,44103,31677,1208,890,640,247,3
20201003,77860,44321,32325,1214,872,218,648,6
20201004,78819,44537,33060,1222,959,216,735,8
20201005,79437,44191,34016,1230,618,-346,956,8
20201006,80003,43805,34960,1238,566,-386,944,8
20201007,80895,43970,35670,1255,892,165,710,17
20201008,81797,44101,36434,1262,902,131,764,7
20201009,82662,44289,37102,1271,865,188,668,9
20201010,83429,44469,37683,1277,767,180,581,6
20201011,84295,44692,38316,1287,866,223,633,10
20201012,85136,44931,38904,1301,841,239,588,14
20201013,85718,45106,39307,1305,582,175,403,4
20201014,86430,44953,40165,1312,712,-153,858,7
20201015,87169,44856,40988,1325,739,-97,823,13
20201016,87834,44869,41628,1337,665,13,640,12
20201017,88434,44989,42099,1346,600,120,471,9
20201018,89137,45136,42649,1352,703,147,550,6
20201019,89860,45346,43149,1365,723,210,500,13
20201020,90490,45481,43638,1371,630,135,489,6
20201021,91118,45228,44506,1384,628,-253,868,13
20201022,91693,45037,45260,1396,575,-191,754,12
20201023,92229,44711,46118,1400,536,-326,858,4
20201024,92858,44597,46842,1419,629,-114,724,19
20201025,93343,44374,47543,1426,485,-223,701,7
20201026,93707,44120,48150,1437,364,-254,607,11
20201027,94218,43805,48968,1445,511,-315,818,8
20201028,94820,43483,49886,1451,602,-322,918,6
20201029,95301,43091,50753,1457,481,-392,867,6
20201030,95789,42612,51713,1464,488,-479,960,7
20201031,96169,42183,52517,1469,380,-429,804,5
20201101,96583,41653,53452,1478,414,-530,935,9
20201102,96942,41048,54405,1489,359,-605,953,11
20201103,97502,40754,55254,1494,560,-294,849,5
20201104,97881,40222,56156,1503,379,-532,902,9
20201105,98391,39769,57114,1508,510,-453,958,5
20201106,98746,39131,58103,1512,355,-638,989,4
20201107,99201,38735,58948,1518,455,-396,845,6
20201108,99675,38386,59766,1523,474,-349,818,5
20201109,99982,37742,60710,1530,307,-644,944,7
20201110,100327,37274,61516,1537,345,-468,806,7
20201111,100727,36685,62497,1545,400,-589,981,8
20201112,101248,36426,63268,1554,521,-259,771,9
20201113,101757,36628,63571,1558,509,202,303,4
20201114,102321,37081,63675,1565,564,453,104,7
20201115,102720,37285,63866,1569,399,204,191,4
20201116,103056,37345,64130,1581,336,60,264,12
20201117,103395,37514,64293,1588,339,169,163,7
20201118,103928,37734,64593,1601,533,220,300,13
20201119,104427,37837,64983,1607,499,103,390,6
20201120,104879,37934,65325,1620,452,97,342,13
20201121,105352,38182,65534,1636,473,248,209,16
20201122,105785,38447,65691,1647,433,265,157,11
20201123,106203,38713,65839,1651,418,266,148,4
20201124,106591,38912,66018,1661,388,199,179,10
20201125,107109,38871,66574,1664,518,-41,556,3
20201126,107669,38996,67001,1672,560,125,427,8
20201127,108438,39246,67506,1686,769,250,505,14
20201128,108930,38985,68250,1695,492,-261,744,9
20201129,109534,38519,69315,1700,604,-466,1065,5
20201130,110074,34560,73808,1706,540,-3959,4493,6
20201201,110554,33928,74917,1709,480,-632,1109,3
20201202,110984,33202,76067,1715,430,-726,1150,6
20201203,111579,32470,77385,1724,595,-732,1318,9
20201204,112091,31738,78619,1734,512,-732,1234,10
20201205,112740,31416,79579,1745,649,-322,960,11
20201206,113295,30717,80831,1747,555,-699,1252,2
20201207,113735,29177,82803,1755,440,-1540,1972,8
20201208,114266,27552,84948,1766,531,-1625,2145,11
20201209,114834,25821,87244,1769,568,-1731,2296,3
20201210,115360,24606,88975,1779,526,-1215,1731,10
20201211,115782,22782,91209,1791,422,-1824,2234,12
20201212,116297,22045,92449,1803,515,-737,1240,12
20201213,116769,21073,93890,1806,472,-972,1441,3
20201214,117242,20208,95225,1809,473,-865,1335,3
20201215,117542,19422,96307,1813,300,-786,1082,4
20201216,118006,18219,97969,1818,464,-1203,1662,5
20201217,118481,16899,99751,1831,475,-1320,1782,13
20201218,119025,16323,100859,1843,544,-576,1108,12
20201219,119494,15495,102153,1846,469,-828,1294,3
20201220,119951,15118,102980,1853,457,-377,827,7
20201221,120348,14806,103681,1861,397,-312,701,8
20201222,120638,13956,104818,1864,290,-850,1137,3
20201223,120989,13295,105824,1870,351,-661,1006,6
20201224,121399,12672,106845,1882,410,-623,1021,12
20201225,121880,12384,107599,1897,481,-288,754,15
20201226,122413,12243,108269,1901,533,-141,670,4
20201227,122864,11662,109293,1909,451,-581,1024,8
20201228,123145,11387,109846,1912,281,-275,553,3
20201229,123388,10736,110739,1913,243,-651,893,1
20201230,123856,10068,111870,1918,468,-668,1131,5
20201231,124264,10245,112096,1923,408,177,226,5
20210101,124652,10464,112251,1937,388,219,155,14
20210102,125049,10780,112325,1944,397,316,74,7
20210103,125622,11307,112367,1948,573,527,42,4
20210104,125919,11359,112610,1950,297,52,243,2
20210105,126241,11465,112813,1963,322,106,203,13
20210106,126786,11847,112974,1965,545,382,161,2
20210107,127227,12240,113021,1966,441,393,47,1
20210108,127572,12416,113182,1974,345,176,161,8
20210109,127792,12512,113295,1985,220,96,113,11
20210110,128316,12948,113374,1994,524,436,79,9
20210111,128616,13050,113563,2003,300,102,189,9
20210112,128992,12726,114262,2004,376,-324,699,1
20210113,129455,12882,114567,2006,463,156,305,2
20210114,129922,13165,114749,2008,467,283,182,2
20210115,130326,12875,115428,2023,404,-290,679,15
20210116,130772,12698,116045,2029,446,-177,617,6
20210117,131195,13018,116147,2030,423,320,102,1
20210118,131546,13178,116335,2033,351,160,188,3
20210119,131727,13298,116392,2037,181,120,57,4
20210120,132034,12637,117353,2044,307,-661,961,7
20210121,132326,12263,118006,2057,292,-374,653,13
20210122,132881,12308,118513,2060,555,45,507,3
20210123,133298,12505,118730,2063,417,197,217,3
20210124,133767,12285,119416,2066,469,-220,686,3
20210125,134132,11862,120199,2071,365,-423,783,5
20210126,134569,11746,120748,2075,437,-116,549,4
20210127,135045,11368,121594,2083,476,-378,846,8
20210128,135594,11649,121860,2085,549,281,266,2
20210129,136365,12291,121987,2087,771,642,127,2
20210130,137021,12342,122588,2091,656,51,601,4
20210131,137650,12695,122862,2093,629,353,274,2
20210201,138384,13313,122968,2103,734,618,106,10
20210202,138861,12939,123806,2116,477,-374,838,13
20210203,139408,13298,123988,2122,547,359,182,6
20210204,140157,13789,124242,2126,749,491,254,4
20210205,140883,13506,125241,2136,726,-283,999,10
20210206,141453,13777,125531,2145,570,271,290,9
20210207,142338,14571,125619,2148,885,794,88,3
20210208,142994,15082,125756,2156,656,511,137,8
20210209,143566,15404,126004,2158,572,322,248,2
20210210,144249,15285,126797,2167,683,-119,793,9
20210211,144862,15069,127622,2171,613,-216,825,4
20210212,145548,15507,127864,2177,686,438,242,6
20210213,145704,15504,128019,2181,156,-3,155,4
20210214,147092,16156,128742,2194,1388,652,723,13
20210215,147825,16670,128946,2209,733,514,204,15
20210216,148490,17122,129145,2223,665,452,199,14
20210217,149308,16947,130124,2237,818,-175,979,14
20210218,150179,17531,130399,2249,871,584,275,12
20210219,151016,18191,130566,2259,837,660,167,10
20210220,151857,18345,131241,2271,841,154,675,12
20210221,152806,19161,131366,2279,949,816,125,8
20210222,153541,19535,131713,2293,735,374,347,14
20210223,154257,18901,133051,2305,716,-634,1338,12
20210224,155234,19480,133438,2316,977,579,387,11
20210225,156112,20184,133607,2321,878,704,169,5
20210226,157047,20146,134561,2340,935,-38,954,19
20210227,158053,20963,134736,2354,1006,817,175,14
20210228,159072,21849,134858,2365,1019,886,122,11
20210301,159972,22422,135177,2373,900,573,319,8
20210302,160813,22348,136079,2386,841,-74,902,13
20210303,161974,23140,136443,2391,1161,792,364,5
20210304,162954,23357,137203,2394,980,217,760,3
20210305,164073,24238,137431,2404,1119,881,228,10
20210306,165029,24824,137785,2420,956,586,354,16
20210307,166138,25209,138500,2429,1109,385,715,9
20210308,167133,26052,138639,2442,995,843,139,13
20210309,168335,26352,139532,2451,1202,300,893,9
20210310,169878,27377,140035,2466,1543,1025,503,15
20210311,171210,27887,140840,2483,1332,510,805,17
20210312,172571,28866,141195,2510,1361,979,355,27
20210313,174054,29473,142041,2540,1483,607,846,30
20210314,175467,29207,143710,2550,1413,-266,1669,10
20210315,176618,30235,143828,2555,1151,1028,118,5
20210316,178108,31047,144488,2573,1490,812,660,18
20210317,179812,32201,145019,2592,1704,1154,531,19
20210318,181869,33918,145349,2602,2057,1717,330,10
20210319,183863,35558,145687,2618,1994,1640,338,16
20210320,185641,36721,146273,2647,1778,1163,586,29
20210321,187365,37254,147452,2659,1724,533,1179,12
20210322,188902,37657,148571,2674,1537,403,1119,15
20210323,190594,38311,149590,2693,1692,654,1019,19
20210324,192575,39215,150642,2718,1981,904,1052,25
20210325,194524,40611,151172,2741,1949,1396,530,23
20210326,196621,41344,152508,2769,2097,733,1336,28
20210327,198794,42774,153236,2784,2173,1430,728,15
20210328,200563,43439,154323,2801,1769,665,1087,17
20210329,202545,44530,155190,2825,1982,1091,867,24
20210330,204521,45055,156625,2841,1976,525,1435,16
20210331,206589,45615,158109,2865,2068,560,1484,24
20210401,208961,46635,159436,2890,2372,1020,1327,25
20210402,211314,48470,159929,2915,2353,1835,493,25
20210403,213311,49149,161226,2936,1997,679,1297,21
20210404,215189,50258,161968,2963,1878,1109,742,27
20210405,217327,51305,163022,3000,2138,1047,1054,37
20210406,219381,52400,163956,3025,2054,1095,934,25
20210407,221544,52351,166135,3058,2163,-49,2179,33
20210408,223665,53835,166752,3078,2121,1484,617,20
20210409,225516,54460,167945,3111,1851,625,1193,33
20210410,227255,55071,169038,3146,1739,611,1093,35
20210411,228996,55189,170633,3174,1741,118,1595,28
20210412,230944,55756,171980,3208,1948,567,1347,34
20210413,232512,55464,173818,3230,1568,-292,1838,22
20210414,234405,56562,174591,3252,1893,1098,773,22
20210415,236554,57390,175879,3285,2149,828,1288,33
20210416,238527,57598,177629,3300,1973,208,1750,15
20210417,240236,58203,178705,3328,1709,605,1076,28
20210418,242028,59343,179315,3370,1792,1140,610,42
20210419,243631,59594,180645,3392,1603,251,1330,22
20210420,245155,59781,181935,3439,1524,187,1290,47
20210421,246484,59078,183932,3474,1329,-703,1997,35
20210422,247989,59386,185107,3496,1505,308,1175,22
20210423,249292,57701,188080,3511,1303,-1685,2973,15
20210424,250955,57411,190013,3531,1663,-290,1933,20
20210425,252279,55981,192747,3551,1324,-1430,2734,20
20210426,253120,56053,193497,3570,841,72,750,19
20210427,254044,54892,195547,3605,924,-1161,2050,35
20210428,255288,55225,196424,3639,1244,333,877,34
20210429,256418,54844,197916,3658,1130,-381,1492,19
20210430,257442,54892,198862,3688,1024,48,946,30
20210501,258062,54205,200148,3709,620,-687,1286,21
20210502,258384,54150,200508,3726,322,-55,360,17
20210503,258813,53900,201156,3757,429,-250,648,31
20210504,259354,52903,202679,3772,541,-997,1523,15
20210505,260139,52936,203408,3795,785,33,729,23
20210506,260802,51522,205458,3822,663,-1414,2050,27
20210507,261580,50870,206870,3840,778,-652,1412,18
20210508,262217,50032,208314,3871,637,-838,1444,31
20210509,262702,48784,210030,3888,485,-1248,1716,17
20210510,263120,47730,211493,3897,418,-1054,1463,9
20210511,263672,47194,212567,3911,552,-536,1074,14
20210512,264367,45621,214808,3938,695,-1573,2241,27
20210513,264960,45275,215734,3951,593,-346,926,13
20210514,265413,44079,217370,3964,453,-1196,1636,13
20210515,265832,42990,218866,3976,419,-1089,1496,12
20210516,266264,42702,219566,3996,432,-288,700,20
20210517,266646,41996,220642,4008,382,-706,1076,12
20210518,267100,41628,221451,4021,454,-368,809,13
20210519,267597,40999,222560,4038,497,-629,1109,17
20210520,268035,39994,223993,4048,438,-1005,1433,10
20210521,268520,38980,225480,4060,485,-1014,1487,12
20210522,268901,37753,227080,4068,381,-1227,1600,8
20210523,269194,36361,228757,4076,293,-1392,1677,8
20210524,269500,34632,230784,4084,306,-1729,2027,8
20210525,269782,34054,231635,4093,282,-578,851,9
20210526,270180,32856,233216,4108,398,-1198,1581,15
20210527,270527,31974,234426,4127,347,-882,1210,19
20210528,270944,30955,235850,4139,417,-1019,1424,12
20210529,271200,30283,236774,4143,256,-672,924,4
20210530,271345,29646,237544,4155,145,-637,770,12
20210531,271541,28642,238734,4165,196,-1004,1190,10
20210601,271790,28144,239475,4171,249,-498,741,6
20210602,272036,25416,242442,4178,246,-2728,2967,7
20210603,272285,24722,243378,4185,249,-694,936,7
20210604,272632,23789,244650,4193,347,-933,1272,8
20210605,272805,22956,245648,4201,173,-833,998,8
20210606,272914,22458,246247,4209,109,-498,599,8
20210607,273024,21928,246883,4213,110,-530,636,4
20210608,273175,21453,247502,4220,151,-475,619,7
20210609,273398,20887,248285,4226,223,-566,783,6
20210610,273678,20419,249028,4231,280,-468,743,5
20210611,273892,20186,249471,4235,214,-233,443,4
20210612,274028,19702,250089,4237,136,-484,618,2
20210613,274187,19281,250664,4242,159,-421,575,5
20210614,274346,18989,251107,4250,159,-292,443,8
20210615,274480,18343,251880,4257,134,-646,773,7
20210616,274601,17890,252451,4260,121,-453,571,3
20210617,274775,17318,253195,4262,174,-572,744,2
20210618,274899,16989,253634,4276,124,-329,439,14
20210619,275036,16460,254296,4280,137,-529,662,4
20210620,275194,15963,254948,4283,158,-497,652,3
20210621,275318,15530,255502,4286,124,-433,554,3
20210622,275391,15139,255962,4290,73,-391,460,4
20210623,275502,14423,256787,4292,111,-716,825,2
20210624,275601,13876,257429,4296,99,-547,642,4
20210625,275769,13264,258203,4302,168,-612,774,6
20210626,275881,13081,258491,4309,112,-183,288,7
20210627,275935,12577,259044,4314,54,-504,553,5
20210628,275974,12042,259617,4315,39,-535,573,1
20210629,276037,11415,260302,4320,63,-627,685,5
20210630,276174,11482,260372,4320,137,67,70,0
20210701,276250,11188,260737,4325,76,-294,365,5
20210702,276323,11259,260737,4327,73,71,0,2
20210703,276368,11089,260949,4330,45,-170,212,3
20210704,276435,11079,261025,4331,67,-10,76,1
20210705,276503,11015,261156,4332,68,-64,131,1
20210706,276598,10607,261656,4335,95,-408,500,3
20210707,276683,10596,261749,4338,85,-11,93,3
20210708,276799,10641,261817,4341,116,45,68,3
20210709,276871,10596,261933,4342,72,-45,116,1
20210710,276984,10662,261979,4343,113,66,46,1
20210711,277071,10739,261989,4343,87,77,10,0
20210712,277137,10772,262022,4343,66,33,33,0
20210713,277212,10763,262102,4347,75,-9,80,4
20210714,277318,10802,262167,4349,106,39,65,2
20210715,277443,10887,262206,4350,125,85,39,1
20210716,277536,10947,262237,4352,93,60,31,2
20210717,277615,10996,262265,4354,79,49,28,2
20210718,277696,11025,262314,4357,81,29,49,3
20210719,277780,10966,262457,4357,84,-59,143,0
20210720,277877,10968,262550,4359,97,2,93,2
20210721,277959,11011,262588,4360,82,43,38,1
20210722,278105,11050,262692,4363,146,39,104,3
20210723,278233,11118,262750,4365,128,68,58,2
20210724,278446,11231,262848,4367,213,113,98,2
20210725,278543,11312,262862,4369,97,81,14,2
20210726,278717,11421,262925,4371,174,109,63,2
20210727,278920,11578,262968,4374,203,157,43,3
20210728,279153,11711,263066,4376,233,133,98,2
20210729,279629,11856,263392,4381,476,145,326,5
20210730,280024,12216,263425,4383,395,360,33,2
20210731,280365,12480,263500,4385,341,264,75,2
20210801,280565,12588,263587,4390,200,108,87,5
20210802,280833,12748,263694,4391,268,160,107,1
20210803,281300,13020,263885,4395,467,272,191,4
20210804,281811,13400,264008,4403,511,380,123,8
20210805,282498,0,0,4406,687,-13400,-264008,3
20210806,283082,0,0,4415,584,0,0,9
20210807,283667,0,0,4421,585,0,0,6
20210808,284091,0,0,4426,424,0,0,5
20210809,284531,0,0,4430,440,0,0,4
20210810,285413,0,0,4440,882,0,0,10
20210811,286286,0,0,4450,873,0,0,10
20210812,287184,0,0,4452,898,0,0,2
20210813,288159,0,0,4460,975,0,0,8
20210814,288788,0,0,4471,629,0,0,11
20210815,289274,0,0,4478,486,0,0,7
20210816,289962,0,0,4489,688,0,0,11
20210817,290818,0,0,4495,856,0,0,6
20210818,291803,0,0,4505,985,0,0,10
20210819,292731,0,0,4518,928,0,0,13
20210820,293737,0,0,4539,1006,0,0,21
20210821,295019,0,0,4553,1282,0,0,14
20210822,295804,0,0,4561,785,0,0,8
20210823,296731,0,0,4571,927,0,0,10
20210824,297997,0,0,4580,1266,0,0,9
20210825,300092,0,0,4593,2095,0,0,13
20210826,301713,0,0,4606,1621,0,0,13
20210827,303171,0,0,4618,1458,0,0,12
20210828,305077,0,0,4631,1906,0,0,13
20210829,306117,0,0,4644,1040,0,0,13
20210830,306810,0,0,4660,693,0,0,16
20210831,308134,0,0,4675,1324,0,0,15
20210901,309351,0,0,4692,1217,0,0,17
20210902,310994,0,0,4711,1643,0,0,19
20210903,312348,0,0,4731,1354,0,0,20
20210904,313468,0,0,4749,1120,0,0,18
