date,infected,active,recovered,dead,deltaInfected,deltaActive,deltaRecovered,deltaDead
20200129,1,1,0,0,1,1,0,0
20200130,1,1,0,0,0,0,0,0
20200131,1,1,0,0,0,0,0,0
20200201,1,1,0,0,0,0,0,0
20200202,1,1,0,0,0,0,0,0
20200203,1,1,0,0,0,0,0,0
20200204,1,1,0,0,0,0,0,0
20200205,1,1,0,0,0,0,0,0
20200206,1,1,0,0,0,0,0,0
20200207,1,1,0,0,0,0,0,0
20200208,1,1,0,0,0,0,0,0
20200209,1,1,0,0,0,0,0,0
20200210,1,1,0,0,0,0,0,0
20200211,1,1,0,0,0,0,0,0
20200212,1,0,1,0,0,-1,1,0
20200213,1,0,1,0,0,0,0,0
20200214,1,0,1,0,0,0,0,0
20200215,1,0,1,0,0,0,0,0
20200216,1,0,1,0,0,0,0,0
20200217,1,0,1,0,0,0,0,0
20200218,1,0,1,0,0,0,0,0
20200219,1,0,1,0,0,0,0,0
20200220,1,0,1,0,0,0,0,0
20200221,1,0,1,0,0,0,0,0
20200222,1,0,1,0,0,0,0,0
20200223,1,0,1,0,0,0,0,0
20200224,1,0,1,0,0,0,0,0
20200225,1,0,1,0,0,0,0,0
20200226,2,1,1,0,1,1,0,0
20200227,2,1,1,0,0,0,0,0
20200228,2,1,1,0,0,0,0,0
20200229,3,2,1,0,1,1,0,0
20200301,6,5,1,0,3,3,0,0
20200302,6,5,1,0,0,0,0,0
20200303,6,5,1,0,0,0,0,0
20200304,6,5,1,0,0,0,0,0
20200305,12,11,1,0,6,6,0,0
20200306,15,14,1,0,3,3,0,0
20200307,15,14,1,0,0,0,0,0
20200308,23,22,1,0,8,8,0,0
20200309,30,29,1,0,7,7,0,0
20200310,40,39,1,0,10,10,0,0
20200311,59,58,1,0,19,19,0,0
20200312,59,58,1,0,0,0,0,0
20200313,155,154,1,0,96,96,0,0
20200314,225,224,1,0,70,70,0,0
20200315,244,234,10,0,19,10,9,0
20200316,277,267,10,0,33,33,0,0
20200317,321,311,10,0,44,44,0,0
20200318,336,326,10,0,15,15,0,0
20200319,400,390,10,0,64,64,0,0
20200320,450,440,10,0,50,50,0,0
20200321,523,512,10,1,73,72,0,1
20200322,626,615,10,1,103,103,0,0
20200323,700,689,10,1,74,74,0,0
20200324,792,781,10,1,92,92,0,0
20200325,880,867,10,3,88,86,0,2
20200326,958,943,10,5,78,76,0,2
20200327,1041,1024,10,7,83,81,0,2
20200328,1167,1148,10,9,126,124,0,2
20200329,1240,1219,10,11,73,71,0,2
20200330,1352,1329,10,13,112,110,0,2
20200331,1418,1391,10,17,66,62,0,4
20200401,1446,1419,10,17,28,28,0,0
20200402,1518,1199,300,19,72,-220,290,2
20200403,1615,1295,300,20,97,96,0,1
20200404,1882,1557,300,25,267,262,0,5
20200405,1927,1599,300,28,45,42,0,3
20200406,2176,1849,300,27,249,250,0,-1
20200407,2308,1974,300,34,132,125,0,7
20200408,2487,2147,300,40,179,173,0,6
20200409,2605,2263,300,42,118,116,0,2
20200410,2769,2421,300,48,164,158,0,6
20200411,2905,2556,300,49,136,135,0,1
20200412,2974,2618,300,56,69,62,0,7
20200413,3064,2705,300,59,90,87,0,3
20200414,3161,2797,300,64,97,92,0,5
20200415,3237,2865,300,72,76,68,0,8
20200416,3369,1594,1700,75,132,-1271,1400,3
20200417,3489,1707,1700,82,120,113,0,7
20200418,3681,1891,1700,90,192,184,0,8
20200419,3783,1989,1700,94,102,98,0,4
20200420,3868,1770,2000,98,85,-219,300,4
20200421,4014,1873,2000,141,146,103,0,43
20200422,4129,1980,2000,149,115,107,0,8
20200423,4284,2112,2000,172,155,132,0,23
20200424,4395,1718,2500,177,111,-394,500,5
20200425,4475,1789,2500,186,80,71,0,9
20200426,4576,1886,2500,190,101,97,0,4
20200427,4695,2002,2500,193,119,116,0,3
20200428,4740,1741,2800,199,45,-261,300,6
20200429,4906,1900,2800,206,166,159,0,7
20200430,4995,1784,3000,211,89,-116,200,5
20200501,5051,1833,3000,218,56,49,0,7
20200502,5176,1956,3000,220,125,123,0,2
20200503,5254,2024,3000,230,78,68,0,10
20200504,5327,1587,3500,240,73,-437,500,10
20200505,5412,1666,3500,246,85,79,0,6
20200506,5573,1821,3500,252,161,155,0,6
20200507,5673,1918,3500,255,100,97,0,3
20200508,5738,1478,4000,260,65,-440,500,5
20200509,5880,1615,4000,265,142,137,0,5
20200510,5962,1695,4000,267,82,80,0,2
20200511,5984,1713,4000,271,22,18,0,4
20200512,6003,1428,4300,275,19,-285,300,4
20200513,6054,1470,4300,284,51,42,0,9
20200514,6145,1558,4300,287,91,88,0,3
20200515,6228,935,5000,293,83,-623,700,6
20200516,6286,989,5000,297,58,54,0,4
20200517,6347,1049,5000,298,61,60,0,1
20200518,6380,1080,5000,300,33,31,0,2
20200519,6399,1098,5000,301,19,18,0,1
20200520,6443,1339,4800,304,44,241,-200,3
20200521,6493,1387,4800,306,50,48,0,2
20200522,6537,1431,4800,306,44,44,0,0
20200523,6568,1462,4800,306,31,31,0,0
20200524,6579,1472,4800,307,11,10,0,1
20200525,6599,1191,5100,308,20,-281,300,1
20200526,6628,1216,5100,312,29,25,0,4
20200527,6692,1279,5100,313,64,63,0,1
20200528,6743,930,5500,313,51,-349,400,0
20200529,6776,962,5500,314,33,32,0,1
20200530,6826,1010,5500,316,50,48,0,2
20200531,6859,1039,5500,320,33,29,0,4
20200601,6885,1067,5500,318,26,28,0,-2
20200602,6887,1067,5500,320,2,0,0,2
20200603,6911,1090,5500,321,24,23,0,1
20200604,6911,789,5800,322,0,-301,300,1
20200605,6941,819,5800,322,30,30,0,0
20200606,6964,842,5800,322,23,23,0,0
20200607,6981,858,5800,323,17,16,0,1
20200608,7001,878,5800,323,20,20,0,0
20200609,7025,901,5800,324,24,23,0,1
20200610,7040,916,5800,324,15,15,0,0
20200611,7064,539,6200,325,24,-377,400,1
20200612,7073,548,6200,325,9,9,0,0
20200613,7087,562,6200,325,14,14,0,0
20200614,7104,578,6200,326,17,16,0,1
20200615,7108,582,6200,326,4,4,0,0
20200616,7112,586,6200,326,4,4,0,0
20200617,7117,591,6200,326,5,5,0,0
20200618,7119,593,6200,326,2,2,0,0
20200619,7133,607,6200,326,14,14,0,0
20200620,7142,616,6200,326,9,9,0,0
20200621,7143,617,6200,326,1,1,0,0
20200622,7144,417,6400,327,1,-200,200,1
20200623,7155,428,6400,327,11,11,0,0
20200624,7167,240,6600,327,12,-188,200,0
20200625,7172,245,6600,327,5,5,0,0
20200626,7191,263,6600,328,19,18,0,1
20200627,7198,270,6600,328,7,7,0,0
20200628,7198,270,6600,328,0,0,0,0
20200629,7209,281,6600,328,11,11,0,0
20200630,7214,286,6600,328,5,5,0,0
20200701,7236,208,6700,328,22,-78,100,0
20200702,7241,213,6700,328,5,5,0,0
20200703,7242,213,6700,329,1,0,0,1
20200704,7248,219,6700,329,6,6,0,0
20200705,7253,224,6700,329,5,5,0,0
20200706,7257,228,6700,329,4,4,0,0
20200707,7262,233,6700,329,5,5,0,0
20200708,7265,136,6800,329,3,-97,100,0
20200709,7273,144,6800,329,8,8,0,0
20200710,7279,150,6800,329,6,6,0,0
20200711,7291,162,6800,329,12,12,0,0
20200712,7294,165,6800,329,3,3,0,0
20200713,7295,166,6800,329,1,1,0,0
20200714,7301,172,6800,329,6,6,0,0
20200715,7296,88,6880,328,-5,-84,80,-1
20200716,7293,85,6880,328,-3,-3,0,0
20200717,7301,93,6880,328,8,8,0,0
20200718,7318,110,6880,328,17,17,0,0
20200719,7335,127,6880,328,17,17,0,0
20200720,7340,132,6880,328,5,5,0,0
20200721,7351,143,6880,328,11,11,0,0
20200722,7362,114,6920,328,11,-29,40,0
20200723,7372,124,6920,328,10,10,0,0
20200724,7380,131,6920,329,8,7,0,1
20200725,7388,139,6920,329,8,8,0,0
20200726,7393,144,6920,329,5,5,0,0
20200727,7398,149,6920,329,5,5,0,0
20200728,7404,155,6920,329,6,6,0,0
20200729,7414,135,6950,329,10,-20,30,0
20200730,7423,144,6950,329,9,9,0,0
20200731,7432,153,6950,329,9,9,0,0
20200801,7443,164,6950,329,11,11,0,0
20200802,7453,174,6950,329,10,10,0,0
20200803,7466,187,6950,329,13,13,0,0
20200804,7483,202,6950,331,17,15,0,2
20200805,7512,201,6980,331,29,-1,30,0
20200806,7532,221,6980,331,20,20,0,0
20200807,7554,243,6980,331,22,22,0,0
20200808,7568,257,6980,331,14,14,0,0
20200809,7584,273,6980,331,16,16,0,0
20200810,7601,288,6980,333,17,15,0,2
20200811,7623,310,6980,333,22,22,0,0
20200812,7642,259,7050,333,19,-51,70,0
20200813,7683,300,7050,333,41,41,0,0
20200814,7700,317,7050,333,17,17,0,0
20200815,7720,337,7050,333,20,20,0,0
20200816,7731,348,7050,333,11,11,0,0
20200817,7752,368,7050,334,21,20,0,1
20200818,7776,392,7050,334,24,24,0,0
20200819,7805,371,7100,334,29,-21,50,0
20200820,7842,408,7100,334,37,37,0,0
20200821,7871,437,7100,334,29,29,0,0
20200822,7906,472,7100,334,35,35,0,0
20200823,7920,486,7100,334,14,14,0,0
20200824,7938,503,7100,335,18,17,0,1
20200825,7981,546,7100,335,43,43,0,0
20200826,8002,467,7200,335,21,-79,100,0
20200827,8019,484,7200,335,17,17,0,0
20200828,8042,507,7200,335,23,23,0,0
20200829,8049,514,7200,335,7,7,0,0
20200830,8077,542,7200,335,28,28,0,0
20200831,8086,550,7200,336,9,8,0,1
20200901,8142,606,7200,336,56,56,0,0
20200902,8161,475,7350,336,19,-131,150,0
20200903,8200,514,7350,336,39,39,0,0
20200904,8225,539,7350,336,25,25,0,0
20200905,8261,575,7350,336,36,36,0,0
20200906,8291,605,7350,336,30,30,0,0
20200907,8327,641,7350,336,36,36,0,0
20200908,8337,651,7350,336,10,10,0,0
20200909,8430,593,7500,337,93,-58,150,1
20200910,8469,632,7500,337,39,39,0,0
20200911,8512,675,7500,337,43,43,0,0
20200912,8557,720,7500,337,45,45,0,0
20200913,8580,743,7500,337,23,23,0,0
20200914,8627,790,7500,337,47,47,0,0
20200915,8725,886,7500,339,98,96,0,2
20200916,8750,711,7700,339,25,-175,200,0
20200917,8799,760,7700,339,49,49,0,0
20200918,8858,819,7700,339,59,59,0,0
20200919,8922,883,7700,339,64,64,0,0
20200920,8980,941,7700,339,58,58,0,0
20200921,9046,1005,7700,341,66,64,0,2
20200922,9195,1154,7700,341,149,149,0,0
20200923,9288,1095,7850,343,93,-59,150,2
20200924,9379,1186,7850,343,91,91,0,0
20200925,9484,1291,7850,343,105,105,0,0
20200926,9577,1384,7850,343,93,93,0,0
20200927,9682,1489,7850,343,105,105,0,0
20200928,9743,1548,7850,345,61,59,0,2
20200929,9892,1697,7850,345,149,149,0,0
20200930,9992,1548,8100,344,100,-149,250,-1
20201001,10103,1659,8100,344,111,111,0,0
20201002,10244,1799,8100,345,141,140,0,1
20201003,10391,1946,8100,345,147,147,0,0
20201004,10538,2093,8100,345,147,147,0,0
20201005,10702,2256,8100,346,164,163,0,1
20201006,10929,2483,8100,346,227,227,0,0
20201007,11049,2203,8500,346,120,-280,400,0
20201008,11345,2499,8500,346,296,296,0,0
20201009,11580,2734,8500,346,235,235,0,0
20201010,11849,3003,8500,346,269,269,0,0
20201011,11998,3152,8500,346,149,149,0,0
20201012,12212,3366,8500,346,214,214,0,0
20201013,12499,3653,8500,346,287,287,0,0
20201014,12703,3253,9100,350,204,-400,600,4
20201015,12944,3494,9100,350,241,241,0,0
20201016,13133,3682,9100,351,189,188,0,1
20201017,13293,3842,9100,351,160,160,0,0
20201018,13424,3973,9100,351,131,131,0,0
20201019,13555,4104,9100,351,131,131,0,0
20201020,13849,4398,9100,351,294,294,0,0
20201021,14071,3916,9800,355,222,-482,700,4
20201022,14255,4100,9800,355,184,184,0,0
20201023,14474,4321,9800,353,219,221,0,-2
20201024,14652,4499,9800,353,178,178,0,0
20201025,14848,4695,9800,353,196,196,0,0
20201026,14970,4816,9800,354,122,121,0,1
20201027,15163,5009,9800,354,193,193,0,0
20201028,15378,3724,11300,354,215,-1285,1500,0
20201029,15566,3912,11300,354,188,188,0,0
20201030,15910,4252,11300,358,344,340,0,4
20201031,16113,4455,11300,358,203,203,0,0
20201101,16291,4633,11300,358,178,178,0,0
20201102,16400,4741,11300,359,109,108,0,1
20201103,16637,4978,11300,359,237,237,0,0
20201104,16930,3869,12700,361,293,-1109,1400,2
20201105,17119,4058,12700,361,189,189,0,0
20201106,17385,4323,12700,362,266,265,0,1
20201107,17385,4323,12700,362,0,0,0,0
20201108,17797,4735,12700,362,412,412,0,0
20201109,17887,4824,12700,363,90,89,0,1
20201110,18107,5044,12700,363,220,220,0,0
20201111,18345,3980,14000,365,238,-1064,1300,2
20201112,18542,4177,14000,365,197,197,0,0
20201113,18858,4489,14000,369,316,312,0,4
20201114,19102,4733,14000,369,244,244,0,0
20201115,19315,4946,14000,369,213,213,0,0
20201116,19419,5048,14000,371,104,102,0,2
20201117,19647,5276,14000,371,228,228,0,0
20201118,19935,4261,15300,374,288,-1015,1300,3
20201119,20286,4612,15300,374,351,351,0,0
20201120,20747,5072,15300,375,461,460,0,1
20201121,21216,5541,15300,375,469,469,0,0
20201122,21639,5964,15300,375,423,423,0,0
20201123,21936,6252,15300,384,297,288,0,9
20201124,22289,6605,15300,384,353,353,0,0
20201125,22652,5464,16800,388,363,-1141,1500,4
20201126,23148,5960,16800,388,496,496,0,0
20201127,23766,6573,16800,393,618,613,0,5
20201128,24307,7114,16800,393,541,541,0,0
20201129,24629,7436,16800,393,322,322,0,0
20201130,24912,7713,16800,399,283,277,0,6
20201201,25462,8263,16800,399,550,550,0,0
20201202,25882,7374,18100,408,420,-889,1300,9
20201203,26422,7914,18100,408,540,540,0,0
20201204,26758,8250,18100,408,336,336,0,0
20201205,27218,8703,18100,415,460,453,0,7
20201206,27631,9116,18100,415,413,413,0,0
20201207,27881,9357,18100,424,250,241,0,9
20201208,28242,9718,18100,424,361,361,0,0
20201209,28732,10199,18100,433,490,481,0,9
20201210,29572,9130,20000,442,840,-1069,1900,9
20201211,30073,9620,20000,453,501,490,0,11
20201212,30450,9997,20000,453,377,377,0,0
20201213,30810,10357,20000,453,360,360,0,0
20201214,31110,10649,20000,461,300,292,0,8
20201215,31459,10993,20000,466,349,344,0,5
20201216,31870,8898,22500,472,411,-2095,2500,6
20201217,32228,9244,22500,484,358,346,0,12
20201218,32582,9593,22500,489,354,349,0,5
20201219,32853,9864,22500,489,271,271,0,0
20201220,33162,10173,22500,489,309,309,0,0
20201221,33414,10408,22500,506,252,235,0,17
20201222,33717,10706,22500,511,303,298,0,5
20201223,34084,7560,26000,524,367,-3146,3500,13
20201224,34447,7923,26000,524,363,363,0,0
20201225,34648,8124,26000,524,201,201,0,0
20201226,34821,8297,26000,524,173,173,0,0
20201227,34977,8453,26000,524,156,156,0,0
20201228,35137,8591,26000,546,160,138,0,22
20201229,35420,8870,26000,550,283,279,0,4
20201230,35858,6302,29000,556,438,-2568,3000,6
20201231,36107,6546,29000,561,249,244,0,5
20210101,36403,6842,29000,561,296,296,0,0
20210102,36604,7043,29000,561,201,201,0,0
20210103,36772,7211,29000,561,168,168,0,0
20210104,36919,7354,29000,565,147,143,0,4
20210105,37218,5642,31000,576,299,-1712,2000,11
20210106,37549,5973,31000,576,331,331,0,0
20210107,37772,6188,31000,584,223,215,0,8
20210108,38068,6482,31000,586,296,294,0,2
20210109,38392,6806,31000,586,324,324,0,0
20210110,38590,7004,31000,586,198,198,0,0
20210111,38790,7193,31000,597,200,189,0,11
20210112,39011,7409,31000,602,221,216,0,5
20210113,39335,7733,31000,602,324,324,0,0
20210114,39593,7977,31000,616,258,244,0,14
20210115,39911,8293,31000,618,318,316,0,2
20210116,40101,8483,31000,618,190,190,0,0
20210117,40337,8719,31000,618,236,236,0,0
20210118,40505,8887,31000,618,168,168,0,0
20210119,40722,9101,31000,621,217,214,0,3
20210120,41166,9534,31000,632,444,433,0,11
20210121,41565,9933,31000,632,399,399,0,0
20210122,41915,10271,31000,644,350,338,0,12
20210123,42334,10690,31000,644,419,419,0,0
20210124,42580,10936,31000,644,246,246,0,0
20210125,42772,11117,31000,655,192,181,0,11
20210126,43120,11465,31000,655,348,348,0,0
20210127,43616,11956,31000,660,496,491,0,5
20210128,44039,12375,31000,664,423,419,0,4
20210129,44402,12731,31000,671,363,356,0,7
20210130,44871,13200,31000,671,469,469,0,0
20210131,45238,13567,31000,671,367,367,0,0
20210201,45482,13805,31000,677,244,238,0,6
20210202,45784,14100,31000,684,302,295,0,7
20210203,46049,14364,31000,685,265,264,0,1
20210204,46493,14805,31000,688,444,441,0,3
20210205,46894,15206,31000,688,401,401,0,0
20210206,47262,15574,31000,688,368,368,0,0
20210207,47616,15928,31000,688,354,354,0,0
20210208,47969,16281,31000,688,353,353,0,0
20210209,48407,16704,31000,703,438,423,0,15
20210210,48807,17104,31000,703,400,400,0,0
20210211,49165,8457,40000,708,358,-8647,9000,5
20210212,49572,8862,40000,710,407,405,0,2
20210213,50007,9297,40000,710,435,435,0,0
20210214,50319,9609,40000,710,312,312,0,0
20210215,50662,9946,40000,716,343,337,0,6
20210216,51047,10327,40000,720,385,381,0,4
20210217,51595,10872,40000,723,548,545,0,3
20210218,52209,11484,40000,725,614,612,0,2
20210219,52653,11928,40000,725,444,444,0,0
20210220,53285,12559,40000,726,632,631,0,1
20210221,53742,13016,40000,726,457,457,0,0
20210222,54132,13399,40000,733,390,383,0,7
20210223,54532,13798,40000,734,400,399,0,1
20210224,55122,14385,40000,737,590,587,0,3
20210225,55687,14947,40000,740,565,562,0,3
20210226,56407,15665,40000,742,720,718,0,2
20210227,57052,10310,46000,742,645,-5355,6000,0
20210228,57672,10930,46000,742,620,620,0,0
20210301,58064,11314,46000,750,392,384,0,8
20210302,58645,11890,46000,755,581,576,0,5
20210303,59442,12683,46000,759,797,793,0,4
20210304,60200,13436,46000,764,758,753,0,5
20210305,60904,14137,46000,767,704,701,0,3
20210306,61552,14785,46000,767,648,648,0,0
20210307,62063,15296,46000,767,511,511,0,0
20210308,62522,15748,46000,774,459,452,0,7
20210309,63110,16334,46000,776,588,586,0,2
20210310,63889,17113,46000,776,779,779,0,0
20210311,64609,17833,46000,776,720,720,0,0
20210312,65315,18529,46000,786,706,696,0,10
20210313,66006,19220,46000,786,691,691,0,0
20210314,66869,20083,46000,786,863,863,0,0
20210315,67334,20534,46000,800,465,451,0,14
20210316,67851,21050,46000,801,517,516,0,1
20210317,68693,21889,46000,804,842,839,0,3
20210318,69497,22692,46000,805,804,803,0,1
20210319,70267,23462,46000,805,770,770,0,0
20210320,71123,24318,46000,805,856,856,0,0
20210321,71643,24838,46000,805,520,520,0,0
20210322,72073,25265,46000,808,430,427,0,3
20210323,72713,25905,46000,808,640,640,0,0
20210324,73516,26707,46000,809,803,802,0,1
20210325,74242,27427,46000,815,726,720,0,6
20210326,74754,27937,46000,817,512,510,0,2
20210327,75545,28728,46000,817,791,791,0,0
20210328,76003,29186,46000,817,458,458,0,0
20210329,76425,29603,46000,822,422,417,0,5
20210330,76845,30019,46000,826,420,416,0,4
20210331,77452,30608,46000,844,607,589,0,18
20210401,78106,31260,46000,846,654,652,0,2
20210402,78672,31826,46000,846,566,566,0,0
20210403,79094,32248,46000,846,422,422,0,0
20210404,79396,32550,46000,846,302,302,0,0
20210405,79737,32891,46000,846,341,341,0,0
20210406,80068,33208,46000,860,331,317,0,14
20210407,80416,33554,46000,862,348,346,0,2
20210408,80842,33976,46000,866,426,422,0,4
20210409,81261,34393,46000,868,419,417,0,2
20210410,81707,34839,46000,868,446,446,0,0
20210411,82053,35185,46000,868,346,346,0,0
20210412,82278,35404,46000,874,225,219,0,6
20210413,82564,35687,46000,877,286,283,0,3
20210414,82964,36083,46000,881,400,396,0,4
20210415,83253,36368,46000,885,289,285,0,4
20210416,83633,36746,46000,887,380,378,0,2
20210417,83633,36746,46000,887,0,0,0,0
20210418,84131,37244,46000,887,498,498,0,0
20210419,84287,37396,46000,891,156,152,0,4
20210420,84501,37608,46000,893,214,212,0,2
20210421,84797,37898,46000,899,296,290,0,6
20210422,85077,38175,46000,902,280,277,0,3
20210423,85344,38441,46000,903,267,266,0,1
20210424,85607,38704,46000,903,263,263,0,0
20210425,85804,38901,46000,903,197,197,0,0
20210426,85937,39031,46000,906,133,130,0,3
20210427,86161,39253,46000,908,224,222,0,2
20210428,86405,39494,46000,911,244,241,0,3
20210429,86613,39700,46000,913,208,206,0,2
20210430,86808,39894,46000,914,195,194,0,1
20210501,87096,40182,46000,914,288,288,0,0
20210502,87228,40314,46000,914,132,132,0,0
20210503,87345,40430,46000,915,117,116,0,1
20210504,87529,40613,46000,916,184,183,0,1
20210505,87798,40880,46000,918,269,267,0,2
20210506,88078,41159,46000,919,280,279,0,1
20210507,88332,41410,46000,922,254,251,0,3
20210508,88561,41639,46000,922,229,229,0,0
20210509,88723,41801,46000,922,162,162,0,0
20210510,88866,41944,46000,922,143,143,0,0
20210511,88990,42063,46000,927,124,119,0,5
20210512,89270,42340,46000,930,280,277,0,3
20210513,89532,42602,46000,930,262,262,0,0
20210514,89686,42755,46000,931,154,153,0,1
20210515,89878,42947,46000,931,192,192,0,0
20210516,90105,43174,46000,931,227,227,0,0
20210517,90249,43316,46000,933,144,142,0,2
20210518,90398,43469,46000,929,149,153,0,-4
20210519,90687,43758,46000,929,289,289,0,0
20210520,90946,44017,46000,929,259,259,0,0
20210521,91157,44225,46000,932,211,208,0,3
20210522,91405,44473,46000,932,248,248,0,0
20210523,91526,44594,46000,932,121,121,0,0
20210524,91619,44680,46000,939,93,86,0,7
20210525,91744,44802,46000,942,125,122,0,3
20210526,91964,45018,46000,946,220,216,0,4
20210527,92062,45116,46000,946,98,98,0,0
20210528,92244,45296,46000,948,182,180,0,2
20210529,92244,45296,46000,948,0,0,0,0
20210530,92432,45484,46000,948,188,188,0,0
20210531,92488,45532,46000,956,56,48,0,8
20210601,92642,45686,46000,956,154,154,0,0
20210602,92770,45811,46000,959,128,125,0,3
20210603,92913,45954,46000,959,143,143,0,0
20210604,93038,46079,46000,959,125,125,0,0
20210605,93158,46199,46000,959,120,120,0,0
20210606,93226,46267,46000,959,68,68,0,0
20210607,93281,46322,46000,959,55,55,0,0
20210608,93394,46435,46000,959,113,113,0,0
20210609,93520,46561,46000,959,126,126,0,0
20210610,93613,46649,46000,964,93,88,0,5
20210611,93660,46696,46000,964,47,47,0,0
20210612,93774,46810,46000,964,114,114,0,0
20210613,93821,46857,46000,964,47,47,0,0
20210614,93850,46886,46000,964,29,29,0,0
20210615,93923,46959,46000,964,73,73,0,0
20210616,94026,47059,46000,967,103,100,0,3
20210617,94081,47114,46000,967,55,55,0,0
20210618,94154,47187,46000,967,73,73,0,0
20210619,94269,47302,46000,967,115,115,0,0
20210620,94334,47367,46000,967,65,65,0,0
20210621,94379,47412,46000,967,45,45,0,0
20210622,94489,47522,46000,967,110,110,0,0
20210623,94596,47627,46000,969,107,105,0,2
20210624,94719,47750,46000,969,123,123,0,0
20210625,94719,47750,46000,969,0,0,0,0
20210626,94989,48020,46000,969,270,270,0,0
20210627,95084,48115,46000,969,95,95,0,0
20210628,95168,48199,46000,969,84,84,0,0
20210629,95387,48418,46000,969,219,219,0,0
20210630,95742,48773,46000,969,355,355,0,0
20210701,95964,48991,46000,973,222,218,0,4
20210702,96180,49207,46000,973,216,216,0,0
20210703,96372,49399,46000,973,192,192,0,0
20210704,96463,49490,46000,973,91,91,0,0
20210705,96569,49596,46000,973,106,106,0,0
20210706,96791,49818,46000,973,222,222,0,0
20210707,97049,50073,46000,976,258,255,0,3
20210708,97349,50373,46000,976,300,300,0,0
20210709,97651,50675,46000,976,302,302,0,0
20210710,97944,50968,46000,976,293,293,0,0
20210711,98082,51106,46000,976,138,138,0,0
20210712,98215,51239,46000,976,133,133,0,0
20210713,98505,51529,46000,976,290,290,0,0
20210714,98888,51910,46000,978,383,381,0,2
20210715,99212,52234,46000,978,324,324,0,0
20210716,99592,52614,46000,978,380,380,0,0
20210717,99976,52997,46000,979,384,383,0,1
20210718,100156,53177,46000,979,180,180,0,0
20210719,100312,53333,46000,979,156,156,0,0
20210720,100773,53795,46000,978,461,462,0,-1
20210721,101226,54248,46000,978,453,453,0,0
20210722,101630,54650,46000,980,404,402,0,2
20210723,102042,55063,46000,979,412,413,0,-1
20210724,102612,55632,46000,980,570,569,0,1
20210725,102972,55992,46000,980,360,360,0,0
20210726,103239,56258,46000,981,267,266,0,1
20210727,103851,56869,46000,982,612,611,0,1
20210728,104495,57513,46000,982,644,644,0,0
20210729,105260,58278,46000,982,765,765,0,0
20210730,106008,59024,46000,984,748,746,0,2
20210731,106802,59818,46000,984,794,794,0,0
20210801,107321,60336,46000,985,519,518,0,1
20210802,107666,60682,46000,984,345,346,0,-1
20210803,108358,61374,46000,984,692,692,0,0
20210804,109230,62246,46000,984,872,872,0,0
20210805,109982,0,0,985,752,-62246,-46000,1
20210806,110720,0,0,986,738,0,0,1
20210807,110885,0,0,986,165,0,0,0
20210808,112207,0,0,991,1322,0,0,5
20210809,112656,0,0,991,449,0,0,0
20210810,113437,0,0,993,781,0,0,2
20210811,114281,0,0,995,844,0,0,2
20210812,115305,0,0,997,1024,0,0,2
20210813,116231,0,0,998,926,0,0,1
20210814,116996,0,0,1002,765,0,0,4
20210815,117531,0,0,1003,535,0,0,1
20210816,117982,0,0,1003,451,0,0,0
20210817,118647,0,0,1006,665,0,0,3
20210818,119320,0,0,1008,673,0,0,2
20210819,120186,0,0,1010,866,0,0,2
20210820,120870,0,0,1012,684,0,0,2
20210821,121543,0,0,1013,673,0,0,1
20210822,122046,0,0,1014,503,0,0,1
20210823,122417,0,0,1014,371,0,0,0
20210824,123061,0,0,1014,644,0,0,0
20210825,123635,0,0,1018,574,0,0,4
20210826,124285,0,0,1018,650,0,0,0
20210827,124855,0,0,1019,570,0,0,1
20210828,125474,0,0,1022,619,0,0,3
20210829,126093,0,0,1024,619,0,0,2
20210830,126565,0,0,1024,472,0,0,0
20210831,127182,0,0,1029,617,0,0,5
20210901,127861,0,0,1030,679,0,0,1
20210902,128544,0,0,1031,683,0,0,1
20210903,129105,0,0,1031,561,0,0,0
20210904,129192,0,0,1031,87,0,0,0
