date,infected,active,recovered,dead,deltaInfected,deltaActive,deltaRecovered,deltaDead
20200311,459,432,19,8,459,432,19,8
20200312,459,432,19,8,0,0,0,0
20200313,801,774,19,8,342,342,0,0
20200314,1143,1103,19,21,342,329,0,13
20200315,1144,1104,19,21,1,1,0,0
20200316,1551,1474,21,56,407,370,2,35
20200317,1960,1851,53,56,409,377,32,0
20200318,2642,2503,67,72,682,652,14,16
20200319,2716,2511,67,138,74,8,0,66
20200320,4014,3769,67,178,1298,1258,0,40
20200321,5067,4766,67,234,1053,997,0,56
20200322,5741,5364,95,282,674,598,28,48
20200323,6726,6250,140,336,985,886,45,54
20200324,8164,7601,140,423,1438,1351,0,87
20200325,9640,9034,140,466,1476,1433,0,43
20200326,11812,11082,150,580,2172,2048,10,114
20200327,14745,13833,151,761,2933,2751,1,181
20200328,17312,16140,151,1021,2567,2307,0,260
20200329,19780,18398,151,1231,2468,2258,0,210
20200330,22453,20871,171,1411,2673,2473,20,180
20200331,25481,23509,179,1793,3028,2638,8,382
20200401,29865,27329,179,2357,4384,3820,0,564
20200402,34173,31055,192,2926,4308,3726,13,569
20200403,38689,34870,208,3611,4516,3815,16,685
20200404,42477,37942,215,4320,3788,3072,7,709
20200405,48436,43264,229,4943,5959,5322,14,623
20200406,52279,46607,287,5385,3843,3343,58,442
20200407,55949,49453,325,6171,3670,2846,38,786
20200408,61474,54018,345,7111,5525,4565,20,940
20200409,65872,57520,359,7993,4398,3502,14,882
20200410,74605,65043,588,8974,8733,7523,229,981
20200411,79874,69360,622,9892,5269,4317,34,918
20200412,85206,73951,626,10629,5332,4591,4,737
20200413,89570,77919,304,11347,4364,3968,-322,718
20200414,94845,82393,323,12129,5275,4474,19,782
20200415,99483,86221,368,12894,4638,3828,45,765
20200416,104145,90011,375,13759,4662,3790,7,865
20200417,109769,94768,394,14607,5624,4757,19,848
20200418,115314,99402,414,15498,5545,4634,20,891
20200419,121172,104641,436,16095,5858,5239,22,597
20200420,125856,108860,446,16550,4684,4219,10,455
20200421,130172,112156,638,17378,4316,3296,192,828
20200422,134638,115804,683,18151,4466,3648,45,773
20200423,139246,119743,712,18791,4608,3939,29,640
20200424,144640,124349,724,19567,5394,4606,12,776
20200425,149569,128414,774,20381,4929,4065,50,814
20200426,154037,132465,778,20794,4468,4051,4,413
20200427,158348,136384,807,21157,4311,3919,29,363
20200428,162350,139792,813,21745,4002,3408,6,588
20200429,166441,139418,857,26166,4091,-374,44,4421
20200430,172481,144780,859,26842,6040,5362,2,676
20200501,178685,150210,892,27583,6204,5430,33,741
20200502,183500,154399,896,28205,4815,4189,4,622
20200503,187842,158421,901,28520,4342,4022,5,315
20200504,191832,162113,910,28809,3990,3692,9,289
20200505,196243,165816,926,29501,4411,3703,16,692
20200506,202359,171275,934,30150,6116,5459,8,649
20200507,207977,176318,970,30689,5618,5043,36,539
20200508,212629,180316,997,31316,4652,3998,27,627
20200509,216525,183862,1001,31662,3896,3546,4,346
20200510,220449,187517,1002,31930,3924,3655,1,268
20200511,224332,191176,1015,32141,3883,3659,13,211
20200512,227741,193949,1023,32769,3409,2773,8,628
20200513,230985,196689,1032,33264,3244,2740,9,495
20200514,234440,199704,1043,33693,3455,3015,11,429
20200515,238004,202879,1047,34078,3564,3175,4,385
20200516,241461,205857,1058,34546,3457,2978,11,468
20200517,244995,209221,1058,34716,3534,3364,0,170
20200518,247709,211743,1090,34876,2714,2522,32,160
20200519,250138,213617,1099,35422,2429,1874,9,546
20200520,249619,212717,1116,35786,-519,-900,17,364
20200521,252246,214988,1134,36124,2627,2271,18,338
20200522,255544,217927,1142,36475,3298,2939,8,351
20200523,258504,220598,1149,36757,2960,2671,7,282
20200524,260916,222890,1151,36875,2412,2292,2,118
20200525,262547,224390,1161,36996,1631,1500,10,121
20200526,266599,228308,1161,37130,4052,3918,0,134
20200527,268619,229911,1166,37542,2020,1603,5,412
20200528,270508,231422,1167,37919,1889,1511,1,377
20200529,272607,233192,1172,38243,2099,1770,5,324
20200530,274219,234574,1187,38458,1612,1382,15,215
20200531,276156,236395,1190,38571,1937,1821,3,113
20200601,277736,237388,1221,39127,1580,993,31,556
20200602,279392,238716,1224,39452,1656,1328,3,325
20200603,281270,240247,1212,39811,1878,1531,-12,359
20200604,283079,241873,1219,39987,1809,1626,7,176
20200605,284734,243162,1228,40344,1655,1289,9,357
20200606,286294,244516,1230,40548,1560,1354,2,204
20200607,287621,245757,1239,40625,1327,1241,9,77
20200608,288834,246899,1255,40680,1213,1142,16,55
20200609,290581,248356,1257,40968,1747,1457,2,288
20200610,291588,249106,1269,41213,1007,750,12,245
20200611,292860,250218,1278,41364,1272,1112,9,151
20200612,294402,251554,1282,41566,1542,1336,4,202
20200613,295828,252798,1283,41747,1426,1244,1,181
20200614,297342,254276,1283,41783,1514,1478,0,36
20200615,298315,255210,1284,41821,973,934,1,38
20200616,299600,256253,1293,42054,1285,1043,9,233
20200617,300717,257175,1304,42238,1117,922,11,184
20200618,301935,258249,1313,42373,1218,1074,9,135
20200619,303285,259420,1319,42546,1350,1171,6,173
20200620,304580,260587,1319,42674,1295,1167,0,128
20200621,305803,261767,1319,42717,1223,1180,0,43
20200622,306761,262708,1322,42731,958,941,3,14
20200623,307682,263341,1330,43011,921,633,8,280
20200624,308337,263827,1345,43165,655,486,15,154
20200625,309455,264780,1361,43314,1118,953,16,149
20200626,310836,265975,1363,43498,1381,1195,2,184
20200627,311727,266765,1364,43598,891,790,1,100
20200628,312640,267642,1364,43634,913,877,0,36
20200629,313470,268443,1368,43659,830,801,4,25
20200630,314160,268975,1370,43815,690,532,2,156
20200701,314992,269629,1372,43991,832,654,2,176
20200702,285268,239815,1373,44080,-29724,-29814,1,89
20200703,285787,240196,1375,44216,519,381,2,136
20200704,286412,240754,1375,44283,625,558,0,67
20200705,286931,241251,1375,44305,519,497,0,22
20200706,287290,241594,1375,44321,359,343,0,16
20200707,287874,242023,1375,44476,584,429,0,155
20200708,288511,242531,1378,44602,637,508,3,126
20200709,289154,243089,1378,44687,643,558,0,85
20200710,289678,243565,1378,44735,524,476,0,48
20200711,290504,244243,1378,44883,826,678,0,148
20200712,291154,244872,1378,44904,650,629,0,21
20200713,291691,245392,1384,44915,537,520,6,11
20200714,292931,246493,1385,45053,1240,1101,1,138
20200715,293469,246945,1386,45138,538,452,1,85
20200716,294116,247509,1403,45204,647,564,17,66
20200717,294803,248082,1403,45318,687,573,0,114
20200718,295632,248861,1413,45358,829,779,10,40
20200719,296358,249560,1413,45385,726,699,0,27
20200720,296944,250134,1413,45397,586,574,0,12
20200721,297389,250468,1414,45507,445,334,1,110
20200722,297952,250950,1416,45586,563,482,2,79
20200723,298731,251667,1425,45639,779,717,9,53
20200724,299500,252313,1425,45762,769,646,0,123
20200725,300270,253020,1427,45823,770,707,2,61
20200726,301020,253749,1434,45837,750,729,7,14
20200727,301708,254427,1437,45844,688,678,3,7
20200728,302295,254894,1438,45963,587,467,1,119
20200729,303063,255579,1438,46046,768,685,0,83
20200730,303910,256388,1438,46084,847,809,0,38
20200731,304793,257150,1439,46204,883,762,1,120
20200801,305572,257853,1441,46278,779,703,2,74
20200802,306319,258589,1444,46286,747,736,3,8
20200803,307251,259511,1445,46295,932,922,1,9
20200804,307926,260097,1445,46384,675,586,0,89
20200805,308832,260937,1446,46449,906,840,1,65
20200806,309796,261851,1447,46498,964,914,1,49
20200807,310696,262653,1447,46596,900,802,0,98
20200808,311461,263361,1449,46651,765,708,2,55
20200809,312574,264464,1451,46659,1113,1103,2,8
20200810,313392,265318,1463,46611,818,854,12,-48
20200811,313394,265319,1464,46611,2,1,1,0
20200812,315581,267318,1472,46791,2187,1999,8,180
20200813,315600,267330,1479,46791,19,12,7,0
20200814,315621,267349,1481,46791,21,19,2,0
20200815,319232,270955,1486,46791,3611,3606,5,0
20200816,320343,272066,1486,46791,1111,1111,0,0
20200817,321064,278120,1490,41454,721,6054,4,-5337
20200818,322177,279218,1493,41466,1113,1098,3,12
20200819,323008,280030,1495,41483,831,812,2,17
20200820,324203,281170,1544,41489,1195,1140,49,6
20200821,325263,282228,1544,41491,1060,1058,0,2
20200822,326595,283539,1547,41509,1332,1311,3,18
20200823,327643,284581,1547,41515,1048,1042,0,6
20200824,328620,285551,1550,41519,977,970,3,4
20200825,329821,286735,1551,41535,1201,1184,1,16
20200826,330967,287864,1551,41552,1146,1129,0,17
20200827,332509,289381,1564,41564,1542,1517,13,12
20200828,333806,290618,1615,41573,1297,1237,51,9
20200829,334916,291709,1622,41585,1110,1091,7,12
20200830,336668,293458,1624,41586,1752,1749,2,1
20200831,338083,294812,1682,41589,1415,1354,58,3
20200901,339415,296114,1709,41592,1332,1302,27,3
20200902,340929,297585,1742,41602,1514,1471,33,10
20200903,342708,299342,1750,41616,1779,1757,8,14
20200904,344686,301304,1756,41626,1978,1962,6,10
20200905,346513,303069,1806,41638,1827,1765,50,12
20200906,349500,306036,1824,41640,2987,2967,18,2
20200907,352453,308984,1824,41643,2953,2948,0,3
20200908,354934,311430,1827,41675,2481,2446,3,32
20200909,357615,314099,1833,41683,2681,2669,6,8
20200910,360546,317002,1847,41697,2931,2903,14,14
20200911,364090,320518,1850,41703,3544,3516,3,6
20200912,367594,324000,1882,41712,3504,3482,32,9
20200913,370932,327067,2148,41717,3338,3067,266,5
20200914,373557,329677,2154,41726,2625,2610,6,9
20200915,376672,332733,2186,41753,3115,3056,32,27
20200916,380679,336714,2192,41773,4007,3981,6,20
20200917,384089,340092,2203,41794,3410,3378,11,21
20200918,388418,344382,2215,41821,4329,4290,12,27
20200919,392847,348770,2229,41848,4429,4388,14,27
20200920,396746,352650,2230,41866,3899,3880,1,18
20200921,401124,357017,2230,41877,4378,4367,0,11
20200922,406060,361906,2240,41951,4936,4889,10,74
20200923,412247,368047,2249,41951,6187,6141,9,0
20200924,418891,374616,2284,41991,6644,6569,35,40
20200925,425769,381439,2305,42025,6878,6823,21,34
20200926,431819,387424,2335,42060,6050,5985,30,35
20200927,437519,393101,2341,42077,5700,5677,6,17
20200928,441575,397131,2354,42090,4056,4030,13,13
20200929,448731,404199,2370,42162,7156,7068,16,72
20200930,455848,411240,2375,42233,7117,7041,5,71
20201001,462777,418100,2385,42292,6929,6860,10,59
20201002,469771,425022,2391,42358,6994,6922,6,66
20201003,482656,437851,2398,42407,12885,12829,7,49
20201004,505621,460776,2405,42440,22965,22925,7,33
20201005,518224,473354,2411,42459,12603,12578,6,19
20201006,532781,487827,2419,42535,14557,14473,8,76
20201007,546954,501922,2427,42605,14173,14095,8,70
20201008,564504,519346,2476,42682,17550,17424,49,77
20201009,578392,533133,2490,42769,13888,13787,14,87
20201010,593567,548220,2497,42850,15175,15087,7,81
20201011,606449,561029,2505,42915,12882,12809,8,65
20201012,620460,574982,2513,42965,14011,13953,8,50
20201013,637710,592065,2537,43108,17250,17083,24,143
20201014,657461,611663,2553,43245,19751,19598,16,137
20201015,676457,630511,2563,43383,18996,18848,10,138
20201016,692114,646028,2567,43519,15657,15517,4,136
20201017,708300,662057,2574,43669,16186,16029,7,150
20201018,725294,678967,2591,43736,16994,16910,17,67
20201019,744124,697693,2615,43816,18830,18726,24,80
20201020,765489,718804,2628,44057,21365,21111,13,241
20201021,792196,745310,2638,44248,26707,26506,10,191
20201022,813453,766362,2654,44437,21257,21052,16,189
20201023,834012,786692,2659,44661,20559,20330,5,224
20201024,857045,809532,2678,44835,23033,22840,19,174
20201025,876842,829169,2687,44986,19797,19637,9,151
20201026,897742,849950,2704,45088,20900,20781,17,102
20201027,920666,872490,2721,45455,22924,22540,17,367
20201028,945380,896840,2775,45765,24714,24350,54,310
20201029,968458,919612,2801,46045,23078,22772,26,280
20201030,992876,943744,2813,46319,24418,24132,12,274
20201031,1014795,965309,2841,46645,21919,21565,28,326
20201101,1038056,988406,2843,46807,23261,23097,2,162
20201102,1057023,1007228,2852,46943,18967,18822,9,136
20201103,1077101,1026853,2908,47340,20078,19625,56,397
20201104,1102307,1051548,2927,47832,25206,24695,19,492
20201105,1126471,1075328,2933,48210,24164,23780,6,378
20201106,1149793,1098275,2953,48565,23322,22947,20,355
20201107,1174772,1122827,2967,48978,24979,24552,14,413
20201108,1195352,1143233,2985,49134,20580,20406,18,156
20201109,1216749,1164420,3000,49329,21397,21187,15,195
20201110,1237200,1184329,3010,49861,20451,19909,10,532
20201111,1260200,1206723,3020,50457,23000,22394,10,596
20201112,1293717,1239664,3033,51020,33517,32941,13,563
20201113,1321033,1266546,3091,51396,27316,26882,58,376
20201114,1347909,1292941,3110,51858,26876,26395,19,462
20201115,1372886,1317737,3123,52026,24977,24796,13,168
20201116,1394302,1338924,3137,52240,21416,21187,14,214
20201117,1414362,1358372,3150,52839,20060,19448,13,599
20201118,1434007,1377430,3209,53368,19645,19058,59,529
20201119,1456943,1399828,3245,53870,22936,22398,36,502
20201120,1477217,1419573,3263,54381,20274,19745,18,511
20201121,1497138,1439104,3313,54721,19921,19531,50,340
20201122,1515805,1457360,3325,55120,18667,18256,12,399
20201123,1531270,1472607,3336,55327,15465,15247,11,207
20201124,1542614,1483271,3408,55935,11344,10664,72,608
20201125,1560875,1500797,3448,56630,18261,17526,40,695
20201126,1578432,1517847,3457,57128,17557,17050,9,498
20201127,1593253,1532140,3465,57648,14821,14293,8,520
20201128,1609144,1547514,3503,58127,15891,15374,38,479
20201129,1621308,1559449,3517,58342,12164,11935,14,215
20201130,1633736,1571618,3573,58545,12428,12169,56,203
20201201,1647233,1584493,3592,59148,13497,12875,19,603
20201202,1663470,1600069,3605,59796,16237,15576,13,648
20201203,1678421,1614585,3626,60210,14951,14516,21,414
20201204,1694803,1630449,3640,60714,16382,15864,14,504
20201205,1710382,1645618,3653,61111,15579,15169,13,397
20201206,1727754,1662673,3739,61342,17372,17055,86,231
20201207,1742528,1677247,3750,61531,14774,14574,11,189
20201208,1754914,1689016,3768,62130,12386,11769,18,599
20201209,1771548,1705104,3781,62663,16634,16088,13,533
20201210,1792614,1725645,3790,63179,21066,20541,9,516
20201211,1814398,1746993,3802,63603,21784,21348,12,424
20201212,1835952,1768021,3808,64123,21554,21028,6,520
20201213,1854493,1786210,4016,64267,18541,18189,208,144
20201214,1874870,1806319,4051,64500,20377,20109,35,233
20201215,1893439,1824337,4096,65006,18569,18018,45,506
20201216,1918739,1849006,4109,65618,25300,24669,13,612
20201217,1954271,1883995,4126,66150,35532,34989,17,532
20201218,1982831,1911924,4267,66640,28560,27929,141,490
20201219,2010080,1938546,4357,67177,27249,26622,90,537
20201220,2046164,1974283,4378,67503,36084,35737,21,326
20201221,2079681,2007574,4389,67718,33517,33291,11,215
20201222,2116612,2043791,4412,68409,36931,36217,23,691
20201223,2155999,2082116,4726,69157,39387,38325,314,748
20201224,2195148,2120591,4824,69732,39149,38475,98,575
20201225,2227951,2152823,4825,70302,32803,32232,1,570
20201226,2262739,2187312,4913,70513,34788,34489,88,211
20201227,2295232,2219275,5096,70860,32493,31963,183,347
20201228,2336692,2260369,5105,71217,41460,41094,9,357
20201229,2389967,2312994,5297,71675,53275,52625,192,458
20201230,2440206,2362131,5417,72657,50239,49137,120,982
20201231,2496235,2417130,5482,73622,56029,54999,65,965
20210101,2549693,2469773,5682,74237,53458,52643,200,615
20210102,2607546,2527116,5747,74682,57853,57343,65,445
20210103,2662703,2581468,6097,75137,55157,54352,350,455
20210104,2721626,2639815,6263,75547,58923,58347,166,410
20210105,2782713,2699898,6386,76428,61087,60083,123,881
20210106,2845269,2761347,6452,77470,62556,61449,66,1042
20210107,2898056,2812900,6524,78632,52787,51553,72,1162
20210108,2966248,2879581,6702,79965,68192,66681,178,1333
20210109,3026346,2938491,6855,81000,60098,58910,153,1035
20210110,3081372,2992792,7013,81567,55026,54301,158,567
20210111,3127647,3038398,7153,82096,46275,45606,140,529
20210112,3173295,3082601,7352,83342,45648,44203,199,1246
20210113,3220957,3128613,7434,84910,47662,46012,82,1568
20210114,3269761,3176014,7584,86163,48804,47401,150,1253
20210115,3325646,3230503,7695,87448,55885,54489,111,1285
20210116,3367074,3270461,7866,88747,41428,39958,171,1299
20210117,3405744,3308269,8046,89429,38670,37808,180,682
20210118,3443354,3345073,8250,90031,37610,36804,204,602
20210119,3476808,3376798,8367,91643,33454,31725,117,1612
20210120,3515800,3413835,8496,93469,38992,37037,129,1826
20210121,3553777,3450427,8585,94765,37977,36592,89,1296
20210122,3594098,3489250,8682,96166,40321,38823,97,1401
20210123,3627750,3521402,8830,97518,33652,32152,148,1352
20210124,3657861,3550782,8950,98129,30111,29380,120,611
20210125,3680105,3572342,9040,98723,22244,21560,90,594
20210126,3700272,3590749,9164,100359,20167,18407,124,1636
20210127,3725641,3614306,9250,102085,25369,23557,86,1726
20210128,3754452,3641775,9353,103324,28811,27469,103,1239
20210129,3783597,3669587,9408,104572,29145,27812,55,1248
20210130,3806997,3691646,9584,105777,23400,22059,176,1205
20210131,3828187,3712164,9656,106367,21190,20518,72,590
20210201,3846855,3730326,9739,106774,18668,18162,83,407
20210202,3863761,3745640,9822,108225,16906,15314,83,1451
20210203,3882976,3763530,9940,109547,19215,17890,118,1322
20210204,3903710,3783264,10015,110462,20734,19734,75,915
20210205,3922914,3801382,10098,111477,19204,18118,83,1015
20210206,3941277,3818786,10186,112305,18363,17404,88,828
20210207,3957181,3834226,10274,112681,15904,15440,88,376
20210208,3971319,3847978,10327,113014,14138,13752,53,333
20210209,3983760,3859263,10431,114066,12441,11285,104,1052
20210210,3996837,3871270,10499,115068,13077,12007,68,1002
20210211,4010380,3884030,10602,115748,13543,12760,103,680
20210212,4025578,3898412,10659,116507,15198,14382,57,759
20210213,4038933,3910951,10854,117128,13355,12539,195,621
20210214,4049924,3921619,10918,117387,10991,10668,64,259
20210215,4059700,3931115,10963,117622,9776,9496,45,235
20210216,4070336,3940889,11026,118421,10636,9774,63,799
20210217,4083096,3952834,11103,119159,12760,11945,77,738
20210218,4095191,3964413,11164,119614,12095,11579,61,455
20210219,4107290,3975889,11254,120147,12099,11476,90,533
20210220,4117743,3985853,11297,120593,10453,9964,43,446
20210221,4127578,3995453,11315,120810,9835,9600,18,217
20210222,4138237,4005903,11346,120988,10659,10450,31,178
20210223,4146760,4013767,11457,121536,8523,7864,111,548
20210224,4156707,4023254,11474,121979,9947,9487,17,443
20210225,4166727,4032920,11504,122303,10020,9666,30,324
20210226,4175315,4041088,11579,122648,8588,8168,75,345
20210227,4182772,4048231,11602,122939,7457,7143,23,291
20210228,4188827,4054101,11643,123083,6055,5870,41,144
20210301,4194289,4059456,11646,123187,5462,5355,3,104
20210302,4200700,4065508,11662,123530,6411,6052,16,343
20210303,4207120,4071362,11741,124017,6420,5854,79,487
20210304,4213764,4077710,11795,124259,6644,6348,54,242
20210305,4219788,4083459,11834,124495,6024,5749,39,236
20210306,4225906,4089403,11849,124654,6118,5944,15,159
20210307,4231166,4094579,11851,124736,5260,5176,2,82
20210308,4235989,4099335,11853,124801,4823,4756,2,65
20210309,4241858,4104959,11868,125032,5869,5624,15,231
20210310,4247879,4110734,11923,125222,6021,5775,55,190
20210311,4254714,4117367,11944,125403,6835,6633,21,181
20210312,4261398,4123872,11947,125579,6684,6505,3,176
20210313,4267015,4129365,11949,125701,5617,5493,2,122
20210314,4271710,4133985,11972,125753,4695,4620,23,52
20210315,4276840,4139026,11997,125817,5130,5041,25,64
20210316,4282203,4144263,12013,125927,5363,5237,16,110
20210317,4287996,4149875,12053,126068,5793,5612,40,141
20210318,4294328,4156079,12086,126163,6332,6204,33,95
20210319,4299200,4160807,12130,126263,4872,4728,44,100
20210320,4304839,4166313,12167,126359,5639,5506,37,96
20210321,4310195,4171626,12176,126393,5356,5313,9,34
20210322,4315602,4176966,12225,126411,5407,5340,49,18
20210323,4321019,4182113,12383,126523,5417,5147,158,112
20210324,4326645,4187627,12397,126621,5626,5514,14,98
20210325,4332922,4193675,12563,126684,6277,6048,166,63
20210326,4339157,4199835,12567,126755,6235,6160,4,71
20210327,4343066,4203541,12712,126813,3909,3706,145,58
20210328,4347013,4207405,12774,126834,3947,3864,62,21
20210329,4351796,4212071,12868,126857,4783,4666,94,23
20210330,4355867,4216025,12930,126912,4071,3954,62,55
20210331,4359982,4219954,13073,126955,4115,3929,143,43
20210401,4364547,4224452,13089,127006,4565,4498,16,51
20210402,4367969,4227721,13190,127058,3422,3269,101,52
20210403,4371393,4231103,13222,127068,3424,3382,32,10
20210404,4373798,4233466,13254,127078,2405,2363,32,10
20210405,4376629,4236227,13296,127106,2831,2761,42,28
20210406,4379033,4238562,13345,127126,2404,2335,49,20
20210407,4381830,4241268,13391,127171,2797,2706,46,45
20210408,4384954,4244295,13435,127224,3124,3027,44,53
20210409,4380167,4239416,13467,127284,-4787,-4879,32,60
20210410,4382880,4242062,13494,127324,2713,2646,27,40
20210411,4384610,4243785,13494,127331,1730,1723,0,7
20210412,4388296,4247342,13608,127346,3686,3557,114,15
20210413,4390801,4249772,13660,127369,2505,2430,52,23
20210414,4393330,4252248,13675,127407,2529,2476,15,38
20210415,4396096,4254804,13854,127438,2766,2556,179,31
20210416,4398903,4257494,13937,127472,2807,2690,83,34
20210417,4401176,4259685,13983,127508,2273,2191,46,36
20210418,4403060,4261555,13987,127518,1884,1870,4,10
20210419,4406114,4264550,14040,127524,3054,2995,53,6
20210420,4408644,4267033,14054,127557,2530,2483,14,33
20210421,4411068,4269387,14104,127577,2424,2354,50,20
20210422,4413834,4272042,14195,127597,2766,2655,91,20
20210423,4416588,4274669,14281,127638,2754,2627,86,41
20210424,4418710,4276652,14388,127670,2122,1983,107,32
20210425,4420443,4278310,14452,127681,1733,1658,64,11
20210426,4422562,4280322,14552,127688,2119,2012,100,7
20210427,4425259,4282987,14567,127705,2697,2665,15,17
20210428,4427390,4285040,14620,127734,2131,2053,53,29
20210429,4429849,4287436,14658,127759,2459,2396,38,25
20210430,4432246,4289792,14683,127775,2397,2356,25,16
20210501,4434157,4291691,14684,127782,1911,1899,1,7
20210502,4435831,4293351,14684,127796,1674,1660,0,14
20210503,4437505,4295024,14684,127797,1674,1673,0,1
20210504,4439489,4296847,14839,127803,1984,1823,155,6
20210505,4441644,4298917,14897,127830,2155,2070,58,27
20210506,4444262,4301458,14961,127843,2618,2541,64,13
20210507,4446752,4303933,14961,127858,2490,2475,0,15
20210508,4448808,4305934,15011,127863,2056,2001,50,5
20210509,4450578,4307702,15011,127865,1770,1768,0,2
20210510,4452956,4309998,15088,127870,2378,2296,77,5
20210511,4455446,4312409,15147,127890,2490,2411,59,20
20210512,4457742,4314683,15158,127901,2296,2274,11,11
20210513,4460405,4317292,15201,127912,2663,2609,43,11
20210514,4462603,4319459,15214,127930,2198,2167,13,18
20210515,4464663,4321472,15254,127937,2060,2013,40,7
20210516,4466589,4323390,15258,127941,1926,1918,4,4
20210517,4468582,4325344,15292,127946,1993,1954,34,5
20210518,4466220,4322948,15319,127953,-2362,-2396,27,7
20210519,4468366,4325070,15340,127956,2146,2122,21,3
20210520,4471065,4327695,15407,127963,2699,2625,67,7
20210521,4473773,4330374,15427,127972,2708,2679,20,9
20210522,4476297,4332892,15427,127978,2524,2518,0,6
20210523,4478390,4334980,15427,127983,2093,2088,0,5
20210524,4480760,4337329,15445,127986,2370,2349,18,3
20210525,4483177,4339723,15453,128001,2417,2394,8,15
20210526,4486168,4342681,15477,128010,2991,2958,24,9
20210527,4489552,4346052,15480,128020,3384,3371,3,10
20210528,4493582,4350072,15480,128030,4030,4020,0,10
20210529,4496823,4353305,15481,128037,3241,3233,1,7
20210530,4499937,4356408,15486,128043,3114,3103,5,6
20210531,4503231,4359679,15507,128045,3294,3271,21,2
20210601,4506333,4362780,15508,128045,3102,3101,1,0
20210602,4510597,4367026,15514,128057,4264,4246,6,12
20210603,4515778,4372186,15517,128075,5181,5160,3,18
20210604,4521922,4378312,15524,128086,6144,6126,7,11
20210605,4527577,4383950,15528,128099,5655,5638,4,13
20210606,4532802,4389167,15532,128103,5225,5217,4,4
20210607,4538399,4394757,15538,128104,5597,5590,6,1
20210608,4544372,4400715,15539,128118,5973,5958,1,14
20210609,4551694,4408030,15540,128124,7322,7315,1,6
20210610,4558933,4415259,15543,128131,7239,7229,3,7
20210611,4566893,4423202,15543,128148,7960,7943,0,17
20210612,4574445,4430741,15544,128160,7552,7539,1,12
20210613,4581779,4438060,15551,128168,7334,7319,7,8
20210614,4589400,4445667,15562,128171,7621,7607,11,3
20210615,4596994,4453251,15562,128181,7594,7584,0,10
20210616,4605805,4462052,15563,128190,8811,8801,1,9
20210617,4616628,4472818,15601,128209,10823,10766,38,19
20210618,4626915,4483088,15607,128220,10287,10270,6,11
20210619,4636991,4493148,15609,128234,10076,10060,2,14
20210620,4646068,4502218,15610,128240,9077,9070,1,6
20210621,4656536,4512679,15612,128245,10468,10461,2,5
20210622,4668043,4524155,15616,128272,11507,11476,4,27
20210623,4683986,4539990,15705,128291,15943,15835,89,19
20210624,4700691,4556667,15712,128312,16705,16677,7,21
20210625,4716065,4572017,15718,128330,15374,15350,6,18
20210626,4734011,4589940,15718,128353,17946,17923,0,23
20210627,4748644,4604558,15722,128364,14633,14618,4,11
20210628,4771367,4627271,15729,128367,22723,22713,7,3
20210629,4791628,4647504,15734,128390,20261,20233,5,23
20210630,4817298,4673158,15736,128404,25670,25654,2,14
20210701,4844944,4700765,15753,128426,27646,27607,17,22
20210702,4871807,4727599,15755,128453,26863,26834,2,27
20210703,4896272,4752039,15762,128471,24465,24440,7,18
20210704,4920168,4775908,15774,128486,23896,23869,12,15
20210705,4947274,4803002,15777,128495,27106,27094,3,9
20210706,4975903,4831504,15867,128532,28629,28502,90,37
20210707,5007964,4863854,15870,128565,32061,32350,3,33
20210708,5040060,4895571,15888,128601,32096,31717,18,36
20210709,5075945,4931426,15888,128631,35885,35855,0,30
20210710,5107780,4963223,15892,128665,31835,31797,4,34
20210711,5139162,4994568,15903,128691,31382,31345,11,26
20210712,5173972,5029284,15991,128697,34810,34716,88,6
20210713,5210472,5065856,16007,128747,36500,36572,16,50
20210714,5252655,5108002,16127,128797,42183,42146,120,50
20210715,5301296,5156299,16133,128864,48641,48297,6,67
20210716,5353245,5208112,16220,128913,51949,51813,87,49
20210717,5407428,5262039,16429,128960,54183,53927,209,47
20210718,5455276,5309858,16430,128988,47848,47819,1,28
20210719,5495947,5350453,16487,129007,40671,40595,57,19
20210720,5542635,5396840,16686,129109,46688,46387,199,102
20210721,5586716,5440501,17033,129182,44081,43661,347,73
20210722,5626745,5480189,17290,129266,40029,39688,257,84
20210723,5662838,5516058,17450,129330,36093,35869,160,64
20210724,5694462,5546828,18216,129418,31624,30770,766,88
20210725,5723399,5575727,18226,129446,28937,28899,10,28
20210726,5748331,5600325,18546,129460,24932,24598,320,14
20210727,5771732,5622779,18908,129591,23401,22454,362,131
20210728,5797445,5647449,19724,129718,25713,24670,816,127
20210729,5828316,5677554,20638,129809,30871,30105,914,91
20210730,5857639,5706375,20919,129877,29323,28821,281,68
20210731,5883421,5731831,20928,129949,25782,25456,9,72
20210801,5907594,5755841,21083,130014,24173,24010,155,65
20210802,5929881,5775890,22633,130039,22287,20049,1550,25
20210803,5951736,5797188,24369,130179,21855,21298,1736,140
20210804,5980887,5825894,24693,130300,29151,28706,324,121
20210805,6010896,0,0,130390,30009,-5825894,-24693,90
20210806,6042529,0,0,130482,31633,0,0,92
20210807,6070873,0,0,130585,28344,0,0,103
20210808,6098117,0,0,130630,27244,0,0,45
20210809,6123173,0,0,130667,25056,0,0,37
20210810,6146642,0,0,130813,23469,0,0,146
20210811,6176023,0,0,130921,29381,0,0,108
20210812,6208908,0,0,131016,32885,0,0,95
20210813,6241447,0,0,131116,32539,0,0,100
20210814,6270673,0,0,131210,29226,0,0,94
20210815,6297157,0,0,131269,26484,0,0,59
20210816,6325515,0,0,131296,28358,0,0,27
20210817,6352224,0,0,131466,26709,0,0,170
20210818,6385982,0,0,131577,33758,0,0,111
20210819,6422515,0,0,131691,36533,0,0,114
20210820,6459643,0,0,131805,37128,0,0,114
20210821,6491529,0,0,131909,31886,0,0,104
20210822,6523563,0,0,131958,32034,0,0,49
20210823,6555419,0,0,132000,31856,0,0,42
20210824,6586181,0,0,132174,30762,0,0,174
20210825,6621799,0,0,132323,35618,0,0,149
20210826,6659916,0,0,132465,38117,0,0,142
20210827,6697770,0,0,132566,37854,0,0,101
20210828,6729912,0,0,132699,32142,0,0,133
20210829,6762904,0,0,132760,32992,0,0,61
20210830,6789189,0,0,132808,26285,0,0,48
20210831,6821356,0,0,132859,32167,0,0,51
20210901,6856933,0,0,133066,35577,0,0,207
20210902,6894915,0,0,133244,37982,0,0,178
20210903,6937270,0,0,133365,42355,0,0,121
20210904,6973995,0,0,133485,36725,0,0,120
