date,infected,active,recovered,dead,deltaInfected,deltaActive,deltaRecovered,deltaDead
20200304,2,2,0,0,2,2,0,0
20200305,2,2,0,0,0,0,0,0
20200306,2,2,0,0,0,0,0,0
20200307,4,4,0,0,2,2,0,0
20200308,7,7,0,0,3,3,0,0
20200309,9,9,0,0,2,2,0,0
20200310,9,9,0,0,0,0,0,0
20200311,13,13,0,0,4,4,0,0
20200312,13,13,0,0,0,0,0,0
20200313,19,19,0,0,6,6,0,0
20200314,30,29,1,0,11,10,1,0
20200315,32,30,1,1,2,1,0,1
20200316,39,37,1,1,7,7,0,0
20200317,50,47,2,1,11,10,1,0
20200318,58,55,2,1,8,8,0,0
20200319,73,70,2,1,15,15,0,0
20200320,85,80,2,3,12,10,0,2
20200321,103,92,7,4,18,12,5,1
20200322,131,109,16,6,28,17,9,2
20200323,167,144,16,7,36,35,0,1
20200324,187,157,21,9,20,13,5,2
20200325,226,195,21,10,39,38,0,1
20200326,261,223,28,10,35,28,7,0
20200327,300,256,34,10,39,33,6,0
20200328,343,298,34,11,43,42,0,1
20200329,408,361,34,13,65,63,0,2
20200330,447,398,34,15,39,37,0,2
20200331,492,439,37,16,45,41,3,1
20200401,525,465,40,20,33,26,3,4
20200402,585,522,42,21,60,57,2,1
20200403,623,554,43,26,38,32,1,5
20200404,678,588,58,32,55,34,15,6
20200405,733,633,66,34,55,45,8,2
20200406,744,639,67,38,11,6,1,4
20200407,817,699,71,47,73,60,4,9
20200408,895,743,94,58,78,44,23,11
20200409,980,818,96,66,85,75,2,8
20200410,1190,1001,112,77,210,183,16,11
20200411,1310,1110,115,85,120,109,3,8
20200412,1410,1193,118,99,100,83,3,14
20200413,1458,1229,120,109,48,36,2,10
20200414,1512,1268,122,122,54,39,2,13
20200415,1579,1253,192,134,67,-15,70,12
20200416,1652,1311,199,142,73,58,7,8
20200417,1763,1400,207,156,111,89,8,14
20200418,1834,1431,231,172,71,31,24,16
20200419,1916,1477,250,189,82,46,19,17
20200420,1984,1518,267,199,68,41,17,10
20200421,2098,1598,287,213,114,80,20,14
20200422,2168,1648,295,225,70,50,8,12
20200423,2284,1655,390,239,116,7,95,14
20200424,2443,1723,458,262,159,68,68,23
20200425,2443,1723,458,262,0,0,0,0
20200426,2500,1743,485,272,57,20,27,10
20200427,2583,1805,498,280,83,62,13,8
20200428,2649,1842,516,291,66,37,18,11
20200429,2727,1891,536,300,78,49,20,9
20200430,2775,1882,581,312,48,-9,45,12
20200501,2863,1931,609,323,88,49,28,11
20200502,2942,1982,625,335,79,51,16,12
20200503,2998,2029,629,340,56,47,4,5
20200504,3035,2054,630,351,37,25,1,11
20200505,3065,1993,709,363,30,-61,79,12
20200506,3111,1979,759,373,46,-14,50,10
20200507,3150,1966,801,383,39,-13,42,10
20200508,3178,1921,865,392,28,-45,64,9
20200509,3213,1904,904,405,35,-17,39,13
20200510,3263,1917,933,413,50,13,29,8
20200511,3284,1905,958,421,21,-12,25,8
20200512,3313,1881,1007,425,29,-24,49,4
20200513,3341,1809,1102,430,28,-72,95,5
20200514,3380,1775,1169,436,39,-34,67,6
20200515,3417,1688,1287,442,37,-87,118,6
20200516,3473,1654,1371,448,56,-34,84,6
20200517,3509,1662,1396,451,36,8,25,3
20200518,3535,1673,1400,462,26,11,4,11
20200519,3556,1677,1412,467,21,4,12,5
20200520,3598,1674,1454,470,42,-3,42,3
20200521,3641,1659,1509,473,43,-15,55,3
20200522,3678,1615,1587,476,37,-44,78,3
20200523,3713,1576,1655,482,35,-39,68,6
20200524,3741,1565,1690,486,28,-11,35,4
20200525,3756,1554,1711,491,15,-11,21,5
20200526,3771,1436,1836,499,15,-118,125,8
20200527,3793,1432,1856,505,22,-4,20,6
20200528,3816,1311,1996,509,23,-121,140,4
20200529,3841,1300,2024,517,25,-11,28,8
20200530,3867,1201,2142,524,26,-99,118,7
20200531,3876,1203,2147,526,9,2,5,2
20200601,3892,1209,2156,527,16,6,9,1
20200602,3921,1229,2160,532,29,20,4,5
20200603,3931,1207,2190,534,10,-22,30,2
20200604,3954,1210,2205,539,23,3,15,5
20200605,3970,1183,2245,542,16,-27,40,3
20200606,3990,1166,2279,545,20,-17,34,3
20200607,4008,1183,2279,546,18,17,0,1
20200608,4014,1182,2284,548,6,-1,5,2
20200609,4017,1143,2324,550,3,-39,40,2
20200610,4027,1121,2355,551,10,-22,31,1
20200611,4039,1095,2391,553,12,-26,36,2
20200612,4053,1051,2447,555,14,-44,56,2
20200613,4064,1029,2476,559,11,-22,29,4
20200614,4069,1025,2482,562,5,-4,6,3
20200615,4076,1028,2485,563,7,3,3,1
20200616,4077,996,2516,565,1,-32,31,2
20200617,4078,964,2547,567,1,-32,31,2
20200618,4079,947,2564,568,1,-17,17,1
20200619,4081,932,2581,568,2,-15,17,0
20200620,4086,931,2585,570,5,-1,4,2
20200621,4094,935,2589,570,8,4,4,0
20200622,4102,940,2590,572,8,5,1,2
20200623,4107,934,2600,573,5,-6,10,1
20200624,4114,920,2618,576,7,-14,18,3
20200625,4123,906,2640,577,9,-14,22,1
20200626,4127,886,2663,578,4,-20,23,1
20200627,4138,879,2681,578,11,-7,18,0
20200628,4142,876,2685,581,4,-3,4,3
20200629,4145,875,2685,585,3,-1,0,4
20200630,4155,878,2692,585,10,3,7,0
20200701,4157,857,2714,586,2,-21,22,1
20200702,4166,858,2721,587,9,1,7,1
20200703,4172,832,2752,588,6,-26,31,1
20200704,4174,801,2784,589,2,-31,32,1
20200705,4183,783,2811,589,9,-18,27,0
20200706,4189,740,2860,589,6,-43,49,0
20200707,4205,742,2874,589,16,2,14,0
20200708,4210,736,2885,589,5,-6,11,0
20200709,4220,742,2887,591,10,6,2,2
20200710,4223,689,2941,593,3,-53,54,2
20200711,4229,660,2974,595,6,-29,33,2
20200712,4234,603,3036,595,5,-57,62,0
20200713,4247,579,3073,595,13,-24,37,0
20200714,4258,557,3106,595,11,-22,33,0
20200715,4263,542,3126,595,5,-15,20,0
20200716,4279,528,3156,595,16,-14,30,0
20200717,4293,478,3220,595,14,-50,64,0
20200718,4315,497,3222,596,22,19,2,1
20200719,4333,514,3223,596,18,17,1,0
20200720,4339,511,3232,596,6,-3,9,0
20200721,4347,494,3257,596,8,-17,25,0
20200722,4366,487,3283,596,19,-7,26,0
20200723,4380,484,3300,596,14,-3,17,0
20200724,4398,490,3312,596,18,6,12,0
20200725,4424,504,3324,596,26,14,12,0
20200726,4435,510,3329,596,11,6,5,0
20200727,4448,523,3329,596,13,13,0,0
20200728,4456,529,3331,596,8,6,2,0
20200729,4465,530,3339,596,9,1,8,0
20200730,4484,542,3346,596,19,12,7,0
20200731,4505,556,3353,596,21,14,7,0
20200801,4526,565,3364,597,21,9,11,1
20200802,4535,549,3389,597,9,-16,25,0
20200803,4544,534,3413,597,9,-15,24,0
20200804,4553,540,3415,598,9,6,2,1
20200805,4564,534,3431,599,11,-6,16,1
20200806,4597,534,3463,600,33,0,32,1
20200807,4621,555,3464,602,24,21,1,2
20200808,4653,560,3491,602,32,5,27,0
20200809,4696,595,3499,602,43,35,8,0
20200810,4731,601,3525,605,35,6,26,3
20200811,4746,614,3527,605,15,13,2,0
20200812,4768,634,3529,605,22,20,2,0
20200813,4813,645,3561,607,45,11,32,2
20200814,4853,656,3590,607,40,11,29,0
20200815,4877,664,3606,607,24,8,16,0
20200816,4916,685,3623,608,39,21,17,1
20200817,4946,708,3630,608,30,23,7,0
20200818,4970,730,3631,609,24,22,1,1
20200819,5002,728,3665,609,32,-2,34,0
20200820,5046,759,3678,609,44,31,13,0
20200821,5098,806,3681,611,52,47,3,2
20200822,5133,830,3692,611,35,24,11,0
20200823,5155,847,3695,613,22,17,3,2
20200824,5191,883,3695,613,36,36,0,0
20200825,5215,885,3716,614,24,2,21,1
20200826,5288,940,3734,614,73,55,18,0
20200827,5379,1008,3757,614,91,68,23,0
20200828,5511,1138,3759,614,132,130,2,0
20200829,5669,1296,3759,614,158,158,0,0
20200830,5961,1588,3759,614,292,292,0,0
20200831,6139,1763,3761,615,178,175,2,1
20200901,6257,1820,3821,616,118,57,60,1
20200902,6622,2100,3903,619,365,280,82,3
20200903,6923,2373,3930,620,301,273,27,1
20200904,7382,2817,3944,621,459,444,14,1
20200905,7892,3316,3952,624,510,499,8,3
20200906,8387,3805,3958,624,495,489,6,0
20200907,8963,4377,3961,625,576,572,3,1
20200908,9304,4706,3972,626,341,329,11,1
20200909,9715,5103,3984,628,411,397,12,2
20200910,10191,5571,3990,630,476,468,6,2
20200911,10909,6264,4014,631,718,693,24,1
20200912,11825,7134,4058,633,916,870,44,2
20200913,12309,7603,4069,637,484,469,11,4
20200914,13153,8394,4117,642,844,791,48,5
20200915,13879,9103,4130,646,726,709,13,4
20200916,14460,9653,4153,654,581,550,23,8
20200917,15170,10280,4227,663,710,627,74,9
20200918,16111,11202,4240,669,941,922,13,6
20200919,16920,11863,4382,675,809,661,142,6
20200920,17990,12916,4391,683,1070,1053,9,8
20200921,18866,13779,4401,686,876,863,10,3
20200922,19499,14246,4559,694,633,467,158,8
20200923,20450,15104,4644,702,951,858,85,8
20200924,21200,15673,4818,709,750,569,174,7
20200925,22127,16464,4945,718,927,791,127,9
20200926,23077,17248,5099,730,950,784,154,12
20200927,24014,18137,5141,736,937,889,42,6
20200928,24716,18815,5152,749,702,678,11,13
20200929,25567,19637,5173,757,851,822,21,8
20200930,26461,19806,5890,765,894,169,717,8
20201001,27309,20410,6118,781,848,604,228,16
20201002,28631,21484,6349,798,1322,1074,231,17
20201003,29717,22081,6824,812,1086,597,475,14
20201004,30575,22283,7470,822,858,202,646,10
20201005,31480,22482,8165,833,905,199,695,11
20201006,32298,22722,8723,853,818,240,558,20
20201007,33114,23088,9149,877,816,366,426,24
20201008,34046,23961,9187,898,932,873,38,21
20201009,35222,25107,9202,913,1176,1146,15,15
20201010,36596,25980,9683,933,1374,873,481,20
20201011,37664,25862,10848,954,1068,-118,1165,21
20201012,38837,26832,11037,968,1173,970,189,14
20201013,39862,27113,11753,996,1025,281,716,28
20201014,40782,27595,12164,1023,920,482,411,27
20201015,41732,28052,12628,1052,950,457,464,29
20201016,43025,28806,13134,1085,1293,754,506,33
20201017,44816,30127,13580,1109,1791,1321,446,24
20201018,46290,31060,14088,1142,1474,933,508,33
20201019,47768,32283,14312,1173,1478,1223,224,31
20201020,48757,32909,14637,1211,989,626,325,38
20201021,50180,34016,14905,1259,1423,1107,268,48
20201022,52212,35653,15254,1305,2032,1637,349,46
20201023,54278,37271,15655,1352,2066,1618,401,47
20201024,56098,38701,16007,1390,1820,1430,352,38
20201025,59247,41580,16242,1425,3149,2879,235,35
20201026,61563,43600,16491,1472,2316,2020,249,47
20201027,63642,45461,16646,1535,2079,1861,155,63
20201028,65933,47257,17098,1578,2291,1796,452,43
20201029,68127,49024,17469,1634,2194,1767,371,56
20201030,71413,51761,17953,1699,3286,2737,484,65
20201031,75321,54539,19032,1750,3908,2778,1079,51
20201101,79199,57302,20078,1819,3878,2763,1046,69
20201102,82780,60415,20476,1889,3581,3113,398,70
20201103,86769,63940,20856,1973,3989,3525,380,84
20201104,90988,67693,21232,2063,4219,3753,376,90
20201105,94916,69946,22823,2147,3928,2253,1591,84
20201106,99625,74162,23213,2250,4709,4216,390,103
20201107,104943,77739,24847,2357,5318,3577,1634,107
20201108,109616,82108,25070,2438,4673,4369,223,81
20201109,114778,86124,26161,2493,5162,4016,1091,55
20201110,118918,88737,27585,2596,4140,2613,1424,103
20201111,122863,91358,28808,2697,3945,2621,1223,101
20201112,126790,94704,29302,2784,3927,3346,494,87
20201113,131887,99202,29802,2883,5097,4498,500,99
20201114,136723,102607,31126,2990,4836,3405,1324,107
20201115,140961,106265,31599,3097,4238,3658,473,107
20201116,147456,110256,34010,3190,6495,3991,2411,93
20201117,152659,115193,34185,3281,5203,4937,175,91
20201118,156949,118723,34846,3380,4290,3530,661,99
20201119,161461,121644,36345,3472,4512,2921,1499,92
20201120,165901,124259,38074,3568,4440,2615,1729,96
20201121,170298,125789,40820,3689,4397,1530,2746,121
20201122,174618,127903,42915,3800,4320,2114,2095,111
20201123,177952,130722,43339,3891,3334,2819,424,91
20201124,181881,133853,44020,4008,3929,3131,681,117
20201125,185687,137553,44020,4114,3806,3700,0,106
20201126,192047,138202,49616,4229,6360,649,5596,115
20201127,198440,141950,52126,4364,6393,3748,2510,135
20201128,204708,146171,54021,4516,6268,4221,1895,152
20201129,211527,151218,55637,4672,6819,5047,1616,156
20201130,217122,148439,63860,4823,5595,-2779,8223,151
20201201,221073,151294,64802,4977,3951,2855,942,154
20201202,225209,154179,65888,5142,4136,2885,1086,165
20201203,231844,159487,67033,5324,6635,5308,1145,182
20201204,238056,164018,68525,5513,6212,4531,1492,189
20201205,243581,167479,70396,5706,5525,3461,1871,193
20201206,250278,172728,71682,5868,6697,5249,1286,162
20201207,254148,173881,74283,5984,3870,1153,2601,116
20201208,256367,174966,75281,6120,2219,1085,998,136
20201209,259588,177038,76270,6280,3221,2072,989,160
20201210,265003,181190,77362,6451,5415,4152,1092,171
20201211,271200,185878,78700,6622,6197,4688,1338,171
20201212,276247,189694,79769,6784,5047,3816,1069,162
20201213,280400,192683,80752,6965,4153,2989,983,181
20201214,283870,194194,82546,7130,3470,1511,1794,165
20201215,285763,195411,83115,7237,1893,1217,569,107
20201216,288567,197246,83940,7381,2804,1835,825,144
20201217,291549,197057,86954,7538,2982,-189,3014,157
20201218,295977,198438,89814,7725,4428,1381,2860,187
20201219,300022,198785,93323,7914,4045,347,3509,189
20201220,302989,197447,97443,8099,2967,-1338,4120,185
20201221,305130,193886,102962,8282,2141,-3561,5519,183
20201222,306368,189230,108676,8462,1238,-4656,5714,180
20201223,308262,185015,114631,8616,1894,-4215,5955,154
20201224,311554,182296,120529,8729,3292,-2719,5898,113
20201225,314164,181342,123989,8833,2610,-954,3460,104
20201226,315362,179929,126482,8951,1198,-1413,2493,118
20201227,316060,176593,130420,9047,698,-3336,3938,96
20201228,316669,173164,134344,9161,609,-3429,3924,114
20201229,317571,169914,138365,9292,902,-3250,4021,131
20201230,319543,165880,144234,9429,1972,-4034,5869,137
20201231,322514,162875,150102,9537,2971,-3005,5868,108
20210101,325278,158548,157063,9667,2764,-4327,6961,130
20210102,326688,152504,164403,9781,1410,-6044,7340,114
20210103,327995,149730,168381,9884,1307,-2774,3978,103
20210104,328851,144804,174070,9977,856,-4926,5689,93
20210105,329721,143065,176576,10080,870,-1739,2506,103
20210106,331768,142029,179541,10198,2047,-1036,2965,118
20210107,334836,144970,179541,10325,3068,2941,0,127
20210108,337743,140854,186449,10440,2907,-4116,6908,115
20210109,340459,136733,193172,10554,2716,-4121,6723,114
20210110,342237,133653,197936,10648,1778,-3080,4764,94
20210111,343656,128959,203972,10725,1419,-4694,6036,77
20210112,344352,123647,209852,10853,696,-5312,5880,128
20210113,345710,119309,215453,10948,1358,-4338,5601,95
20210114,347636,116266,220304,11066,1926,-3043,4851,118
20210115,349149,112951,225021,11177,1513,-3315,4717,111
20210116,350587,111998,227325,11264,1438,-953,2304,87
20210117,351828,111872,228615,11341,1241,-126,1290,77
20210118,352703,110853,230441,11409,875,-1019,1826,68
20210119,353276,109841,231915,11520,573,-1012,1474,111
20210120,354252,109405,233232,11615,976,-436,1317,95
20210121,355662,108673,235276,11713,1410,-732,2044,98
20210122,356973,107800,237362,11811,1311,-873,2086,98
20210123,358317,106533,239880,11904,1344,-1267,2518,93
20210124,359574,106134,241472,11968,1257,-399,1592,64
20210125,360418,105302,243092,12024,844,-832,1620,56
20210126,360877,104083,244681,12113,459,-1219,1589,89
20210127,361881,103087,246596,12198,1004,-996,1915,85
20210128,363450,102156,249003,12291,1569,-931,2407,93
20210129,364909,97752,254783,12374,1459,-4404,5780,83
20210130,366279,94261,259555,12463,1370,-3491,4772,89
20210131,367586,92094,262968,12524,1307,-2167,3413,61
20210201,368710,91872,264260,12578,1124,-222,1292,54
20210202,369288,87829,268803,12656,578,-4043,4543,78
20210203,370336,85313,272284,12739,1048,-2516,3481,83
20210204,371988,84848,274308,12832,1652,-465,2024,93
20210205,373564,84870,275764,12930,1576,22,1456,98
20210206,375125,84150,277949,13026,1561,-720,2185,96
20210207,376495,83642,279763,13090,1370,-508,1814,64
20210208,377655,82661,281839,13155,1160,-981,2076,65
20210209,378734,82203,283282,13249,1079,-458,1443,94
20210210,380013,81644,285022,13347,1279,-559,1740,98
20210211,381875,81297,287134,13444,1862,-347,2112,97
20210212,383735,80672,289520,13543,1860,-625,2386,99
20210213,385755,78577,293542,13636,2020,-2095,4022,93
20210214,387462,77583,296173,13706,1707,-994,2631,70
20210215,388799,77039,298008,13752,1337,-544,1835,46
20210216,389622,77012,298773,13837,823,-27,765,85
20210217,391170,77250,299989,13931,1548,238,1216,94
20210218,394023,78625,301363,14035,2853,1375,1374,104
20210219,397116,80282,302689,14145,3093,1657,1326,110
20210220,400111,81179,304680,14252,2995,897,1991,107
20210221,403023,82103,306621,14299,2912,924,1941,47
20210222,405646,82649,308650,14347,2623,546,2029,48
20210223,407274,81976,310848,14450,1628,-673,2198,103
20210224,410129,82127,313450,14552,2855,151,2602,102
20210225,414514,84061,315781,14672,4385,1934,2331,120
20210226,419182,86488,317899,14795,4668,2427,2118,123
20210227,424130,89537,319691,14902,4948,3049,1792,107
20210228,428599,92497,321128,14974,4469,2960,1437,72
20210301,432925,94911,322956,15058,4326,2414,1828,84
20210302,435689,96299,324202,15188,2764,1388,1246,130
20210303,439900,98361,326215,15324,4211,2062,2013,136
20210304,446178,102566,328136,15476,6278,4205,1921,152
20210305,452547,105371,331557,15619,6369,2805,3421,143
20210306,459816,111006,333045,15765,7269,5635,1488,146
20210307,466017,114632,335512,15873,6201,3626,2467,108
20210308,468713,115981,336744,15988,2696,1349,1232,115
20210309,475207,120115,338946,16146,6494,4134,2202,158
20210310,480860,123691,340844,16325,5653,3576,1898,179
20210311,489172,128408,344267,16497,8312,4717,3423,172
20210312,498183,134652,346904,16627,9011,6244,2637,130
20210313,507627,141307,349530,16790,9444,6655,2626,163
20210314,516490,147647,351891,16952,8863,6340,2361,162
20210315,524196,152296,354817,17083,7706,4649,2926,131
20210316,529122,155217,356679,17226,4926,2921,1862,143
20210317,532578,156096,359061,17421,3456,879,2382,195
20210318,539080,160557,360895,17628,6502,4461,1834,207
20210319,549839,167190,364808,17841,10759,6633,3913,213
20210320,560971,176129,366774,18068,11132,8939,1966,227
20210321,571596,183336,369998,18262,10625,7207,3224,194
20210322,580642,188525,373666,18451,9046,5189,3668,189
20210323,586123,189244,378176,18703,5481,719,4510,252
20210324,593710,192951,381807,18952,7587,3707,3631,249
20210325,603347,196553,387570,19224,9637,3602,5763,272
20210326,614612,202799,392314,19499,11265,6246,4744,275
20210327,624779,211028,393999,19752,10167,8229,1685,253
20210328,633861,218099,395790,19972,9082,7071,1791,220
20210329,641124,221002,399961,20161,7263,2903,4171,189
20210330,645733,222334,402964,20435,4609,1332,3003,274
20210331,652433,224761,406935,20737,6700,2427,3971,302
20210401,661721,230161,410565,20995,9288,5400,3630,258
20210402,670776,236144,413370,21262,9055,5983,2805,267
20210403,679413,242308,415601,21504,8637,6164,2231,242
20210404,685979,247292,416972,21715,6566,4984,1371,211
20210405,689853,249841,418084,21928,3874,2549,1112,213
20210406,691743,251077,418568,22098,1890,1236,484,170
20210407,693676,252115,419152,22409,1933,1038,584,311
20210408,698490,256044,419765,22681,4814,3929,613,272
20210409,705815,262574,420275,22966,7325,6530,510,285
20210410,713868,267291,423366,23211,8053,4717,3091,245
20210411,720164,270353,426394,23417,6296,3062,3028,206
20210412,725241,272459,429074,23708,5077,2106,2680,291
20210413,728078,272974,431124,23980,2837,515,2050,272
20210414,731675,272066,435344,24265,3597,-908,4220,285
20210415,736982,271963,440498,24521,5307,-103,5154,256
20210416,742198,271516,445920,24762,5216,-447,5422,241
20210417,746802,271032,450791,24979,4604,-484,4871,217
20210418,750508,270295,455029,25184,3706,-737,4238,205
20210419,753188,269595,458212,25381,2680,-700,3183,197
20210420,754833,268072,461181,25580,1645,-1523,2969,199
20210421,757360,266823,464750,25787,2527,-1249,3569,207
20210422,760967,265374,469592,26001,3607,-1449,4842,214
20210423,764394,264039,474147,26208,3427,-1335,4555,207
20210424,767190,262447,478323,26420,2796,-1592,4176,212
20210425,769518,260686,482207,26625,2328,-1761,3884,205
20210426,771454,258218,486435,26801,1936,-2468,4228,176
20210427,772707,254103,491620,26984,1253,-4115,5185,183
20210428,774399,250143,497084,27172,1692,-3960,5464,188
20210429,776983,245928,503697,27358,2584,-4215,6613,186
20210430,779348,241429,510379,27540,2365,-4499,6682,182
20210501,781299,236572,517026,27701,1951,-4857,6647,161
20210502,782892,231580,523510,27802,1593,-4992,6484,101
20210503,784111,228002,528201,27908,1219,-3578,4691,106
20210504,784837,223802,532990,28045,726,-4200,4789,137
20210505,785967,218829,538965,28173,1130,-4973,5975,128
20210506,787647,213104,546246,28297,1680,-5725,7281,124
20210507,789188,206949,553836,28403,1541,-6155,7590,106
20210508,790564,200941,561119,28504,1376,-6008,7283,101
20210509,791709,194778,568329,28602,1145,-6163,7210,98
20210510,792386,188083,575610,28693,677,-6695,7281,91
20210511,792879,180285,583802,28792,493,-7798,8192,99
20210512,793784,172456,592440,28888,905,-7829,8638,96
20210513,795200,165769,600461,28970,1416,-6687,8021,82
20210514,796390,158458,608891,29041,1190,-7311,8430,71
20210515,797429,149707,618608,29114,1039,-8751,9717,73
20210516,798147,143884,625088,29175,718,-5823,6480,61
20210517,798573,138384,630976,29213,426,-5500,5888,38
20210518,798955,128714,640964,29277,382,-9670,9988,64
20210519,799588,121746,648513,29329,633,-6968,7549,52
20210520,800368,115029,655959,29380,780,-6717,7446,51
20210521,801025,110034,661564,29427,657,-4995,5605,47
20210522,801672,106645,665552,29475,647,-3389,3988,48
20210523,802088,103749,668820,29519,416,-2896,3268,44
20210524,802346,102581,670205,29560,258,-1168,1385,41
20210525,802510,101537,671392,29581,164,-1044,1187,21
20210526,802723,98019,675082,29622,213,-3518,3690,41
20210527,803119,91164,682301,29654,396,-6855,7219,32
20210528,803567,84719,689166,29682,448,-6445,6865,28
20210529,804032,82075,692248,29709,465,-2644,3082,27
20210530,804382,78625,696029,29728,350,-3450,3781,19
20210531,804538,74569,700236,29733,156,-4056,4207,5
20210601,804712,71599,703352,29761,174,-2970,3116,28
20210602,804987,69835,705378,29774,275,-1764,2026,13
20210603,805302,67312,708198,29792,315,-2523,2820,18
20210604,805571,64648,711105,29818,269,-2664,2907,26
20210605,805871,61700,714329,29842,300,-2948,3224,24
20210606,806008,59991,716163,29854,137,-1709,1834,12
20210607,806089,58969,717254,29866,81,-1022,1091,12
20210608,806206,57746,718577,29883,117,-1223,1323,17
20210609,806385,56096,720400,29889,179,-1650,1823,6
20210610,806591,54399,722296,29896,206,-1697,1896,7
20210611,806790,52272,724614,29904,199,-2127,2318,8
20210612,806790,52272,724614,29904,0,0,0,0
20210613,806790,52272,724614,29904,0,0,0,0
20210614,807045,46532,730588,29925,255,-5740,5974,21
20210615,807102,45541,731626,29935,57,-991,1038,10
20210616,807209,44364,732901,29944,107,-1177,1275,9
20210617,807322,43467,733907,29948,113,-897,1006,4
20210618,807428,42851,734627,29950,106,-616,720,2
20210619,807428,42851,734627,29950,0,0,0,0
20210620,807428,42851,734627,29950,0,0,0,0
20210621,807630,42097,735574,29959,202,-754,947,9
20210622,807684,41784,735937,29963,54,-313,363,4
20210623,807775,41417,736387,29971,91,-367,450,8
20210624,807844,41018,736854,29972,69,-399,467,1
20210625,807910,40697,737233,29980,66,-321,379,8
20210626,807910,40697,737233,29980,0,0,0,0
20210627,807910,40697,737233,29980,0,0,0,0
20210628,808042,39662,738391,29989,132,-1035,1158,9
20210629,808076,39543,738542,29991,34,-119,151,2
20210630,808128,39354,738782,29992,52,-189,240,1
20210701,808160,38964,739204,29992,32,-390,422,0
20210702,808197,38644,739561,29992,37,-320,357,0
20210703,808197,38644,739561,29992,0,0,0,0
20210704,808197,38644,739561,29992,0,0,0,0
20210705,808262,38071,740195,29996,65,-573,634,4
20210706,808294,37969,740327,29998,32,-102,132,2
20210707,808338,37804,740535,29999,44,-165,208,1
20210708,808393,37599,740790,30004,55,-205,255,5
20210709,808437,37350,741083,30004,44,-249,293,0
20210710,808437,37350,741083,30004,0,0,0,0
20210711,808437,37350,741083,30004,0,0,0,0
20210712,808539,37023,741509,30007,102,-327,426,3
20210713,808556,36883,741663,30010,17,-140,154,3
20210714,808612,36703,741896,30013,56,-180,233,3
20210715,808661,36378,742270,30013,49,-325,374,0
20210716,808725,36078,742632,30015,64,-300,362,2
20210717,808725,36078,742632,30015,0,0,0,0
20210718,808725,36078,742632,30015,0,0,0,0
20210719,808864,35602,743245,30017,139,-476,613,2
20210720,808889,35421,743449,30019,25,-181,204,2
20210721,808945,34875,744051,30019,56,-546,602,0
20210722,809016,34282,744714,30020,71,-593,663,1
20210723,809101,33804,745277,30020,85,-478,563,0
20210724,809101,33804,745277,30020,0,0,0,0
20210725,809101,33804,745277,30020,0,0,0,0
20210726,809262,33394,745848,30020,161,-410,571,0
20210727,809288,33048,746219,30021,26,-346,371,1
20210728,809362,32356,746981,30025,74,-692,762,4
20210729,809427,31890,747512,30025,65,-466,531,0
20210730,809491,31308,748157,30026,64,-582,645,1
20210731,809491,31308,748157,30026,0,0,0,0
20210801,809491,31308,748157,30026,0,0,0,0
20210802,809646,30434,749185,30027,155,-874,1028,1
20210803,809672,30182,749461,30029,26,-252,276,2
20210804,809731,29926,749773,30032,59,-256,312,3
20210805,809803,0,0,30032,72,-29926,-749773,0
20210806,809855,0,0,30033,52,0,0,1
20210807,809855,0,0,30033,0,0,0,0
20210808,809855,0,0,30033,0,0,0,0
20210809,810011,0,0,30037,156,0,0,4
20210810,810046,0,0,30037,35,0,0,0
20210811,810126,0,0,30037,80,0,0,0
20210812,810212,0,0,30037,86,0,0,0
20210813,810316,0,0,30038,104,0,0,1
20210814,810316,0,0,30038,0,0,0,0
20210815,810316,0,0,30038,0,0,0,0
20210816,810504,0,0,30041,188,0,0,3
20210817,810549,0,0,30042,45,0,0,1
20210818,810658,0,0,30045,109,0,0,3
20210819,810781,0,0,30046,123,0,0,1
20210820,810781,0,0,30046,0,0,0,0
20210821,810781,0,0,30046,0,0,0,0
20210822,810781,0,0,30046,0,0,0,0
20210823,811121,0,0,30052,340,0,0,6
20210824,811203,0,0,30054,82,0,0,2
20210825,811337,0,0,30055,134,0,0,1
20210826,811517,0,0,30056,180,0,0,1
20210827,811706,0,0,30057,189,0,0,1
20210828,811706,0,0,30057,0,0,0,0
20210829,811706,0,0,30057,0,0,0,0
20210830,812227,0,0,30057,521,0,0,0
20210831,812337,0,0,30058,110,0,0,1
20210901,812531,0,0,30059,194,0,0,1
20210902,812793,0,0,30060,262,0,0,1
20210903,813040,0,0,30061,247,0,0,1
20210904,813040,0,0,30061,0,0,0,0
