date,infected,active,recovered,dead,deltaInfected,deltaActive,deltaRecovered,deltaDead
20200302,2,2,0,0,2,2,0,0
20200303,2,2,0,0,0,0,0,0
20200304,2,2,0,0,0,0,0,0
20200305,2,2,0,0,0,0,0,0
20200306,4,4,0,0,2,2,0,0
20200307,4,4,0,0,0,0,0,0
20200308,6,6,0,0,2,2,0,0
20200309,19,19,0,0,13,13,0,0
20200310,27,25,2,0,8,6,2,0
20200311,34,31,2,1,7,6,0,1
20200312,34,31,2,1,0,0,0,0
20200313,69,63,2,4,35,32,0,3
20200314,96,83,8,5,27,20,6,1
20200315,117,104,8,5,21,21,0,0
20200316,134,121,8,5,17,17,0,0
20200317,172,159,8,5,38,38,0,0
20200318,227,197,11,19,55,38,3,14
20200319,311,275,11,25,84,78,0,6
20200320,369,322,15,32,58,47,4,7
20200321,450,397,15,38,81,75,0,6
20200322,514,437,29,48,64,40,14,10
20200323,579,500,30,49,65,63,1,1
20200324,686,601,30,55,107,101,0,6
20200325,790,701,31,58,104,100,1,3
20200326,893,780,35,78,103,79,4,20
20200327,1046,913,46,87,153,133,11,9
20200328,1155,994,59,102,109,81,13,15
20200329,1285,1107,64,114,130,113,5,12
20200330,1414,1217,75,122,129,110,11,8
20200331,1528,1311,81,136,114,94,6,14
20200401,1677,1417,103,157,149,106,22,21
20200402,1790,1508,112,170,113,91,9,13
20200403,1986,1671,134,181,196,163,22,11
20200404,2092,1751,150,191,106,80,16,10
20200405,2273,1911,164,198,181,160,14,7
20200406,2491,2090,192,209,218,179,28,11
20200407,2738,2313,204,221,247,223,12,12
20200408,2956,2494,222,240,218,181,18,19
20200409,3293,2761,252,280,337,267,30,40
20200410,3512,2924,282,306,219,163,30,26
20200411,3842,3229,286,327,330,305,4,21
20200412,4241,3509,359,373,399,280,73,46
20200413,4557,3778,380,399,316,269,21,26
20200414,4839,3954,426,459,282,176,46,60
20200415,5136,4221,446,469,297,267,20,10
20200416,5516,4472,548,496,380,251,102,27
20200417,5923,4796,607,520,407,324,59,24
20200418,6248,5082,631,535,325,286,24,15
20200419,6575,5307,686,582,327,225,55,47
20200420,6760,5423,747,590,185,116,61,8
20200421,7135,5677,842,616,375,254,95,26
20200422,7418,5870,913,635,283,193,71,19
20200423,7775,6168,960,647,357,298,47,12
20200424,8211,6520,1002,689,436,352,42,42
20200425,8607,6845,1042,720,396,325,40,31
20200426,8882,7032,1107,743,275,187,65,23
20200427,9096,7180,1151,765,214,148,44,22
20200428,9511,7484,1254,773,415,304,103,8
20200429,9771,7596,1391,784,260,112,137,11
20200430,10118,7804,1522,792,347,208,131,8
20200501,10551,8160,1591,800,433,356,69,8
20200502,10843,8347,1665,831,292,187,74,31
20200503,11192,8471,1876,845,349,124,211,14
20200504,11587,8769,1954,864,395,298,78,19
20200505,12071,9002,2197,872,484,233,243,8
20200506,12438,9226,2317,895,367,224,120,23
20200507,12776,9465,2381,930,338,239,64,35
20200508,13112,9675,2494,943,336,210,113,13
20200509,13645,10079,2607,959,533,404,113,16
20200510,14032,10361,2698,973,387,282,91,14
20200511,14265,10393,2881,991,233,32,183,18
20200512,14749,10679,3063,1007,484,286,182,16
20200513,15438,11123,3287,1028,689,444,224,21
20200514,16006,11445,3518,1043,568,322,231,15
20200515,16496,11617,3803,1076,490,172,285,33
20200516,17025,12025,3911,1089,529,408,108,13
20200517,17514,12237,4129,1148,489,212,218,59
20200518,18010,12495,4324,1191,496,258,195,43
20200519,18496,12808,4467,1221,486,313,143,30
20200520,19189,13372,4575,1242,693,564,108,21
20200521,20162,14046,4838,1278,973,674,263,36
20200522,20796,14413,5057,1326,634,367,219,48
20200523,21745,15145,5249,1351,949,732,192,25
20200524,22271,15497,5402,1372,526,352,153,21
20200525,22750,15717,5642,1391,479,220,240,19
20200526,23165,15870,5877,1418,415,153,235,27
20200527,23851,16321,6057,1473,686,451,180,55
20200528,24538,16802,6240,1496,687,481,183,23
20200529,25216,17204,6492,1520,678,402,252,24
20200530,25773,17185,7015,1573,557,-19,523,53
20200531,26473,17552,7308,1613,700,367,293,40
20200601,26940,17662,7637,1641,467,110,329,28
20200602,27549,17951,7935,1663,609,289,298,22
20200603,28233,18129,8406,1698,684,178,471,35
20200604,28818,18205,8892,1721,585,76,486,23
20200605,29521,18308,9443,1770,703,103,551,49
20200606,30514,18806,9907,1801,993,498,464,31
20200607,31186,18837,10498,1851,672,31,591,50
20200608,32033,19246,10904,1883,847,409,406,32
20200609,33076,19739,11414,1923,1043,493,510,40
20200610,34316,20228,12129,1959,1240,489,715,36
20200611,35295,20659,12636,2000,979,431,507,41
20200612,36406,21145,13213,2048,1111,486,577,48
20200613,37420,21553,13776,2091,1014,408,563,43
20200614,38277,21612,14531,2134,857,59,755,43
20200615,39294,21973,15123,2198,1017,361,592,64
20200616,40400,22466,15703,2231,1106,493,580,33
20200617,41431,22912,16243,2276,1031,446,540,45
20200618,42762,23625,16798,2339,1331,713,555,63
20200619,43803,24081,17349,2373,1041,456,551,34
20200620,45029,24717,17883,2429,1226,636,534,56
20200621,45891,25022,18404,2465,862,305,521,36
20200622,46845,25610,18735,2500,954,588,331,35
20200623,47896,26120,19241,2535,1051,510,506,35
20200624,49009,26778,19658,2573,1113,658,417,38
20200625,50187,27118,20449,2620,1178,340,791,47
20200626,51427,27411,21333,2683,1240,293,884,63
20200627,52812,28183,21909,2720,1385,772,576,37
20200628,54010,28320,22936,2754,1198,137,1027,34
20200629,55092,28487,23800,2805,1082,167,864,51
20200630,56385,28703,24806,2876,1293,216,1006,71
20200701,57770,29241,25595,2934,1385,538,789,58
20200702,59394,29740,26667,2987,1624,499,1072,53
20200703,60695,30091,27568,3036,1301,351,901,49
20200704,62142,30834,28219,3089,1447,743,651,53
20200705,63749,31473,29105,3171,1607,639,886,82
20200706,64958,31798,29919,3241,1209,325,814,70
20200707,66226,32132,30785,3309,1268,334,866,68
20200708,68079,33135,31585,3359,1853,1003,800,50
20200709,70736,34668,32651,3417,2657,1533,1066,58
20200710,72347,35349,33529,3469,1611,681,878,52
20200711,74018,35764,34719,3535,1671,415,1190,66
20200712,75699,36455,35638,3606,1681,691,919,71
20200713,76981,36636,36689,3656,1282,181,1051,50
20200714,78572,37226,37636,3710,1591,590,947,54
20200715,80094,37247,39050,3797,1522,21,1414,87
20200716,81668,37450,40345,3873,1574,203,1295,76
20200717,83130,37339,41834,3957,1462,-111,1489,84
20200718,84882,37598,43268,4016,1752,259,1434,59
20200719,86521,36977,45401,4143,1639,-621,2133,127
20200720,88214,36998,46977,4239,1693,21,1576,96
20200721,89869,37083,48466,4320,1655,85,1489,81
20200722,91751,37037,50255,4459,1882,-46,1789,139
20200723,93657,36917,52164,4576,1906,-120,1909,117
20200724,95418,36808,53945,4665,1761,-109,1781,89
20200725,97286,37218,55354,4714,1868,410,1409,49
20200726,98778,37342,56655,4781,1492,124,1301,67
20200727,100303,37292,58173,4838,1525,-50,1518,57
20200728,102051,36611,60539,4901,1748,-681,2366,63
20200729,104432,37319,62138,4975,2381,708,1599,74
20200730,106336,36986,64292,5058,1904,-333,2154,83
20200731,108376,37338,65907,5131,2040,352,1615,73
20200801,109936,36824,67919,5193,1560,-514,2012,62
20200802,111455,37244,68975,5236,1519,420,1056,43
20200803,113134,37595,70237,5302,1679,351,1262,66
20200804,115056,37618,72050,5388,1922,23,1813,86
20200805,116871,37530,73889,5452,1815,-88,1839,64
20200806,118753,37587,75645,5521,1882,57,1756,69
20200807,121226,38076,77557,5593,2473,489,1912,72
20200808,123503,38539,79306,5658,2277,463,1749,65
20200809,125396,38721,80952,5723,1893,182,1646,65
20200810,127083,39082,82236,5765,1687,361,1284,42
20200811,128776,39242,83710,5824,1693,160,1474,59
20200812,130718,39017,85798,5903,1942,-225,2088,79
20200813,132816,39290,87558,5968,2098,273,1760,65
20200814,135123,39484,89618,6021,2307,194,2060,53
20200815,137468,40076,91321,6071,2345,592,1703,50
20200816,139549,40296,93103,6150,2081,220,1782,79
20200817,141370,40705,94458,6207,1821,409,1355,57
20200818,143043,40460,96306,6277,1673,-245,1848,70
20200819,144945,39942,98657,6346,1902,-518,2351,69
20200820,147211,40119,100674,6418,2266,177,2017,72
20200821,149408,39917,102991,6500,2197,-202,2317,82
20200822,151498,39706,105198,6594,2090,-211,2207,94
20200823,153535,39355,107500,6680,2037,-351,2302,86
20200824,155412,37593,111060,6759,1877,-1762,3560,79
20200825,157859,38134,112867,6858,2447,541,1807,99
20200826,160165,37812,115409,6944,2306,-322,2542,86
20200827,162884,37245,118575,7064,2719,-567,3166,120
20200828,165887,37818,120900,7169,3003,573,2325,105
20200829,169195,39132,122802,7261,3308,1314,1902,92
20200830,172053,40525,124185,7343,2858,1393,1383,82
20200831,174796,41420,125959,7417,2743,895,1774,74
20200901,177571,42009,128057,7505,2775,589,2098,88
20200902,180646,43059,129971,7616,3075,1050,1914,111
20200903,184268,44463,132055,7750,3622,1404,2084,134
20200904,187537,45524,134181,7832,3269,1061,2126,82
20200905,190665,46324,136401,7940,3128,800,2220,108
20200906,194109,47509,138575,8025,3444,1185,2174,85
20200907,196989,48207,140652,8130,2880,698,2077,105
20200908,200035,48847,142958,8230,3046,640,2306,100
20200909,203342,49806,145200,8336,3307,959,2242,106
20200910,207203,51237,147510,8456,3861,1431,2310,120
20200911,210940,52179,150217,8544,3737,942,2707,88
20200912,214746,53638,152458,8650,3806,1459,2241,106
20200913,218382,54649,155010,8723,3636,1011,2552,73
20200914,221523,54277,158405,8841,3141,-372,3395,118
20200915,225030,55000,161065,8965,3507,723,2660,124
20200916,228993,55792,164101,9100,3963,792,3036,135
20200917,232628,56720,166686,9222,3635,928,2585,122
20200918,236519,56409,170774,9336,3891,-311,4088,114
20200919,240687,56889,174350,9448,4168,480,3576,112
20200920,244676,57796,177327,9553,3989,907,2977,105
20200921,248852,58378,180797,9677,4176,582,3470,124
20200922,252923,58788,184298,9837,4071,410,3501,160
20200923,257388,59453,187958,9977,4465,665,3660,140
20200924,262022,60064,191853,10105,4634,611,3895,128
20200925,266845,60431,196196,10218,4823,367,4343,113
20200926,271339,61628,199403,10308,4494,1197,3207,90
20200927,275213,61813,203014,10386,3874,185,3611,78
20200928,278722,61379,206870,10473,3509,-434,3856,87
20200929,282724,61686,210437,10601,4002,307,3567,128
20200930,287008,61321,214947,10740,4284,-365,4510,139
20201001,291182,61839,218487,10856,4174,518,3540,116
20201002,295499,63187,221340,10972,4317,1348,2853,116
20201003,299506,63399,225052,11055,4007,212,3712,83
20201004,303498,63894,228453,11151,3992,495,3401,96
20201005,307120,63274,232593,11253,3622,-620,4140,102
20201006,311176,63365,236437,11374,4056,91,3844,121
20201007,315714,63951,240291,11472,4538,586,3854,98
20201008,320564,64924,244060,11580,4850,973,3769,108
20201009,324658,65314,247667,11677,4094,390,3607,97
20201010,328952,65706,251481,11765,4294,392,3814,88
20201011,333449,66578,255027,11844,4497,872,3546,79
20201012,336716,66262,258519,11935,3267,-316,3492,91
20201013,340622,65299,263296,12027,3906,-963,4777,92
20201014,344749,64742,267851,12156,4127,-557,4555,129
20201015,349160,63231,273661,12268,4411,-1511,5810,112
20201016,353461,63570,277544,12347,4301,339,3883,79
20201017,357762,63739,281592,12431,4301,169,4048,84
20201018,361867,64032,285324,12511,4105,293,3732,80
20201019,365240,63380,289243,12617,3373,-652,3919,106
20201020,368842,62455,293653,12734,3602,-925,4410,117
20201021,373109,62743,297509,12857,4267,288,3856,123
20201022,377541,63576,301006,12959,4432,833,3497,102
20201023,381910,63733,305100,13077,4369,157,4094,118
20201024,385980,63556,309219,13205,4070,-177,4119,128
20201025,389712,62649,313764,13299,3732,-907,4545,94
20201026,392934,61851,317672,13411,3222,-798,3908,112
20201027,396454,60694,322248,13512,3520,-1157,4576,101
20201028,400483,61078,325793,13612,4029,384,3545,100
20201029,404048,60569,329778,13701,3565,-509,3985,89
20201030,406945,58868,334295,13782,2897,-1701,4517,81
20201031,410088,58418,337801,13869,3143,-450,3506,87
20201101,412784,56899,341942,13943,2696,-1519,4141,74
20201102,415402,55792,345566,14044,2618,-1107,3624,101
20201103,418375,54732,349497,14146,2973,-1060,3931,102
20201104,421731,54190,353282,14259,3356,-542,3785,113
20201105,425796,54306,357142,14348,4065,116,3860,89
20201106,429574,54427,360705,14442,3778,121,3563,94
20201107,433836,54879,364417,14540,4262,452,3712,98
20201108,437716,54804,368298,14614,3880,-75,3881,74
20201109,440569,53614,372266,14689,2853,-1190,3968,75
20201110,444348,53846,375741,14761,3779,232,3475,72
20201111,448118,54300,378982,14836,3770,454,3241,75
20201112,452291,55274,382084,14933,4173,974,3102,97
20201113,457735,57604,385094,15037,5444,2330,3010,104
20201114,463007,59765,388094,15148,5272,2161,3000,111
20201115,467113,59911,391991,15211,4106,146,3897,63
20201116,470648,59909,395443,15296,3535,-2,3452,85
20201117,474455,60426,398636,15393,3807,517,3193,97
20201118,478720,60870,402347,15503,4265,444,3711,110
20201119,483518,61306,406612,15600,4798,436,4265,97
20201120,488310,62080,410552,15678,4792,774,3940,78
20201121,493308,63579,413955,15774,4998,1499,3403,96
20201122,497668,63596,418188,15884,4360,17,4233,110
20201123,502110,63722,422386,16002,4442,126,4198,118
20201124,506302,64878,425313,16111,4192,1156,2927,109
20201125,511836,65804,429807,16225,5534,926,4494,114
20201126,516753,66752,433649,16352,4917,948,3842,127
20201127,522581,68604,437456,16521,5828,1852,3807,169
20201128,527999,69370,441983,16646,5418,766,4527,125
20201129,534266,71658,445793,16815,6267,2288,3810,169
20201130,538883,71420,450518,16945,4617,-238,4725,130
20201201,543975,72015,454879,17081,5092,595,4361,136
20201202,549508,73429,458880,17199,5533,1414,4001,118
20201203,557877,77969,462553,17355,8369,4540,3673,156
20201204,563680,80023,466178,17479,5803,2054,3625,124
20201205,569707,81669,470449,17589,6027,1646,4271,110
20201206,575796,83285,474771,17740,6089,1616,4322,151
20201207,581550,84481,479202,17867,5754,1196,4431,127
20201208,586842,85345,483497,18000,5292,864,4295,133
20201209,592900,87284,487445,18171,6058,1939,3948,171
20201210,598933,88622,491975,18336,6033,1338,4530,165
20201211,605243,89846,496886,18511,6310,1224,4911,175
20201212,611631,91602,501376,18653,6388,1756,4490,142
20201213,617820,93165,505836,18819,6189,1563,4460,166
20201214,623309,93396,510957,18956,5489,231,5121,137
20201215,629429,93662,516656,19111,6120,266,5699,155
20201216,636154,94922,521984,19248,6725,1260,5328,137
20201217,643508,97139,526979,19390,7354,2217,4995,142
20201218,650197,98688,531995,19514,6689,1549,5016,124
20201219,657948,102029,536260,19659,7751,3341,4265,145
20201220,664930,103239,541811,19880,6982,1210,5551,221
20201221,671778,104809,546884,20085,6848,1570,5073,205
20201222,678125,105146,552722,20257,6347,337,5838,172
20201223,685639,106528,558703,20408,7514,1382,5981,151
20201224,692838,108269,563980,20589,7199,1741,5277,181
20201225,700097,108946,570304,20847,7259,677,6324,258
20201226,706837,109150,576693,20994,6740,204,6389,147
20201227,713365,108452,583676,21237,6528,-698,6983,243
20201228,719219,107789,589978,21452,5854,-663,6302,215
20201229,727122,108636,596783,21703,7903,847,6805,251
20201230,735124,109439,603741,21944,8002,803,6958,241
20201231,743198,109963,611097,22138,8074,524,7356,194
20210101,751270,111005,617936,22329,8072,1042,6839,191
20210102,758473,110400,625518,22555,7203,-605,7582,226
20210103,765350,110679,631937,22734,6877,279,6419,179
20210104,772103,110089,639103,22911,6753,-590,7166,177
20210105,779548,110693,645746,23109,7445,604,6643,198
20210106,788402,112593,652513,23296,8854,1900,6767,187
20210107,797723,114766,659437,23520,9321,2173,6924,224
20210108,808340,117704,666883,23753,10617,2938,7446,233
20210109,818386,120928,673511,23947,10046,3224,6628,194
20210110,828026,122873,681024,24129,9640,1945,7513,182
20210111,836718,123636,688739,24343,8692,763,7715,214
20210112,846765,126313,695807,24645,10047,2677,7068,302
20210113,858043,129628,703464,24951,11278,3315,7657,306
20210114,869600,133149,711205,25246,11557,3521,7741,295
20210115,882418,138238,718696,25484,12818,5089,7491,238
20210116,896642,143517,727358,25767,14224,5279,8662,283
20210117,907929,145482,736460,25987,11287,1965,9102,220
20210118,917015,144798,745935,26282,9086,-684,9475,295
20210119,927380,146842,753948,26590,10365,2044,8013,308
20210120,939948,149388,763703,26857,12568,2546,9755,267
20210121,951651,151658,772790,27203,11703,2270,9087,346
20210122,965283,156683,781147,27453,13632,5025,8357,250
20210123,977474,158751,791059,27664,12191,2068,9912,211
20210124,989262,162617,798810,27835,11788,3866,7751,171
20210125,999256,161636,809488,28132,9994,-981,10678,297
20210126,1012350,163526,820356,28468,13094,1890,10868,336
20210127,1024298,164113,831330,28855,11948,587,10974,387
20210128,1037993,166540,842122,29331,13695,2427,10792,476
20210129,1051795,170017,852260,29518,13802,3477,10138,187
20210130,1066313,174083,862502,29728,14518,4066,10242,210
20210131,1078314,175095,873221,29998,12001,1012,10719,270
20210201,1089308,175349,883682,30277,10994,254,10461,279
20210202,1099687,172576,896530,30581,10379,-2773,12848,304
20210203,1111671,175236,905665,30770,11984,2660,9135,189
20210204,1123105,174798,917306,31001,11434,-438,11641,231
20210205,1134854,176672,926980,31202,11749,1874,9674,201
20210206,1147010,176433,939184,31393,12156,-239,12204,191
20210207,1157837,176291,949990,31556,10827,-142,10806,163
20210208,1166079,171288,963028,31763,8242,-5003,13038,207
20210209,1174779,169351,973452,31976,8700,-1937,10424,213
20210210,1183555,168416,982972,32167,8776,-935,9520,191
20210211,1191990,166492,993117,32381,8435,-1924,10145,214
20210212,1201859,165086,1004117,32656,9869,-1406,11000,275
20210213,1210703,161731,1016036,32936,8844,-3355,11919,280
20210214,1217468,159012,1025273,33183,6765,-2719,9237,247
20210215,1223930,158498,1032065,33367,6462,-514,6792,184
20210216,1233959,160689,1039674,33596,10029,2191,7609,229
20210217,1243646,162182,1047676,33788,9687,1493,8002,192
20210218,1252685,160494,1058222,33969,9039,-1688,10546,181
20210219,1263299,160142,1069005,34152,10614,-352,10783,183
20210220,1271353,158197,1078840,34316,8054,-1945,9835,164
20210221,1278653,157088,1087076,34489,7300,-1109,8236,173
20210222,1288833,157148,1096994,34691,10180,60,9918,202
20210223,1298608,158604,1104990,35014,9775,1456,7996,323
20210224,1306141,158162,1112725,35254,7533,-442,7735,240
20210225,1314634,157705,1121411,35518,8493,-457,8686,264
20210226,1322866,158408,1128672,35786,8232,703,7261,268
20210227,1329074,157039,1136054,35981,6208,-1369,7382,195
20210228,1334634,155765,1142703,36166,5560,-1274,6649,185
20210301,1341314,153074,1151915,36325,6680,-2691,9212,159
20210302,1347026,149645,1160863,36518,5712,-3429,8948,193
20210303,1353834,147197,1169916,36721,6808,-2448,9053,203
20210304,1361098,147845,1176356,36897,7264,648,6440,176
20210305,1368069,148356,1182687,37026,6971,511,6331,129
20210306,1373836,147172,1189510,37154,5767,-1184,6823,128
20210307,1379662,147740,1194656,37266,5826,568,5146,112
20210308,1386556,145628,1203381,37547,6894,-2112,8725,281
20210309,1392945,144311,1210877,37757,6389,-1317,7496,210
20210310,1398578,144213,1216433,37932,5633,-98,5556,175
20210311,1403722,141070,1224603,38049,5144,-3143,8170,117
20210312,1410134,140451,1231454,38229,6412,-619,6851,180
20210313,1414741,138942,1237470,38329,4607,-1509,6016,100
20210314,1419455,137912,1243117,38426,4714,-1030,5647,97
20210315,1425044,136524,1249947,38573,5589,-1388,6830,147
20210316,1430458,134042,1257663,38753,5414,-2482,7716,180
20210317,1437283,131695,1266673,38915,6825,-2347,9010,162
20210318,1443853,131753,1272958,39142,6570,58,6285,227
20210319,1450132,131828,1278965,39339,6279,75,6007,197
20210320,1455788,131616,1284725,39447,5656,-212,5760,108
20210321,1460184,129844,1290790,39550,4396,-1772,6065,103
20210322,1465928,128250,1297967,39711,5744,-1594,7177,161
20210323,1471225,126439,1304921,39865,5297,-1811,6954,154
20210324,1476452,123926,1312543,39983,5227,-2513,7622,118
20210325,1482559,125279,1317199,40081,6107,1353,4656,98
20210326,1487541,124497,1322878,40166,4982,-782,5679,85
20210327,1492002,124517,1327121,40364,4461,20,4243,198
20210328,1496085,124236,1331400,40449,4083,-281,4279,85
20210329,1501093,123694,1336818,40581,5008,-542,5418,132
20210330,1505775,122326,1342695,40754,4682,-1368,5877,173
20210331,1511712,122524,1348330,40858,5937,198,5635,104
20210401,1517854,121222,1355578,41054,6142,-1302,7248,196
20210402,1523179,121011,1361017,41151,5325,-211,5439,97
20210403,1527524,120068,1366214,41242,4345,-943,5197,91
20210404,1534255,116709,1375877,41669,6731,-3359,9663,427
20210405,1537967,114475,1381677,41815,3712,-2234,5800,146
20210406,1542516,114566,1385973,41977,4549,91,4296,162
20210407,1547376,113570,1391742,42064,4860,-996,5769,87
20210408,1552880,111271,1399382,42227,5504,-2299,7640,163
20210409,1558145,110138,1405659,42348,5265,-1133,6277,121
20210410,1562868,111137,1409288,42443,4723,999,3629,95
20210411,1566995,109958,1414507,42530,4127,-1179,5219,87
20210412,1571824,109372,1419796,42656,4829,-586,5289,126
20210413,1577526,108599,1426145,42782,5702,-773,6349,126
20210414,1583182,108384,1431892,42906,5656,-215,5747,124
20210415,1589359,108032,1438254,43073,6177,-352,6362,167
20210416,1594722,107297,1444229,43196,5363,-735,5975,123
20210417,1599763,106243,1450192,43328,5041,-1054,5963,132
20210418,1604348,105859,1455065,43424,4585,-384,4873,96
20210419,1609300,104319,1461414,43567,4952,-1540,6349,143
20210420,1614849,102930,1468142,43777,5549,-1389,6728,210
20210421,1620569,101106,1475456,44007,5720,-1824,7314,230
20210422,1626812,101191,1481449,44172,6243,85,5993,165
20210423,1632248,100533,1487369,44346,5436,-658,5920,174
20210424,1636792,99970,1492322,44500,4544,-563,4953,154
20210425,1641194,100474,1496126,44594,4402,504,3804,94
20210426,1647138,100652,1501715,44771,5944,178,5589,177
20210427,1651794,100256,1506599,44939,4656,-396,4884,168
20210428,1657035,100502,1511417,45116,5241,246,4818,177
20210429,1662868,100102,1517432,45334,5833,-400,6015,218
20210430,1668368,100213,1522634,45521,5500,111,5202,187
20210501,1672880,100250,1526978,45652,4512,37,4344,131
20210502,1677274,100760,1530718,45796,4394,510,3740,144
20210503,1682004,100564,1535491,45949,4730,-196,4773,153
20210504,1686373,99087,1541149,46137,4369,-1477,5658,188
20210505,1691658,98217,1547092,46349,5285,-870,5943,212
20210506,1697305,98277,1552532,46496,5647,60,5440,147
20210507,1703632,98546,1558423,46663,6327,269,5891,167
20210508,1709762,99003,1563917,46842,6130,457,5494,179
20210509,1713684,98395,1568277,47012,3922,-608,4360,170
20210510,1718575,96742,1574615,47218,4891,-1653,6338,206
20210511,1723596,95924,1580207,47465,5021,-818,5592,247
20210512,1728204,83142,1584878,47617,4608,-12782,4671,152
20210513,1731652,94857,1589079,47716,3448,11715,4201,99
20210514,1734285,93576,1592886,47823,2633,-1281,3807,107
20210515,1736670,91636,1597067,47967,2385,-1940,4181,144
20210516,1739750,90800,1600857,48093,3080,-836,3790,126
20210517,1744045,89129,1606611,48305,4295,-1671,5754,212
20210518,1748230,87514,1612239,48477,4185,-1615,5628,172
20210519,1753101,87829,1616603,48669,4871,315,4364,192
20210520,1758898,88439,1621572,48887,5797,610,4969,218
20210521,1764644,88439,1626142,49073,5746,0,4570,186
20210522,1769940,88439,1629495,49205,5296,0,3353,132
20210523,1775220,92847,1633045,49328,5280,4408,3550,123
20210524,1781127,93393,1638279,49455,5907,546,5234,127
20210525,1786187,94486,1642074,49627,5060,1093,3795,172
20210526,1791221,96187,1645263,49771,5034,1701,3189,144
20210527,1797499,98405,1649187,49907,6278,2218,3924,136
20210528,1803361,98704,1654557,50100,5862,299,5370,193
20210529,1809926,99690,1659974,50262,6565,986,5417,162
20210530,1816041,101639,1663998,50404,6115,1949,4024,142
20210531,1821703,102006,1669119,50578,5662,367,5121,174
20210601,1826527,76634,1674479,50723,4824,-25372,5360,145
20210602,1831773,100364,1680501,50908,5246,23730,6022,185
20210603,1837126,94438,1691593,51095,5353,-5926,11092,187
20210604,1843612,94773,1697543,51296,6486,335,5950,201
20210605,1850206,96973,1701784,51449,6594,2200,4241,153
20210606,1856038,98455,1705971,51612,5832,1482,4187,163
20210607,1863031,99663,1711565,51803,6993,1208,5594,191
20210608,1869325,99963,1717370,51992,6294,300,5805,189
20210609,1877050,101635,1723253,52162,7725,1672,5883,170
20210610,1885942,104655,1728914,52373,8892,3020,5661,211
20210611,1894025,106315,1735144,52566,8083,1660,6230,193
20210612,1901490,108324,1740436,52730,7465,2009,5292,164
20210613,1911358,113388,1745091,52879,9868,5064,4655,149
20210614,1919547,115197,1751234,53116,8189,1809,6143,237
20210615,1927708,83700,1757641,53280,8161,-31497,6407,164
20210616,1937652,83700,1763870,53476,9944,0,6229,196
20210617,1950276,125303,1771220,53753,12624,41603,7350,277
20210618,1963266,130096,1779127,54043,12990,4793,7907,290
20210619,1976172,135738,1786143,54291,12906,5642,7016,248
20210620,1989909,142719,1792528,54662,13737,6981,6385,371
20210621,2004445,147728,1801761,54956,14536,5009,9233,294
20210622,2018113,142719,1810136,55291,13668,-5009,8375,335
20210623,2033421,160524,1817303,55594,15308,17805,7167,303
20210624,2053995,171542,1826504,55949,20574,11018,9201,355
20210625,2072867,181435,1835061,56371,18872,9893,8557,422
20210626,2093962,194776,1842457,56729,21095,13341,7396,358
20210627,2115304,207685,1850481,57138,21342,12909,8024,409
20210628,2135998,218476,1859961,57561,20694,10791,9480,423
20210629,2156465,228835,1869606,58024,20467,10359,9645,463
20210630,2178272,239368,1880413,58491,21807,10533,10807,467
20210701,2203108,253826,1890287,58995,24836,14458,9874,504
20210702,2228938,267539,1901865,59534,25830,13713,11578,539
20210703,2256851,281677,1915147,60027,27913,14138,13282,493
20210704,2284084,295228,1928274,60582,27233,13551,13127,555
20210705,2313829,309999,1942690,61140,29745,14771,14416,558
20210706,2345018,324597,1958553,61868,31189,14598,15863,728
20210707,2379397,343101,1973388,62908,34379,18504,14835,1040
20210708,2417788,359455,1994573,63760,38391,16354,21185,852
20210709,2455912,367733,2023548,64631,38124,8278,28975,871
20210710,2491006,373440,2052109,65457,35094,5707,28561,826
20210711,2527203,376015,2084724,66464,36197,2575,32615,1007
20210712,2567630,380797,2119478,67355,40427,4782,34754,891
20210713,2615529,407709,2139601,68219,47899,26912,20123,864
20210714,2670046,443473,2157363,69210,54517,35764,17762,991
20210715,2726803,480199,2176412,70192,56757,36726,19049,982
20210716,2780803,504915,2204491,71397,54000,24716,28079,1205
20210717,2832755,527872,2232394,72489,51952,22957,27903,1092
20210718,2877476,542236,2261658,73582,44721,14364,29264,1093
20210719,2911733,542938,2293875,74920,34257,702,32217,1338
20210720,2950058,550192,2323666,76200,38325,7254,29791,1280
20210721,2983830,549694,2356553,77583,33772,-498,32887,1383
20210722,3033339,561384,2392923,79032,49509,11690,36370,1449
20210723,3082410,569901,2431911,80598,49071,8517,38988,1566
20210724,3127826,574135,2471678,82013,45416,4234,39767,1415
20210725,3166505,573908,2509318,83279,38679,-227,37640,1266
20210726,3194733,560275,2549692,84766,28228,-13633,40374,1487
20210727,3239936,556281,2596820,86835,45203,-3994,47128,2069
20210728,3287727,558392,2640676,88659,47791,2111,43856,1824
20210729,3331206,554484,2686170,90552,43479,-3908,45494,1893
20210730,3372374,549343,2730720,92311,41168,-5141,44550,1759
20210731,3409658,545447,2770092,94119,37284,-3896,39372,1808
20210801,3440396,535135,2809538,95723,30738,-10312,39446,1604
20210802,3462800,523164,2842345,97291,22404,-11971,32807,1568
20210803,3496700,524142,2873669,98889,33900,978,31324,1598
20210804,3532567,524011,2907920,100636,35867,-131,34251,1747
20210805,3568331,0,0,102375,35764,-524011,-2907920,1739
20210806,3607863,0,0,104010,39532,0,0,1635
20210807,3639616,0,0,105598,31753,0,0,1588
20210808,3666031,0,0,107096,26415,0,0,1498
20210809,3686740,0,0,108571,20709,0,0,1475
20210810,3718821,0,0,110619,32081,0,0,2048
20210811,3749446,0,0,112198,30625,0,0,1579
20210812,3774155,0,0,113664,24709,0,0,1466
20210813,3804943,0,0,115096,30788,0,0,1432
20210814,3833541,0,0,116366,28598,0,0,1270
20210815,3854354,0,0,117588,20813,0,0,1222
20210816,3871738,0,0,118833,17384,0,0,1245
20210817,3892479,0,0,120013,20741,0,0,1180
20210818,3908247,0,0,121141,15768,0,0,1128
20210819,3930300,0,0,122633,22053,0,0,1492
20210820,3950304,0,0,123981,20004,0,0,1348
20210821,3967048,0,0,125342,16744,0,0,1361
20210822,3979456,0,0,126372,12408,0,0,1030
20210823,3989060,0,0,127214,9604,0,0,842
20210824,4008166,0,0,128252,19106,0,0,1038
20210825,4026837,0,0,129293,18671,0,0,1041
20210826,4043736,0,0,130182,16899,0,0,889
20210827,4056354,0,0,130781,12618,0,0,599
20210828,4066404,0,0,131372,10050,0,0,591
20210829,4073831,0,0,131923,7427,0,0,551
20210830,4079267,0,0,132491,5436,0,0,568
20210831,4089801,0,0,133023,10534,0,0,532
20210901,4100138,0,0,133676,10337,0,0,653
20210902,4100138,0,0,133676,0,0,0,0
20210903,4116890,0,0,134930,16752,0,0,1254
20210904,4123617,0,0,135469,6727,0,0,539
