date,infected,active,recovered,dead,deltaInfected,deltaActive,deltaRecovered,deltaDead
20200221,1,1,0,0,1,1,0,0
20200222,1,1,0,0,0,0,0,0
20200223,1,1,0,0,0,0,0,0
20200224,1,1,0,0,0,0,0,0
20200225,1,1,0,0,0,0,0,0
20200226,2,2,0,0,1,1,0,0
20200227,3,3,0,0,1,1,0,0
20200228,6,6,0,0,3,3,0,0
20200229,6,6,0,0,0,0,0,0
20200301,7,7,0,0,1,1,0,0
20200302,12,12,0,0,5,5,0,0
20200303,15,15,0,0,3,3,0,0
20200304,15,15,0,0,0,0,0,0
20200305,17,17,0,0,2,2,0,0
20200306,21,21,0,0,4,4,0,0
20200307,25,25,0,0,4,4,0,0
20200308,34,34,0,0,9,9,0,0
20200309,38,38,0,0,4,4,0,0
20200310,71,71,0,0,33,33,0,0
20200311,90,90,0,0,19,19,0,0
20200312,112,112,0,0,22,22,0,0
20200313,147,146,1,0,35,34,1,0
20200314,176,175,1,0,29,29,0,0
20200315,215,214,1,0,39,39,0,0
20200316,288,287,1,0,73,73,0,0
20200317,382,379,3,0,94,92,2,0
20200318,500,494,6,0,118,115,3,0
20200319,636,625,11,0,136,131,5,0
20200320,804,790,13,1,168,165,2,1
20200321,1014,999,14,1,210,209,1,0
20200322,1268,1033,19,1,254,34,5,0
20200323,1620,1400,26,1,352,367,7,0
20200324,2043,1874,31,4,423,474,5,3
20200325,2468,2306,37,5,425,432,6,1
20200326,2988,2617,49,10,520,311,12,5
20200327,3421,2944,69,12,433,327,20,2
20200328,3901,3518,84,13,480,574,15,1
20200329,4433,4100,105,16,532,582,21,3
20200330,4979,4518,147,17,546,418,42,1
20200331,5717,5114,210,21,738,596,63,4
20200401,6413,5825,495,29,696,711,285,8
20200402,7132,6483,597,38,719,658,102,9
20200403,7729,6985,667,43,597,502,70,5
20200404,8157,7380,717,49,428,395,50,6
20200405,8740,7904,820,56,583,524,103,7
20200406,9191,8262,939,64,451,358,119,8
20200407,9568,8413,1059,72,377,151,120,8
20200408,9906,8530,1191,80,338,117,132,8
20200409,10249,8871,1306,89,343,341,115,9
20200410,10607,9130,1460,97,358,259,154,8
20200411,10952,9301,1611,103,345,171,151,6
20200412,11504,9415,1909,109,552,114,298,6
20200413,11942,9615,2228,118,438,200,319,9
20200414,12341,9728,2551,126,399,113,323,8
20200415,12652,9808,2823,139,311,80,272,13
20200416,12948,9798,3174,146,296,-10,351,7
20200417,13246,9705,3550,155,298,-93,376,9
20200418,13537,9645,3820,166,291,-60,270,11
20200419,13813,9565,4228,174,276,-80,408,8
20200420,14112,9487,4687,180,299,-78,459,6
20200421,14394,9251,5103,189,282,-236,416,9
20200422,14619,9094,5514,192,225,-157,411,3
20200423,14895,9000,5866,196,276,-94,352,4
20200424,15143,8861,6291,199,248,-139,425,3
20200425,15302,8664,6655,202,159,-197,364,3
20200426,15385,8511,7087,204,83,-153,432,2
20200427,15513,8151,7635,208,128,-360,548,4
20200428,15672,7772,8118,213,159,-379,483,5
20200429,15754,7386,8471,219,82,-386,353,6
20200430,15896,7163,8924,225,142,-223,453,6
20200501,16012,6720,9393,229,116,-443,469,4
20200502,16069,6363,9611,232,57,-357,218,3
20200503,16096,6227,9945,235,27,-136,334,3
20200504,16149,5947,10233,238,53,-280,288,3
20200505,16181,5586,10561,240,32,-361,328,2
20200506,16246,5434,10843,241,65,-152,282,1
20200507,16307,5268,11103,242,61,-166,260,1
20200508,16340,4962,11318,248,33,-306,215,6
20200509,16359,4831,11402,251,19,-131,84,3
20200510,16388,4795,11649,255,29,-36,247,4
20200511,16427,4405,11940,260,39,-390,291,5
20200512,16450,4186,12195,263,23,-219,255,3
20200513,16489,4052,12398,266,39,-134,203,3
20200514,16511,3793,12648,268,22,-259,250,2
20200515,16523,3736,12793,268,12,-57,145,0
20200516,16528,3485,12880,271,5,-251,87,3
20200517,16543,3403,13062,275,15,-82,182,4
20200518,16570,3114,13346,278,27,-289,284,3
20200519,16592,2946,13485,280,22,-168,139,2
20200520,16607,2884,13613,281,15,-62,128,1
20200521,16624,2680,13780,281,17,-204,167,0
20200522,16643,2496,13925,281,19,-184,145,0
20200523,16648,2343,13976,281,5,-153,51,0
20200524,16661,2285,14121,282,13,-58,145,1
20200525,16683,2146,14252,284,22,-139,131,2
20200526,16733,2019,14352,284,50,-127,100,0
20200527,16773,1942,14414,286,40,-77,62,2
20200528,16850,1909,14532,287,77,-33,118,1
20200529,16963,1927,14568,287,113,18,36,0
20200530,16992,1917,14608,287,29,-10,40,0
20200531,17079,1974,14675,287,87,57,67,0
20200601,17179,2006,14765,290,100,32,90,3
20200602,17300,2055,14821,292,121,49,56,2
20200603,17397,2103,14851,293,97,48,30,1
20200604,17539,2191,14894,293,142,88,43,0
20200605,17666,2245,14936,294,127,54,42,1
20200606,17744,2415,14963,298,78,170,27,4
20200607,17884,2474,15017,300,140,59,54,2
20200608,18063,2632,15063,300,179,158,46,0
20200609,18236,2722,15109,301,173,90,46,1
20200610,18476,2888,15173,302,240,166,64,1
20200611,18667,3019,15239,302,191,131,66,0
20200612,18851,3207,15295,302,184,188,56,0
20200613,19000,3315,15334,303,149,108,39,1
20200614,19136,3380,15386,305,136,65,52,2
20200615,19334,3520,15480,305,198,140,94,0
20200616,19634,3744,15534,306,300,224,54,1
20200617,19905,4021,15584,306,271,277,50,0
20200618,20207,4215,15654,306,302,194,70,0
20200619,20517,4449,15701,307,310,234,47,1
20200620,20676,4742,15734,308,159,293,33,1
20200621,20849,4778,15792,308,173,36,58,0
20200622,21194,5014,15860,309,345,236,68,1
20200623,21645,5335,15950,311,451,321,90,2
20200624,22132,5796,16017,314,487,461,67,3
20200625,22648,6084,16103,318,516,288,86,4
20200626,23112,5614,16239,321,464,-470,136,3
20200627,23510,6102,16287,324,398,488,48,3
20200628,23895,6363,16438,326,385,261,151,2
20200629,24652,6904,16595,326,757,541,157,0
20200630,25438,7583,16735,327,786,679,140,1
20200701,26410,8483,16834,330,972,900,99,3
20200702,27556,9176,16988,331,1146,693,154,1
20200703,28495,10060,17096,334,939,884,108,3
20200704,29316,11024,17171,339,821,964,75,5
20200705,30147,11677,17341,341,831,653,170,2
20200706,31281,12359,17525,349,1134,682,184,8
20200707,32671,13653,17695,354,1390,1294,170,5
20200708,33998,14875,17912,359,1327,1222,217,5
20200709,35523,16025,18139,364,1525,1150,227,5
20200710,36932,17302,18352,368,1409,1277,213,4
20200711,38100,18296,18543,373,1168,994,191,5
20200712,39338,19300,18885,380,1238,1004,342,7
20200713,41058,20872,19248,384,1720,1572,363,4
20200714,42662,22324,19562,391,1604,1452,314,7
20200715,44539,23823,19922,397,1877,1499,360,6
20200716,46478,25305,20424,406,1939,1482,502,9
20200717,48083,26323,20908,418,1605,1018,484,12
20200718,49531,27616,21346,426,1448,1293,438,8
20200719,50547,28205,21853,436,1016,589,507,10
20200720,52434,29434,22464,448,1887,1229,611,12
20200721,54440,30874,23100,457,2006,1440,636,9
20200722,56484,32345,27015,463,2044,1471,3915,6
20200723,58474,33496,33815,479,1990,1151,6800,16
20200724,60304,32230,35554,487,1830,-1266,1739,8
20200725,61416,33304,36168,494,1112,1074,614,7
20200726,62458,34461,39100,505,1042,1157,2932,11
20200727,64506,36378,40966,512,2048,1917,1866,7
20200728,66631,33625,42619,520,2125,-2753,1653,8
20200729,68585,35062,44095,535,1954,1437,1476,15
20200730,70372,26047,45865,550,1787,-9015,1770,15
20200731,71734,26608,47225,564,1362,561,1360,14
20200801,72359,26590,47778,578,625,-18,553,14
20200802,73067,26602,50366,589,708,12,2588,11
20200803,74867,26313,52261,604,1800,-289,1895,15
20200804,76596,25803,54016,615,1729,-510,1755,11
20200805,78286,25959,55573,625,1690,156,1557,10
20200806,79963,25556,57443,634,1677,-403,1870,9
20200807,81727,25097,58724,646,1764,-459,1281,12
20200808,82481,24660,59356,659,754,-437,632,13
20200809,83405,24869,61707,666,924,209,2351,7
20200810,85109,25111,63131,681,1704,242,1424,15
20200811,86932,25891,64137,692,1823,780,1006,11
20200812,88554,25403,65305,707,1622,-488,1168,15
20200813,90197,24425,66636,723,1643,-978,1331,16
20200814,91585,23450,67636,735,1388,-975,1000,12
20200815,92342,23609,68219,745,757,159,583,10
20200816,93410,23485,70473,764,1068,-124,2254,19
20200817,95060,23768,71680,768,1650,283,1207,4
20200818,96709,23711,73011,782,1649,-57,1331,14
20200819,98349,24096,74527,794,1640,385,1516,12
20200820,99836,24225,75903,806,1487,129,1376,12
20200821,101329,22122,77513,819,1493,-2103,1610,13
20200822,102040,22463,78185,829,711,341,672,10
20200823,103005,22315,80337,842,965,-148,2152,13
20200824,104905,21983,81674,858,1900,-332,1337,16
20200825,106861,21779,82554,877,1956,-204,880,19
20200826,108814,21062,86431,888,1953,-717,3877,11
20200827,110885,21793,87953,899,2071,731,1522,11
20200828,112717,20055,89824,911,1832,-1738,1871,12
20200829,113627,20455,90554,916,910,400,730,5
20200830,114728,20305,92922,930,1101,-150,2368,14
20200831,116906,20648,94369,953,2178,343,1447,23
20200901,119158,21367,95485,968,2252,719,1116,15
20200902,122351,23261,96973,982,3193,1894,1488,14
20200903,125012,24825,98838,998,2661,1564,1865,16
20200904,127635,25069,100115,1010,2623,244,1277,12
20200905,129140,26448,100974,1025,1505,1379,859,15
20200906,131317,27148,103422,1037,2177,700,2448,12
20200907,134705,27494,105022,1054,3388,346,1600,17
20200908,138194,29522,106529,1074,3489,2028,1507,20
20200909,142190,31689,108116,1089,3996,2167,1587,15
20200910,146351,34507,110134,1103,4161,2818,2018,14
20200911,150326,35746,112005,1123,3975,1239,1871,20
20200912,153045,38123,113225,1138,2719,2377,1220,15
20200913,156220,39487,116620,1155,3175,1364,3395,17
20200914,161025,40662,119051,1175,4805,1175,2431,20
20200915,166564,42528,121114,1191,5539,1866,2063,16
20200916,171138,46081,123964,1217,4574,3553,2850,26
20200917,176523,47758,127776,1235,5385,1677,3812,18
20200918,181863,47851,130669,1255,5340,93,2893,20
20200919,185672,49927,132136,1282,3809,2076,1467,27
20200920,188251,52577,134671,1303,2579,2650,2535,21
20200921,192117,52876,139476,1334,3866,299,4805,31
20200922,199138,51338,143080,1360,7021,-1538,3604,26
20200923,206263,58402,146986,1385,7125,7064,3906,25
20200924,214497,61924,151728,1416,8234,3522,4742,31
20200925,222887,62913,155979,1446,8390,989,4251,30
20200926,228769,68122,158418,1471,5882,5209,2439,25
20200927,232183,69629,164268,1503,3414,1507,5850,32
20200928,233342,66567,166490,1532,1159,-3062,2222,29
20200929,238333,67594,172464,1567,4991,1027,5974,35
20200930,247411,69419,177829,1604,9078,1825,5365,37
20201001,255142,72400,183723,1650,7731,2981,5894,46
20201002,262200,72165,189411,1675,7058,-235,5688,25
20201003,264793,71510,192966,1712,2593,-655,3555,37
20201004,267730,69427,201274,1748,2937,-2083,8308,36
20201005,273451,66197,208378,1775,5721,-3230,7104,27
20201006,278175,63832,214961,1820,4724,-2365,6583,45
20201007,282340,63044,219970,1846,4165,-788,5009,26
20201008,286095,61901,224873,1893,3755,-1143,4903,47
20201009,289058,60724,230053,1933,2963,-1177,5180,40
20201010,289974,62209,233910,1968,916,1485,3857,35
20201011,291620,59855,241641,2014,1646,-2354,7731,46
20201012,294789,53329,247279,2044,3169,-6526,5638,30
20201013,297125,48786,253130,2082,2336,-4543,5851,38
20201014,299242,44691,259060,2117,2117,-4095,5930,35
20201015,300854,40848,264585,2148,1612,-3843,5525,31
20201016,302354,37252,268141,2182,1500,-3596,3556,34
20201017,302765,35135,270674,2214,411,-2117,2533,32
20201018,303687,32807,275693,2247,922,-2328,5019,33
20201019,305204,24219,278084,2278,1517,-8588,2391,31
20201020,306397,21379,279933,2298,1193,-2840,1849,20
20201021,307569,19569,283147,2323,1172,-1810,3214,25
20201022,308601,17591,286346,2352,1032,-1978,3199,29
20201023,309450,16381,288817,2378,849,-1210,2471,26
20201024,309696,15835,290140,2405,246,-546,1323,27
20201025,310303,14440,292890,2440,607,-1395,2750,35
20201026,311187,13544,294212,2468,884,-896,1322,28
20201027,312074,12585,295198,2496,887,-959,986,28
20201028,312797,12013,296524,2506,723,-572,1326,10
20201029,313441,11167,297987,2525,644,-846,1463,19
20201030,314121,11365,299067,2536,680,198,1080,11
20201031,314349,10642,299869,2561,228,-723,802,25
20201101,315007,9680,301411,2580,658,-962,1542,19
20201102,315795,9651,302340,2596,788,-29,929,16
20201103,316641,9867,303086,2622,846,216,746,26
20201104,317410,9409,303724,2639,769,-458,638,17
20201105,317980,9111,304585,2652,570,-298,861,13
20201106,318671,8868,305485,2668,691,-243,900,16
20201107,318883,8812,306180,2676,212,-56,695,8
20201108,319417,8004,306868,2683,534,-808,688,7
20201109,320136,8082,307807,2689,719,78,939,6
20201110,320811,8137,308145,2699,675,55,338,10
20201111,321574,8021,309259,2706,763,-116,1114,7
20201112,322410,8848,310494,2718,836,827,1235,12
20201113,323171,7848,311238,2723,761,-1000,744,5
20201114,323463,7993,311666,2735,292,145,428,12
20201115,324088,7629,312647,2744,625,-364,981,9
20201116,324961,7927,313317,2751,873,298,670,7
20201117,325790,8150,313901,2763,829,223,584,12
20201118,326585,8274,314709,2770,795,124,808,7
20201119,327355,8377,315469,2778,770,103,760,8
20201120,328129,8460,316149,2784,774,83,680,6
20201121,328551,8469,316603,2796,422,9,454,12
20201122,329316,8232,317631,2813,765,-237,1028,17
20201123,330275,8586,318292,2820,959,354,661,7
20201124,331132,9027,318853,2826,857,441,561,6
20201125,332211,9168,319718,2831,1079,141,865,5
20201126,333296,9429,320663,2840,1085,261,945,9
20201127,334328,9617,321373,2846,1032,188,710,6
20201128,334908,9923,321801,2856,580,306,428,10
20201129,335933,9667,322929,2864,1025,-256,1128,8
20201130,337191,10232,323681,2872,1258,565,752,8
20201201,338389,10801,324396,2882,1198,569,715,10
20201202,339968,11476,325255,2886,1579,675,859,4
20201203,341406,11507,326706,2895,1438,31,1451,9
20201204,342101,12043,327162,2896,695,536,456,1
20201205,343826,13168,327749,2909,1725,1125,587,13
20201206,344906,12621,329368,2917,1080,-547,1619,8
20201207,346797,13685,330188,2924,1891,1064,820,7
20201208,348285,14298,331055,2932,1488,613,867,8
20201209,350271,15248,332089,2934,1986,950,1034,2
20201210,352397,16045,333391,2961,2126,797,1302,27
20201211,353269,16400,333900,2969,872,355,509,8
20201212,355786,17560,335243,2983,2517,1160,1343,14
20201213,357176,16991,337186,2999,1390,-569,1943,16
20201214,359506,18084,338418,3004,2330,1093,1232,5
20201215,360630,18832,338784,3014,1124,748,366,10
20201216,365042,20791,341217,3034,4412,1959,2433,20
20201217,367975,21940,342985,3050,2933,1149,1768,16
20201218,370152,22722,344373,3057,2177,782,1388,7
20201219,372886,24222,345590,3074,2734,1500,1217,17
20201220,374760,23554,348107,3099,1874,-668,2517,25
20201221,378259,26274,348874,3111,3499,2720,767,12
20201222,382487,28164,351187,3136,4228,1890,2313,25
20201223,385022,29996,351876,3150,2535,1832,689,14
20201224,389678,31833,354674,3171,4656,1837,2798,21
20201225,394391,33337,357868,3186,4713,1504,3194,15
20201226,398664,35470,359984,3210,4273,2133,2116,24
20201227,401470,34231,364013,3226,2806,-1239,4029,16
20201228,407285,37509,366520,3256,5815,3278,2507,30
20201229,412398,39988,369118,3292,5113,2479,2598,36
20201230,416584,40992,372285,3307,4186,1004,3167,15
20201231,423262,43615,376322,3325,6678,2623,4037,18
20210101,428510,45244,379910,3356,5248,1629,3588,31
20210102,434799,49505,381902,3392,6289,4261,1992,36
20210103,441542,49642,388484,3416,6743,137,6582,24
20210104,448173,53911,390817,3445,6631,4269,2333,29
20210105,456139,58931,393712,3496,7966,5020,2895,51
20210106,463448,61551,398368,3529,7309,2620,4656,33
20210107,471048,64583,402913,3552,7600,3032,4545,23
20210108,477357,65008,408753,3596,6309,425,5840,44
20210109,485434,69493,412296,3645,8077,4485,3543,49
20210110,491319,67741,419907,3671,5885,-1752,7611,26
20210111,501073,72365,425004,3704,9754,4624,5097,33
20210112,510063,76363,429929,3771,8990,3998,4925,67
20210113,520060,78453,437790,3817,9997,2090,7861,46
20210114,529814,78868,447076,3870,9754,415,9286,53
20210115,535049,78012,453127,3910,5235,-856,6051,40
20210116,543499,83842,455698,3959,8450,5830,2571,49
20210117,551689,80667,467017,4005,8190,-3175,11319,46
20210118,558249,80895,473310,4044,6560,228,6293,39
20210119,565629,82884,478665,4080,7380,1989,5355,36
20210120,575842,83503,488158,4181,10213,619,9493,101
20210121,582869,81277,497347,4245,7027,-2226,9189,64
20210122,589028,80172,504590,4266,6159,-1105,7243,21
20210123,593961,76918,512702,4341,4933,-3254,8112,75
20210124,597403,68167,524817,4419,3442,-8751,12115,78
20210125,601069,74357,534485,4498,3666,6190,9668,79
20210126,609656,76938,535717,4513,8587,2581,1232,15
20210127,621590,74870,542115,4605,11934,-2068,6398,92
20210128,628895,72737,551489,4669,7305,-2133,9374,64
20210129,633991,71272,558019,4700,5096,-1465,6530,31
20210130,638789,72396,561655,4738,4798,1124,3636,38
20210131,643435,66128,572511,4796,4646,-6268,10856,58
20210201,652246,74452,572978,4816,8811,8324,467,20
20210202,659978,72892,582199,4887,7732,-1560,9221,71
20210203,668874,74845,589081,4948,8896,1953,6882,61
20210204,675618,81129,589488,5001,6744,6284,407,53
20210205,680856,85014,590822,5020,5238,3885,1334,19
20210206,685583,71368,609144,5071,4727,-13646,18322,51
20210207,692101,67880,619100,5121,6518,-3488,9956,50
20210208,696528,68273,623084,5171,4427,393,3984,50
20210209,703719,70499,628004,5216,7191,2226,4920,45
20210210,709729,68512,635960,5257,6010,-1987,7956,41
20210211,714812,64826,644703,5283,5083,-3686,8743,26
20210212,718746,62149,651293,5304,3934,-2677,6590,21
20210213,721846,61203,655292,5351,3100,-946,3999,47
20210214,724380,55260,663732,5388,2534,-5943,8440,37
20210215,730293,54628,670251,5414,5913,-632,6519,26
20210216,734575,55453,673681,5441,4282,825,3430,27
20210217,738629,52134,681022,5473,4054,-3319,7341,32
20210218,741934,48241,688184,5509,3305,-3893,7162,36
20210219,744513,45484,693503,5526,2579,-2757,5319,17
20210220,744513,45484,693503,5526,0,0,0,0
20210221,750043,40675,703791,5577,5530,-4809,10288,51
20210222,754998,40008,709394,5596,4955,-667,5603,19
20210223,759572,41610,712328,5634,4574,1602,2934,38
20210224,763756,40401,717695,5660,4184,-1209,5367,26
20210225,767726,39731,722308,5687,3970,-670,4613,27
20210226,770780,39356,725727,5697,3054,-375,3419,10
20210227,773335,40027,727576,5732,2555,671,1849,35
20210228,775807,36871,733184,5752,2472,-3156,5608,20
20210301,779958,38574,735624,5760,4151,1703,2440,8
20210302,785218,41202,738226,5790,5260,2628,2602,30
20210303,789485,42741,740941,5803,4267,1539,2715,13
20210304,793407,41583,746002,5822,3922,-1158,5061,19
20210305,796465,40196,750435,5834,3058,-1387,4433,12
20210306,799727,40790,753081,5856,3262,594,2646,22
20210307,801575,37143,758541,5891,1848,-3647,5460,35
20210308,805116,37873,761326,5917,3541,730,2785,26
20210309,808262,38109,764220,5933,3146,236,2894,16
20210310,811492,36829,768713,5950,3230,-1280,4493,17
20210311,814250,34738,773545,5967,2758,-2091,4832,17
20210312,816198,34543,775675,5980,1948,-195,2130,13
20210313,817799,35933,775878,5988,1601,1390,203,8
20210314,818977,27624,785342,6011,1178,-8309,9464,23
20210315,820913,26990,787893,6030,1936,-634,2551,19
20210316,822703,26315,790340,6048,1790,-675,2447,18
20210317,824178,24398,793723,6057,1475,-1917,3383,9
20210318,825562,21397,798096,6069,1384,-3001,4373,12
20210319,826609,20022,800514,6073,1047,-1375,2418,4
20210320,827220,19015,802123,6082,611,-1007,1609,9
20210321,827772,16225,805455,6092,552,-2790,3332,10
20210322,828764,15002,807653,6109,992,-1223,2198,17
20210323,829689,14698,808869,6122,925,-304,1216,13
20210324,830028,12866,811008,6154,339,-1832,2139,32
20210325,830845,11668,813014,6163,817,-1198,2006,9
20210326,831383,10713,814505,6165,538,-955,1491,2
20210327,831383,10713,814505,6165,0,0,0,0
20210328,831924,9521,816218,6185,541,-1192,1713,20
20210329,832125,8230,817698,6197,201,-1291,1480,12
20210330,832639,7888,818558,6193,514,-342,860,-4
20210331,833105,7231,819665,6209,466,-657,1107,16
20210401,833456,6533,820703,6220,351,-698,1038,11
20210402,833707,6581,820906,6220,251,48,203,0
20210403,834070,6086,821748,6236,363,-495,842,16
20210404,834247,5217,822787,6243,177,-869,1039,7
20210405,834603,5025,823330,6248,356,-192,543,5
20210406,834920,4931,823732,6257,317,-94,402,9
20210407,835216,4790,824160,6266,296,-141,428,9
20210408,835486,4459,824748,6279,270,-331,588,13
20210409,835674,4199,825195,6280,188,-260,447,1
20210410,835813,4002,825519,6292,139,-197,324,12
20210411,835933,3432,826205,6296,120,-570,686,4
20210412,836158,3360,826494,6304,225,-72,289,8
20210413,836334,3257,826768,6309,176,-103,274,5
20210414,836590,2716,827562,6312,256,-541,794,3
20210415,836902,2653,827934,6315,312,-63,372,3
20210416,836936,2385,828235,6316,34,-268,301,1
20210417,836883,2586,827966,6331,-53,201,-269,15
20210418,837047,2224,828488,6335,164,-362,522,4
20210419,837218,2191,828686,6341,171,-33,198,6
20210420,837357,2110,828902,6345,139,-81,216,4
20210421,837492,2019,829127,6346,135,-91,225,1
20210422,837807,2037,829424,6346,315,18,297,0
20210423,837892,1850,829696,6346,85,-187,272,0
20210424,837974,1813,829811,6350,82,-37,115,4
20210425,838024,1689,829983,6352,50,-124,172,2
20210426,838107,1666,830088,6353,83,-23,105,1
20210427,838217,1653,830205,6359,110,-13,117,6
20210428,838323,1588,830374,6361,106,-65,169,2
20210429,838407,1515,830530,6362,84,-73,156,1
20210430,838481,1493,830625,6363,74,-22,95,1
20210501,838481,1493,830625,6363,0,0,0,0
20210502,838554,1310,830878,6366,73,-183,253,3
20210503,838621,1259,830995,6367,67,-51,117,1
20210504,838697,1238,831090,6369,76,-21,95,2
20210505,838767,1179,831218,6370,70,-59,128,1
20210506,838828,1175,831279,6374,61,-4,61,4
20210507,838858,1103,831380,6375,30,-72,101,1
20210508,838886,1078,831432,6376,28,-25,52,1
20210509,838894,941,831576,6377,8,-137,144,1
20210510,838957,974,831605,6378,63,33,29,1
20210511,839000,936,831686,6378,43,-38,81,0
20210512,839030,877,831774,6379,30,-59,88,1
20210513,839059,844,831836,6379,29,-33,62,0
20210514,839079,801,831898,6380,20,-43,62,1
20210515,839118,808,831929,6381,39,7,31,1
20210516,839119,717,832020,6382,1,-91,91,1
20210517,839159,729,832041,6389,40,12,21,7
20210518,839167,671,832104,6392,8,-58,63,3
20210519,839221,646,832180,6395,54,-25,76,3
20210520,839263,624,832243,6396,42,-22,63,1
20210521,839290,614,832279,6397,27,-10,36,1
20210522,839308,612,832299,6397,18,-2,20,0
20210523,839319,551,832364,6404,11,-61,65,7
20210524,839367,570,832391,6406,48,19,27,2
20210525,839389,569,832414,6406,22,-1,23,0
20210526,839408,545,832457,6406,19,-24,43,0
20210527,839420,524,832490,6406,12,-21,33,0
20210528,839433,501,832525,6407,13,-23,35,1
20210529,839453,507,832539,6407,20,6,14,0
20210530,839458,456,832591,6411,5,-51,52,4
20210531,839475,456,832607,6412,17,0,16,1
20210601,839511,463,832635,6413,36,7,28,1
20210602,839517,422,832680,6415,6,-41,45,2
20210603,839532,304,832812,6416,15,-118,132,1
20210604,839539,305,832817,6417,7,1,5,1
20210605,839566,322,832826,6418,27,17,9,1
20210606,839571,327,832826,6418,5,5,0,0
20210607,839585,291,832876,6418,14,-36,50,0
20210608,839585,291,832876,6418,0,0,0,0
20210609,839585,291,832876,6418,0,0,0,0
20210610,839630,307,832895,6428,45,16,19,10
20210611,839653,320,832905,6428,23,13,10,0
20210612,839661,324,832909,6428,8,4,4,0
20210613,839666,305,832931,6430,5,-19,22,2
20210614,839690,315,832947,6428,24,10,16,-2
20210615,839701,324,832949,6428,11,9,2,0
20210616,839720,334,832958,6428,19,10,9,0
20210617,839747,352,832968,6427,27,18,10,-1
20210618,839769,342,833000,6427,22,-10,32,0
20210619,839830,391,833012,6427,61,49,12,0
20210620,839867,402,833038,6427,37,11,26,0
20210621,839990,501,833062,6427,123,99,24,0
20210622,840079,581,833070,6428,89,80,8,1
20210623,840225,710,833087,6428,146,129,17,0
20210624,840444,907,833108,6429,219,197,21,1
20210625,840638,1088,833121,6429,194,181,13,0
20210626,840823,1261,833133,6429,185,173,12,0
20210627,840888,1290,833169,6429,65,29,36,0
20210628,841196,1539,833228,6429,308,249,59,0
20210629,841486,1764,833293,6429,290,225,65,0
20210630,841777,1986,833362,6429,291,222,69,0
20210701,842067,2142,833496,6429,290,156,134,0
20210702,842371,2319,833623,6429,304,177,127,0
20210703,842648,2529,833690,6429,277,210,67,0
20210704,842969,2595,833946,6428,321,66,256,-1
20210705,843465,2925,834111,6429,496,330,165,1
20210706,843892,3206,834257,6429,427,281,146,0
20210707,844378,3449,834500,6429,486,243,243,0
20210708,844989,3767,834790,6432,611,318,290,3
20210709,845379,3897,835048,6434,390,130,258,2
20210710,845811,4212,835164,6435,432,315,116,1
20210711,846134,4108,835588,6438,323,-104,424,3
20210712,846327,4201,835688,6438,193,93,100,0
20210713,847602,4977,836185,6440,1275,776,497,2
20210714,848322,5325,836556,6441,720,348,371,1
20210715,849274,5706,837125,6443,952,381,569,2
20210716,850104,6073,837587,6444,830,367,462,1
20210717,850968,6682,837840,6446,864,609,253,2
20210718,851723,6811,838463,6449,755,129,623,3
20210719,852943,7644,838849,6450,1220,833,386,1
20210720,854434,8697,839285,6452,1491,1053,436,2
20210721,855552,9238,839860,6454,1118,541,575,2
20210722,856986,9919,840610,6457,1434,681,750,3
20210723,857977,10268,841252,6457,991,349,642,0
20210724,859398,11273,841667,6458,1421,1005,415,1
20210725,860652,11304,842888,6460,1254,31,1221,2
20210726,862717,12491,843765,6461,2065,1187,877,1
20210727,864912,13832,844619,6461,2195,1341,854,0
20210728,867240,14973,845805,6462,2328,1141,1186,1
20210729,869063,15633,846964,6466,1823,660,1159,4
20210730,871343,16510,848364,6469,2280,877,1400,3
20210731,874018,18532,849013,6473,2675,2022,649,4
20210801,875801,18485,850839,6477,1783,-47,1826,4
20210802,879650,21156,852007,6487,3849,2671,1168,10
20210803,882798,23153,853150,6495,3148,1997,1143,8
20210804,885766,24375,854888,6503,2968,1222,1738,8
20210805,890201,0,0,6509,4435,-24375,-854888,6
20210806,893105,0,0,6516,2904,0,0,7
20210807,897326,0,0,6535,4221,0,0,19
20210808,900482,0,0,6542,3156,0,0,7
20210809,906405,0,0,6559,5923,0,0,17
20210810,910569,0,0,6571,4164,0,0,12
20210811,918237,0,0,6587,7668,0,0,16
20210812,924762,0,0,6604,6525,0,0,17
20210813,929274,0,0,6611,4512,0,0,7
20210814,934896,0,0,6622,5622,0,0,11
20210815,939360,0,0,6668,4464,0,0,46
20210816,948058,0,0,6687,8698,0,0,19
20210817,956310,0,0,6704,8252,0,0,17
20210818,962193,0,0,6723,5883,0,0,19
20210819,970606,0,0,6752,8413,0,0,29
20210820,978212,0,0,6759,7606,0,0,7
20210821,985489,0,0,6775,7277,0,0,16
20210822,990524,0,0,6830,5035,0,0,55
20210823,999110,0,0,6856,8586,0,0,26
20210824,1011223,0,0,6880,12113,0,0,24
20210825,1017825,0,0,6908,6602,0,0,28
20210826,1028271,0,0,6937,10446,0,0,29
20210827,1034623,0,0,6947,6352,0,0,10
20210828,1045800,0,0,6950,11177,0,0,3
20210829,1051609,0,0,6989,5809,0,0,39
20210830,1061488,0,0,7043,9879,0,0,54
20210831,1066352,0,0,7043,4864,0,0,0
20210901,1082981,0,0,7086,16629,0,0,43
20210902,1096881,0,0,7122,13900,0,0,36
20210903,1104971,0,0,7129,8090,0,0,7
20210904,1112964,0,0,7154,7993,0,0,25
