date,infected,active,recovered,dead,deltaInfected,deltaActive,deltaRecovered,deltaDead
20200228,1,1,0,0,1,1,0,0
20200229,1,1,0,0,0,0,0,0
20200301,3,3,0,0,2,2,0,0
20200302,6,6,0,0,3,3,0,0
20200303,11,11,0,0,5,5,0,0
20200304,26,26,0,0,15,15,0,0
20200305,34,34,0,0,8,8,0,0
20200306,43,43,0,0,9,9,0,0
20200307,50,50,0,0,7,7,0,0
20200308,50,50,0,0,0,0,0,0
20200309,58,58,0,0,8,8,0,0
20200310,69,68,1,0,11,10,1,0
20200311,85,84,1,0,16,16,0,0
20200312,103,102,1,0,18,18,0,0
20200313,134,133,1,0,31,31,0,0
20200314,156,155,1,0,22,22,0,0
20200315,171,158,8,5,15,3,7,5
20200316,180,180,0,0,9,22,-8,-5
20200317,220,219,0,1,40,39,0,1
20200318,250,244,5,1,30,25,5,0
20200319,330,324,5,1,80,80,0,0
20200320,409,404,5,0,79,80,0,-1
20200321,473,450,22,1,64,46,17,1
20200322,568,562,5,1,95,112,-17,0
20200323,588,536,51,1,20,-26,46,0
20200324,648,595,51,2,60,59,0,1
20200325,737,679,56,2,89,84,5,0
20200326,802,718,82,2,65,39,26,0
20200327,890,791,97,2,88,73,15,0
20200328,963,847,114,2,73,56,17,0
20200329,1020,883,135,2,57,36,21,0
20200330,1086,927,157,2,66,44,22,0
20200331,1135,935,198,2,49,8,41,0
20200401,1220,993,225,2,85,58,27,0
20200402,1319,1031,284,4,99,38,59,2
20200403,1364,1051,309,4,45,20,25,0
20200404,1417,1017,396,4,53,-34,87,0
20200405,1486,1054,428,4,69,37,32,0
20200406,1562,1096,460,6,76,42,32,2
20200407,1586,1021,559,6,24,-75,99,0
20200408,1616,977,633,6,30,-44,74,0
20200409,1648,954,688,6,32,-23,55,0
20200410,1675,917,751,7,27,-37,63,1
20200411,1689,840,841,8,14,-77,90,1
20200412,1701,804,889,8,12,-36,48,0
20200413,1711,770,933,8,10,-34,44,0
20200414,1720,723,989,8,9,-47,56,0
20200415,1727,642,1077,8,7,-81,88,0
20200416,1739,587,1144,8,12,-55,67,0
20200417,1754,521,1224,9,15,-66,80,1
20200418,1760,460,1291,9,6,-61,67,0
20200419,1771,471,1291,9,11,11,0,0
20200420,1773,401,1362,10,2,-70,71,1
20200421,1778,351,1417,10,5,-50,55,0
20200422,1785,313,1462,10,7,-38,45,0
20200423,1789,270,1509,10,4,-43,47,0
20200424,1789,237,1542,10,0,-33,33,0
20200425,1790,210,1570,10,1,-27,28,0
20200426,1792,174,1608,10,2,-36,38,0
20200427,1792,158,1624,10,0,-16,16,0
20200428,1795,149,1636,10,3,-9,12,0
20200429,1797,131,1656,10,2,-18,20,0
20200430,1797,117,1670,10,0,-14,14,0
20200501,1798,99,1689,10,1,-18,19,0
20200502,1798,82,1706,10,0,-17,17,0
20200503,1799,72,1717,10,1,-10,11,0
20200504,1799,66,1723,10,0,-6,6,0
20200505,1799,56,1733,10,0,-10,10,0
20200506,1799,39,1750,10,0,-17,17,0
20200507,1801,36,1755,10,2,-3,5,0
20200508,1801,26,1765,10,0,-10,10,0
20200509,1801,18,1773,10,0,-8,8,0
20200510,1801,18,1773,10,0,0,0,0
20200511,1801,18,1773,10,0,0,0,0
20200512,1801,15,1776,10,0,-3,3,0
20200513,1802,12,1780,10,1,-3,4,0
20200514,1802,12,1780,10,0,0,0,0
20200515,1802,10,1782,10,0,-2,2,0
20200516,1802,6,1786,10,0,-4,4,0
20200517,1802,6,1786,10,0,0,0,0
20200518,1802,6,1786,10,0,0,0,0
20200519,1802,3,1789,10,0,-3,3,0
20200520,1803,4,1789,10,1,1,0,0
20200521,1803,3,1790,10,0,-1,1,0
20200522,1803,2,1791,10,0,-1,1,0
20200523,1804,3,1791,10,1,1,0,0
20200524,1804,3,1791,10,0,0,0,0
20200525,1804,3,1791,10,0,0,0,0
20200526,1804,2,1792,10,0,-1,1,0
20200527,1805,3,1792,10,1,1,0,0
20200528,1805,3,1792,10,0,0,0,0
20200529,1805,1,1794,10,0,-2,2,0
20200530,1806,2,1794,10,1,1,0,0
20200531,1806,2,1794,10,0,0,0,0
20200601,1806,2,1794,10,0,0,0,0
20200602,1806,2,1794,10,0,0,0,0
20200603,1806,2,1794,10,0,0,0,0
20200604,1806,2,1794,10,0,0,0,0
20200605,1806,2,1794,10,0,0,0,0
20200606,1806,2,1794,10,0,0,0,0
20200607,1807,3,1794,10,1,1,0,0
20200608,1807,3,1794,10,0,0,0,0
20200609,1807,3,1794,10,0,0,0,0
20200610,1807,3,1794,10,0,0,0,0
20200611,1807,3,1794,10,0,0,0,0
20200612,1807,3,1794,10,0,0,0,0
20200613,1808,4,1794,10,1,1,0,0
20200614,1810,4,1796,10,2,0,2,0
20200615,1810,4,1796,10,0,0,0,0
20200616,1812,6,1796,10,2,2,0,0
20200617,1815,8,1797,10,3,2,1,0
20200618,1816,5,1801,10,1,-3,4,0
20200619,1819,8,1801,10,3,3,0,0
20200620,1822,7,1805,10,3,-1,4,0
20200621,1823,8,1805,10,1,1,0,0
20200622,1823,8,1805,10,0,0,0,0
20200623,1824,8,1806,10,1,0,1,0
20200624,1824,8,1806,10,0,0,0,0
20200625,1830,9,1811,10,6,1,5,0
20200626,1832,9,1813,10,2,0,2,0
20200627,1836,12,1814,10,4,3,1,0
20200628,1838,12,1816,10,2,0,2,0
20200629,1840,12,1818,10,2,0,2,0
20200630,1842,13,1819,10,2,1,1,0
20200701,1847,14,1823,10,5,1,4,0
20200702,1850,12,1828,10,3,-2,5,0
20200703,1855,13,1832,10,5,1,4,0
20200704,1860,17,1833,10,5,4,1,0
20200705,1863,20,1833,10,3,3,0,0
20200706,1866,16,1840,10,3,-4,7,0
20200707,1873,16,1847,10,7,0,7,0
20200708,1880,20,1850,10,7,4,3,0
20200709,1882,18,1854,10,2,-2,4,0
20200710,1886,17,1859,10,4,-1,5,0
20200711,1888,18,1860,10,2,1,1,0
20200712,1896,21,1865,10,8,3,5,0
20200713,1900,19,1871,10,4,-2,6,0
20200714,1905,13,1882,10,5,-6,11,0
20200715,1911,16,1885,10,6,3,3,0
20200716,1914,12,1892,10,3,-4,7,0
20200717,1916,11,1895,10,2,-1,3,0
20200718,1922,10,1902,10,6,-1,7,0
20200719,1930,13,1907,10,8,3,5,0
20200720,1930,13,1907,10,0,0,0,0
20200721,1839,8,1821,10,-91,-5,-86,0
20200722,1840,8,1822,10,1,0,1,0
20200723,1841,8,1823,10,1,0,1,0
20200724,1843,10,1823,10,2,2,0,0
20200725,1843,10,1823,10,0,0,0,0
20200726,1847,14,1823,10,4,4,0,0
20200727,1854,21,1823,10,7,7,0,0
20200728,1857,24,1823,10,3,3,0,0
20200729,1861,28,1823,10,4,4,0,0
20200730,1872,39,1823,10,11,11,0,0
20200731,1885,50,1825,10,13,11,2,0
20200801,1893,58,1825,10,8,8,0,0
20200802,1907,72,1825,10,14,14,0,0
20200803,1915,80,1825,10,8,8,0,0
20200804,1918,83,1825,10,3,3,0,0
20200805,1926,91,1825,10,8,8,0,0
20200806,1932,97,1825,10,6,6,0,0
20200807,1952,109,1833,10,20,12,8,0
20200808,1955,112,1833,10,3,3,0,0
20200809,1958,114,1834,10,3,2,1,0
20200810,1962,114,1838,10,4,0,4,0
20200811,1968,114,1844,10,6,0,6,0
20200812,1972,115,1847,10,4,1,3,0
20200813,1976,114,1852,10,4,-1,5,0
20200814,1983,112,1861,10,7,-2,9,0
20200815,1999,119,1870,10,16,7,9,0
20200816,2011,121,1880,10,12,2,10,0
20200817,2014,116,1888,10,3,-5,8,0
20200818,2027,122,1895,10,13,6,7,0
20200819,2035,122,1903,10,8,0,8,0
20200820,2040,117,1913,10,5,-5,10,0
20200821,2050,120,1920,10,10,3,7,0
20200822,2058,112,1936,10,8,-8,16,0
20200823,2064,115,1939,10,6,3,3,0
20200824,2073,117,1946,10,9,2,7,0
20200825,2077,114,1953,10,4,-3,7,0
20200826,2082,115,1957,10,5,1,4,0
20200827,2087,113,1964,10,5,-2,7,0
20200828,2092,118,1964,10,5,5,0,0
20200829,2100,111,1979,10,8,-7,15,0
20200830,2105,105,1990,10,5,-6,11,0
20200831,2107,100,1997,10,2,-5,7,0
20200901,2116,99,2007,10,9,-1,10,0
20200902,2121,95,2016,10,5,-4,9,0
20200903,2128,95,2023,10,7,0,7,0
20200904,2135,96,2029,10,7,1,6,0
20200905,2136,88,2038,10,1,-8,9,0
20200906,2141,81,2050,10,5,-7,12,0
20200907,2143,76,2057,10,2,-5,7,0
20200908,2150,80,2060,10,7,4,3,0
20200909,2153,76,2067,10,3,-4,7,0
20200910,2157,75,2072,10,4,-1,5,0
20200911,2161,72,2079,10,4,-3,7,0
20200912,2162,67,2085,10,1,-5,6,0
20200913,2165,63,2092,10,3,-4,7,0
20200914,2168,63,2095,10,3,0,3,0
20200915,2174,62,2102,10,6,-1,7,0
20200916,2189,75,2104,10,15,13,2,0
20200917,2206,84,2112,10,17,9,8,0
20200918,2230,108,2112,10,24,24,0,0
20200919,2307,181,2116,10,77,73,4,0
20200920,2307,181,2116,10,0,0,0,0
20200921,2377,242,2125,10,70,61,9,0
20200922,2419,279,2130,10,42,37,5,0
20200923,2476,324,2142,10,57,45,12,0
20200924,2512,352,2150,10,36,28,8,0
20200925,2561,400,2151,10,49,48,1,0
20200926,2601,435,2156,10,40,35,5,0
20200927,2623,455,2158,10,22,20,2,0
20200928,2663,492,2161,10,40,37,3,0
20200929,2695,523,2162,10,32,31,1,0
20200930,2728,551,2167,10,33,28,5,0
20201001,2769,582,2177,10,41,31,10,0
20201002,2809,605,2194,10,40,23,17,0
20201003,2872,650,2212,10,63,45,18,0
20201004,2921,634,2277,10,49,-16,65,0
20201005,2980,670,2300,10,59,36,23,0
20201006,3081,747,2324,10,101,77,24,0
20201007,3172,796,2366,10,91,49,42,0
20201008,3267,846,2411,10,95,50,45,0
20201009,3373,915,2448,10,106,69,37,0
20201010,3460,984,2466,10,87,69,18,0
20201011,3526,1017,2499,10,66,33,33,0
20201012,3582,1022,2550,10,56,5,51,0
20201013,3668,1071,2587,10,86,49,37,0
20201014,3757,1132,2615,10,89,61,28,0
20201015,3837,1170,2657,10,80,38,42,0
20201016,3929,1205,2713,11,92,35,56,1
20201017,3998,1242,2745,11,69,37,32,0
20201018,4055,1240,2804,11,57,-2,59,0
20201019,4101,1234,2856,11,46,-6,52,0
20201020,4193,1252,2930,11,92,18,74,0
20201021,4230,1206,3013,11,37,-46,83,0
20201022,4268,1159,3098,11,38,-47,85,0
20201023,4308,1110,3187,11,40,-49,89,0
20201024,4394,1081,3302,11,86,-29,115,0
20201025,4448,1042,3395,11,54,-39,93,0
20201026,4504,1030,3463,11,56,-12,68,0
20201027,4574,1048,3515,11,70,18,52,0
20201028,4671,1061,3598,12,97,13,83,1
20201029,4719,1006,3701,12,48,-55,103,0
20201030,4797,997,3788,12,78,-9,87,0
20201031,4865,980,3873,12,68,-17,85,0
20201101,4890,930,3948,12,25,-50,75,0
20201102,4931,909,4010,12,41,-21,62,0
20201103,4957,859,4081,17,26,-50,71,5
20201104,4989,798,4174,17,32,-61,93,0
20201105,5017,762,4237,18,28,-36,63,1
20201106,5039,735,4286,18,22,-27,49,0
20201107,5063,710,4335,18,24,-25,49,0
20201108,5078,635,4423,20,15,-75,88,2
20201109,5101,622,4456,23,23,-13,33,3
20201110,5114,569,4521,24,13,-53,65,1
20201111,5142,542,4576,24,28,-27,55,0
20201112,5160,472,4663,25,18,-70,87,1
20201113,5170,447,4698,25,10,-25,35,0
20201114,5186,394,4767,25,16,-53,69,0
20201115,5189,351,4813,25,3,-43,46,0
20201116,5205,340,4840,25,16,-11,27,0
20201117,5215,302,4888,25,10,-38,48,0
20201118,5226,267,4934,25,11,-35,46,0
20201119,5231,233,4973,25,5,-34,39,0
20201120,5251,232,4993,26,20,-1,20,1
20201121,5269,224,5019,26,18,-8,26,0
20201122,5277,205,5046,26,8,-19,27,0
20201123,5289,198,5065,26,12,-7,19,0
20201124,5298,186,5086,26,9,-12,21,0
20201125,5312,176,5110,26,14,-10,24,0
20201126,5323,166,5131,26,11,-10,21,0
20201127,5346,176,5144,26,23,10,13,0
20201128,5371,193,5152,26,25,17,8,0
20201129,5381,187,5168,26,10,-6,16,0
20201130,5392,187,5179,26,11,0,11,0
20201201,5413,199,5187,27,21,12,8,1
20201202,5413,199,5187,27,0,0,0,0
20201203,5448,205,5216,27,35,6,29,0
20201204,5462,212,5223,27,14,7,7,0
20201205,5476,196,5253,27,14,-16,30,0
20201206,5482,186,5269,27,6,-10,16,0
20201207,5496,197,5272,27,14,11,3,0
20201208,5506,186,5292,28,10,-11,20,1
20201209,5516,186,5302,28,10,0,10,0
20201210,5524,183,5313,28,8,-3,11,0
20201211,5539,188,5323,28,15,5,10,0
20201212,5552,178,5346,28,13,-10,23,0
20201213,5557,163,5366,28,5,-15,20,0
20201214,5564,144,5392,28,7,-19,26,0
20201215,5571,142,5401,28,7,-2,9,0
20201216,5578,129,5421,28,7,-13,20,0
20201217,5588,137,5423,28,10,8,2,0
20201218,5604,127,5449,28,16,-10,26,0
20201219,5621,126,5467,28,17,-1,18,0
20201220,5642,136,5478,28,21,10,11,0
20201221,5656,141,5487,28,14,5,9,0
20201222,5667,139,5500,28,11,-2,13,0
20201223,5683,149,5506,28,16,10,6,0
20201224,5683,149,5506,28,0,0,0,0
20201225,5683,149,5506,28,0,0,0,0
20201226,5683,149,5506,28,0,0,0,0
20201227,5683,149,5506,28,0,0,0,0
20201228,5726,143,5555,28,43,-6,49,0
20201229,5736,141,5566,29,10,-2,11,1
20201230,5754,147,5578,29,18,6,12,0
20201231,5754,147,5578,29,0,0,0,0
20210101,5754,147,5578,29,0,0,0,0
20210102,5754,147,5578,29,0,0,0,0
20210103,5754,147,5578,29,0,0,0,0
20210104,5795,101,5665,29,41,-46,87,0
20210105,5811,111,5671,29,16,10,6,0
20210106,5832,127,5676,29,21,16,5,0
20210107,5845,126,5690,29,13,-1,14,0
20210108,5867,134,5704,29,22,8,14,0
20210109,5880,145,5706,29,13,11,2,0
20210110,5890,143,5718,29,10,-2,12,0
20210111,5898,143,5726,29,8,0,8,0
20210112,5912,149,5734,29,14,6,8,0
20210113,5935,164,5742,29,23,15,8,0
20210114,5948,170,5749,29,13,6,7,0
20210115,5956,160,5767,29,8,-10,18,0
20210116,5956,160,5767,29,0,0,0,0
20210117,5956,160,5767,29,0,0,0,0
20210118,5970,143,5798,29,14,-17,31,0
20210119,5970,127,5814,29,0,-16,16,0
20210120,5975,116,5830,29,5,-11,16,0
20210121,5981,106,5846,29,6,-10,16,0
20210122,5981,84,5868,29,0,-22,22,0
20210123,5981,84,5868,29,0,0,0,0
20210124,5981,84,5868,29,0,0,0,0
20210125,5990,61,5900,29,9,-23,32,0
20210126,5992,59,5904,29,2,-2,4,0
20210127,6000,56,5915,29,8,-3,11,0
20210128,6001,47,5925,29,1,-9,10,0
20210129,6002,43,5930,29,1,-4,5,0
20210130,6002,43,5930,29,0,0,0,0
20210131,6002,43,5930,29,0,0,0,0
20210201,6009,41,5939,29,7,-2,9,0
20210202,6011,40,5942,29,2,-1,3,0
20210203,6013,38,5946,29,2,-2,4,0
20210204,6016,33,5954,29,3,-5,8,0
20210205,6021,33,5959,29,5,0,5,0
20210206,6021,33,5959,29,0,0,0,0
20210207,6021,33,5959,29,0,0,0,0
20210208,6020,28,5963,29,-1,-5,4,0
20210209,6025,28,5968,29,5,0,5,0
20210210,6026,24,5973,29,1,-4,5,0
20210211,6026,21,5976,29,0,-3,3,0
20210212,6033,26,5978,29,7,5,2,0
20210213,6033,26,5978,29,0,0,0,0
20210214,6033,26,5978,29,0,0,0,0
20210215,6039,26,5984,29,6,0,6,0
20210216,6039,24,5986,29,0,-2,2,0
20210217,6044,29,5986,29,5,5,0,0
20210218,6044,26,5989,29,0,-3,3,0
20210219,6045,27,5989,29,1,1,0,0
20210220,6045,27,5989,29,0,0,0,0
20210221,6045,27,5989,29,0,0,0,0
20210222,6049,25,5995,29,4,-2,6,0
20210223,6049,17,6003,29,0,-8,8,0
20210224,6049,16,6004,29,0,-1,1,0
20210225,6049,15,6005,29,0,-1,1,0
20210226,6049,14,6006,29,0,-1,1,0
20210227,6049,14,6006,29,0,0,0,0
20210228,6049,14,6006,29,0,0,0,0
20210301,6054,13,6012,29,5,-1,6,0
20210302,6055,9,6017,29,1,-4,5,0
20210303,6058,11,6018,29,3,2,1,0
20210304,6058,11,6018,29,0,0,0,0
20210305,6059,10,6020,29,1,-1,2,0
20210306,6059,10,6020,29,0,0,0,0
20210307,6059,10,6020,29,0,0,0,0
20210308,6064,15,6020,29,5,5,0,0
20210309,6067,16,6022,29,3,1,2,0
20210310,6069,17,6023,29,2,1,1,0
20210311,6070,18,6023,29,1,1,0,0
20210312,6072,20,6023,29,2,2,0,0
20210313,6072,20,6023,29,0,0,0,0
20210314,6072,20,6023,29,0,0,0,0
20210315,6083,27,6027,29,11,7,4,0
20210316,6087,30,6028,29,4,3,1,0
20210317,6089,31,6029,29,2,1,1,0
20210318,6091,32,6030,29,2,1,1,0
20210319,6097,35,6033,29,6,3,3,0
20210320,6097,35,6033,29,0,0,0,0
20210321,6097,35,6033,29,0,0,0,0
20210322,6119,55,6035,29,22,20,2,0
20210323,6122,57,6036,29,3,2,1,0
20210324,6144,75,6040,29,22,18,4,0
20210325,6158,89,6040,29,14,14,0,0
20210326,6163,95,6039,29,5,6,-1,0
20210327,6163,95,6039,29,0,0,0,0
20210328,6163,95,6039,29,0,0,0,0
20210329,6183,105,6049,29,20,10,10,0
20210330,6194,109,6056,29,11,4,7,0
20210331,6205,118,6058,29,11,9,2,0
20210401,6205,118,6058,29,0,0,0,0
20210402,6205,118,6058,29,0,0,0,0
20210403,6225,124,6072,29,20,6,14,0
20210404,6225,124,6072,29,0,0,0,0
20210405,6225,124,6072,29,0,0,0,0
20210406,6241,123,6089,29,16,-1,17,0
20210407,6251,132,6090,29,10,9,1,0
20210408,6256,110,6117,29,5,-22,27,0
20210409,6258,103,6126,29,2,-7,9,0
20210410,6258,103,6126,29,0,0,0,0
20210411,6258,103,6126,29,0,0,0,0
20210412,6267,98,6140,29,9,-5,14,0
20210413,6274,93,6152,29,7,-5,12,0
20210414,6275,83,6163,29,1,-10,11,0
20210415,6279,80,6170,29,4,-3,7,0
20210416,6286,73,6184,29,7,-7,14,0
20210417,6286,73,6184,29,0,0,0,0
20210418,6286,73,6184,29,0,0,0,0
20210419,6329,97,6203,29,43,24,19,0
20210420,6350,113,6208,29,21,16,5,0
20210421,6362,120,6213,29,12,7,5,0
20210422,6379,127,6223,29,17,7,10,0
20210423,6390,134,6227,29,11,7,4,0
20210424,6390,134,6227,29,0,0,0,0
20210425,6390,134,6227,29,0,0,0,0
20210426,6429,169,6231,29,39,35,4,0
20210427,6447,178,6240,29,18,9,9,0
20210428,6456,183,6244,29,9,5,4,0
20210429,6466,191,6246,29,10,8,2,0
20210430,6472,190,6253,29,6,-1,7,0
20210501,6472,190,6253,29,0,0,0,0
20210502,6472,190,6253,29,0,0,0,0
20210503,6483,174,6280,29,11,-16,27,0
20210504,6491,167,6295,29,8,-7,15,0
20210505,6497,173,6295,29,6,6,0,0
20210506,6500,139,6332,29,3,-34,37,0
20210507,6506,130,6347,29,6,-9,15,0
20210508,6506,130,6347,29,0,0,0,0
20210509,6506,130,6347,29,0,0,0,0
20210510,6519,100,6390,29,13,-30,43,0
20210511,6522,84,6409,29,3,-16,19,0
20210512,6526,75,6422,29,4,-9,13,0
20210513,6526,75,6422,29,0,0,0,0
20210514,6537,63,6445,29,11,-12,23,0
20210515,6537,63,6445,29,0,0,0,0
20210516,6537,63,6445,29,0,0,0,0
20210517,6548,63,6456,29,11,0,11,0
20210518,6549,58,6462,29,1,-5,6,0
20210519,6551,52,6470,29,2,-6,8,0
20210520,6555,50,6476,29,4,-2,6,0
20210521,6555,50,6476,29,0,0,0,0
20210522,6555,50,6476,29,0,0,0,0
20210523,6556,50,6476,29,1,0,0,0
20210524,6556,50,6476,29,0,0,0,0
20210525,6556,50,6476,29,0,0,0,0
20210526,6560,50,6476,30,4,0,0,1
20210527,6564,50,6476,30,4,0,0,0
20210528,6564,50,6476,30,0,0,0,0
20210529,6576,50,6476,30,12,0,0,0
20210530,6576,50,6476,30,0,0,0,0
20210531,6576,50,6476,30,0,0,0,0
20210601,6576,50,6476,30,0,0,0,0
20210602,6586,50,6476,30,10,0,0,0
20210603,6590,50,6476,30,4,0,0,0
20210604,6595,50,6476,30,5,0,0,0
20210605,6597,50,6476,30,2,0,0,0
20210606,6604,50,6476,30,7,0,0,0
20210607,6604,50,6476,30,0,0,0,0
20210608,6604,50,6476,30,0,0,0,0
20210609,6612,50,6476,30,8,0,0,0
20210610,6612,50,6476,30,0,0,0,0
20210611,6616,50,6476,30,4,0,0,0
20210612,6616,50,6476,30,0,0,0,0
20210613,6616,50,6476,30,0,0,0,0
20210614,6616,50,6476,30,0,0,0,0
20210615,6621,50,6476,30,5,0,0,0
20210616,6621,50,6476,30,0,0,0,0
20210617,6622,50,6476,30,1,0,0,0
20210618,6622,50,6476,30,0,0,0,0
20210619,6627,50,6476,30,5,0,0,0
20210620,6627,50,6476,30,0,0,0,0
20210621,6627,50,6476,30,0,0,0,0
20210622,6630,50,6476,30,3,0,0,0
20210623,6630,50,6476,30,0,0,0,0
20210624,6630,50,6476,30,0,0,0,0
20210625,6630,50,6476,30,0,0,0,0
20210626,6637,50,6476,30,7,0,0,0
20210627,6637,50,6476,30,0,0,0,0
20210628,6637,50,6476,30,0,0,0,0
20210629,6649,50,6476,30,12,0,0,0
20210630,6649,50,6476,30,0,0,0,0
20210701,6649,50,6476,30,0,0,0,0
20210702,6649,50,6476,30,0,0,0,0
20210703,6654,50,6476,30,5,0,0,0
20210704,6654,50,6476,30,0,0,0,0
20210705,6654,50,6476,30,0,0,0,0
20210706,6654,50,6476,30,0,0,0,0
20210707,6664,50,6476,30,10,0,0,0
20210708,6664,50,6476,30,0,0,0,0
20210709,6664,50,6476,30,0,0,0,0
20210710,6675,50,6476,30,11,0,0,0
20210711,6675,50,6476,30,0,0,0,0
20210712,6675,50,6476,30,0,0,0,0
20210713,6675,50,6476,30,0,0,0,0
20210714,6675,50,6476,30,0,0,0,0
20210715,6675,50,6476,30,0,0,0,0
20210716,6675,50,6476,30,0,0,0,0
20210717,6718,50,6476,30,43,0,0,0
20210718,6718,50,6476,30,0,0,0,0
20210719,6718,50,6476,30,0,0,0,0
20210720,6832,163,6639,30,114,113,163,0
20210721,6897,223,6644,30,65,60,5,0
20210722,6967,285,6652,30,70,62,8,0
20210723,7054,371,6653,30,87,86,1,0
20210724,7148,463,6655,30,94,92,2,0
20210725,7233,545,6658,30,85,82,3,0
20210726,7304,609,6665,30,71,64,7,0
20210727,7428,730,6668,30,124,121,3,0
20210728,7545,847,6668,30,117,117,0,0
20210729,7676,966,6680,30,131,119,12,0
20210730,7801,1072,6699,30,125,106,19,0
20210731,7959,1213,6716,30,158,141,17,0
20210801,8051,1226,6795,30,92,13,79,0
20210802,8122,1244,6848,30,71,18,53,0
20210803,8233,1304,6899,30,111,60,51,0
20210804,8353,1330,6993,30,120,26,94,0
20210805,8508,0,0,30,155,-1330,-6993,0
20210806,8613,0,0,30,105,0,0,0
20210807,8738,0,0,30,125,0,0,0
20210808,8793,0,0,30,55,0,0,0
20210809,8900,0,0,30,107,0,0,0
20210810,8956,0,0,30,56,0,0,0
20210811,9126,0,0,30,170,0,0,0
20210812,9246,0,0,30,120,0,0,0
20210813,9376,0,0,30,130,0,0,0
20210814,9458,0,0,30,82,0,0,0
20210815,9522,0,0,30,64,0,0,0
20210816,9578,0,0,30,56,0,0,0
20210817,9682,0,0,30,104,0,0,0
20210818,9812,0,0,30,130,0,0,0
20210819,9916,0,0,30,104,0,0,0
20210820,9980,0,0,30,64,0,0,0
20210821,10053,0,0,30,73,0,0,0
20210822,10115,0,0,30,62,0,0,0
20210823,10177,0,0,30,62,0,0,0
20210824,10254,0,0,30,77,0,0,0
20210825,10341,0,0,30,87,0,0,0
20210826,10443,0,0,31,102,0,0,1
20210827,10514,0,0,32,71,0,0,1
20210828,10605,0,0,32,91,0,0,0
20210829,10658,0,0,33,53,0,0,1
20210830,10705,0,0,33,47,0,0,0
20210831,10789,0,0,33,84,0,0,0
20210901,10856,0,0,33,67,0,0,0
20210902,10912,0,0,33,56,0,0,0
20210903,10956,0,0,33,44,0,0,0
20210904,11010,0,0,33,54,0,0,0
