date,infected,active,recovered,dead,deltaInfected,deltaActive,deltaRecovered,deltaDead
20200311,1,1,0,0,1,1,0,0
20200312,2,2,0,0,1,1,0,0
20200313,8,8,0,0,6,6,0,0
20200314,8,8,0,0,0,0,0,0
20200315,10,10,0,0,2,2,0,0
20200316,10,8,2,0,0,-2,2,0
20200317,12,10,2,0,2,2,0,0
20200318,13,11,2,0,1,1,0,0
20200319,15,12,2,1,2,1,0,1
20200320,16,13,2,1,1,1,0,0
20200321,16,13,2,1,0,0,0,0
20200322,19,16,2,1,3,3,0,0
20200323,19,16,2,1,0,0,0,0
20200324,21,18,2,1,2,2,0,0
20200325,26,23,2,1,5,5,0,0
20200326,26,23,2,1,0,0,0,0
20200327,26,23,2,1,0,0,0,0
20200328,30,27,2,1,4,4,0,0
20200329,32,29,2,1,2,2,0,0
20200330,36,33,2,1,4,4,0,0
20200331,36,33,2,1,0,0,0,0
20200401,44,39,2,3,8,6,0,2
20200402,47,42,2,3,3,3,0,0
20200403,47,42,2,3,0,0,0,0
20200404,53,43,7,3,6,1,5,0
20200405,58,47,8,3,5,4,1,0
20200406,58,47,8,3,0,0,0,0
20200407,63,52,8,3,5,5,0,0
20200408,63,49,10,4,0,-3,2,1
20200409,63,47,12,4,0,-2,2,0
20200410,63,46,13,4,0,-1,1,0
20200411,65,48,13,4,2,2,0,0
20200412,69,52,13,4,4,4,0,0
20200413,73,50,19,4,4,-2,6,0
20200414,73,50,19,4,0,0,0,0
20200415,125,99,21,5,52,49,2,1
20200416,143,117,21,5,18,18,0,0
20200417,143,113,25,5,0,-4,4,0
20200418,163,133,25,5,20,20,0,0
20200419,173,141,27,5,10,8,2,0
20200420,223,191,27,5,50,50,0,0
20200421,223,190,27,6,0,-1,0,1
20200422,233,200,27,6,10,10,0,0
20200423,257,223,28,6,24,23,1,0
20200424,288,253,28,7,31,30,0,1
20200425,305,270,28,7,17,17,0,0
20200426,350,315,28,7,45,45,0,0
20200427,364,328,29,7,14,13,1,0
20200428,364,328,29,7,0,0,0,0
20200429,396,360,29,7,32,32,0,0
20200430,422,385,29,8,26,25,0,1
20200501,432,393,31,8,10,8,2,0
20200502,463,422,33,8,31,29,2,0
20200503,469,422,38,9,6,0,5,1
20200504,471,424,38,9,2,2,0,0
20200505,473,408,56,9,2,-16,18,0
20200506,478,412,57,9,5,4,1,0
20200507,488,421,58,9,10,9,1,0
20200508,490,419,62,9,2,-2,4,0
20200509,490,419,62,9,0,0,0,0
20200510,502,403,90,9,12,-16,28,0
20200511,505,406,90,9,3,3,0,0
20200512,507,398,100,9,2,-8,10,0
20200513,509,387,113,9,2,-11,13,0
20200514,509,382,118,9,0,-5,5,0
20200515,511,381,121,9,2,-1,3,0
20200516,517,387,121,9,6,6,0,0
20200517,520,384,127,9,3,-3,6,0
20200518,520,380,131,9,0,-4,4,0
20200519,520,366,145,9,0,-14,14,0
20200520,529,349,171,9,9,-17,26,0
20200521,534,344,181,9,5,-5,10,0
20200522,544,344,191,9,10,0,10,0
20200523,550,341,200,9,6,-3,9,0
20200524,552,332,211,9,2,-9,11,0
20200525,556,309,238,9,4,-23,27,0
20200526,564,288,267,9,8,-21,29,0
20200527,569,281,279,9,5,-7,12,0
20200528,569,276,284,9,0,-5,5,0
20200529,575,277,289,9,6,1,5,0
20200530,581,282,290,9,6,5,1,0
20200531,586,266,311,9,5,-16,21,0
20200601,588,257,322,9,2,-9,11,0
20200602,590,225,356,9,2,-32,34,0
20200603,591,220,361,10,1,-5,5,1
20200604,591,213,368,10,0,-7,7,0
20200605,595,200,385,10,4,-13,17,0
20200606,596,182,404,10,1,-18,19,0
20200607,598,183,405,10,2,1,1,0
20200608,599,184,405,10,1,1,0,0
20200609,605,190,405,10,6,6,0,0
20200610,605,188,407,10,0,-2,2,0
20200611,611,193,408,10,6,5,1,0
20200612,614,187,417,10,3,-6,9,0
20200613,615,185,420,10,1,-2,3,0
20200614,617,187,420,10,2,2,0,0
20200615,621,181,430,10,4,-6,10,0
20200616,621,162,449,10,0,-19,19,0
20200617,626,165,451,10,5,3,2,0
20200618,638,170,458,10,12,5,7,0
20200619,652,184,458,10,14,14,0,0
20200620,657,185,462,10,5,1,4,0
20200621,659,133,516,10,2,-52,54,0
20200622,665,139,516,10,6,6,0,0
20200623,670,142,518,10,5,3,2,0
20200624,678,147,521,10,8,5,3,0
20200625,684,148,526,10,6,1,5,0
20200626,686,137,539,10,2,-11,13,0
20200627,690,128,552,10,4,-9,13,0
20200628,696,134,552,10,6,6,0,0
20200629,698,135,553,10,2,1,1,0
20200630,702,139,553,10,4,4,0,0
20200701,707,142,555,10,5,3,2,0
20200702,715,145,560,10,8,3,5,0
20200703,721,146,565,10,6,1,5,0
20200704,728,149,569,10,7,3,4,0
20200705,732,138,584,10,4,-11,15,0
20200706,737,136,591,10,5,-2,7,0
20200707,745,136,599,10,8,0,8,0
20200708,751,141,600,10,6,5,1,0
20200709,753,140,603,10,2,-1,3,0
20200710,753,138,605,10,0,-2,2,0
20200711,758,133,615,10,5,-5,10,0
20200712,758,128,620,10,0,-5,5,0
20200713,759,121,628,10,1,-7,8,0
20200714,762,109,643,10,3,-12,15,0
20200715,763,106,647,10,1,-3,4,0
20200716,765,108,647,10,2,2,0,0
20200717,768,80,678,10,3,-28,31,0
20200718,774,85,679,10,6,5,1,0
20200719,790,87,693,10,16,2,14,0
20200720,809,93,706,10,19,6,13,0
20200721,810,91,709,10,1,-2,3,0
20200722,816,96,710,10,6,5,1,0
20200723,821,100,711,10,5,4,1,0
20200724,831,110,711,10,10,10,0,0
20200725,837,116,711,10,6,6,0,0
20200726,842,118,714,10,5,2,3,0
20200727,853,129,714,10,11,11,0,0
20200728,855,121,724,10,2,-8,10,0
20200729,856,122,724,10,1,1,0,0
20200730,864,130,724,10,8,8,0,0
20200731,878,142,726,10,14,12,2,0
20200801,883,130,743,10,5,-12,17,0
20200802,894,139,743,12,11,9,0,2
20200803,905,150,743,12,11,11,0,0
20200804,920,163,745,12,15,13,2,0
20200805,928,171,745,12,8,8,0,0
20200806,958,201,745,12,30,30,0,0
20200807,987,229,745,13,29,28,0,1
20200808,1003,245,745,13,16,16,0,0
20200809,1023,264,745,14,20,19,0,1
20200810,1031,272,745,14,8,8,0,0
20200811,1047,280,753,14,16,8,8,0
20200812,1065,298,753,14,18,18,0,0
20200813,1071,303,754,14,6,5,1,0
20200814,1082,307,761,14,11,4,7,0
20200815,1082,307,761,14,0,0,0,0
20200816,1113,335,764,14,31,28,3,0
20200817,1129,351,764,14,16,16,0,0
20200818,1146,362,770,14,17,11,6,0
20200819,1192,406,772,14,46,44,2,0
20200820,1290,487,788,15,98,81,16,1
20200821,1346,542,788,16,56,55,0,1
20200822,1346,542,788,16,0,0,0,0
20200823,1529,694,819,16,183,152,31,0
20200824,1612,777,819,16,83,83,0,0
20200825,1732,873,840,19,120,96,21,3
20200826,1804,939,846,19,72,66,6,0
20200827,1870,1005,846,19,66,66,0,0
20200828,2011,1104,888,19,141,99,42,0
20200829,2113,1203,890,20,102,99,2,1
20200830,2357,1446,890,21,244,243,0,1
20200831,2459,1548,890,21,102,102,0,0
20200901,2459,1548,890,21,0,0,0,0
20200902,2683,1761,898,24,224,213,8,3
20200903,2896,1946,921,29,213,185,23,5
20200904,2964,2012,922,30,68,66,1,1
20200905,3024,2042,950,32,60,30,28,2
20200906,3103,2112,958,33,79,70,8,1
20200907,3183,2175,974,34,80,63,16,1
20200908,3323,2295,992,36,140,120,18,2
20200909,3437,2380,1019,38,114,85,27,2
20200910,3511,2452,1019,40,74,72,0,2
20200911,3511,2452,1019,40,0,0,0,0
20200912,3623,2511,1072,40,112,59,53,0
20200913,3771,2580,1149,42,148,69,77,2
20200914,3933,2728,1161,44,162,148,12,2
20200915,4042,2833,1163,46,109,105,2,2
20200916,4164,2938,1180,46,122,105,17,0
20200917,4374,3098,1225,51,210,160,45,5
20200918,4571,3252,1264,55,197,154,39,4
20200919,4758,3371,1327,60,187,119,63,5
20200920,4988,3571,1350,67,230,200,23,7
20200921,5143,3666,1407,70,155,95,57,3
20200922,5270,3751,1444,75,127,85,37,5
20200923,5395,3875,1444,76,125,124,0,1
20200924,5588,4021,1490,77,193,146,46,1
20200925,5723,4147,1496,80,135,126,6,3
20200926,5854,4142,1624,88,131,-5,128,8
20200927,6017,4222,1706,89,163,80,82,1
20200928,6170,4336,1741,93,153,114,35,4
20200929,6408,4537,1770,101,238,201,29,8
20200930,6482,4508,1867,107,74,-29,97,6
20201001,6555,4453,1991,111,73,-55,124,4
20201002,6704,4476,2112,116,149,23,121,5
20201003,6795,4331,2345,119,91,-145,233,3
20201004,6895,4315,2460,120,100,-16,115,1
20201005,7012,4257,2635,120,117,-58,175,0
20201006,7109,4312,2674,123,97,55,39,3
20201007,7191,4365,2700,126,82,53,26,3
20201008,7273,4413,2732,128,82,48,32,2
20201009,7363,4129,3102,132,90,-284,370,4
20201010,7559,4279,3142,138,196,150,40,6
20201011,7718,4417,3162,139,159,138,20,1
20201012,7813,4430,3237,146,95,13,75,7
20201013,7910,4461,3303,146,97,31,66,0
20201014,7989,4407,3431,151,79,-54,128,5
20201015,8067,4426,3481,160,78,19,50,9
20201016,8132,4317,3653,162,65,-109,172,2
20201017,8195,4374,3653,168,63,57,0,6
20201018,8274,4244,3859,171,79,-130,206,3
20201019,8321,4197,3951,173,47,-47,92,2
20201020,8374,4198,4002,174,53,1,51,1
20201021,8445,4255,4016,174,71,57,14,0
20201022,8600,4326,4095,179,155,71,79,5
20201023,8638,4300,4156,182,38,-26,61,3
20201024,8670,4275,4209,186,32,-25,53,4
20201025,8714,4244,4282,188,44,-31,73,2
20201026,8749,4254,4303,192,35,10,21,4
20201027,8787,4244,4347,196,38,-10,44,4
20201028,8851,4274,4379,198,64,30,32,2
20201029,8927,4296,4429,202,76,22,50,4
20201030,9005,4358,4442,205,78,62,13,3
20201031,9094,4378,4510,206,89,20,68,1
20201101,9131,4306,4617,208,37,-72,107,2
20201102,9257,4410,4637,210,126,104,20,2
20201103,9296,4416,4666,214,39,6,29,4
20201104,9326,4407,4704,215,30,-9,38,1
20201105,9373,4411,4745,217,47,4,41,2
20201106,9426,4407,4801,218,53,-4,56,1
20201107,9472,4376,4878,218,46,-31,77,0
20201108,9506,4351,4934,221,34,-25,56,3
20201109,9542,4369,4952,221,36,18,18,0
20201110,9573,4362,4987,224,31,-7,35,3
20201111,9581,4361,4995,225,8,-1,8,1
20201112,9634,4366,5043,225,53,5,48,0
20201113,9723,4328,5168,227,89,-38,125,2
20201114,9780,4323,5228,229,57,-5,60,2
20201115,9884,4405,5248,231,104,82,20,2
20201116,9929,4368,5330,231,45,-37,82,0
20201117,9959,4390,5338,231,30,22,8,0
20201118,10019,4417,5369,233,60,27,31,2
20201119,10088,4446,5407,235,69,29,38,2
20201120,10151,4484,5432,235,63,38,25,0
20201121,10240,4522,5481,237,89,38,49,2
20201122,10284,4541,5505,238,44,19,24,1
20201123,10343,4586,5518,239,59,45,13,1
20201124,10422,4607,5572,243,79,21,54,4
20201125,10488,4618,5623,247,66,11,51,4
20201126,10541,4572,5721,248,53,-46,98,1
20201127,10600,4521,5829,250,59,-51,108,2
20201128,10669,4465,5953,251,69,-56,124,1
20201129,10709,4387,6066,256,40,-78,113,5
20201130,10763,4287,6219,257,54,-100,153,1
20201201,10810,4188,6364,258,47,-99,145,1
20201202,10864,4106,6500,258,54,-82,136,0
20201203,10911,4038,6614,259,47,-68,114,1
20201204,10987,3997,6730,260,76,-41,116,1
20201205,11063,3936,6866,261,76,-61,136,1
20201206,11120,3857,6998,265,57,-79,132,4
20201207,11184,3773,7146,265,64,-84,148,0
20201208,11271,3714,7292,265,87,-59,146,0
20201209,11369,3713,7390,266,98,-1,98,1
20201210,11443,3651,7522,270,74,-62,132,4
20201211,11509,3572,7667,270,66,-79,145,0
20201212,11608,3538,7799,271,99,-34,132,1
20201213,11710,3483,7954,273,102,-55,155,2
20201214,11792,3421,8098,273,82,-62,144,0
20201215,11875,3387,8212,276,83,-34,114,3
20201216,11907,3260,8371,276,32,-127,159,0
20201217,11968,3164,8525,279,61,-96,154,3
20201218,12039,3088,8668,283,71,-76,143,4
20201219,12135,3038,8812,285,96,-50,144,2
20201220,12224,2972,8966,286,89,-66,154,1
20201221,12289,2890,9113,286,65,-82,147,0
20201222,12354,2800,9266,288,65,-90,153,2
20201223,12423,2717,9416,290,69,-83,150,2
20201224,12519,2648,9579,292,96,-69,163,2
20201225,12597,2566,9737,294,78,-82,158,2
20201226,12684,2509,9881,294,87,-57,144,0
20201227,12723,2409,10019,295,39,-100,138,1
20201228,12732,2273,10161,298,9,-136,142,3
20201229,12752,2247,10207,298,20,-26,46,0
20201230,12793,2172,10319,302,41,-75,112,4
20201231,12827,2142,10383,302,34,-30,64,0
20210101,12915,2080,10532,303,88,-62,149,1
20210102,12931,1949,10679,303,16,-131,147,0
20210103,13049,1912,10833,304,118,-37,154,1
20210104,13203,1926,10973,304,154,14,140,0
20210105,13246,1835,11106,305,43,-91,133,1
20210106,13330,1842,11182,306,84,7,76,1
20210107,13368,1809,11253,306,38,-33,71,0
20210108,13411,1781,11323,307,43,-28,70,1
20210109,13455,1765,11379,311,44,-16,56,4
20210110,13548,1807,11429,312,93,42,50,1
20210111,13637,1818,11506,313,89,11,77,1
20210112,13760,1919,11526,315,123,101,20,2
20210113,13852,1967,11568,317,92,48,42,2
20210114,13915,2001,11592,322,63,34,24,5
20210115,13992,2039,11630,323,77,38,38,1
20210116,14096,2099,11674,323,104,60,44,0
20210117,14161,2128,11709,324,65,29,35,1
20210118,14274,2221,11727,326,113,93,18,2
20210119,14419,2347,11743,329,145,126,16,3
20210120,14487,2379,11777,331,68,32,34,2
20210121,14550,2410,11809,331,63,31,32,0
20210122,14658,2493,11833,332,108,83,24,1
20210123,14772,2586,11850,336,114,93,17,4
20210124,14879,2673,11870,336,107,87,20,0
20210125,15012,2785,11889,338,133,112,19,2
20210126,15153,2903,11911,339,141,118,22,1
20210127,15241,2957,11942,342,88,54,31,3
20210128,15435,3130,11961,344,194,173,19,2
20210129,15462,3136,11981,345,27,6,20,1
20210130,15527,3175,12004,348,65,39,23,3
20210131,15653,3260,12043,350,126,85,39,2
20210201,15778,3358,12068,352,125,98,25,2
20210202,15973,3512,12108,353,195,154,40,1
20210203,16073,3581,12137,355,100,69,29,2
20210204,16250,3721,12174,355,177,140,37,0
20210205,16513,3982,12174,357,263,261,0,2
20210206,16841,4259,12225,357,328,277,51,0
20210207,17085,4456,12271,358,244,197,46,1
20210208,17298,4622,12318,358,213,166,47,0
20210209,17701,4980,12362,359,403,358,44,1
20210210,17908,5140,12406,362,207,160,44,3
20210211,18237,5418,12456,363,329,278,50,1
20210212,18527,5655,12504,368,290,237,48,5
20210213,18830,5913,12545,372,303,258,41,4
20210214,19035,6068,12593,374,205,155,48,2
20210215,19305,6292,12635,378,270,224,42,4
20210216,19773,6711,12684,378,468,419,49,0
20210217,20016,6900,12735,381,243,189,51,3
20210218,20310,7145,12781,384,294,245,46,3
20210219,20581,7362,12828,391,271,217,47,7
20210220,20924,7650,12883,391,343,288,55,0
20210221,21382,8055,12931,396,458,405,48,5
20210222,21679,8292,12988,399,297,237,57,3
20210223,21826,8375,13046,405,147,83,58,6
20210224,22019,8506,13107,406,193,131,61,1
20210225,22267,8684,13173,410,248,178,66,4
20210226,22471,8827,13231,413,204,143,58,3
20210227,22817,9082,13318,417,346,255,87,4
20210228,23263,9431,13410,422,446,349,92,5
20210301,23599,9672,13502,425,336,241,92,3
20210302,23838,9781,13625,432,239,109,123,7
20210303,24103,9923,13745,435,265,142,120,3
20210304,24444,10139,13869,436,341,216,124,1
20210305,24776,10321,14012,443,332,182,143,7
20210306,25303,10698,14159,446,527,377,147,3
20210307,26026,11272,14301,453,723,574,142,7
20210308,26904,12003,14447,454,878,731,146,1
20210309,27465,12410,14595,460,561,407,148,6
20210310,28273,13165,14645,463,808,755,50,3
20210311,28968,13712,14781,475,695,547,136,12
20210312,29387,13995,14912,480,419,283,131,5
20210313,29912,14369,15059,484,525,374,147,4
20210314,30499,14875,15139,485,587,506,80,1
20210315,31305,15560,15253,492,806,685,114,7
20210316,31907,16042,15371,494,602,482,118,2
20210317,32728,16748,15473,507,821,706,102,13
20210318,33366,17240,15615,511,638,492,142,4
20210319,33970,17641,15810,519,604,401,195,8
20210320,34665,18202,15939,524,695,561,129,5
20210321,35338,18675,16130,533,673,473,191,9
20210322,35896,19051,16309,536,558,376,179,3
20210323,36231,19199,16490,542,335,148,181,6
20210324,36670,19507,16618,545,439,308,128,3
20210325,37128,19843,16739,546,458,336,121,1
20210326,37458,20053,16848,557,330,210,109,11
20210327,37747,20165,17016,566,289,112,168,9
20210328,38227,20460,17197,570,480,295,181,4
20210329,38514,20594,17334,586,287,134,137,16
20210330,38848,20787,17474,587,334,193,140,1
20210331,39237,21043,17598,596,389,256,124,9
20210401,39543,21219,17725,599,306,176,127,3
20210402,39967,21499,17861,607,424,280,136,8
20210403,40449,21822,18014,613,482,323,153,6
20210404,40663,21899,18149,615,214,77,135,2
20210405,41013,22098,18297,618,350,199,148,3
20210406,41328,22262,18444,622,315,164,147,4
20210407,41400,22325,18444,631,72,63,0,9
20210408,41604,22392,18566,646,204,67,122,15
20210409,41843,22492,18690,661,239,100,124,15
20210410,42119,22665,18785,669,276,173,95,8
20210411,42500,22932,18896,672,381,267,111,3
20210412,42763,23070,19017,676,263,138,121,4
20210413,42924,23106,19136,682,161,36,119,6
20210414,43054,23114,19248,692,130,8,112,10
20210415,43240,23174,19369,697,186,60,121,5
20210416,43473,23288,19472,713,233,114,103,16
20210417,43684,23364,19599,721,211,76,127,8
20210418,43890,23457,19710,723,206,93,111,2
20210419,44136,23577,19832,727,246,120,122,4
20210420,44254,23554,19962,738,118,-23,130,11
20210421,44337,23523,20070,744,83,-31,108,6
20210422,44502,23581,20170,751,165,58,100,7
20210423,44642,23615,20275,752,140,34,105,1
20210424,44867,23720,20391,756,225,105,116,4
20210425,45004,23725,20519,760,137,5,128,4
20210426,45145,23758,20626,761,141,33,107,1
20210427,45212,23716,20729,767,67,-42,103,6
20210428,45292,23680,20842,770,80,-36,113,3
20210429,45414,23699,20945,770,122,19,103,0
20210430,45578,23741,21059,778,164,42,114,8
20210501,45777,23845,21153,779,199,104,94,1
20210502,45867,23790,21293,784,90,-55,140,5
20210503,46039,23762,21487,790,172,-28,194,6
20210504,46087,23648,21646,793,48,-114,159,3
20210505,46194,23621,21779,794,107,-27,133,1
20210506,46338,23647,21893,798,144,26,114,4
20210507,46428,23609,22018,801,90,-38,125,3
20210508,46588,23637,22148,803,160,28,130,2
20210509,46708,23634,22268,806,120,-3,120,3
20210510,46782,23578,22395,809,74,-56,127,3
20210511,46821,23490,22517,814,39,-88,122,5
20210512,46922,23466,22636,820,101,-24,119,6
20210513,47020,23425,22761,834,98,-41,125,14
20210514,47150,23417,22895,838,130,-8,134,4
20210515,47233,23377,23013,843,83,-40,118,5
20210516,47319,23335,23124,860,86,-42,111,17
20210517,47396,23252,23281,863,77,-83,157,3
20210518,47479,23191,23410,878,83,-61,129,15
20210519,47572,23150,23530,892,93,-41,120,14
20210520,47672,23127,23643,902,100,-23,113,10
20210521,47776,23130,23742,904,104,3,99,2
20210522,47899,23135,23852,912,123,5,110,8
20210523,47959,23056,23986,917,60,-79,134,5
20210524,48054,23024,24105,925,95,-32,119,8
20210525,48081,22924,24226,931,27,-100,121,6
20210526,48101,22794,24373,934,20,-130,147,3
20210527,48180,22717,24528,935,79,-77,155,1
20210528,48288,22649,24703,936,108,-68,175,1
20210529,48374,22566,24866,942,86,-83,163,6
20210530,48467,22468,25054,945,93,-98,188,3
20210531,48557,22311,25298,948,90,-157,244,3
20210601,48594,22160,25485,949,37,-151,187,1
20210602,48639,22202,25622,951,45,42,137,2
20210603,48733,22202,25802,951,94,0,180,0
20210604,48821,22202,25945,960,88,0,143,9
20210605,48901,21914,26102,964,80,-288,157,4
20210606,48951,21914,26295,970,50,0,193,6
20210607,48983,21914,26424,971,32,0,129,1
20210608,49031,21914,26641,974,48,0,217,3
20210609,49090,21914,26828,988,59,0,187,14
20210610,49110,21914,27013,989,20,0,185,1
20210611,49179,21914,27201,990,69,0,188,1
20210612,49232,20871,27365,996,53,-1043,164,6
20210613,49277,20738,27542,997,45,-133,177,1
20210614,49356,20613,27732,1011,79,-125,190,14
20210615,49379,20448,27919,1012,23,-165,187,1
20210616,49429,20363,28054,1012,50,-85,135,0
20210617,49503,20298,28182,1023,74,-65,128,11
20210618,49564,20203,28333,1028,61,-95,151,5
20210619,49607,20111,28465,1031,43,-92,132,3
20210620,49668,20015,28620,1033,61,-96,155,2
20210621,49712,19885,28793,1034,44,-130,173,1
20210622,49735,19763,28935,1037,23,-122,142,3
20210623,49795,19623,29130,1042,60,-140,195,5
20210624,49841,19470,29322,1049,46,-153,192,7
20210625,49909,19402,29456,1051,68,-68,134,2
20210626,49964,19260,29647,1057,55,-142,191,6
20210627,50005,19114,29830,1061,41,-146,183,4
20210628,50054,19040,29953,1061,49,-74,123,0
20210629,50080,19058,29957,1065,26,18,4,4
20210630,50124,18975,30074,1075,44,-83,117,10
20210701,50166,18894,30192,1080,42,-81,118,5
20210702,50242,18890,30270,1082,76,-4,78,2
20210703,50242,18890,30270,1082,0,0,0,0
20210704,50242,18890,30270,1082,0,0,0,0
20210705,50389,16691,32604,1094,147,-2199,2334,12
20210706,50404,15609,33699,1096,15,-1082,1095,2
20210707,50456,14591,34764,1101,52,-1018,1065,5
20210708,50497,13612,35777,1108,41,-979,1013,7
20210709,50568,12575,36882,1111,71,-1037,1105,3
20210710,50629,11597,37918,1114,61,-978,1036,3
20210711,50720,10590,39000,1130,91,-1007,1082,16
20210712,50757,9597,40029,1131,37,-993,1029,1
20210713,50793,8569,41090,1134,36,-1028,1061,3
20210714,50848,7592,42122,1134,55,-977,1032,0
20210715,50913,6620,43157,1136,65,-972,1035,2
20210716,50983,5636,44207,1140,70,-984,1050,4
20210717,51052,4617,45282,1153,69,-1019,1075,13
20210718,51135,3664,46316,1155,83,-953,1034,2
20210719,51220,7336,46695,1157,85,3672,379,2
20210720,51282,5515,46724,1158,62,-1821,29,1
20210721,51408,3494,46751,1163,126,-2021,27,5
20210722,51542,3602,46773,1167,134,108,22,4
20210723,51686,3699,46819,1168,144,97,46,1
20210724,51686,3699,46819,1168,0,0,0,0
20210725,51984,3965,46843,1176,298,266,24,8
20210726,52089,4043,46868,1178,105,78,25,2
20210727,52141,4070,46892,1179,52,27,24,1
20210728,52322,4229,46911,1182,181,159,19,3
20210729,52504,4384,46938,1182,182,155,27,0
20210730,52684,4531,46966,1187,180,147,28,5
20210731,52895,4726,46979,1190,211,195,13,3
20210801,53237,5040,47001,1196,342,314,22,6
20210802,53237,5040,47001,1196,0,0,0,0
20210803,53543,5262,47078,1203,306,222,77,7
20210804,53639,5331,47101,1207,96,69,23,4
20210805,53839,0,0,1211,200,-5331,-47101,4
20210806,54165,0,0,1214,326,0,0,3
20210807,54480,0,0,1218,315,0,0,4
20210808,54859,0,0,1222,379,0,0,4
20210809,55140,0,0,1231,281,0,0,9
20210810,55456,0,0,1241,316,0,0,10
20210811,55790,0,0,1254,334,0,0,13
20210812,56165,0,0,1268,375,0,0,14
20210813,56709,0,0,1276,544,0,0,8
20210814,57289,0,0,1285,580,0,0,9
20210815,57945,0,0,1300,656,0,0,15
20210816,58458,0,0,1311,513,0,0,11
20210817,59088,0,0,1320,630,0,0,9
20210818,59377,0,0,1339,289,0,0,19
20210819,59932,0,0,1342,555,0,0,3
20210820,60488,0,0,1356,556,0,0,14
20210821,61282,0,0,1371,794,0,0,15
20210822,61282,0,0,1371,0,0,0,0
20210823,62712,0,0,1402,1430,0,0,31
20210824,63464,0,0,1417,752,0,0,15
20210825,63831,0,0,1431,367,0,0,14
20210826,64294,0,0,1453,463,0,0,22
20210827,64899,0,0,1465,605,0,0,12
20210828,65734,0,0,1483,835,0,0,18
20210829,66663,0,0,1504,929,0,0,21
20210830,67402,0,0,1510,739,0,0,6
20210831,68131,0,0,1518,729,0,0,8
20210901,68482,0,0,1549,351,0,0,31
20210902,69054,0,0,1568,572,0,0,19
20210903,69789,0,0,1585,735,0,0,17
20210904,70657,0,0,1593,868,0,0,8
