date,infected,active,recovered,dead,deltaInfected,deltaActive,deltaRecovered,deltaDead
20200224,1,1,0,0,1,1,0,0
20200225,11,11,0,0,10,10,0,0
20200226,26,26,0,0,15,15,0,0
20200227,43,43,0,0,17,17,0,0
20200228,45,45,0,0,2,2,0,0
20200229,45,45,0,0,0,0,0,0
20200301,45,45,0,0,0,0,0,0
20200302,56,56,0,0,11,11,0,0
20200303,56,56,0,0,0,0,0,0
20200304,56,56,0,0,0,0,0,0
20200305,58,58,0,0,2,2,0,0
20200306,58,58,0,0,0,0,0,0
20200307,61,61,0,0,3,3,0,0
20200308,64,63,1,0,3,2,1,0
20200309,64,63,1,0,0,0,0,0
20200310,69,68,1,0,5,5,0,0
20200311,72,70,2,0,3,2,1,0
20200312,80,75,5,0,8,5,3,0
20200313,80,75,5,0,0,0,0,0
20200314,104,99,5,0,24,24,0,0
20200315,112,107,5,0,8,8,0,0
20200316,123,114,9,0,11,7,4,0
20200317,130,121,9,0,7,7,0,0
20200318,142,127,15,0,12,6,6,0
20200319,148,130,18,0,6,3,3,0
20200320,159,141,18,0,11,11,0,0
20200321,176,149,27,0,17,8,9,0
20200322,188,158,30,0,12,9,3,0
20200323,189,159,30,0,1,1,0,0
20200324,191,152,39,0,2,-7,9,0
20200325,195,152,43,0,4,0,4,0
20200326,208,159,49,0,13,7,6,0
20200327,225,168,57,0,17,9,8,0
20200328,235,171,64,0,10,3,7,0
20200329,255,188,67,0,20,17,3,0
20200330,266,194,72,0,11,6,5,0
20200331,289,216,73,0,23,22,1,0
20200401,317,237,80,0,28,21,7,0
20200402,342,261,81,0,25,24,1,0
20200403,417,335,82,0,75,74,1,0
20200404,479,385,93,1,62,50,11,1
20200405,556,456,99,1,77,71,6,0
20200406,665,561,103,1,109,105,4,0
20200407,743,637,105,1,78,76,2,0
20200408,855,743,111,1,112,106,6,0
20200409,910,798,111,1,55,55,0,0
20200410,993,869,123,1,83,71,12,0
20200411,1154,1020,133,1,161,151,10,0
20200412,1234,1091,142,1,80,71,9,0
20200413,1300,1148,150,2,66,57,8,1
20200414,1355,1176,176,3,55,28,26,1
20200415,1405,1196,206,3,50,20,30,0
20200416,1524,1296,225,3,119,100,19,0
20200417,1658,1395,258,5,134,99,33,2
20200418,1751,1465,280,6,93,70,22,1
20200419,1915,1603,305,7,164,138,25,1
20200420,1995,1619,367,9,80,16,62,2
20200421,2080,1657,412,11,85,38,45,2
20200422,2248,1792,443,13,168,135,31,2
20200423,2399,1887,498,14,151,95,55,1
20200424,2614,1986,613,15,215,99,115,1
20200425,2892,2217,656,19,278,231,43,4
20200426,3075,2249,806,20,183,32,150,1
20200427,3288,2254,1012,22,213,5,206,2
20200428,3440,2241,1176,23,152,-13,164,1
20200429,3740,2327,1389,24,300,86,213,1
20200430,4024,2459,1539,26,284,132,150,2
20200501,4377,2745,1602,30,353,286,63,4
20200502,4619,2883,1703,33,242,138,101,3
20200503,4983,3169,1776,38,364,286,73,5
20200504,5278,3291,1947,40,295,122,171,2
20200505,5804,3732,2032,40,526,441,85,0
20200506,6289,4028,2219,42,485,296,187,2
20200507,6567,4142,2381,44,278,114,162,2
20200508,7208,4695,2466,47,641,553,85,3
20200509,7623,4952,2622,49,415,257,156,2
20200510,8688,5901,2729,58,1065,949,107,9
20200511,9286,6314,2907,65,598,413,178,7
20200512,10277,7101,3101,75,991,787,194,10
20200513,11028,7683,3263,82,751,582,162,7
20200514,11975,8436,3451,88,947,753,188,6
20200515,12860,9124,3640,96,885,688,189,8
20200516,13802,9852,3843,107,942,728,203,11
20200517,14850,10645,4093,112,1048,793,250,5
20200518,15691,11234,4339,118,841,589,246,6
20200519,16764,11962,4681,121,1073,728,342,3
20200520,17568,12559,4885,124,804,597,204,3
20200521,18609,13275,5205,129,1041,716,320,5
20200522,19564,13911,5515,138,955,636,310,9
20200523,20464,14569,5747,148,900,658,232,10
20200524,21302,15029,6117,156,838,460,370,8
20200525,21967,15181,6621,165,665,152,504,9
20200526,22575,15097,7306,172,608,-84,685,7
20200527,23267,15146,7946,175,692,49,640,3
20200528,24112,15229,8698,185,845,83,752,10
20200529,25184,15717,9273,194,1072,488,575,9
20200530,26192,15831,10156,205,1008,114,883,11
20200531,27043,15445,11386,212,851,-386,1230,7
20200601,27762,14643,12899,220,719,-802,1513,8
20200602,28649,14142,14281,226,887,-501,1382,6
20200603,29359,13379,15750,230,710,-763,1469,4
20200604,29921,12462,17223,236,562,-917,1473,6
20200605,30644,12123,18277,244,723,-339,1054,8
20200606,31131,11595,19282,254,487,-528,1005,10
20200607,31848,11379,20205,264,717,-216,923,10
20200608,32510,10999,21242,269,662,-380,1037,5
20200609,33140,10705,22162,273,630,-294,920,4
20200610,33823,10260,23288,275,683,-445,1126,2
20200611,34432,10016,24137,279,609,-244,849,4
20200612,34952,9619,25048,285,520,-397,911,6
20200613,35466,9295,25882,289,514,-324,834,4
20200614,35920,8865,26759,296,454,-430,877,7
20200615,36431,8602,27531,298,511,-263,772,2
20200616,36958,8449,28206,303,527,-153,675,5
20200617,37533,8331,28896,306,575,-118,690,3
20200618,38074,8254,29512,308,541,-77,616,2
20200619,38678,8175,30190,313,604,-79,678,5
20200620,39145,8100,30726,319,467,-75,536,6
20200621,39650,8084,31240,326,505,-16,514,7
20200622,40291,8191,31770,330,641,107,530,4
20200623,41033,8395,32304,334,742,204,534,4
20200624,41879,8733,32809,337,846,338,505,3
20200625,42788,9082,33367,339,909,349,558,2
20200626,43703,9393,33969,341,915,311,602,2
20200627,44391,9461,34586,344,688,68,617,3
20200628,44942,9100,35494,348,551,-361,908,4
20200629,45524,8861,36313,350,582,-239,819,2
20200630,46195,8811,37030,354,671,-50,717,4
20200701,46940,8867,37715,358,745,56,685,4
20200702,47859,9110,38390,359,919,243,675,1
20200703,48672,9036,39276,360,813,-74,886,1
20200704,49303,8995,39943,365,631,-41,667,5
20200705,49941,9110,40463,368,638,115,520,3
20200706,50644,9270,41001,373,703,160,538,5
20200707,51245,9353,41515,377,601,83,514,4
20200708,52007,9520,42108,379,762,167,593,2
20200709,52840,9772,42686,382,833,252,578,3
20200710,53580,9983,43214,383,740,211,528,1
20200711,54058,9711,43961,386,478,-272,747,3
20200712,54894,9894,44610,390,836,183,649,4
20200713,55508,9759,45356,393,614,-135,746,3
20200714,56174,9617,46161,396,666,-142,805,3
20200715,56877,9581,46897,399,703,-36,736,3
20200716,57668,9721,47545,402,791,140,648,3
20200717,58221,9436,48381,404,553,-285,836,2
20200718,58904,9477,49020,407,683,41,639,3
20200719,59204,9109,49687,408,300,-368,667,1
20200720,59763,9016,50339,408,559,-93,652,0
20200721,60434,9103,50919,412,671,87,580,4
20200722,61185,9248,51520,417,751,145,601,5
20200723,61872,9204,52247,421,687,-44,727,4
20200724,62625,9285,52915,425,753,81,668,4
20200725,63309,9273,53607,429,684,-12,692,4
20200726,63773,8967,54373,433,464,-306,766,4
20200727,64379,8884,55057,438,606,-83,684,5
20200728,65149,9026,55681,442,770,142,624,4
20200729,65903,8992,56467,444,754,-34,786,2
20200730,66529,8754,57330,445,626,-238,863,1
20200731,66957,8578,57932,447,428,-176,602,2
20200801,67448,8470,58525,453,491,-108,593,6
20200802,67911,8241,59213,457,463,-229,688,4
20200803,68299,8099,59739,461,388,-142,526,4
20200804,68774,7983,60326,465,475,-116,587,4
20200805,69425,8051,60906,468,651,68,580,3
20200806,70045,7966,61610,469,620,-85,704,1
20200807,70727,7926,62330,471,682,-40,720,2
20200808,71199,7919,62806,474,472,-7,476,3
20200809,71713,7716,63519,478,514,-203,713,4
20200810,72400,7890,64028,482,687,174,509,4
20200811,73068,7823,64759,486,668,-67,731,4
20200812,73785,7845,65451,489,717,22,692,3
20200813,74486,7898,66099,489,701,53,648,0
20200814,75185,7951,66740,494,699,53,641,5
20200815,75697,7680,67519,498,512,-271,779,4
20200816,76205,7569,68135,501,508,-111,616,3
20200817,76827,7692,68633,502,622,123,498,1
20200818,77470,7722,69243,505,643,30,610,3
20200819,78145,7867,69771,507,675,145,528,2
20200820,78767,7616,70642,509,622,-251,871,2
20200821,79269,7494,71264,511,502,-122,622,2
20200822,79957,7674,71770,513,688,180,506,2
20200823,80528,7706,72307,515,571,32,537,2
20200824,80960,7517,72925,518,432,-189,618,3
20200825,81573,7652,73402,519,613,135,477,1
20200826,82271,7844,73906,521,698,192,504,2
20200827,82945,7901,74522,522,674,57,616,1
20200828,83578,7733,75320,525,633,-168,798,3
20200829,84224,7703,75993,528,646,-30,673,3
20200830,84636,7456,76650,530,412,-247,657,2
20200831,85109,7354,77224,531,473,-102,574,1
20200901,85811,7620,77657,534,702,266,433,3
20200902,86478,7734,78209,535,667,114,552,1
20200903,87378,8051,78791,536,900,317,582,1
20200904,88243,8289,79417,537,865,238,626,1
20200905,88963,8520,79903,540,720,231,486,3
20200906,89582,8517,80521,544,619,-3,618,4
20200907,90387,8804,81037,546,805,287,516,2
20200908,91244,9042,81654,548,857,238,617,2
20200909,92082,9308,82222,552,838,266,568,4
20200910,92822,9226,83040,556,740,-82,818,4
20200911,93475,9258,83660,557,653,32,620,1
20200912,94211,9249,84404,558,736,-9,744,1
20200913,94764,9209,84995,560,553,-40,591,2
20200914,95472,9408,85501,563,708,199,506,3
20200915,96301,9514,86219,568,829,106,718,5
20200916,96999,9241,87187,571,698,-273,968,3
20200917,97824,9338,87911,575,825,97,724,4
20200918,98528,9172,88776,580,704,-166,865,5
20200919,99049,8970,89498,581,521,-202,722,1
20200920,99434,8682,90168,584,385,-288,670,3
20200921,99964,8449,90930,585,530,-233,762,1
20200922,100683,8483,91612,588,719,34,682,3
20200923,101299,8368,92341,590,616,-115,729,2
20200924,101851,8298,92961,592,552,-70,620,2
20200925,102441,8284,93562,595,590,-14,601,3
20200926,103199,8391,94211,597,758,107,649,2
20200927,103544,8014,94929,601,345,-377,718,4
20200928,103981,7865,95511,605,437,-149,582,4
20200929,104568,7912,96049,607,587,47,538,2
20200930,105182,7884,96688,610,614,-28,639,3
20201001,105676,7867,97197,612,494,-17,509,2
20201002,106087,7574,97898,615,411,-293,701,3
20201003,106458,7403,98435,620,371,-171,537,5
20201004,107025,7361,99040,624,567,-42,605,4
20201005,107592,7415,99549,628,567,54,509,4
20201006,108268,7457,100179,632,676,42,630,4
20201007,108743,7328,100776,639,475,-129,597,7
20201008,109441,7485,101314,642,698,157,538,3
20201009,110076,7403,102024,649,635,-82,710,7
20201010,110568,7191,102722,655,492,-212,698,6
20201011,111116,7190,103268,658,548,-1,546,3
20201012,111893,7427,103802,664,777,237,534,6
20201013,112737,7557,104508,672,844,130,706,8
20201014,113269,7357,105236,676,532,-200,728,4
20201015,114015,7485,105846,684,746,128,610,8
20201016,114744,7559,106495,690,729,74,649,6
20201017,115483,7681,107108,694,739,122,613,4
20201018,116146,7585,107860,701,663,-96,752,7
20201019,116832,7516,108606,710,686,-69,746,9
20201020,117718,7806,109198,714,886,290,592,4
20201021,118531,7894,109916,721,813,88,718,7
20201022,119420,7976,110714,730,889,82,798,9
20201023,120232,8052,111440,740,812,76,726,10
20201024,120927,8073,112110,744,695,21,670,4
20201025,121635,8118,112771,746,708,45,661,2
20201026,122317,8177,113391,749,682,59,620,3
20201027,123092,8220,114116,756,775,43,725,7
20201028,123906,8220,114923,763,814,0,807,7
20201029,124666,8424,115475,767,760,204,552,4
20201030,125337,8362,116202,773,671,-62,727,6
20201031,125926,8285,116862,779,589,-77,660,6
20201101,126534,8194,117558,782,608,-91,696,3
20201102,127293,8121,118386,786,759,-73,828,4
20201103,128080,8211,119080,789,787,90,694,3
20201104,128843,8307,119742,794,763,96,662,5
20201105,129638,8275,120564,799,795,-32,822,5
20201106,130463,8396,121263,804,825,121,699,5
20201107,131205,8508,121889,808,742,112,626,4
20201108,131743,8356,122576,811,538,-152,687,3
20201109,132478,8348,123314,816,735,-8,738,5
20201110,133381,8404,124156,821,903,56,842,5
20201111,134159,8428,124905,826,778,24,749,5
20201112,134932,8509,125593,830,773,81,688,4
20201113,135650,8473,126344,833,718,-36,751,3
20201114,136341,8604,126902,835,691,131,558,2
20201115,136840,8417,127585,838,499,-187,683,3
20201116,137329,8073,128414,842,489,-344,829,4
20201117,137885,7996,129041,848,556,-77,627,6
20201118,138337,7641,129839,857,452,-355,798,9
20201119,138822,7537,130426,859,485,-104,587,2
20201120,139308,7398,131049,861,486,-139,623,2
20201121,139734,7311,131560,863,426,-87,511,2
20201122,140056,7012,132178,866,322,-299,618,3
20201123,140393,6677,132848,868,337,-335,670,2
20201124,140795,6518,133407,870,402,-159,559,2
20201125,141217,6313,134033,871,422,-205,626,1
20201126,141547,5925,134750,872,330,-388,717,1
20201127,141876,5699,135303,874,329,-226,553,2
20201128,142195,5431,135889,875,319,-268,586,1
20201129,142426,5135,136413,878,231,-296,524,3
20201130,142635,4684,137071,880,209,-451,658,2
20201201,142992,4486,137625,881,357,-198,554,1
20201202,143260,4244,138134,882,268,-242,509,1
20201203,143574,4016,138674,884,314,-228,540,2
20201204,143917,3883,139148,886,343,-133,474,2
20201205,144164,3665,139610,889,247,-218,462,3
20201206,144369,3443,140035,891,205,-222,425,2
20201207,144599,3361,140341,897,230,-82,306,6
20201208,144900,3362,140638,900,301,1,297,3
20201209,145204,3310,140989,905,304,-52,351,5
20201210,145495,3326,141259,910,291,16,270,5
20201211,145789,3310,141569,910,294,-16,310,0
20201212,146044,3308,141825,911,255,-2,256,1
20201213,146218,3213,142094,911,174,-95,269,0
20201214,146449,3180,142357,912,231,-33,263,1
20201215,146710,3198,142599,913,261,18,242,1
20201216,146971,3149,142909,913,261,-49,310,0
20201217,147192,3166,143113,913,221,17,204,0
20201218,147531,3260,143355,916,339,94,242,3
20201219,147775,3216,143641,918,244,-44,286,2
20201220,147979,3132,143926,921,204,-84,285,3
20201221,148209,3145,144142,922,230,13,216,1
20201222,148507,3228,144356,923,298,83,214,1
20201223,148773,3255,144594,924,266,27,238,1
20201224,149017,3193,144898,926,244,-62,304,2
20201225,149277,3221,145130,926,260,28,232,0
20201226,149449,3140,145380,929,172,-81,250,3
20201227,149653,3143,145579,931,204,3,199,2
20201228,149857,3117,145808,932,204,-26,229,1
20201229,150093,3105,146056,932,236,-12,248,0
20201230,150298,3081,146284,933,205,-24,228,1
20201231,150584,3133,146517,934,286,52,233,1
20210101,150869,3156,146777,936,285,23,260,2
20210102,151074,3147,146990,937,205,-9,213,1
20210103,151343,3135,147271,937,269,-12,281,0
20210104,151715,3266,147511,938,372,131,240,1
20210105,152027,3305,147784,938,312,39,273,0
20210106,152438,3485,148015,938,411,180,231,0
20210107,152978,3801,148239,938,540,316,224,0
20210108,153473,4050,148483,940,495,249,244,2
20210109,153900,4230,148728,942,427,180,245,2
20210110,154314,4364,149007,943,414,134,279,1
20210111,154841,4523,149373,945,527,159,366,2
20210112,155335,4814,149575,946,494,291,202,1
20210113,155874,5119,149809,946,539,305,234,0
20210114,156434,5427,150061,946,560,308,252,0
20210115,156964,5688,150329,947,530,261,268,1
20210116,157399,5774,150678,947,435,86,349,0
20210117,157777,5688,151142,947,378,-86,464,0
20210118,158244,5800,151496,948,467,112,354,1
20210119,158822,5936,151936,950,578,136,440,2
20210120,159264,5893,152420,951,442,-43,484,1
20210121,159834,6057,152826,951,570,164,406,0
20210122,160367,6108,153307,952,533,51,481,1
20210123,160901,6203,153746,952,534,95,439,0
20210124,161285,6080,154253,952,384,-123,507,0
20210125,161777,6057,154766,954,492,-23,513,2
20210126,162282,6022,155303,957,505,-35,537,3
20210127,162862,6166,155739,957,580,144,436,0
20210128,163450,6105,156387,958,588,-61,648,1
20210129,164108,6247,156903,958,658,142,516,0
20210130,164622,6259,157404,959,514,12,501,1
20210131,165257,6367,157931,959,635,108,527,0
20210201,165843,6408,158476,959,586,41,545,0
20210202,166654,6708,158986,960,811,300,510,1
20210203,167410,6906,159543,961,756,198,557,1
20210204,168250,7190,160098,962,840,284,555,1
20210205,169190,7672,160554,964,940,482,456,2
20210206,170036,7979,161093,964,846,307,539,0
20210207,170998,8494,161538,966,962,515,445,2
20210208,171994,8905,162120,969,996,411,582,3
20210209,172996,9310,162711,975,1002,405,591,6
20210210,173983,9739,163264,980,987,429,553,5
20210211,175031,10151,163895,985,1048,412,631,5
20210212,176052,10523,164537,992,1021,372,642,7
20210213,176903,10651,165254,998,851,128,717,6
20210214,177701,10679,166019,1003,798,28,765,5
20210215,178524,10724,166791,1009,823,45,772,6
20210216,179488,10873,167601,1014,964,149,810,5
20210217,180505,11066,168420,1019,1017,193,819,5
20210218,181484,11051,169406,1027,979,-15,986,8
20210219,182460,11100,170326,1034,976,49,920,7
20210220,183322,11023,171260,1039,862,-77,934,5
20210221,184090,10819,172227,1044,768,-204,967,5
20210222,184989,10758,173182,1049,899,-61,955,5
20210223,186004,10859,174088,1057,1015,101,906,8
20210224,187005,10895,175048,1062,1001,36,960,5
20210225,188024,10938,176019,1067,1019,43,971,5
20210226,189046,10841,177133,1072,1022,-97,1114,5
20210227,189890,10615,178197,1078,844,-226,1064,6
20210228,190852,10560,179209,1083,962,-55,1012,5
20210301,192031,10791,180155,1085,1179,231,946,2
20210302,193372,11161,181119,1092,1341,370,964,7
20210303,194781,11488,182196,1097,1409,327,1077,5
20210304,196497,12071,183321,1105,1716,583,1125,8
20210305,198110,12758,184239,1113,1613,687,918,8
20210306,199428,13077,185231,1120,1318,319,992,7
20210307,200572,13258,186187,1127,1144,181,956,7
20210308,201898,13643,187122,1133,1326,385,935,6
20210309,203055,13747,188167,1141,1157,104,1045,8
20210310,204388,14089,189155,1144,1333,342,988,3
20210311,205893,14510,190235,1148,1505,421,1080,4
20210312,207249,14676,191417,1156,1356,166,1182,8
20210313,208460,14513,192782,1165,1211,-163,1365,9
20210314,209523,14179,194172,1172,1063,-334,1390,7
20210315,210855,14169,195507,1179,1332,-10,1335,7
20210316,212169,14162,196821,1186,1314,-7,1314,7
20210317,213673,14206,198273,1194,1504,44,1452,8
20210318,215067,14316,199549,1202,1394,110,1276,8
20210319,216586,14554,200822,1210,1519,238,1273,8
20210320,217933,14510,202208,1215,1347,-44,1386,5
20210321,219125,14360,203539,1226,1192,-150,1331,11
20210322,220455,14244,204978,1233,1330,-116,1439,7
20210323,221743,14317,206180,1246,1288,73,1202,13
20210324,223042,14394,207392,1256,1299,77,1212,10
20210325,224432,14403,208771,1258,1390,9,1379,2
20210326,225980,14686,210024,1270,1548,283,1253,12
20210327,227178,14539,211360,1279,1198,-147,1336,9
20210328,228299,14417,212596,1286,1121,-122,1236,7
20210329,229550,14310,213942,1298,1251,-107,1346,12
20210330,230821,14263,215250,1308,1271,-47,1308,10
20210331,232103,14210,216580,1313,1282,-53,1330,5
20210401,233521,14329,217873,1319,1418,119,1293,6
20210402,234754,14170,219257,1327,1233,-159,1384,8
20210403,235989,14129,220521,1339,1235,-41,1264,12
20210404,237192,13896,221943,1353,1203,-233,1422,14
20210405,238549,13915,223269,1365,1357,19,1326,12
20210406,239952,13878,224701,1373,1403,-37,1432,8
20210407,241469,14064,226026,1379,1517,186,1325,6
20210408,242848,14205,227260,1383,1379,141,1234,4
20210409,244325,14305,228627,1393,1477,100,1367,10
20210410,245704,14455,229846,1403,1379,150,1219,10
20210411,247094,14447,231240,1407,1390,-8,1394,4
20210412,248729,14761,232556,1412,1635,314,1316,5
20210413,250273,15097,233757,1419,1544,336,1201,7
20210414,251675,15199,235053,1423,1402,102,1296,4
20210415,253066,15254,236384,1428,1391,55,1331,5
20210416,254472,15369,237667,1436,1406,115,1283,8
20210417,255860,15393,239027,1440,1388,24,1360,4
20210418,256987,15074,240465,1448,1127,-319,1438,8
20210419,258497,15345,241696,1456,1510,271,1231,8
20210420,259868,15344,243056,1468,1371,-1,1360,12
20210421,261307,15415,244410,1482,1439,71,1354,14
20210422,262766,15449,245824,1493,1459,34,1414,11
20210423,264198,15560,247136,1502,1432,111,1312,9
20210424,265404,15260,248633,1511,1206,-300,1497,9
20210425,266949,15359,250074,1516,1545,99,1441,5
20210426,268235,15197,251511,1527,1286,-162,1437,11
20210427,269681,15258,252888,1535,1446,61,1377,8
20210428,271145,15176,254423,1546,1464,-82,1535,11
20210429,272562,15191,255817,1554,1417,15,1394,8
20210430,273991,15167,257261,1563,1429,-24,1444,9
20210501,275270,15102,258599,1569,1279,-65,1338,6
20210502,276586,15000,260008,1578,1316,-102,1409,9
20210503,277832,14873,261369,1590,1246,-127,1361,12
20210504,279085,14902,262582,1601,1253,29,1213,11
20210505,280536,14832,264094,1610,1451,-70,1512,9
20210506,281772,14621,265530,1621,1236,-211,1436,11
20210507,282981,14436,266917,1628,1209,-185,1387,7
20210508,284076,14125,268316,1635,1095,-311,1399,7
20210509,285068,13790,269633,1645,992,-335,1317,10
20210510,286046,13511,270883,1652,978,-279,1250,7
20210511,287199,13416,272123,1660,1153,-95,1240,8
20210512,288184,13226,273289,1669,985,-190,1166,9
20210513,289243,13015,274554,1674,1059,-211,1265,5
20210514,290006,12580,275745,1681,763,-435,1191,7
20210515,290801,12322,276792,1687,795,-258,1047,6
20210516,291629,12116,277820,1693,828,-206,1028,6
20210517,292490,11970,278824,1696,861,-146,1004,3
20210518,293574,11949,279924,1701,1084,-21,1100,5
20210519,294693,12050,280940,1703,1119,101,1016,2
20210520,295861,12230,281920,1711,1168,180,980,8
20210521,297206,12574,282913,1719,1345,344,993,8
20210522,298223,12547,283952,1724,1017,-27,1039,5
20210523,299215,12363,285118,1734,992,-184,1166,10
20210524,300455,12515,286199,1741,1240,152,1081,7
20210525,301863,12760,287357,1746,1408,245,1158,5
20210526,303039,12999,288289,1751,1176,239,932,5
20210527,304199,13077,289367,1755,1160,78,1078,4
20210528,305583,13446,290377,1760,1384,369,1010,5
20210529,306717,13432,291521,1764,1134,-14,1144,4
20210530,307812,13340,292701,1771,1095,-92,1180,7
20210531,309222,13551,293899,1772,1410,211,1198,1
20210601,310501,13754,294972,1775,1279,203,1073,3
20210602,311846,13825,296242,1779,1345,71,1270,4
20210603,313289,14177,297329,1783,1443,352,1087,4
20210604,314569,14297,298485,1787,1280,120,1156,4
20210605,315900,14311,299795,1794,1331,14,1310,7
20210606,317197,14265,301137,1795,1297,-46,1342,1
20210607,318676,14485,302393,1798,1479,220,1256,3
20210608,320257,14819,303637,1801,1581,334,1244,3
20210609,321648,14926,304916,1806,1391,107,1279,5
20210610,323357,15315,306232,1810,1709,389,1316,4
20210611,325014,15689,307512,1813,1657,374,1280,3
20210612,326451,15805,308829,1817,1437,116,1317,4
20210613,327963,16048,310095,1820,1512,243,1266,3
20210614,329526,16139,311559,1828,1563,91,1464,8
20210615,331013,16332,312850,1831,1487,193,1291,3
20210616,332570,16515,314218,1837,1557,183,1368,6
20210617,334216,16729,315645,1842,1646,214,1427,5
20210618,335874,16992,317031,1851,1658,263,1386,9
20210619,337371,17090,318419,1862,1497,98,1388,11
20210620,339032,17277,319885,1870,1661,187,1466,8
20210621,340967,17797,321293,1877,1935,520,1408,7
20210622,342929,18144,322897,1888,1962,347,1604,11
20210623,344799,18327,324578,1894,1870,183,1681,6
20210624,346560,18555,326102,1903,1761,228,1524,9
20210625,348262,18615,327734,1913,1702,60,1632,10
20210626,349923,18581,329423,1919,1661,-34,1689,6
20210627,351481,18533,331015,1933,1558,-48,1592,14
20210628,353133,18512,332678,1943,1652,-21,1663,10
20210629,354851,18445,334445,1961,1718,-67,1767,18
20210630,356687,18596,336122,1969,1836,151,1677,8
20210701,358511,18703,337829,1979,1824,107,1707,10
20210702,360406,18807,339604,1995,1895,104,1775,16
20210703,362018,18536,341477,2005,1612,-271,1873,10
20210704,363672,18390,343265,2017,1654,-146,1788,12
20210705,365649,18514,345106,2029,1977,124,1841,12
20210706,367642,18600,346993,2049,1993,86,1887,20
20210707,369227,18318,348850,2059,1585,-282,1857,10
20210708,370932,18390,350471,2071,1705,72,1621,12
20210709,372549,18252,352208,2089,1617,-138,1737,18
20210710,374104,18068,353936,2100,1555,-184,1728,11
20210711,375594,17915,355562,2117,1490,-153,1626,17
20210712,377364,17972,357256,2136,1770,57,1694,19
20210713,379076,17904,359025,2147,1712,-68,1769,11
20210714,380699,17795,360746,2158,1623,-109,1721,11
20210715,382084,17517,362393,2174,1385,-278,1647,16
20210716,383347,17162,363992,2193,1263,-355,1599,19
20210717,384573,16855,365507,2211,1226,-307,1515,18
20210718,385762,16606,366935,2221,1189,-249,1428,10
20210719,386869,16211,368420,2238,1107,-395,1485,17
20210720,387912,15928,369737,2247,1043,-283,1317,9
20210721,388881,15501,371125,2255,969,-427,1388,8
20210722,389868,15246,372358,2264,987,-255,1233,9
20210723,390794,15246,373507,2273,926,0,1149,9
20210724,391781,14516,374986,2279,987,-730,1479,6
20210725,392617,14235,376098,2284,836,-281,1112,5
20210726,393605,13878,377434,2293,988,-357,1336,9
20210727,394538,13430,378810,2298,933,-448,1376,5
20210728,395479,13001,380175,2303,941,-429,1365,5
20210729,396332,12448,381575,2309,853,-553,1400,6
20210730,397098,11958,382826,2314,766,-490,1251,5
20210731,397831,11449,384062,2320,733,-509,1236,6
20210801,398538,10809,385401,2328,707,-640,1339,8
20210802,399343,10314,386690,2339,805,-495,1289,11
20210803,400128,9951,387832,2345,785,-363,1142,6
20210804,400979,9748,388880,2351,851,-203,1048,6
20210805,401697,0,0,2356,718,-9748,-388880,5
20210806,402293,0,0,2361,596,0,0,5
20210807,402794,0,0,2366,501,0,0,5
20210808,403349,0,0,2369,555,0,0,3
20210809,403868,0,0,2372,519,0,0,3
20210810,404463,0,0,2375,595,0,0,3
20210811,404887,0,0,2378,424,0,0,3
20210812,405442,0,0,2380,555,0,0,2
20210813,405859,0,0,2383,417,0,0,3
20210814,406234,0,0,2386,375,0,0,3
20210815,406540,0,0,2389,306,0,0,3
20210816,406883,0,0,2393,343,0,0,4
20210817,407139,0,0,2395,256,0,0,2
20210818,407376,0,0,2397,237,0,0,2
20210819,407652,0,0,2399,276,0,0,2
20210820,407878,0,0,2401,226,0,0,2
20210821,408078,0,0,2403,200,0,0,2
20210822,408245,0,0,2404,167,0,0,1
20210823,408434,0,0,2407,189,0,0,3
20210824,408600,0,0,2409,166,0,0,2
20210825,408797,0,0,2412,197,0,0,3
20210826,409009,0,0,2414,212,0,0,2
20210827,409177,0,0,2415,168,0,0,1
20210828,409363,0,0,2416,186,0,0,1
20210829,409552,0,0,2417,189,0,0,1
20210830,409736,0,0,2418,184,0,0,1
20210831,409860,0,0,2419,124,0,0,1
20210901,409961,0,0,2420,101,0,0,1
20210902,410072,0,0,2421,111,0,0,1
20210903,410167,0,0,2422,95,0,0,1
20210904,410270,0,0,2423,103,0,0,1
