date,infected,active,recovered,dead,deltaInfected,deltaActive,deltaRecovered,deltaDead
20200229,1,1,0,0,1,1,0,0
20200301,1,1,0,0,0,0,0,0
20200302,1,1,0,0,0,0,0,0
20200303,1,1,0,0,0,0,0,0
20200304,1,1,0,0,0,0,0,0
20200305,1,1,0,0,0,0,0,0
20200306,2,2,0,0,1,1,0,0
20200307,2,2,0,0,0,0,0,0
20200308,3,3,0,0,1,1,0,0
20200309,3,3,0,0,0,0,0,0
20200310,5,5,0,0,2,2,0,0
20200311,7,7,0,0,2,2,0,0
20200312,19,19,0,0,12,12,0,0
20200313,34,34,0,0,15,15,0,0
20200314,51,50,0,1,17,16,0,1
20200315,59,58,0,1,8,8,0,0
20200316,77,76,0,1,18,18,0,0
20200317,140,139,0,1,63,63,0,0
20200318,203,201,0,2,63,62,0,1
20200319,335,331,0,4,132,130,0,2
20200320,484,480,0,4,149,149,0,0
20200321,670,662,0,8,186,182,0,4
20200322,798,784,6,8,128,122,6,0
20200323,875,861,6,8,77,77,0,0
20200324,1099,1085,6,8,224,224,0,0
20200325,1333,1319,6,8,234,234,0,0
20200326,1453,1438,6,9,120,119,0,1
20200327,1605,1550,40,15,152,112,34,6
20200328,1831,1773,40,18,226,223,0,3
20200329,1950,1889,40,21,119,116,0,3
20200330,1988,1926,40,22,38,37,0,1
20200331,2178,2075,80,23,190,149,40,1
20200401,2319,2210,80,29,141,135,0,6
20200402,2487,2377,80,30,168,167,0,1
20200403,2612,2081,500,31,125,-296,420,1
20200404,2729,2198,500,31,117,117,0,0
20200405,2804,2268,500,36,75,70,0,5
20200406,2843,2302,500,41,39,34,0,5
20200407,2970,2426,500,44,127,124,0,3
20200408,3034,2488,500,46,64,62,0,2
20200409,3115,2563,500,52,81,75,0,6
20200410,3223,2669,500,54,108,106,0,2
20200411,3270,2708,500,62,47,39,0,8
20200412,3281,2715,500,66,11,7,0,4
20200413,3292,2723,500,69,11,8,0,3
20200414,3307,2740,500,67,15,17,0,-2
20200415,3373,2778,526,69,66,38,26,2
20200416,3444,2823,552,69,71,45,26,0
20200417,3480,2829,579,72,36,6,27,3
20200418,3537,2864,601,72,57,35,22,0
20200419,3550,2850,627,73,13,-14,26,1
20200420,3558,2846,637,75,8,-4,10,2
20200421,3618,2870,670,78,60,24,33,3
20200422,3654,2863,711,80,36,-7,41,2
20200423,3665,2854,728,83,11,-9,17,3
20200424,3695,603,3007,85,30,-2251,2279,2
20200425,3711,538,3088,85,16,-65,81,0
20200426,3723,531,3104,88,12,-7,16,3
20200427,3729,518,3123,88,6,-13,19,0
20200428,3741,529,3123,89,12,11,0,1
20200429,3769,546,3134,89,28,17,11,0
20200430,3784,481,3213,90,15,-65,79,1
20200501,3802,497,3213,92,18,16,0,2
20200502,3812,402,3318,92,10,-95,105,0
20200503,3824,349,3379,96,12,-53,61,4
20200504,3828,327,3405,96,4,-22,26,0
20200505,3840,332,3412,96,12,5,7,0
20200506,3851,301,3452,98,11,-31,40,2
20200507,3859,254,3505,100,8,-47,53,2
20200508,3871,245,3526,100,12,-9,21,0
20200509,3877,226,3550,101,6,-19,24,1
20200510,3886,199,3586,101,9,-27,36,0
20200511,3888,185,3602,101,2,-14,16,0
20200512,3894,182,3610,102,6,-3,8,1
20200513,3904,172,3629,103,10,-10,19,1
20200514,3915,147,3665,103,11,-25,36,0
20200515,3923,137,3682,104,8,-10,17,1
20200516,3930,127,3699,104,7,-10,17,0
20200517,3945,136,3702,107,15,9,3,3
20200518,3947,125,3715,107,2,-11,13,0
20200519,3958,131,3718,109,11,6,3,2
20200520,3971,134,3728,109,13,3,10,0
20200521,3980,130,3741,109,9,-4,13,0
20200522,3981,124,3748,109,1,-6,7,0
20200523,3990,123,3758,109,9,-1,10,0
20200524,3992,115,3767,110,2,-8,9,1
20200525,3993,102,3781,110,1,-13,14,0
20200526,3995,102,3783,110,2,0,2,0
20200527,4001,100,3791,110,6,-2,8,0
20200528,4008,95,3803,110,7,-5,12,0
20200529,4012,87,3815,110,4,-8,12,0
20200530,4016,91,3815,110,4,4,0,0
20200531,4018,75,3833,110,2,-16,18,0
20200601,4019,64,3845,110,1,-11,12,0
20200602,4020,62,3848,110,1,-2,3,0
20200603,4024,53,3861,110,4,-9,13,0
20200604,4027,43,3874,110,3,-10,13,0
20200605,4032,37,3885,110,5,-6,11,0
20200606,4035,37,3888,110,3,0,3,0
20200607,4039,30,3899,110,4,-7,11,0
20200608,4040,29,3901,110,1,-1,2,0
20200609,4046,34,3902,110,6,5,1,0
20200610,4049,35,3904,110,3,1,2,0
20200611,4052,32,3910,110,3,-3,6,0
20200612,4055,27,3918,110,3,-5,8,0
20200613,4063,31,3922,110,8,4,4,0
20200614,4070,31,3929,110,7,0,7,0
20200615,4072,31,3931,110,2,0,2,0
20200616,4075,32,3933,110,3,1,2,0
20200617,4085,40,3935,110,10,8,2,0
20200618,4091,41,3940,110,6,1,5,0
20200619,4099,45,3944,110,8,4,4,0
20200620,4105,44,3951,110,6,-1,7,0
20200621,4120,54,3956,110,15,10,5,0
20200622,4121,52,3959,110,1,-2,3,0
20200623,4133,64,3959,110,12,12,0,0
20200624,4140,65,3965,110,7,1,6,0
20200625,4151,73,3968,110,11,8,3,0
20200626,4173,95,3968,110,22,22,0,0
20200627,4217,129,3978,110,44,34,10,0
20200628,4242,154,3978,110,25,25,0,0
20200629,4256,149,3997,110,14,-5,19,0
20200630,4299,191,3998,110,43,42,1,0
20200701,4345,232,4003,110,46,41,5,0
20200702,4395,273,4012,110,50,41,9,0
20200703,4447,321,4016,110,52,48,4,0
20200704,4476,350,4016,110,29,29,0,0
20200705,4522,396,4016,110,46,46,0,0
20200706,4542,416,4016,110,20,20,0,0
20200707,4603,437,4056,110,61,21,40,0
20200708,4650,484,4056,110,47,47,0,0
20200709,4719,553,4056,110,69,69,0,0
20200710,4777,581,4086,110,58,28,30,0
20200711,4842,646,4086,110,65,65,0,0
20200712,4925,728,4086,111,83,82,0,1
20200713,4956,662,4183,111,31,-66,97,0
20200714,5056,750,4195,111,100,88,12,0
20200715,5122,764,4247,111,66,14,52,0
20200716,5285,899,4275,111,163,135,28,0
20200717,5409,965,4333,111,124,66,58,0
20200718,5483,1039,4333,111,74,74,0,0
20200719,5605,1161,4333,111,122,122,0,0
20200720,5639,1064,4464,111,34,-97,131,0
20200721,5725,1135,4479,111,86,71,15,0
20200722,5854,1213,4530,111,129,78,51,0
20200723,5952,1249,4591,112,98,36,61,1
20200724,6056,1297,4647,112,104,48,56,0
20200725,6189,1430,4647,112,133,133,0,0
20200726,6272,1513,4647,112,83,83,0,0
20200727,6321,1384,4825,112,49,-129,178,0
20200728,6375,1407,4855,113,54,23,30,1
20200729,6533,1460,4959,114,158,53,104,1
20200730,6616,1475,5027,114,83,15,68,0
20200731,6695,1389,5192,114,79,-86,165,0
20200801,6793,1485,5192,116,98,96,0,2
20200802,6855,1546,5192,117,62,61,0,1
20200803,6864,1248,5498,118,9,-298,306,1
20200804,6917,1262,5537,118,53,14,39,0
20200805,7007,1266,5623,118,90,4,86,0
20200806,7073,1204,5750,119,66,-62,127,1
20200807,7113,1146,5848,119,40,-58,98,0
20200808,7169,1201,5848,120,56,55,0,1
20200809,7205,1237,5848,120,36,36,0,0
20200810,7216,925,6170,121,11,-312,322,1
20200811,7242,898,6222,122,26,-27,52,1
20200812,7300,916,6262,122,58,18,40,0
20200813,7368,832,6414,122,68,-84,152,0
20200814,7405,783,6500,122,37,-49,86,0
20200815,7439,816,6500,123,34,33,0,1
20200816,7458,835,6500,123,19,19,0,0
20200817,7469,606,6739,124,11,-229,239,1
20200818,7499,622,6753,124,30,16,14,0
20200819,7566,629,6813,124,67,7,60,0
20200820,7637,610,6903,124,71,-19,90,0
20200821,7704,611,6969,124,67,1,66,0
20200822,7762,669,6969,124,58,58,0,0
20200823,7775,682,6969,124,13,13,0,0
20200824,7794,564,7106,124,19,-118,137,0
20200825,7838,600,7114,124,44,36,8,0
20200826,7928,664,7140,124,90,64,26,0
20200827,7928,664,7140,124,0,0,0,0
20200828,6580,-684,7140,124,-1348,-1348,0,0
20200829,6625,-639,7140,124,45,45,0,0
20200830,6625,6549,7140,124,0,7188,0,0
20200831,6625,6553,7140,124,0,4,0,0
20200901,6625,6578,7140,124,0,25,0,0
20200902,6745,606,6015,124,120,-5972,-1125,0
20200903,6811,613,6074,124,66,7,59,0
20200904,6854,604,6126,124,43,-9,52,0
20200905,6896,646,6126,124,42,42,0,0
20200906,6950,700,6126,124,54,54,0,0
20200907,6960,710,6126,124,10,10,0,0
20200908,6974,584,6266,124,14,-126,140,0
20200909,7023,607,6292,124,49,23,26,0
20200910,7088,597,6367,124,65,-10,75,0
20200911,7088,597,6367,124,0,0,0,0
20200912,7159,614,6421,124,71,17,54,0
20200913,7159,614,6421,124,0,0,0,0
20200914,7244,565,6555,124,85,-49,134,0
20200915,7284,599,6561,124,40,34,6,0
20200916,7394,677,6593,124,110,78,32,0
20200917,7541,776,6641,124,147,99,48,0
20200918,7718,891,6703,124,177,115,62,0
20200919,7718,891,6703,124,0,0,0,0
20200920,7718,891,6703,124,0,0,0,0
20200921,7916,953,6839,124,198,62,136,0
20200922,8016,1044,6848,124,100,91,9,0
20200923,8090,1104,6862,124,74,60,14,0
20200924,8158,1124,6910,124,68,20,48,0
20200925,8233,1133,6976,124,75,9,66,0
20200926,8233,1133,6976,124,0,0,0,0
20200927,8233,1133,6976,124,0,0,0,0
20200928,8376,1124,7128,124,143,-9,152,0
20200929,8431,1171,7136,124,55,47,8,0
20200930,8509,1211,7174,124,78,40,38,0
20201001,8595,1190,7280,125,86,-21,106,1
20201002,8709,1156,7428,125,114,-34,148,0
20201003,8709,1156,7428,125,0,0,0,0
20201004,8709,1156,7428,125,0,0,0,0
20201005,8925,1005,7793,127,216,-151,365,2
20201006,8979,1058,7793,128,54,53,0,1
20201007,9119,1091,7900,128,140,33,107,0
20201008,9219,1117,7973,129,100,26,73,1
20201009,9360,1192,8038,130,141,75,65,1
20201010,9514,1345,8038,131,154,153,0,1
20201011,9722,1552,8038,132,208,207,0,1
20201012,9731,1364,8234,133,9,-188,196,1
20201013,9840,1459,8248,133,109,95,14,0
20201014,10030,1591,8306,133,190,132,58,0
20201015,10244,1727,8384,133,214,136,78,0
20201016,10471,1870,8468,133,227,143,84,0
20201017,10471,523,8468,133,0,-1347,0,0
20201018,10888,2287,8468,133,417,1764,0,0
20201019,11010,2404,8471,135,122,117,3,2
20201020,11241,2633,8472,136,231,229,1,1
20201021,11671,3060,8473,138,430,427,1,2
20201022,12333,3719,8474,140,662,659,1,2
20201023,12851,3625,9085,141,518,-94,611,1
20201024,12851,3625,9085,141,0,0,0,0
20201025,12851,3625,9085,141,0,0,0,0
20201026,14399,4682,9570,147,1548,1057,485,6
20201027,14884,9579,5158,147,485,4897,-4412,0
20201028,15659,5831,9681,147,775,-3748,4523,0
20201029,16356,6341,9865,150,697,510,184,3
20201030,17134,6901,10081,152,778,560,216,2
20201031,17134,6901,10081,152,0,0,0,0
20201101,17134,6901,10081,152,0,0,0,0
20201102,19101,8224,10717,160,1967,1323,636,8
20201103,19634,8642,10825,167,533,418,108,7
20201104,20344,9110,11063,171,710,468,238,4
20201105,21147,9451,11519,177,803,341,456,6
20201106,21806,9532,12094,180,659,81,575,3
20201107,21806,9532,12094,180,0,0,0,0
20201108,21806,9532,12094,180,0,0,0,0
20201109,23227,9121,13913,193,1421,-411,1819,13
20201110,23710,9418,14094,198,483,297,181,5
20201111,23710,9418,14094,198,0,0,0,0
20201112,25218,10209,14798,211,1508,791,704,13
20201113,25931,10284,15428,219,713,75,630,8
20201114,25931,10284,15428,219,0,0,0,0
20201115,25931,10284,15428,219,0,0,0,0
20201116,27256,9286,17734,236,1325,-998,2306,17
20201117,27681,9417,18024,240,425,131,290,4
20201118,28573,9821,18504,248,892,404,480,8
20201119,29243,9758,19231,254,670,-63,727,6
20201120,29762,9488,20014,260,519,-270,783,6
20201121,29762,9488,20014,260,0,0,0,0
20201122,29762,9488,20014,260,0,0,0,0
20201123,31111,8834,22004,273,1349,-654,1990,13
20201124,31484,9012,22189,283,373,178,185,10
20201125,32100,9182,22630,288,616,170,441,5
20201126,32873,9175,23404,294,773,-7,774,6
20201127,33409,9036,24073,300,536,-139,669,6
20201128,33409,9036,24073,300,0,0,0,0
20201129,33409,9036,24073,300,0,0,0,0
20201130,34678,8271,26086,321,1269,-765,2013,21
20201201,35129,8643,26156,330,451,372,70,9
20201202,35802,8971,26497,334,673,328,341,4
20201203,36429,8734,27356,339,627,-237,859,5
20201204,37017,8643,28029,345,588,-91,673,6
20201205,37017,8643,28029,345,0,0,0,0
20201206,37017,8643,28029,345,0,0,0,0
20201207,38476,8324,29792,360,1459,-319,1763,15
20201208,38476,8324,29792,360,0,0,0,0
20201209,38476,8324,29792,360,0,0,0,0
20201210,40037,8755,30898,384,1561,431,1106,24
20201211,40755,8685,31678,392,718,-70,780,8
20201212,40755,8685,31678,392,0,0,0,0
20201213,40755,8685,31678,392,0,0,0,0
20201214,41900,8123,33367,410,1145,-562,1689,18
20201215,42250,8346,33486,418,350,223,119,8
20201216,42845,8504,33920,421,595,158,434,3
20201217,43279,8242,34609,428,434,-262,689,7
20201218,43728,8057,35237,434,449,-185,628,6
20201219,43728,8057,35237,434,0,0,0,0
20201220,43728,8057,35237,434,0,0,0,0
20201221,44582,7026,37106,450,854,-1031,1869,16
20201222,44809,7135,37221,453,227,109,115,3
20201223,45209,7177,37574,458,400,42,353,5
20201224,45209,7177,37574,458,0,0,0,0
20201225,45209,7177,37574,458,0,0,0,0
20201226,45209,7177,37574,458,0,0,0,0
20201227,45209,7177,37574,458,0,0,0,0
20201228,45849,4906,40456,487,640,-2271,2882,29
20201229,46088,4991,40608,489,239,85,152,2
20201230,46415,4942,40978,495,327,-49,370,6
20201231,46415,4942,40978,495,0,0,0,0
20210101,46415,4942,40978,495,0,0,0,0
20210102,46415,4942,40978,495,0,0,0,0
20210103,46415,4942,40978,495,0,0,0,0
20210104,46986,3114,43364,508,571,-1828,2386,13
20210105,47149,3167,43468,514,163,53,104,6
20210106,47430,3201,43712,517,281,34,244,3
20210107,47592,2884,44187,521,162,-317,475,4
20210108,47744,2735,44482,527,152,-149,295,6
20210109,47744,2735,44482,527,0,0,0,0
20210110,47744,2735,44482,527,0,0,0,0
20210111,48027,2647,44845,535,283,-88,363,8
20210112,48181,2795,44848,538,154,148,3,3
20210113,48372,2895,44935,542,191,100,87,4
20210114,48486,2492,45449,545,114,-403,514,3
20210115,48630,2427,45654,549,144,-65,205,4
20210116,48630,2427,45654,549,0,0,0,0
20210117,48630,2427,45654,549,0,0,0,0
20210118,48890,2336,45997,557,260,-91,343,8
20210119,48975,2364,46051,560,85,28,54,3
20210120,49204,2431,46211,562,229,67,160,2
20210121,49319,2258,46499,562,115,-173,288,0
20210122,49438,2220,46656,562,119,-38,157,0
20210123,49438,2220,46656,562,0,0,0,0
20210124,49438,2220,46656,562,0,0,0,0
20210125,49733,2058,47109,566,295,-162,453,4
20210126,49852,2135,47147,570,119,77,38,4
20210127,50089,2216,47302,571,237,81,155,1
20210128,50228,2148,47506,574,139,-68,204,3
20210129,50388,2196,47615,577,160,48,109,3
20210130,50388,2196,47615,577,0,0,0,0
20210131,50388,2196,47615,577,0,0,0,0
20210201,50733,2175,47974,584,345,-21,359,7
20210202,50923,2331,48006,586,190,156,32,2
20210203,51128,2449,48092,587,205,118,86,1
20210204,51330,2431,48311,588,202,-18,219,1
20210205,51512,2501,48421,590,182,70,110,2
20210206,51512,2501,48421,590,0,0,0,0
20210207,51512,2501,48421,590,0,0,0,0
20210208,51879,2429,48853,597,367,-72,432,7
20210209,52022,2576,48846,600,143,147,-7,3
20210210,52247,2696,48949,602,225,120,103,2
20210211,52392,2622,49166,604,145,-74,217,2
20210212,52539,2632,49301,606,147,10,135,2
20210213,52539,2632,49301,606,0,0,0,0
20210214,52539,2632,49301,606,0,0,0,0
20210215,52923,2537,49775,611,384,-95,474,5
20210216,53062,2643,49807,612,139,106,32,1
20210217,53329,2719,49994,616,267,76,187,4
20210218,53562,2745,50198,619,233,26,204,3
20210219,53782,2774,50386,622,220,29,188,3
20210220,53782,2774,50386,622,0,0,0,0
20210221,53782,2774,50386,622,0,0,0,0
20210222,54172,2613,50931,628,390,-161,545,6
20210223,54354,2780,50945,629,182,167,14,1
20210224,54678,2982,51064,632,324,202,119,3
20210225,54871,2947,51290,634,193,-35,226,2
20210226,55110,2986,51487,637,239,39,197,3
20210227,55110,2986,51487,637,0,0,0,0
20210228,55110,2986,51487,637,0,0,0,0
20210301,55480,2822,52019,639,370,-164,532,2
20210302,55632,2929,52062,641,152,107,43,2
20210303,55902,3074,52185,643,270,145,123,2
20210304,56110,3018,52445,647,208,-56,260,4
20210305,56296,2982,52662,652,186,-36,217,5
20210306,56296,2982,52662,652,0,0,0,0
20210307,56296,2982,52662,652,0,0,0,0
20210308,56677,2774,53240,663,381,-208,578,11
20210309,56822,2888,53266,668,145,114,26,5
20210310,57056,2930,53453,673,234,42,187,5
20210311,57321,2898,53748,675,265,-32,295,2
20210312,57503,2881,53941,681,182,-17,193,6
20210313,57503,2881,53941,681,0,0,0,0
20210314,57503,2881,53941,681,0,0,0,0
20210315,57926,2752,54481,693,423,-129,540,12
20210316,58111,2886,54528,697,185,134,47,4
20210317,58408,3038,54666,704,297,152,138,7
20210318,58674,3034,54935,705,266,-4,269,1
20210319,58955,3094,55147,714,281,60,212,9
20210320,58955,3094,55147,714,0,0,0,0
20210321,58955,3094,55147,714,0,0,0,0
20210322,59497,3069,55709,719,542,-25,562,5
20210323,59662,3175,55761,726,165,106,52,7
20210324,59907,3337,55842,728,245,162,81,2
20210325,60205,3425,56044,736,298,88,202,8
20210326,60465,3409,56318,738,260,-16,274,2
20210327,60465,3409,56318,738,0,0,0,0
20210328,60465,3409,56318,738,0,0,0,0
20210329,61073,3468,56864,741,608,59,546,3
20210330,61255,3609,56903,743,182,141,39,2
20210331,61642,3804,57092,746,387,195,189,3
20210401,61881,3766,57366,749,239,-38,274,3
20210402,62105,3759,57596,750,224,-7,230,1
20210403,62105,3759,57596,750,0,0,0,0
20210404,62105,3759,57596,750,0,0,0,0
20210405,62105,3759,57596,750,0,0,0,0
20210406,62625,3483,58381,761,520,-276,785,11
20210407,62793,3487,58544,762,168,4,163,1
20210408,63180,3544,58874,762,387,57,330,0
20210409,63467,3536,59168,763,287,-8,294,1
20210410,63467,3536,59168,763,0,0,0,0
20210411,63467,3536,59168,763,0,0,0,0
20210412,63880,3120,59988,772,413,-416,820,9
20210413,64062,3273,60012,777,182,153,24,5
20210414,64334,3347,60203,784,272,74,191,7
20210415,64549,3201,60563,785,215,-146,360,1
20210416,64746,3334,60627,785,197,133,64,0
20210417,64746,3334,60627,785,0,0,0,0
20210418,64746,3334,60627,785,0,0,0,0
20210419,65144,2819,61539,786,398,-515,912,1
20210420,65319,2939,61594,786,175,120,55,0
20210421,65604,3025,61791,788,285,86,197,2
20210422,65813,3087,61936,790,209,62,145,2
20210423,66007,3034,62183,790,194,-53,247,0
20210424,66007,3034,62183,790,0,0,0,0
20210425,66007,3034,62183,790,0,0,0,0
20210426,66374,2619,62964,791,367,-415,781,1
20210427,66594,2814,62989,791,220,195,25,0
20210428,66826,2859,63175,792,232,45,186,1
20210429,67045,2803,63448,794,219,-56,273,2
20210430,67205,2748,63661,796,160,-55,213,2
20210501,67205,2748,63661,796,0,0,0,0
20210502,67205,2748,63661,796,0,0,0,0
20210503,67495,2601,64094,800,290,-147,433,4
20210504,67642,2582,64260,800,147,-19,166,0
20210505,67850,2607,64443,800,208,25,183,0
20210506,68020,2492,64727,801,170,-115,284,1
20210507,68153,2409,64943,801,133,-83,216,0
20210508,68153,2409,64943,801,0,0,0,0
20210509,68153,2409,64943,801,0,0,0,0
20210510,68431,2167,65460,804,278,-242,517,3
20210511,68552,2233,65513,806,121,66,53,2
20210512,68748,2206,65736,806,196,-27,223,0
20210513,68748,2206,65736,806,0,0,0,0
20210514,68922,1933,66183,806,174,-273,447,0
20210515,68922,1933,66183,806,0,0,0,0
20210516,68922,1933,66183,806,0,0,0,0
20210517,69190,1772,66610,808,268,-161,427,2
20210518,69239,1812,66619,808,49,40,9,0
20210519,69398,1787,66803,808,159,-25,184,0
20210520,69465,1662,66994,809,67,-125,191,1
20210521,69545,1573,67162,810,80,-89,168,1
20210522,69545,1573,67162,810,0,0,0,0
20210523,69545,1573,67162,810,0,0,0,0
20210524,69545,1573,67162,810,0,0,0,0
20210525,69579,1266,67501,812,34,-307,339,2
20210526,69669,1223,67634,812,90,-43,133,0
20210527,69749,1112,67824,813,80,-111,190,1
20210528,69830,1023,67993,814,81,-89,169,1
20210529,69830,1023,67993,814,0,0,0,0
20210530,69830,1023,67993,814,0,0,0,0
20210531,69932,877,68240,815,102,-146,247,1
20210601,69983,905,68261,817,51,28,21,2
20210602,70027,893,68316,818,44,-12,55,1
20210603,70088,786,68484,818,61,-107,168,0
20210604,70182,808,68556,818,94,22,72,0
20210605,70182,808,68556,818,0,0,0,0
20210606,70182,808,68556,818,0,0,0,0
20210607,70256,674,68764,818,74,-134,208,0
20210608,70291,698,68775,818,35,24,11,0
20210609,70343,746,68779,818,52,48,4,0
20210610,70383,702,68863,818,40,-44,84,0
20210611,70406,645,68943,818,23,-57,80,0
20210612,70406,645,68943,818,0,0,0,0
20210613,70406,645,68943,818,0,0,0,0
20210614,70445,498,69129,818,39,-147,186,0
20210615,70466,518,69130,818,21,20,1,0
20210616,70485,482,69185,818,19,-36,55,0
20210617,70503,453,69232,818,18,-29,47,0
20210618,70516,404,69294,818,13,-49,62,0
20210619,70516,404,69294,818,0,0,0,0
20210620,70516,404,69294,818,0,0,0,0
20210621,70535,258,69459,818,19,-146,165,0
20210622,70547,268,69461,818,12,10,2,0
20210623,70547,268,69461,818,0,0,0,0
20210624,70586,213,69555,818,39,-55,94,0
20210625,70600,186,69596,818,14,-27,41,0
20210626,70600,186,69596,818,0,0,0,0
20210627,70600,186,69596,818,0,0,0,0
20210628,70642,167,69657,818,42,-19,61,0
20210629,70695,194,69683,818,53,27,26,0
20210630,70787,263,69706,818,92,69,23,0
20210701,70895,351,69726,818,108,88,20,0
20210702,71031,463,69750,818,136,112,24,0
20210703,71031,463,69750,818,0,0,0,0
20210704,71031,463,69750,818,0,0,0,0
20210705,71429,824,69787,818,398,361,37,0
20210706,71547,944,69785,818,118,120,-2,0
20210707,71748,1130,69799,819,201,186,14,1
20210708,71879,1226,69834,819,131,96,35,0
20210709,72010,1355,69836,819,131,129,2,0
20210710,72010,1355,69836,819,0,0,0,0
20210711,72010,1355,69836,819,0,0,0,0
20210712,72257,1547,69891,819,247,192,55,0
20210713,72391,1675,69897,819,134,128,6,0
20210714,72509,1741,69949,819,118,66,52,0
20210715,72632,1772,70041,819,123,31,92,0
20210716,72759,1789,70150,820,127,17,109,1
20210717,72759,1789,70150,820,0,0,0,0
20210718,72759,1789,70150,820,0,0,0,0
20210719,72985,1497,70667,821,226,-292,517,1
20210720,73074,1578,70675,821,89,81,8,0
20210721,73215,1602,70792,821,141,24,117,0
20210722,73309,1499,70989,821,94,-103,197,0
20210723,73412,1474,71117,821,103,-25,128,0
20210724,73412,1474,71117,821,0,0,0,0
20210725,73412,1474,71117,821,0,0,0,0
20210726,73551,1239,71490,822,139,-235,373,1
20210727,73637,1318,71497,822,86,79,7,0
20210728,73744,1291,71631,822,107,-27,134,0
20210729,73816,1250,71744,822,72,-41,113,0
20210730,73870,1181,71867,822,54,-69,123,0
20210731,73870,1181,71867,822,0,0,0,0
20210801,73870,1181,71867,822,0,0,0,0
20210802,73990,957,72211,822,120,-224,344,0
20210803,74042,1003,72217,822,52,46,6,0
20210804,74144,1014,72306,824,102,11,89,2
20210805,74212,0,0,824,68,-1014,-72306,0
20210806,74262,0,0,824,50,0,0,0
20210807,74262,0,0,824,0,0,0,0
20210808,74262,0,0,824,0,0,0,0
20210809,74395,0,0,825,133,0,0,1
20210810,74437,0,0,825,42,0,0,0
20210811,74498,0,0,827,61,0,0,2
20210812,74545,0,0,827,47,0,0,0
20210813,74595,0,0,828,50,0,0,1
20210814,74595,0,0,828,0,0,0,0
20210815,74595,0,0,828,0,0,0,0
20210816,74690,0,0,828,95,0,0,0
20210817,74779,0,0,828,89,0,0,0
20210818,74855,0,0,829,76,0,0,1
20210819,74918,0,0,830,63,0,0,1
20210820,74985,0,0,830,67,0,0,0
20210821,74985,0,0,830,0,0,0,0
20210822,74985,0,0,830,0,0,0,0
20210823,75130,0,0,830,145,0,0,0
20210824,75216,0,0,830,86,0,0,0
20210825,75312,0,0,830,96,0,0,0
20210826,75442,0,0,830,130,0,0,0
20210827,75517,0,0,830,75,0,0,0
20210828,75517,0,0,830,0,0,0,0
20210829,75517,0,0,830,0,0,0,0
20210830,75672,0,0,830,155,0,0,0
20210831,75760,0,0,830,88,0,0,0
20210901,75904,0,0,830,144,0,0,0
20210902,75981,0,0,830,77,0,0,0
20210903,76102,0,0,830,121,0,0,0
20210904,76102,0,0,830,0,0,0,0
