date,infected,active,recovered,dead,deltaInfected,deltaActive,deltaRecovered,deltaDead
20200310,1,1,0,0,1,1,0,0
20200311,1,1,0,0,0,0,0,0
20200312,1,1,0,0,0,0,0,0
20200313,1,1,0,0,0,0,0,0
20200314,1,1,0,0,0,0,0,0
20200315,1,1,0,0,0,0,0,0
20200316,1,1,0,0,0,0,0,0
20200317,5,5,0,0,4,4,0,0
20200318,6,6,0,0,1,1,0,0
20200319,6,6,0,0,0,0,0,0
20200320,6,6,0,0,0,0,0,0
20200321,10,10,0,0,4,4,0,0
20200322,10,10,0,0,0,0,0,0
20200323,10,10,0,0,0,0,0,0
20200324,10,10,0,0,0,0,0,0
20200325,10,10,0,0,0,0,0,0
20200326,11,11,0,0,1,1,0,0
20200327,11,11,0,0,0,0,0,0
20200328,12,12,0,0,1,1,0,0
20200329,12,12,0,0,0,0,0,0
20200330,12,10,2,0,0,-2,2,0
20200331,12,10,2,0,0,0,0,0
20200401,14,12,2,0,2,2,0,0
20200402,14,12,2,0,0,0,0,0
20200403,14,12,2,0,0,0,0,0
20200404,14,12,2,0,0,0,0,0
20200405,14,12,2,0,0,0,0,0
20200406,15,13,2,0,1,1,0,0
20200407,15,11,4,0,0,-2,2,0
20200408,16,12,4,0,1,1,0,0
20200409,16,12,4,0,0,0,0,0
20200410,16,12,4,0,0,0,0,0
20200411,16,12,4,0,0,0,0,0
20200412,16,12,4,0,0,0,0,0
20200413,17,13,4,0,1,1,0,0
20200414,30,25,5,0,13,12,1,0
20200415,30,25,5,0,0,0,0,0
20200416,31,26,5,0,1,1,0,0
20200417,31,26,5,0,0,0,0,0
20200418,31,26,5,0,0,0,0,0
20200419,32,25,7,0,1,-1,2,0
20200420,33,26,7,0,1,1,0,0
20200421,34,26,8,0,1,0,1,0
20200422,35,27,8,0,1,1,0,0
20200423,36,27,9,0,1,0,1,0
20200424,37,28,9,0,1,1,0,0
20200425,37,28,9,0,0,0,0,0
20200426,38,29,9,0,1,1,0,0
20200427,38,28,10,0,0,-1,1,0
20200428,38,28,10,0,0,0,0,0
20200429,38,28,10,0,0,0,0,0
20200430,38,28,10,0,0,0,0,0
20200501,38,28,10,0,0,0,0,0
20200502,39,29,10,0,1,1,0,0
20200503,39,29,10,0,0,0,0,0
20200504,40,28,12,0,1,-1,2,0
20200505,41,28,13,0,1,0,1,0
20200506,41,28,13,0,0,0,0,0
20200507,41,28,13,0,0,0,0,0
20200508,42,29,13,0,1,1,0,0
20200509,42,28,14,0,0,-1,1,0
20200510,42,28,14,0,0,0,0,0
20200511,42,28,14,0,0,0,0,0
20200512,42,27,15,0,0,-1,1,0
20200513,42,27,15,0,0,0,0,0
20200514,98,83,15,0,56,56,0,0
20200515,98,78,20,0,0,-5,5,0
20200516,135,115,20,0,37,37,0,0
20200517,136,115,21,0,1,0,1,0
20200518,140,116,24,0,4,1,3,0
20200519,140,114,26,0,0,-2,2,0
20200520,140,114,26,0,0,0,0,0
20200521,140,114,26,0,0,0,0,0
20200522,141,113,28,0,1,-1,2,0
20200523,141,111,30,0,0,-2,2,0
20200524,141,109,32,0,0,-2,2,0
20200525,141,108,33,0,0,-1,1,0
20200526,141,104,37,0,0,-4,4,0
20200527,148,105,43,0,7,1,6,0
20200528,161,118,43,0,13,13,0,0
20200529,179,136,43,0,18,18,0,0
20200530,179,135,44,0,0,-1,1,0
20200531,179,135,44,0,0,0,0,0
20200601,185,141,44,0,6,6,0,0
20200602,185,141,44,0,0,0,0,0
20200603,185,141,44,0,0,0,0,0
20200604,186,121,65,0,1,-20,21,0
20200605,191,121,70,0,5,0,5,0
20200606,193,118,75,0,2,-3,5,0
20200607,193,118,75,0,0,0,0,0
20200608,194,119,75,0,1,1,0,0
20200609,194,107,87,0,0,-12,12,0
20200610,194,105,89,0,0,-2,2,0
20200611,197,102,95,0,3,-3,6,0
20200612,197,102,95,0,0,0,0,0
20200613,197,99,98,0,0,-3,3,0
20200614,197,99,98,0,0,0,0,0
20200615,197,88,109,0,0,-11,11,0
20200616,197,86,111,0,0,-2,2,0
20200617,201,74,127,0,4,-12,16,0
20200618,204,72,132,0,3,-2,5,0
20200619,204,65,139,0,0,-7,7,0
20200620,206,67,139,0,2,2,0,0
20200621,213,60,153,0,7,-7,14,0
20200622,215,57,158,0,2,-3,5,0
20200623,215,47,168,0,0,-10,10,0
20200624,216,47,169,0,1,0,1,0
20200625,219,49,170,0,3,2,1,0
20200626,219,44,175,0,0,-5,5,0
20200627,219,44,175,0,0,0,0,0
20200628,220,45,175,0,1,1,0,0
20200629,220,45,175,0,0,0,0,0
20200630,220,44,176,0,0,-1,1,0
20200701,220,43,177,0,0,-1,1,0
20200702,220,41,179,0,0,-2,2,0
20200703,220,37,183,0,0,-4,4,0
20200704,220,35,185,0,0,-2,2,0
20200705,220,32,188,0,0,-3,3,0
20200706,225,31,194,0,5,-1,6,0
20200707,227,32,195,0,2,1,1,0
20200708,227,30,197,0,0,-2,2,0
20200709,227,30,197,0,0,0,0,0
20200710,227,27,200,0,0,-3,3,0
20200711,230,28,202,0,3,1,2,0
20200712,230,27,203,0,0,-1,1,0
20200713,243,39,204,0,13,12,1,0
20200714,261,54,207,0,18,15,3,0
20200715,261,52,209,0,0,-2,2,0
20200716,262,51,211,0,1,-1,2,0
20200717,287,76,211,0,25,25,0,0
20200718,287,74,213,0,0,-2,2,0
20200719,287,74,213,0,0,0,0,0
20200720,287,74,213,0,0,0,0,0
20200721,287,74,213,0,0,0,0,0
20200722,287,73,214,0,0,-1,1,0
20200723,288,71,217,0,1,-2,3,0
20200724,288,70,218,0,0,-1,1,0
20200725,288,70,218,0,0,0,0,0
20200726,288,70,218,0,0,0,0,0
20200727,289,67,222,0,1,-3,4,0
20200728,291,66,225,0,2,-1,3,0
20200729,291,66,225,0,0,0,0,0
20200730,291,66,225,0,0,0,0,0
20200731,291,61,230,0,0,-5,5,0
20200801,293,63,230,0,2,2,0,0
20200802,293,63,230,0,0,0,0,0
20200803,293,63,230,0,0,0,0,0
20200804,293,49,244,0,0,-14,14,0
20200805,293,33,260,0,0,-16,16,0
20200806,293,33,260,0,0,0,0,0
20200807,293,33,260,0,0,0,0,0
20200808,293,33,260,0,0,0,0,0
20200809,293,30,263,0,0,-3,3,0
20200810,293,30,263,0,0,0,0,0
20200811,293,24,269,0,0,-6,6,0
20200812,297,28,269,0,4,4,0,0
20200813,297,28,269,0,0,0,0,0
20200814,298,26,272,0,1,-2,3,0
20200815,298,22,276,0,0,-4,4,0
20200816,298,22,276,0,0,0,0,0
20200817,298,20,278,0,0,-2,2,0
20200818,298,17,281,0,0,-3,3,0
20200819,298,17,281,0,0,0,0,0
20200820,298,15,283,0,0,-2,2,0
20200821,298,10,288,0,0,-5,5,0
20200822,298,10,288,0,0,0,0,0
20200823,298,9,289,0,0,-1,1,0
20200824,298,9,289,0,0,0,0,0
20200825,300,11,289,0,2,2,0,0
20200826,301,10,291,0,1,-1,2,0
20200827,301,10,291,0,0,0,0,0
20200828,301,10,291,0,0,0,0,0
20200829,301,6,295,0,0,-4,4,0
20200830,301,6,295,0,0,0,0,0
20200831,304,9,295,0,3,3,0,0
20200901,306,10,296,0,2,1,1,0
20200902,306,10,296,0,0,0,0,0
20200903,310,14,296,0,4,4,0,0
20200904,310,14,296,0,0,0,0,0
20200905,310,14,296,0,0,0,0,0
20200906,310,14,296,0,0,0,0,0
20200907,310,14,296,0,0,0,0,0
20200908,310,14,296,0,0,0,0,0
20200909,310,12,298,0,0,-2,2,0
20200910,311,13,298,0,1,1,0,0
20200911,311,13,298,0,0,0,0,0
20200912,311,13,298,0,0,0,0,0
20200913,311,11,300,0,0,-2,2,0
20200914,311,10,301,0,0,-1,1,0
20200915,311,10,301,0,0,0,0,0
20200916,311,10,301,0,0,0,0,0
20200917,311,9,302,0,0,-1,1,0
20200918,311,9,302,0,0,0,0,0
20200919,312,10,302,0,1,1,0,0
20200920,312,10,302,0,0,0,0,0
20200921,313,11,302,0,1,1,0,0
20200922,313,11,302,0,0,0,0,0
20200923,313,11,302,0,0,0,0,0
20200924,313,10,303,0,0,-1,1,0
20200925,313,10,303,0,0,0,0,0
20200926,313,10,303,0,0,0,0,0
20200927,313,8,305,0,0,-2,2,0
20200928,313,8,305,0,0,0,0,0
20200929,313,8,305,0,0,0,0,0
20200930,313,6,307,0,0,-2,2,0
20201001,313,6,307,0,0,0,0,0
20201002,313,6,307,0,0,0,0,0
20201003,313,6,307,0,0,0,0,0
20201004,314,7,307,0,1,1,0,0
20201005,315,8,307,0,1,1,0,0
20201006,315,7,308,0,0,-1,1,0
20201007,315,7,308,0,0,0,0,0
20201008,315,7,308,0,0,0,0,0
20201009,315,5,310,0,0,-2,2,0
20201010,315,5,310,0,0,0,0,0
20201011,318,8,310,0,3,3,0,0
20201012,320,9,311,0,2,1,1,0
20201013,320,9,311,0,0,0,0,0
20201014,320,9,311,0,0,0,0,0
20201015,320,9,311,0,0,0,0,0
20201016,320,9,311,0,0,0,0,0
20201017,320,9,311,0,0,0,0,0
20201018,324,12,312,0,4,3,1,0
20201019,326,14,312,0,2,2,0,0
20201020,327,15,312,0,1,1,0,0
20201021,328,16,312,0,1,1,0,0
20201022,328,16,312,0,0,0,0,0
20201023,328,16,312,0,0,0,0,0
20201024,338,26,312,0,10,10,0,0
20201025,339,27,312,0,1,1,0,0
20201026,340,28,312,0,1,1,0,0
20201027,340,28,312,0,0,0,0,0
20201028,340,28,312,0,0,0,0,0
20201029,340,27,313,0,0,-1,1,0
20201030,346,33,313,0,6,6,0,0
20201031,346,33,313,0,0,0,0,0
20201101,349,36,313,0,3,3,0,0
20201102,350,37,313,0,1,1,0,0
20201103,352,38,314,0,2,1,1,0
20201104,353,39,314,0,1,1,0,0
20201105,356,42,314,0,3,3,0,0
20201106,357,43,314,0,1,1,0,0
20201107,357,43,314,0,0,0,0,0
20201108,362,45,317,0,5,2,3,0
20201109,368,51,317,0,6,6,0,0
20201110,382,65,317,0,14,14,0,0
20201111,406,89,317,0,24,24,0,0
20201112,412,95,317,0,6,6,0,0
20201113,416,88,328,0,4,-7,11,0
20201114,428,100,328,0,12,12,0,0
20201115,431,103,328,0,3,3,0,0
20201116,434,106,328,0,3,3,0,0
20201117,455,126,329,0,21,20,1,0
20201118,505,176,329,0,50,50,0,0
20201119,555,220,335,0,50,44,6,0
20201120,578,241,337,0,23,21,2,0
20201121,608,271,337,0,30,30,0,0
20201122,640,300,340,0,32,29,3,0
20201123,672,330,342,0,32,30,2,0
20201124,699,357,342,0,27,27,0,0
20201125,712,367,345,0,13,10,3,0
20201126,738,391,347,0,26,24,2,0
20201127,760,413,347,0,22,22,0,0
20201128,784,430,354,0,24,17,7,0
20201129,791,437,354,0,7,7,0,0
20201130,801,443,358,0,10,6,4,0
20201201,812,454,358,0,11,11,0,0
20201202,819,454,365,0,7,0,7,0
20201203,831,466,365,0,12,12,0,0
20201204,842,474,368,0,11,8,3,0
20201205,849,465,384,0,7,-9,16,0
20201206,887,503,384,0,38,38,0,0
20201207,888,504,384,0,1,1,0,0
20201208,893,509,384,0,5,5,0,0
20201209,898,514,384,0,5,5,0,0
20201210,905,521,384,0,7,7,0,0
20201211,906,522,384,0,1,1,0,0
20201212,907,523,384,0,1,1,0,0
20201213,912,528,384,0,5,5,0,0
20201214,917,533,384,0,5,5,0,0
20201215,918,534,384,0,1,1,0,0
20201216,923,539,384,0,5,5,0,0
20201217,941,468,473,0,18,-71,89,0
20201218,953,444,509,0,12,-24,36,0
20201219,961,452,509,0,8,8,0,0
20201220,993,484,509,0,32,32,0,0
20201221,1006,465,541,0,13,-19,32,0
20201222,1063,522,541,0,57,57,0,0
20201223,1069,485,584,0,6,-37,43,0
20201224,1075,491,584,0,6,6,0,0
20201225,1082,371,711,0,7,-120,127,0
20201226,1121,410,711,0,39,39,0,0
20201227,1137,426,711,0,16,16,0,0
20201228,1175,430,745,0,38,4,34,0
20201229,1195,370,824,1,20,-60,79,1
20201230,1215,384,830,1,20,14,6,0
20201231,1220,382,837,1,5,-2,7,0
20210101,1242,386,855,1,22,4,18,0
20210102,1263,393,869,1,21,7,14,0
20210103,1286,407,878,1,23,14,9,0
20210104,1308,422,884,1,22,15,6,0
20210105,1308,460,884,1,0,38,0,0
20210106,1308,471,884,1,0,11,0,0
20210107,1395,497,896,2,87,26,12,1
20210108,1408,510,896,2,13,13,0,0
20210109,1429,531,896,2,21,21,0,0
20210110,1442,544,896,2,13,13,0,0
20210111,1456,545,909,2,14,1,13,0
20210112,1469,558,909,2,13,13,0,0
20210113,1479,568,909,2,10,10,0,0
20210114,1491,580,909,2,12,12,0,0
20210115,1512,601,909,2,21,21,0,0
20210116,1517,568,947,2,5,-33,38,0
20210117,1526,557,967,2,9,-11,20,0
20210118,1536,539,995,2,10,-18,28,0
20210119,1568,533,1033,2,32,-6,38,0
20210120,1584,536,1046,2,16,3,13,0
20210121,1592,493,1097,2,8,-43,51,0
20210122,1611,484,1125,2,19,-9,28,0
20210123,1627,476,1149,2,16,-8,24,0
20210124,1643,472,1169,2,16,-4,20,0
20210125,1656,443,1211,2,13,-29,42,0
20210126,1667,429,1236,2,11,-14,25,0
20210127,1692,446,1244,2,25,17,8,0
20210128,1710,405,1303,2,18,-41,59,0
20210129,1742,419,1321,2,32,14,18,0
20210130,1779,444,1333,2,37,25,12,0
20210131,1814,454,1358,2,35,10,25,0
20210201,1832,472,1358,2,18,18,0,0
20210202,1859,465,1392,2,27,-7,34,0
20210203,1890,490,1398,2,31,25,6,0
20210204,1928,496,1430,2,38,6,32,0
20210205,1989,538,1449,2,61,42,19,0
20210206,2023,572,1449,2,34,34,0,0
20210207,2073,578,1493,2,50,6,44,0
20210208,2120,572,1546,2,47,-6,53,0
20210209,2174,626,1546,2,54,54,0,0
20210210,2207,587,1618,2,33,-39,72,0
20210211,2247,605,1640,2,40,18,22,0
20210212,2293,638,1653,2,46,33,13,0
20210213,2351,667,1682,2,58,29,29,0
20210214,2383,670,1711,2,32,3,29,0
20210215,2416,654,1760,2,33,-16,49,0
20210216,2444,665,1777,2,28,11,17,0
20210217,2493,689,1802,2,49,24,25,0
20210218,2551,730,1819,2,58,41,17,0
20210219,2586,738,1846,2,35,8,27,0
20210220,2638,790,1846,2,52,52,0,0
20210221,2693,758,1933,2,55,-32,87,0
20210222,2723,718,2003,2,30,-40,70,0
20210223,2755,683,2070,2,32,-35,67,0
20210224,2801,702,2097,2,46,19,27,0
20210225,2831,679,2150,2,30,-23,53,0
20210226,2866,681,2183,2,35,2,33,0
20210227,2907,722,2183,2,41,41,0,0
20210228,2952,651,2299,2,45,-71,116,0
20210301,3000,668,2330,2,48,17,31,0
20210302,3032,670,2360,2,32,2,30,0
20210303,3076,659,2415,2,44,-11,55,0
20210304,3153,709,2442,2,77,50,27,0
20210305,3161,717,2442,2,8,8,0,0
20210306,3228,745,2481,2,67,28,39,0
20210307,3336,745,2481,2,108,0,0,0
20210308,3372,604,2765,3,36,-141,284,1
20210309,3481,681,2797,3,109,77,32,0
20210310,3481,710,2797,3,0,29,0,0
20210311,3664,753,2907,4,183,43,110,1
20210312,3833,922,2907,4,169,169,0,0
20210313,3961,1050,2907,4,128,128,0,0
20210314,4083,1172,2907,4,122,122,0,0
20210315,4210,1123,3083,4,127,-49,176,0
20210316,4340,1205,3131,4,130,82,48,0
20210317,4498,1282,3212,4,158,77,81,0
20210318,4658,1368,3286,4,160,86,74,0
20210319,4806,1450,3351,4,148,82,65,0
20210320,4806,1494,3351,4,0,44,0,0
20210321,5186,1575,3606,5,380,81,255,1
20210322,5392,1629,3758,5,206,54,152,0
20210323,5610,1658,3947,5,218,29,189,0
20210324,5895,1846,4044,5,285,188,97,0
20210325,6332,2177,4150,5,437,331,106,0
20210326,6693,2450,4237,5,361,273,87,0
20210327,6693,2667,4237,5,0,217,0,0
20210328,7589,2872,4711,6,896,205,474,1
20210329,8070,3229,4835,6,481,357,124,0
20210330,8447,3521,4920,6,377,292,85,0
20210331,8841,3763,5070,8,394,242,150,2
20210401,8841,4101,5070,8,0,338,0,0
20210402,9598,4209,5379,10,757,108,309,2
20210403,9598,4828,5379,10,0,619,0,0
20210404,10820,5160,5649,11,1222,332,270,1
20210405,11651,5628,6010,13,831,468,361,2
20210406,11651,5297,6010,13,0,-331,0,0
20210407,12226,4623,6912,17,575,-674,902,4
20210408,13494,4953,8522,19,1268,330,1610,2
20210409,14183,5288,8875,20,689,335,353,1
20210410,14183,5833,8875,20,0,545,0,0
20210411,15014,6177,9159,22,831,344,284,2
20210412,16603,6689,9887,27,1589,512,728,5
20210413,17823,7541,10253,29,1220,852,366,2
20210414,18565,7896,10638,31,742,355,385,2
20210415,18565,7896,10638,31,0,0,0,0
20210416,19672,9164,11044,37,1107,1268,406,6
20210417,21995,10074,11877,44,2323,910,833,7
20210418,22884,10434,12401,49,889,360,524,5
20210419,24195,11284,12860,51,1311,850,459,2
20210420,25364,11962,13346,56,1169,678,486,5
20210421,25364,11962,13346,56,0,0,0,0
20210422,26692,12859,13772,61,1328,897,426,5
20210423,29219,14400,14745,74,2527,1541,973,13
20210424,30483,15002,15403,78,1264,602,658,4
20210425,31339,14444,16815,80,856,-558,1412,2
20210426,31339,14807,16815,80,0,363,0,0
20210427,32437,14806,17543,88,1098,-1,728,8
20210428,33608,15478,18033,97,1171,672,490,9
20210429,35979,16227,19642,110,2371,749,1609,13
20210430,37285,16489,20681,115,1306,262,1039,5
20210501,37285,16489,20681,115,0,0,0,0
20210502,39381,16330,22932,119,2096,-159,2251,4
20210503,40396,15937,24333,126,1015,-393,1401,7
20210504,41524,15753,25641,130,1128,-184,1308,4
20210505,41524,15753,25641,130,0,0,0,0
20210506,43201,14515,28533,153,1677,-1238,2892,23
20210507,44016,13872,29984,160,815,-643,1451,7
20210508,44820,14674,29984,162,804,802,0,2
20210509,45459,12629,32660,170,639,-2045,2676,8
20210510,45936,11527,34230,179,477,-1102,1570,9
20210511,46448,10531,35733,184,512,-996,1503,5
20210512,47033,9559,37281,193,585,-972,1548,9
20210513,47548,9018,38330,200,515,-541,1049,7
20210514,48101,8332,39564,205,553,-686,1234,5
20210515,48642,7565,40870,207,541,-767,1306,2
20210516,49175,8061,40900,214,533,496,30,7
20210517,49524,6582,42721,221,349,-1479,1821,7
20210518,50099,6286,43586,227,575,-296,865,6
20210519,50618,5992,44391,235,519,-294,805,8
20210520,51247,5862,45145,240,629,-130,754,5
20210521,51931,5834,45853,244,684,-28,708,4
20210522,52470,5884,46338,248,539,50,485,4
20210523,53100,6099,46748,253,630,215,410,5
20210524,53734,6123,47356,255,634,24,608,2
20210525,54414,6116,48041,257,680,-7,685,2
20210526,55067,6134,48674,259,653,18,633,2
20210527,55852,6840,48749,263,785,706,75,4
20210528,56621,7033,49320,268,769,193,571,5
20210529,56621,7033,49320,268,0,0,0,0
20210530,57512,7486,49754,272,891,453,434,4
20210531,58439,7727,50436,276,927,241,682,4
20210601,60372,8638,51448,286,1933,911,1012,10
20210602,60372,8638,51448,286,0,0,0,0
20210603,62585,9472,52812,301,2213,834,1364,15
20210604,63978,10859,52812,307,1393,1387,0,6
20210605,63978,10076,53595,307,0,-783,783,0
20210606,66443,12350,53780,313,2465,2274,185,6
20210607,67710,12679,54713,318,1267,329,933,5
20210608,67710,12679,54713,318,0,0,0,0
20210609,69022,13541,55157,324,1312,862,444,6
20210610,70482,14579,55569,334,1460,1038,412,10
20210611,72104,15509,56253,342,1622,930,684,8
20210612,73896,17096,56449,351,1792,1587,196,9
20210613,76084,18772,56947,365,2188,1676,498,14
20210614,78347,20953,57025,369,2263,2181,78,4
20210615,83128,24090,58649,389,4781,3137,1624,20
20210616,85770,26150,59220,400,2642,2060,571,11
20210617,88516,26380,61725,411,2746,230,2505,11
20210618,91151,28254,62472,425,2635,1874,747,14
20210619,91151,28254,62472,425,0,0,0,0
20210620,93551,30002,63113,436,2400,1748,641,11
20210621,98050,33237,64354,459,4499,3235,1241,23
20210622,98050,33237,64354,459,0,0,0,0
20210623,102629,35545,66602,482,4579,2308,2248,23
20210624,104900,36828,67579,493,2271,1283,977,11
20210625,107262,38006,68751,505,2362,1178,1172,12
20210626,109694,39218,69958,518,2432,1212,1207,13
20210627,111505,40180,70792,533,1811,962,834,15
20210628,111505,40180,70792,533,0,0,0,0
20210629,113232,39677,73007,548,1727,-503,2215,15
20210630,115478,38261,76654,563,2246,-1416,3647,15
20210701,120339,40491,79256,592,4861,2230,2602,29
20210702,120339,38321,81426,592,0,-2170,2170,0
20210703,125260,41710,82933,617,4921,3389,1507,25
20210704,126811,39037,87145,629,1551,-2673,4212,12
20210705,126811,39037,87145,629,0,0,0,0
20210706,130452,40089,89717,646,3641,1052,2572,17
20210707,130452,37507,92299,646,0,-2582,2582,0
20210708,134270,37097,96513,660,3818,-410,4214,14
20210709,134270,37097,96513,660,0,0,0,0
20210710,137788,33438,103666,684,3518,-3659,7153,24
20210711,137788,33438,103666,684,0,0,0,0
20210712,140530,28767,111064,699,2742,-4671,7398,15
20210713,141689,26114,114872,703,1159,-2653,3808,4
20210714,143128,24202,118219,707,1439,-1912,3347,4
20210715,144492,21823,121953,716,1364,-2379,3734,9
20210716,145787,19179,125882,726,1295,-2644,3929,10
20210717,147253,15907,130612,734,1466,-3272,4730,8
20210718,148424,13583,134101,740,1171,-2324,3489,6
20210719,148424,13583,134101,740,0,0,0,0
20210720,149733,11386,137602,745,1309,-2197,3501,5
20210721,152539,7539,144245,755,2806,-3847,6643,10
20210722,152539,7539,144245,755,0,0,0,0
20210723,153782,6044,146977,761,1243,-1495,2732,6
20210724,155224,4924,149533,767,1442,-1120,2556,6
20210725,157974,3020,154172,782,2750,-1904,4639,15
20210726,157974,3020,154172,782,0,0,0,0
20210727,160344,1043,158505,796,2370,-1977,4333,14
20210728,161575,111,160662,802,1231,-932,2157,6
20210729,161575,111,160662,802,0,0,0,0
20210730,162869,-728,162788,809,1294,-839,2126,7
20210731,164155,-1489,164829,815,1286,-761,2041,6
20210801,164155,8982,164829,815,0,10471,0,0
20210802,167229,7717,158685,827,3074,-1265,-6144,12
20210803,167229,7717,158685,827,0,0,0,0
20210804,168673,9155,158685,833,1444,1438,0,6
20210805,171097,0,0,841,2424,-9155,-158685,8
20210806,171097,0,0,841,0,0,0,0
20210807,172069,0,0,846,972,0,0,5
20210808,174603,0,0,857,2534,0,0,11
20210809,174603,0,0,857,0,0,0,0
20210810,175560,0,0,860,957,0,0,3
20210811,176993,0,0,863,1433,0,0,3
20210812,178436,0,0,869,1443,0,0,6
20210813,179889,0,0,871,1453,0,0,2
20210814,181291,0,0,872,1402,0,0,1
20210815,182591,0,0,876,1300,0,0,4
20210816,183652,0,0,880,1061,0,0,4
20210817,184950,0,0,884,1298,0,0,4
20210818,186537,0,0,889,1587,0,0,5
20210819,188412,0,0,891,1875,0,0,2
20210820,190253,0,0,892,1841,0,0,1
20210821,191904,0,0,896,1651,0,0,4
20210822,195250,0,0,902,3346,0,0,6
20210823,196846,0,0,907,1596,0,0,5
20210824,196846,0,0,907,0,0,0,0
20210825,199279,0,0,913,2433,0,0,6
20210826,201746,0,0,919,2467,0,0,6
20210827,204035,0,0,923,2289,0,0,4
20210828,206457,0,0,924,2422,0,0,1
20210829,211080,0,0,931,4623,0,0,7
20210830,213820,0,0,937,2740,0,0,6
20210831,213820,0,0,937,0,0,0,0
20210901,217546,0,0,944,3726,0,0,7
20210902,221351,0,0,948,3805,0,0,4
20210903,228685,0,0,957,7334,0,0,9
20210904,228685,0,0,957,0,0,0,0
