date,infected,active,recovered,dead,deltaInfected,deltaActive,deltaRecovered,deltaDead
20200320,1,1,0,0,1,1,0,0
20200321,1,1,0,0,0,0,0,0
20200322,2,2,0,0,1,1,0,0
20200323,3,3,0,0,1,1,0,0
20200324,3,3,0,0,0,0,0,0
20200325,7,6,0,1,4,3,0,1
20200326,10,9,0,1,3,3,0,0
20200327,10,9,0,1,0,0,0,0
20200328,10,9,0,1,0,0,0,0
20200329,18,17,0,1,8,8,0,0
20200330,27,24,0,3,9,7,0,2
20200331,27,24,0,3,0,0,0,0
20200401,74,69,0,5,47,45,0,2
20200402,98,93,0,5,24,24,0,0
20200403,120,115,0,5,22,22,0,0
20200404,144,136,0,8,24,21,0,3
20200405,184,161,13,10,40,25,13,2
20200406,253,217,26,10,69,56,13,0
20200407,278,241,26,11,25,24,0,1
20200408,342,303,28,11,64,62,2,0
20200409,410,359,40,11,68,56,12,0
20200410,438,386,41,11,28,27,1,0
20200411,491,439,41,11,53,53,0,0
20200412,529,442,75,12,38,3,34,1
20200413,529,442,75,12,0,0,0,0
20200414,570,466,90,14,41,24,15,2
20200415,584,480,90,14,14,14,0,0
20200416,584,480,90,14,0,0,0,0
20200417,627,499,110,18,43,19,20,4
20200418,639,507,113,19,12,8,3,1
20200419,648,511,117,20,9,4,4,1
20200420,648,511,117,20,0,0,0,0
20200421,657,510,127,20,9,-1,10,0
20200422,662,447,193,22,5,-63,66,2
20200423,671,391,256,24,9,-56,63,2
20200424,681,368,289,24,10,-23,33,0
20200425,684,332,325,27,3,-36,36,3
20200426,696,317,350,29,12,-15,25,2
20200427,701,287,385,29,5,-30,35,0
20200428,709,275,403,31,8,-12,18,2
20200429,713,246,435,32,4,-29,32,1
20200430,719,235,452,32,6,-11,17,0
20200501,728,217,478,33,9,-18,26,1
20200502,736,194,507,35,8,-23,29,2
20200503,750,196,518,36,14,2,11,1
20200504,755,184,534,37,5,-12,16,1
20200505,763,182,543,38,8,-2,9,1
20200506,770,171,561,38,7,-11,18,0
20200507,781,153,586,42,11,-18,25,4
20200508,795,151,600,44,14,-2,14,2
20200509,815,153,617,45,20,2,17,1
20200510,821,151,624,46,6,-2,7,1
20200511,832,149,637,46,11,-2,13,0
20200512,854,159,648,47,22,10,11,1
20200513,860,153,658,49,6,-6,10,2
20200514,876,149,677,50,16,-4,19,1
20200515,885,150,684,51,9,1,7,1
20200516,889,149,689,51,4,-1,5,0
20200517,904,152,698,54,15,3,9,3
20200518,909,140,714,55,5,-12,16,1
20200519,914,125,734,55,5,-15,20,0
20200520,920,124,738,58,6,-1,4,3
20200521,924,111,753,60,4,-13,15,2
20200522,937,113,764,60,13,2,11,0
20200523,943,107,775,61,6,-6,11,1
20200524,945,101,783,61,2,-6,8,0
20200525,951,103,786,62,6,2,3,1
20200526,952,93,796,63,1,-10,10,1
20200527,952,93,796,63,0,0,0,0
20200528,955,88,803,64,3,-5,7,1
20200529,955,78,813,64,0,-10,10,0
20200530,956,74,818,64,1,-4,5,0
20200531,958,55,839,64,2,-19,21,0
20200601,958,49,844,65,0,-6,5,1
20200602,960,47,848,65,2,-2,4,0
20200603,961,39,857,65,1,-8,9,0
20200604,963,38,860,65,2,-1,3,0
20200605,966,38,863,65,3,0,3,0
20200606,970,38,867,65,4,0,4,0
20200607,973,41,867,65,3,3,0,0
20200608,973,39,869,65,0,-2,2,0
20200609,974,38,871,65,1,-1,2,0
20200610,974,33,876,65,0,-5,5,0
20200611,974,31,878,65,0,-2,2,0
20200612,978,32,881,65,4,1,3,0
20200613,980,33,881,66,2,1,0,1
20200614,980,29,885,66,0,-4,4,0
20200615,980,29,885,66,0,0,0,0
20200616,1016,65,885,66,36,36,0,0
20200617,1020,60,893,67,4,-5,8,1
20200618,1020,52,901,67,0,-8,8,0
20200619,1020,52,901,67,0,0,0,0
20200620,1035,57,911,67,15,5,10,0
20200621,1036,58,911,67,1,1,0,0
20200622,1046,66,913,67,10,8,2,0
20200623,1051,71,913,67,5,5,0,0
20200624,1051,71,913,67,0,0,0,0
20200625,1056,72,917,67,5,1,4,0
20200626,1059,73,919,67,3,1,2,0
20200627,1062,71,924,67,3,-2,5,0
20200628,1074,68,939,67,12,-3,15,0
20200629,1075,69,939,67,1,1,0,0
20200630,1075,65,943,67,0,-4,4,0
20200701,1075,65,943,67,0,0,0,0
20200702,1081,54,959,68,6,-11,16,1
20200703,1082,51,963,68,1,-3,4,0
20200704,1082,51,963,68,0,0,0,0
20200705,1088,55,965,68,6,4,2,0
20200706,1093,57,968,68,5,2,3,0
20200707,1094,52,974,68,1,-5,6,0
20200708,1097,53,976,68,3,1,2,0
20200709,1097,53,976,68,0,0,0,0
20200710,1099,53,978,68,2,0,2,0
20200711,1099,39,992,68,0,-14,14,0
20200712,1099,39,992,68,0,0,0,0
20200713,1099,39,992,68,0,0,0,0
20200714,1099,39,992,68,0,0,0,0
20200715,1100,38,993,69,1,-1,1,1
20200716,1102,40,993,69,2,2,0,0
20200717,1102,20,1013,69,0,-20,20,0
20200718,1104,21,1014,69,2,1,1,0
20200719,1104,21,1014,69,0,0,0,0
20200720,1105,22,1014,69,1,1,0,0
20200721,1113,26,1018,69,8,4,4,0
20200722,1122,35,1018,69,9,9,0,0
20200723,1124,33,1022,69,2,-2,4,0
20200724,1124,31,1024,69,0,-2,2,0
20200725,1124,30,1025,69,0,-1,1,0
20200726,1136,40,1027,69,12,10,2,0
20200727,1132,36,1027,69,-4,-4,0,0
20200728,1132,36,1027,69,0,0,0,0
20200729,1132,36,1027,69,0,0,0,0
20200730,1134,37,1028,69,2,1,1,0
20200731,1134,37,1028,69,0,0,0,0
20200801,1136,39,1028,69,2,2,0,0
20200802,1147,46,1032,69,11,7,4,0
20200803,1152,51,1032,69,5,5,0,0
20200804,1152,46,1037,69,0,-5,5,0
20200805,1152,26,1057,69,0,-20,20,0
20200806,1153,27,1057,69,1,1,0,0
20200807,1153,27,1057,69,0,0,0,0
20200808,1157,31,1057,69,4,4,0,0
20200809,1158,32,1057,69,1,1,0,0
20200810,1158,27,1062,69,0,-5,5,0
20200811,1158,24,1065,69,0,-3,3,0
20200812,1161,17,1075,69,3,-7,10,0
20200813,1161,17,1075,69,0,0,0,0
20200814,1161,17,1075,69,0,0,0,0
20200815,1165,19,1077,69,4,2,2,0
20200816,1167,20,1078,69,2,1,1,0
20200817,1167,20,1078,69,0,0,0,0
20200818,1167,19,1079,69,0,-1,1,0
20200819,1167,19,1079,69,0,0,0,0
20200820,1169,18,1082,69,2,-1,3,0
20200821,1172,20,1083,69,3,2,1,0
20200822,1172,20,1083,69,0,0,0,0
20200823,1172,20,1083,69,0,0,0,0
20200824,1172,19,1084,69,0,-1,1,0
20200825,1173,20,1084,69,1,1,0,0
20200826,1173,20,1084,69,0,0,0,0
20200827,1173,20,1084,69,0,0,0,0
20200828,1175,21,1085,69,2,1,1,0
20200829,1175,21,1085,69,0,0,0,0
20200830,1175,21,1085,69,0,0,0,0
20200831,1176,19,1088,69,1,-2,3,0
20200901,1176,19,1088,69,0,0,0,0
20200902,1176,19,1088,69,0,0,0,0
20200903,1177,17,1091,69,1,-2,3,0
20200904,1177,17,1091,69,0,0,0,0
20200905,1177,17,1091,69,0,0,0,0
20200906,1177,17,1091,69,0,0,0,0
20200907,1177,17,1091,69,0,0,0,0
20200908,1178,10,1099,69,1,-7,8,0
20200909,1178,10,1099,69,0,0,0,0
20200910,1178,10,1099,69,0,0,0,0
20200911,1178,9,1100,69,0,-1,1,0
20200912,1178,9,1100,69,0,0,0,0
20200913,1180,7,1104,69,2,-2,4,0
20200914,1180,7,1104,69,0,0,0,0
20200915,1182,9,1104,69,2,2,0,0
20200916,1182,9,1104,69,0,0,0,0
20200917,1183,10,1104,69,1,1,0,0
20200918,1183,10,1104,69,0,0,0,0
20200919,1183,10,1104,69,0,0,0,0
20200920,1188,15,1104,69,5,5,0,0
20200921,1189,16,1104,69,1,1,0,0
20200922,1193,20,1104,69,4,4,0,0
20200923,1193,17,1107,69,0,-3,3,0
20200924,1194,18,1107,69,1,1,0,0
20200925,1194,18,1107,69,0,0,0,0
20200926,1194,18,1107,69,0,0,0,0
20200927,1196,20,1107,69,2,2,0,0
20200928,1196,17,1110,69,0,-3,3,0
20200929,1196,17,1110,69,0,0,0,0
20200930,1197,14,1114,69,1,-3,4,0
20201001,1197,14,1114,69,0,0,0,0
20201002,1198,14,1115,69,1,0,1,0
20201003,1200,16,1115,69,2,2,0,0
20201004,1200,16,1115,69,0,0,0,0
20201005,1200,16,1115,69,0,0,0,0
20201006,1200,16,1115,69,0,0,0,0
20201007,1200,9,1122,69,0,-7,7,0
20201008,1201,10,1122,69,1,1,0,0
20201009,1201,9,1123,69,0,-1,1,0
20201010,1201,9,1123,69,0,0,0,0
20201011,1201,9,1123,69,0,0,0,0
20201012,1202,9,1124,69,1,0,1,0
20201013,1203,10,1124,69,1,1,0,0
20201014,1205,12,1124,69,2,2,0,0
20201015,1207,14,1124,69,2,2,0,0
20201016,1209,14,1126,69,2,0,2,0
20201017,1209,14,1126,69,0,0,0,0
20201018,1210,15,1126,69,1,1,0,0
20201019,1211,14,1128,69,1,-1,2,0
20201020,1212,15,1128,69,1,1,0,0
20201021,1214,17,1128,69,2,2,0,0
20201022,1215,18,1128,69,1,1,0,0
20201023,1215,18,1128,69,0,0,0,0
20201024,1215,18,1128,69,0,0,0,0
20201025,1215,18,1128,69,0,0,0,0
20201026,1215,17,1129,69,0,-1,1,0
20201027,1218,17,1132,69,3,0,3,0
20201028,1218,17,1132,69,0,0,0,0
20201029,1219,15,1135,69,1,-2,3,0
20201030,1220,14,1137,69,1,-1,2,0
20201031,1220,14,1137,69,0,0,0,0
20201101,1221,11,1141,69,1,-3,4,0
20201102,1222,12,1141,69,1,1,0,0
20201103,1222,12,1141,69,0,0,0,0
20201104,1225,14,1142,69,3,2,1,0
20201105,1226,15,1142,69,1,1,0,0
20201106,1230,18,1143,69,4,3,1,0
20201107,1242,30,1143,69,12,12,0,0
20201108,1243,30,1144,69,1,0,1,0
20201109,1246,33,1144,69,3,3,0,0
20201110,1256,43,1144,69,10,10,0,0
20201111,1263,50,1144,69,7,7,0,0
20201112,1282,69,1144,69,19,19,0,0
20201113,1289,75,1145,69,7,6,1,0
20201114,1301,84,1147,70,12,9,2,1
20201115,1307,89,1148,70,6,5,1,0
20201116,1316,96,1150,70,9,7,2,0
20201117,1327,107,1150,70,11,11,0,0
20201118,1331,110,1151,70,4,3,1,0
20201119,1335,112,1153,70,4,2,2,0
20201120,1340,114,1156,70,5,2,3,0
20201121,1351,123,1158,70,11,9,2,0
20201122,1368,132,1166,70,17,9,8,0
20201123,1381,145,1166,70,13,13,0,0
20201124,1406,167,1169,70,25,22,3,0
20201125,1419,179,1170,70,13,12,1,0
20201126,1443,191,1182,70,24,12,12,0
20201127,1472,210,1192,70,29,19,10,0
20201128,1484,209,1205,70,12,-1,13,0
20201129,1516,239,1207,70,32,30,2,0
20201130,1548,266,1210,72,32,27,3,2
20201201,1586,292,1219,75,38,26,9,3
20201202,1640,337,1227,76,54,45,8,1
20201203,1640,337,1227,76,0,0,0,0
20201204,1726,412,1237,77,86,75,10,1
20201205,1789,475,1237,77,63,63,0,0
20201206,1856,542,1237,77,67,67,0,0
20201207,1894,577,1239,78,38,35,2,1
20201208,1987,669,1239,79,93,92,0,1
20201209,2078,758,1241,79,91,89,2,0
20201210,2126,797,1249,80,48,39,8,1
20201211,2160,811,1269,80,34,14,20,0
20201212,2199,843,1276,80,39,32,7,0
20201213,2258,886,1292,80,59,43,16,0
20201214,2322,946,1294,82,64,60,2,2
20201215,2361,950,1329,82,39,4,35,0
20201216,2361,950,1329,82,0,0,0,0
20201217,2506,1049,1373,84,145,99,44,2
20201218,2560,1098,1377,85,54,49,4,1
20201219,2612,1120,1406,86,52,22,29,1
20201220,2659,1154,1418,87,47,34,12,1
20201221,2724,1205,1432,87,65,51,14,0
20201222,2803,1206,1508,89,79,1,76,2
20201223,2876,1209,1578,89,73,3,70,0
20201224,2933,1264,1579,90,57,55,1,1
20201225,3005,1327,1587,91,72,63,8,1
20201226,3057,1290,1673,94,52,-37,86,3
20201227,3110,1341,1673,96,53,51,0,2
20201228,3159,1324,1736,99,49,-17,63,3
20201229,3208,1339,1767,102,49,15,31,3
20201230,3208,1339,1767,102,0,0,0,0
20201231,3323,1394,1825,104,115,55,58,2
20210101,3403,1469,1828,106,80,75,3,2
20210102,3437,1421,1906,110,34,-48,78,4
20210103,3465,1369,1986,110,28,-52,80,0
20210104,3465,1369,1986,110,0,0,0,0
20210105,3500,1329,2061,110,35,-40,75,0
20210106,3634,1339,2182,113,134,10,121,3
20210107,3706,1334,2253,119,72,-5,71,6
20210108,3747,1311,2311,125,41,-23,58,6
20210109,3819,1370,2323,126,72,59,12,1
20210110,3877,1365,2386,126,58,-5,63,0
20210111,3924,1392,2404,128,47,27,18,2
20210112,3969,1327,2507,135,45,-65,103,7
20210113,3998,1231,2631,136,29,-96,124,1
20210114,4058,1171,2750,137,60,-60,119,1
20210115,4105,1105,2862,138,47,-66,112,1
20210116,4132,1043,2951,138,27,-62,89,0
20210117,4156,972,3044,140,24,-71,93,2
20210118,4204,923,3136,145,48,-49,92,5
20210119,4225,814,3265,146,21,-109,129,1
20210120,4249,778,3324,147,24,-36,59,1
20210121,4267,763,3357,147,18,-15,33,0
20210122,4308,755,3403,150,41,-8,46,3
20210123,4321,734,3436,151,13,-21,33,1
20210124,4353,738,3464,151,32,4,28,0
20210125,4353,738,3464,151,0,0,0,0
20210126,4407,710,3544,153,54,-28,80,2
20210127,4433,697,3583,153,26,-13,39,0
20210128,4474,695,3622,157,41,-2,39,4
20210129,4489,634,3696,159,15,-61,74,2
20210130,4516,631,3726,159,27,-3,30,0
20210131,4517,603,3755,159,1,-28,29,0
20210201,4537,576,3800,161,20,-27,45,2
20210202,4548,541,3845,162,11,-35,45,1
20210203,4565,557,3845,163,17,16,0,1
20210204,4575,495,3916,164,10,-62,71,1
20210205,4589,504,3920,165,14,9,4,1
20210206,4598,483,3950,165,9,-21,30,0
20210207,4612,477,3970,165,14,-6,20,0
20210208,4621,472,3983,166,9,-5,13,1
20210209,4643,474,4002,167,22,2,19,1
20210210,4656,482,4007,167,13,8,5,0
20210211,4665,398,4100,167,9,-84,93,0
20210212,4678,374,4135,169,13,-24,35,2
20210213,4690,374,4147,169,12,0,12,0
20210214,4695,374,4152,169,5,0,5,0
20210215,4702,378,4155,169,7,4,3,0
20210216,4706,373,4164,169,4,-5,9,0
20210217,4715,352,4193,170,9,-21,29,1
20210218,4718,333,4215,170,3,-19,22,0
20210219,4725,335,4220,170,7,2,5,0
20210220,4733,328,4235,170,8,-7,15,0
20210221,4733,328,4235,170,0,0,0,0
20210222,4740,318,4250,172,7,-10,15,2
20210223,4740,318,4250,172,0,0,0,0
20210224,4740,318,4250,172,0,0,0,0
20210225,4740,318,4250,172,0,0,0,0
20210226,4740,318,4250,172,0,0,0,0
20210227,4740,318,4250,172,0,0,0,0
20210228,4740,318,4250,172,0,0,0,0
20210301,4740,318,4250,172,0,0,0,0
20210302,4740,318,4250,172,0,0,0,0
20210303,4740,318,4250,172,0,0,0,0
20210304,4740,318,4250,172,0,0,0,0
20210305,4740,318,4250,172,0,0,0,0
20210306,4740,318,4250,172,0,0,0,0
20210307,4822,240,4405,177,82,-78,155,5
20210308,4828,244,4407,177,6,4,2,0
20210309,4835,243,4415,177,7,-1,8,0
20210310,4848,192,4477,179,13,-51,62,2
20210311,4853,187,4486,180,5,-5,9,1
20210312,4853,187,4486,180,0,0,0,0
20210313,4857,173,4503,181,4,-14,17,1
20210314,4860,174,4504,182,3,1,1,1
20210315,4865,176,4507,182,5,2,3,0
20210316,4870,171,4516,183,5,-5,9,1
20210317,4904,194,4525,185,34,23,9,2
20210318,4906,192,4529,185,2,-2,4,0
20210319,4911,189,4537,185,5,-3,8,0
20210320,4918,195,4538,185,7,6,1,0
20210321,4918,195,4538,185,0,0,0,0
20210322,4928,202,4541,185,10,7,3,0
20210323,4939,201,4553,185,11,-1,12,0
20210324,4939,201,4553,185,0,0,0,0
20210325,4964,210,4569,185,25,9,16,0
20210326,4972,209,4578,185,8,-1,9,0
20210327,4972,209,4578,185,0,0,0,0
20210328,4987,216,4586,185,15,7,8,0
20210329,4987,216,4586,185,0,0,0,0
20210330,5001,225,4590,186,14,9,4,1
20210331,5001,225,4590,186,0,0,0,0
20210401,5021,193,4641,187,20,-32,51,1
20210402,5021,193,4641,187,0,0,0,0
20210403,5028,171,4669,188,7,-22,28,1
20210404,5041,155,4698,188,13,-16,29,0
20210405,5041,155,4698,188,0,0,0,0
20210406,5048,145,4715,188,7,-10,17,0
20210407,5052,139,4725,188,4,-6,10,0
20210408,5058,133,4737,188,6,-6,12,0
20210409,5062,128,4746,188,4,-5,9,0
20210410,5072,137,4747,188,10,9,1,0
20210411,5074,138,4747,189,2,1,0,1
20210412,5081,132,4760,189,7,-6,13,0
20210413,5081,132,4760,189,0,0,0,0
20210414,5081,132,4760,189,0,0,0,0
20210415,5113,156,4767,190,32,24,7,1
20210416,5116,155,4771,190,3,-1,4,0
20210417,5116,155,4771,190,0,0,0,0
20210418,5131,162,4779,190,15,7,8,0
20210419,5131,162,4779,190,0,0,0,0
20210420,5140,154,4795,191,9,-8,16,1
20210421,5141,138,4812,191,1,-16,17,0
20210422,5143,140,4812,191,2,2,0,0
20210423,5143,140,4812,191,0,0,0,0
20210424,5158,136,4831,191,15,-4,19,0
20210425,5191,166,4834,191,33,30,3,0
20210426,5204,177,4836,191,13,11,2,0
20210427,5220,186,4843,191,16,9,7,0
20210428,5224,186,4847,191,4,0,4,0
20210429,5226,184,4851,191,2,-2,4,0
20210430,5228,186,4851,191,2,2,0,0
20210501,5229,183,4855,191,1,-3,4,0
20210502,5251,203,4857,191,22,20,2,0
20210503,5261,205,4865,191,10,2,8,0
20210504,5286,224,4870,192,25,19,5,1
20210505,5286,224,4870,192,0,0,0,0
20210506,5286,224,4870,192,0,0,0,0
20210507,5310,242,4876,192,24,18,6,0
20210508,5313,239,4882,192,3,-3,6,0
20210509,5319,242,4885,192,6,3,3,0
20210510,5322,226,4904,192,3,-16,19,0
20210511,5324,203,4929,192,2,-23,25,0
20210512,5325,204,4929,192,1,1,0,0
20210513,5326,198,4936,192,1,-6,7,0
20210514,5326,198,4936,192,0,0,0,0
20210515,5330,185,4953,192,4,-13,17,0
20210516,5333,188,4953,192,3,3,0,0
20210517,5339,172,4975,192,6,-16,22,0
20210518,5348,161,4995,192,9,-11,20,0
20210519,5356,156,5008,192,8,-5,13,0
20210520,5361,143,5026,192,5,-13,18,0
20210521,5364,145,5027,192,3,2,1,0
20210522,5369,144,5033,192,5,-1,6,0
20210523,5383,157,5034,192,14,13,1,0
20210524,5383,157,5034,192,0,0,0,0
20210525,5389,151,5046,192,6,-6,12,0
20210526,5398,136,5070,192,9,-15,24,0
20210527,5406,143,5071,192,8,7,1,0
20210528,5406,143,5071,192,0,0,0,0
20210529,5410,135,5083,192,4,-8,12,0
20210530,5410,135,5083,192,0,0,0,0
20210531,5410,135,5083,192,0,0,0,0
20210601,5410,135,5083,192,0,0,0,0
20210602,5415,128,5095,192,5,-7,12,0
20210603,5416,128,5096,192,1,0,1,0
20210604,5431,130,5109,192,15,2,13,0
20210605,5438,115,5131,192,7,-15,22,0
20210606,5439,115,5132,192,1,0,1,0
20210607,5439,115,5132,192,0,0,0,0
20210608,5440,113,5135,192,1,-2,3,0
20210609,5440,113,5135,192,0,0,0,0
20210610,5444,92,5160,192,4,-21,25,0
20210611,5446,93,5161,192,2,1,1,0
20210612,5446,93,5161,192,0,0,0,0
20210613,5446,93,5161,192,0,0,0,0
20210614,5452,88,5172,192,6,-5,11,0
20210615,5452,88,5172,192,0,0,0,0
20210616,5455,88,5175,192,3,0,3,0
20210617,5457,86,5178,193,2,-2,3,1
20210618,5459,88,5178,193,2,2,0,0
20210619,5469,98,5178,193,10,10,0,0
20210620,5469,98,5178,193,0,0,0,0
20210621,5469,98,5178,193,0,0,0,0
20210622,5469,81,5195,193,0,-17,17,0
20210623,5472,80,5199,193,3,-1,4,0
20210624,5475,83,5199,193,3,3,0,0
20210625,5478,85,5200,193,3,2,1,0
20210626,5478,85,5200,193,0,0,0,0
20210627,5479,81,5205,193,1,-4,5,0
20210628,5480,81,5206,193,1,0,1,0
20210629,5488,89,5206,193,8,8,0,0
20210630,5489,90,5206,193,1,1,0,0
20210701,5492,92,5207,193,3,2,1,0
20210702,5492,92,5207,193,0,0,0,0
20210703,5498,96,5208,194,6,4,1,1
20210704,5506,102,5210,194,8,6,2,0
20210705,5515,109,5212,194,9,7,2,0
20210706,5519,102,5223,194,4,-7,11,0
20210707,5526,106,5226,194,7,4,3,0
20210708,5529,108,5227,194,3,2,1,0
20210709,5532,110,5228,194,3,2,1,0
20210710,5538,114,5230,194,6,4,2,0
20210711,5538,114,5230,194,0,0,0,0
20210712,5538,114,5230,194,0,0,0,0
20210713,5546,107,5245,194,8,-7,15,0
20210714,5551,104,5253,194,5,-3,8,0
20210715,5555,94,5267,194,4,-10,14,0
20210716,5564,101,5269,194,9,7,2,0
20210717,5573,109,5270,194,9,8,1,0
20210718,5587,116,5277,194,14,7,7,0
20210719,5590,113,5283,194,3,-3,6,0
20210720,5594,113,5287,194,4,0,4,0
20210721,5594,113,5287,194,0,0,0,0
20210722,5594,104,5295,195,0,-9,8,1
20210723,5596,104,5296,195,2,0,1,0
20210724,5598,107,5296,195,2,3,0,0
20210725,5599,104,5300,195,1,-3,4,0
20210726,5600,105,5300,195,1,1,0,0
20210727,5600,105,5300,195,0,0,0,0
20210728,5604,105,5304,195,4,0,4,0
20210729,5607,82,5330,195,3,-23,26,0
20210730,5616,83,5338,195,9,1,8,0
20210731,5623,86,5342,195,7,3,4,0
20210801,5637,97,5345,195,14,11,3,0
20210802,5637,97,5345,195,0,0,0,0
20210803,5658,113,5349,196,21,16,4,1
20210804,5663,116,5351,196,5,3,2,0
20210805,5669,0,0,196,6,-116,-5351,0
20210806,5676,0,0,196,7,0,0,0
20210807,5682,0,0,196,6,0,0,0
20210808,5687,0,0,196,5,0,0,0
20210809,5687,0,0,196,0,0,0,0
20210810,5697,0,0,196,10,0,0,0
20210811,5711,0,0,196,14,0,0,0
20210812,5716,0,0,196,5,0,0,0
20210813,5719,0,0,196,3,0,0,0
20210814,5722,0,0,196,3,0,0,0
20210815,5724,0,0,196,2,0,0,0
20210816,5724,0,0,196,0,0,0,0
20210817,5734,0,0,196,10,0,0,0
20210818,5741,0,0,196,7,0,0,0
20210819,5750,0,0,196,9,0,0,0
20210820,5761,0,0,196,11,0,0,0
20210821,5767,0,0,196,6,0,0,0
20210822,5770,0,0,196,3,0,0,0
20210823,5770,0,0,196,0,0,0,0
20210824,5778,0,0,196,8,0,0,0
20210825,5807,0,0,198,29,0,0,2
20210826,5820,0,0,198,13,0,0,0
20210827,5833,0,0,198,13,0,0,0
20210828,5833,0,0,198,0,0,0,0
20210829,5839,0,0,198,6,0,0,0
20210830,5843,0,0,198,4,0,0,0
20210831,5849,0,0,199,6,0,0,1
20210901,5857,0,0,199,8,0,0,0
20210902,5863,0,0,199,6,0,0,0
20210903,5869,0,0,199,6,0,0,0
20210904,5880,0,0,199,11,0,0,0
