date,infected,active,recovered,dead,deltaInfected,deltaActive,deltaRecovered,deltaDead
20200228,1,1,0,0,1,1,0,0
20200229,1,1,0,0,0,0,0,0
20200301,1,1,0,0,0,0,0,0
20200302,1,1,0,0,0,0,0,0
20200303,1,1,0,0,0,0,0,0
20200304,1,1,0,0,0,0,0,0
20200305,1,1,0,0,0,0,0,0
20200306,1,1,0,0,0,0,0,0
20200307,1,1,0,0,0,0,0,0
20200308,1,1,0,0,0,0,0,0
20200309,2,2,0,0,1,1,0,0
20200310,2,2,0,0,0,0,0,0
20200311,2,2,0,0,0,0,0,0
20200312,2,2,0,0,0,0,0,0
20200313,2,2,0,0,0,0,0,0
20200314,2,2,0,0,0,0,0,0
20200315,2,2,0,0,0,0,0,0
20200316,2,2,0,0,0,0,0,0
20200317,3,3,0,0,1,1,0,0
20200318,8,7,1,0,5,4,1,0
20200319,8,7,1,0,0,0,0,0
20200320,12,11,1,0,4,4,0,0
20200321,22,21,1,0,10,10,0,0
20200322,30,28,2,0,8,7,1,0
20200323,40,37,2,1,10,9,0,1
20200324,44,41,2,1,4,4,0,0
20200325,51,48,2,1,7,7,0,0
20200326,65,62,2,1,14,14,0,0
20200327,70,66,3,1,5,4,1,0
20200328,89,85,3,1,19,19,0,0
20200329,111,107,3,1,22,22,0,0
20200330,131,121,8,2,20,14,5,1
20200331,135,125,8,2,4,4,0,0
20200401,174,163,9,2,39,38,1,0
20200402,184,162,20,2,10,-1,11,0
20200403,210,181,25,4,26,19,5,2
20200404,214,185,25,4,4,4,0,0
20200405,232,194,33,5,18,9,8,1
20200406,238,198,35,5,6,4,2,0
20200407,254,204,44,6,16,6,9,1
20200408,276,226,44,6,22,22,0,0
20200409,288,230,51,7,12,4,7,1
20200410,305,240,58,7,17,10,7,0
20200411,318,238,70,10,13,-2,12,3
20200412,323,228,85,10,5,-10,15,0
20200413,343,242,91,10,20,14,6,0
20200414,373,263,99,11,30,21,8,1
20200415,407,267,128,12,34,4,29,1
20200416,442,277,152,13,35,10,24,1
20200417,493,317,159,17,51,40,7,4
20200418,542,357,166,19,49,40,7,2
20200419,627,436,170,21,85,79,4,2
20200420,665,455,188,22,38,19,18,1
20200421,665,455,188,22,0,0,0,0
20200422,873,648,197,28,208,193,9,6
20200423,981,753,197,31,108,105,0,3
20200424,1095,855,208,32,114,102,11,1
20200425,1182,925,222,35,87,70,14,3
20200426,1273,994,239,40,91,69,17,5
20200427,1337,1042,255,40,64,48,16,0
20200428,1532,1233,255,44,195,191,0,4
20200429,1728,1370,307,51,196,137,52,7
20200430,1932,1555,319,58,204,185,12,7
20200501,2170,1751,351,68,238,196,32,10
20200502,2388,1952,351,85,218,201,0,17
20200503,2558,2071,400,87,170,119,49,2
20200504,2802,2292,417,93,244,221,17,6
20200505,2950,2371,481,98,148,79,64,5
20200506,3145,2508,534,103,195,137,53,5
20200507,3526,2818,601,107,381,310,67,4
20200508,3912,3116,679,117,386,298,78,10
20200509,4151,3278,745,128,239,162,66,11
20200510,4399,3478,778,143,248,200,33,15
20200511,4641,3589,902,150,242,111,124,7
20200512,4787,3670,959,158,146,81,57,8
20200513,4971,3737,1070,164,184,67,111,6
20200514,5162,3815,1180,167,191,78,110,3
20200515,5450,3959,1320,171,288,144,140,4
20200516,5621,3973,1472,176,171,14,152,5
20200517,5959,4183,1594,182,338,210,122,6
20200518,6175,4340,1644,191,216,157,50,9
20200519,6401,4475,1734,192,226,135,90,1
20200520,6677,4637,1840,200,276,162,106,8
20200521,7016,4898,1907,211,339,261,67,11
20200522,7261,5033,2007,221,245,135,100,10
20200523,7526,5131,2174,221,265,98,167,0
20200524,7839,5350,2263,226,313,219,89,5
20200525,8068,5524,2311,233,229,174,48,7
20200526,8344,5710,2385,249,276,186,74,16
20200527,8733,5978,2501,254,389,268,116,5
20200528,8915,6064,2592,259,182,86,91,5
20200529,9302,6344,2697,261,387,280,105,2
20200530,9855,6726,2856,273,553,382,159,12
20200531,10162,6868,3007,287,307,142,151,14
20200601,10578,7157,3122,299,416,289,115,12
20200602,10819,7265,3240,314,241,108,118,15
20200603,11166,7522,3329,315,347,257,89,1
20200604,11516,7658,3535,323,350,136,206,8
20200605,11844,7815,3696,333,328,157,161,10
20200606,12233,8065,3826,342,389,250,130,9
20200607,12486,8173,3959,354,253,108,133,12
20200608,12801,8400,4040,361,315,227,81,7
20200609,13464,8893,4206,365,663,493,166,4
20200610,13873,9140,4351,382,409,247,145,17
20200611,14554,9673,4494,387,681,533,143,5
20200612,15181,9891,4891,399,627,218,397,12
20200613,15682,10174,5101,407,501,283,210,8
20200614,16085,10445,5220,420,403,271,119,13
20200615,16658,10885,5349,424,573,440,129,4
20200616,17148,11070,5623,455,490,185,274,31
20200617,17735,11299,5967,469,587,229,344,14
20200618,18480,11698,6307,475,745,399,340,6
20200619,19147,12079,6581,487,667,381,274,12
20200620,19808,12584,6718,506,661,505,137,19
20200621,20244,12847,6879,518,436,263,161,12
20200622,20919,13285,7109,525,675,438,230,7
20200623,21371,13500,7338,533,452,215,229,8
20200624,22020,13865,7613,542,649,365,275,9
20200625,22614,14243,7822,549,594,378,209,7
20200626,23298,14491,8253,554,684,248,431,5
20200627,24077,14894,8625,558,779,403,372,4
20200628,24567,14995,9007,565,490,101,382,7
20200629,25133,15158,9402,573,566,163,395,8
20200630,25694,15358,9746,590,561,200,344,17
20200701,26484,15729,10152,603,790,371,406,13
20200702,27110,15693,10801,616,626,-36,649,13
20200703,27564,15867,11069,628,454,174,268,12
20200704,28167,16071,11462,634,603,204,393,6
20200705,28711,16401,11665,645,544,330,203,11
20200706,29286,16804,11828,654,575,403,163,9
20200707,29789,17012,12108,669,503,208,280,15
20200708,30249,17192,12373,684,460,180,265,15
20200709,30748,17513,12546,689,499,321,173,5
20200710,31323,17819,12795,709,575,306,249,20
20200711,31987,18160,13103,724,664,341,308,15
20200712,32558,18371,13447,740,571,211,344,16
20200713,33153,18738,13671,744,595,367,224,4
20200714,33616,19070,13792,754,463,332,121,10
20200715,34259,19500,13999,760,643,430,207,6
20200716,34854,19793,14292,769,595,293,293,9
20200717,35454,20049,14633,772,600,256,341,3
20200718,36107,20391,14938,778,653,342,305,6
20200719,36663,20769,15105,789,556,378,167,11
20200720,37225,21091,15333,801,562,322,228,12
20200721,37801,21319,15677,805,576,228,344,4
20200722,38344,21716,15815,813,543,397,138,8
20200723,38948,22054,16061,833,604,338,246,20
20200724,39539,22135,16559,845,591,81,498,12
20200725,39977,22173,16948,856,438,38,389,11
20200726,40532,22300,17374,858,555,127,426,2
20200727,41180,22117,18203,860,648,-183,829,2
20200728,41804,22172,18764,868,624,55,561,8
20200729,42208,22331,19004,873,404,159,240,5
20200730,42689,22541,19270,878,481,210,266,5
20200731,43151,22707,19565,879,462,166,295,1
20200801,43537,22567,20087,883,386,-140,522,4
20200802,43841,22645,20308,888,304,78,221,5
20200803,44129,22570,20663,896,288,-75,355,8
20200804,44433,11672,31851,910,304,-10898,11188,14
20200805,44890,11798,32165,927,457,126,314,17
20200806,45244,11884,32430,930,354,86,265,3
20200807,45687,12114,32637,936,443,230,207,6
20200808,46140,12154,33044,942,453,40,407,6
20200809,46577,12446,33186,945,437,292,142,3
20200810,46867,12571,33346,950,290,125,160,5
20200811,47290,12725,33609,956,423,154,263,6
20200812,47743,12844,33943,956,453,119,334,0
20200813,48116,12841,34309,966,373,-3,366,10
20200814,48445,11474,35998,973,329,-1367,1689,7
20200815,48770,11506,36290,974,325,32,292,1
20200816,49068,11596,36497,975,298,90,207,1
20200817,49485,11674,36834,977,417,78,337,2
20200818,49895,11863,37051,981,410,189,217,4
20200819,50488,12199,37304,985,593,336,253,4
20200820,50964,12403,37569,992,476,204,265,7
20200821,51304,12423,37885,996,340,20,316,4
20200822,51905,12141,38767,997,601,-282,882,1
20200823,52227,12280,38945,1002,322,139,178,5
20200824,52548,12287,39257,1004,321,7,312,2
20200825,52800,11829,39964,1007,252,-458,707,3
20200826,53021,11730,40281,1010,221,-99,317,3
20200827,53317,11580,40726,1011,296,-150,445,1
20200828,53477,11449,41017,1011,160,-131,291,0
20200829,53727,11402,41314,1011,250,-47,297,0
20200830,53865,11339,41513,1013,138,-63,199,2
20200831,54008,11357,41638,1013,143,18,125,0
20200901,54247,11214,42010,1023,239,-143,372,10
20200902,54463,10997,42439,1027,216,-217,429,4
20200903,54588,10913,42627,1048,125,-84,188,21
20200904,54743,10876,42816,1051,155,-37,189,3
20200905,54905,10929,42922,1054,162,53,106,3
20200906,55005,10935,43013,1057,100,6,91,3
20200907,55160,10868,43231,1061,155,-67,218,4
20200908,55456,11055,43334,1067,296,187,103,6
20200909,55632,10952,43610,1070,176,-103,276,3
20200910,55829,10944,43810,1075,197,-8,200,5
20200911,56017,10943,43998,1076,188,-1,188,1
20200912,56177,11011,44088,1078,160,68,90,2
20200913,56256,11022,44152,1082,79,11,64,4
20200914,56388,10968,44337,1083,132,-54,185,1
20200915,56478,10960,44430,1088,90,-8,93,5
20200916,56604,7641,47872,1091,126,-3319,3442,3
20200917,56735,7550,48092,1093,131,-91,220,2
20200918,56956,7557,48305,1094,221,7,213,1
20200919,57145,7619,48431,1095,189,62,126,1
20200920,57242,7575,48569,1098,97,-44,138,3
20200921,57437,7663,48674,1100,195,88,105,2
20200922,57613,7677,48836,1100,176,14,162,0
20200923,57724,7637,48985,1102,111,-40,149,2
20200924,57849,7649,49098,1102,125,12,113,0
20200925,58062,7353,49606,1103,213,-296,508,1
20200926,58198,7370,49722,1106,136,17,116,3
20200927,58324,7422,49794,1108,126,52,72,2
20200928,58460,7454,49895,1111,136,32,101,3
20200929,58647,7599,49937,1111,187,145,42,0
20200930,58848,7378,50358,1112,201,-221,421,1
20201001,59001,7437,50452,1112,153,59,94,0
20201002,59127,7422,50593,1112,126,-15,141,0
20201003,59287,7456,50718,1113,160,34,125,1
20201004,59345,7464,50768,1113,58,8,50,0
20201005,59465,7401,50951,1113,120,-63,183,0
20201006,59583,7162,51308,1113,118,-239,357,0
20201007,59738,7222,51403,1113,155,60,95,0
20201008,59841,7177,51551,1113,103,-45,148,0
20201009,59992,7265,51614,1113,151,88,63,0
20201010,60103,7277,51711,1115,111,12,97,2
20201011,60266,7416,51735,1115,163,139,24,0
20201012,60430,7372,51943,1115,164,-44,208,0
20201013,60655,7533,52006,1116,225,161,63,1
20201014,60834,7575,52143,1116,179,42,137,0
20201015,60982,7672,52194,1116,148,97,51,0
20201016,61194,7771,52304,1119,212,99,110,3
20201017,61307,3627,56557,1123,113,-4144,4253,4
20201018,61440,3704,56611,1125,133,77,54,2
20201019,61558,3736,56697,1125,118,32,86,0
20201020,61630,3708,56797,1125,72,-28,100,0
20201021,61667,3662,56880,1125,37,-46,83,0
20201022,61805,3693,56985,1127,138,31,105,2
20201023,61882,3563,57190,1129,77,-130,205,2
20201024,61930,3516,57285,1129,48,-47,95,0
20201025,61992,3397,57465,1130,62,-119,180,1
20201026,62111,3408,57571,1132,119,11,106,2
20201027,62224,3173,57916,1135,113,-235,345,3
20201028,62371,3137,58095,1139,147,-36,179,4
20201029,62521,3131,58249,1141,150,-6,154,2
20201030,62691,3117,58430,1144,170,-14,181,3
20201031,62853,3034,58675,1144,162,-83,245,0
20201101,62964,3028,58790,1146,111,-6,115,2
20201102,63036,2561,59328,1147,72,-467,538,1
20201103,63173,2388,59634,1151,137,-173,306,4
20201104,63328,2498,59675,1155,155,110,41,4
20201105,63508,2605,59748,1155,180,107,73,0
20201106,63731,2732,59844,1155,223,127,96,0
20201107,63790,2751,59884,1155,59,19,40,0
20201108,64090,3026,59910,1154,300,275,26,-1
20201109,64184,2957,60069,1158,94,-69,159,4
20201110,64336,2843,60333,1160,152,-114,264,2
20201111,64516,2617,60737,1162,180,-226,404,2
20201112,64728,2776,60790,1162,212,159,53,0
20201113,64884,2785,60936,1163,156,9,146,1
20201114,64996,2804,61029,1163,112,19,93,0
20201115,65148,2912,61073,1163,152,108,44,0
20201116,65305,2980,61162,1163,157,68,89,0
20201117,65457,2957,61337,1163,152,-23,175,0
20201118,65693,3073,61457,1163,236,116,120,0
20201119,65839,3101,61573,1165,146,28,116,2
20201120,65982,3035,61782,1165,143,-66,209,0
20201121,66228,3178,61884,1166,246,143,102,1
20201122,66383,3140,62076,1167,155,-38,192,1
20201123,66439,3030,62241,1168,56,-110,165,1
20201124,66607,3127,62311,1169,168,97,70,1
20201125,66805,3143,62493,1169,198,16,182,0
20201126,66974,3220,62585,1169,169,77,92,0
20201127,67220,3363,62686,1171,246,143,101,2
20201128,67330,3340,62819,1171,110,-23,133,0
20201129,67412,3184,63055,1173,82,-156,236,2
20201130,67557,3102,63282,1173,145,-82,227,0
20201201,67838,3232,63430,1176,281,130,148,3
20201202,67960,2944,63839,1177,122,-288,409,1
20201203,68303,2833,64291,1179,343,-111,452,2
20201204,68627,2981,64467,1179,324,148,176,0
20201205,68937,3107,64650,1180,310,126,183,1
20201206,69255,3301,64774,1180,318,194,124,0
20201207,69645,3517,64947,1181,390,216,173,1
20201208,70195,3903,65110,1182,550,386,163,1
20201209,70669,4243,65242,1184,474,340,132,2
20201210,71344,4680,65474,1190,675,437,232,6
20201211,72140,5228,65722,1190,796,548,248,0
20201212,72757,5713,65850,1194,617,485,128,4
20201213,73175,5888,66090,1197,418,175,240,3
20201214,73374,5863,66314,1197,199,-25,224,0
20201215,74132,6438,66494,1200,758,575,180,3
20201216,75062,7087,66775,1200,930,649,281,0
20201217,76207,7896,67110,1201,1145,809,335,1
20201218,77013,8317,67484,1212,806,421,374,11
20201219,77933,8931,67784,1218,920,614,300,6
20201220,78434,8910,68303,1221,501,-21,519,3
20201221,78790,9070,68493,1227,356,160,190,6
20201222,79789,9679,68879,1231,999,609,386,4
20201223,80922,10412,69274,1236,1133,733,395,5
20201224,81963,11070,69651,1242,1041,658,377,6
20201225,82747,11253,70248,1246,784,183,597,4
20201226,83576,11834,70495,1247,829,581,247,1
20201227,84414,12126,71034,1254,838,292,539,7
20201228,84811,12190,71357,1264,397,64,323,10
20201229,85560,12356,71937,1267,749,166,580,3
20201230,86576,11976,73322,1278,1016,-380,1385,11
20201231,87607,12605,73713,1289,1031,629,391,11
20210101,88587,12920,74373,1294,980,315,660,5
20210102,89163,13072,74789,1302,576,152,416,8
20210103,90080,13725,75044,1311,917,653,255,9
20210104,91351,14334,75699,1318,1271,609,655,7
20210105,92705,14990,76396,1319,1354,656,697,1
20210106,94369,15746,77299,1324,1664,756,903,5
20210107,95934,16622,77982,1330,1565,876,683,6
20210108,97478,17584,78552,1342,1544,962,570,12
20210109,99063,18296,79417,1350,1585,712,865,8
20210110,100087,18699,80030,1358,1024,403,613,8
20210111,101331,19479,80491,1361,1244,780,461,3
20210112,102601,19654,81574,1373,1270,175,1083,12
20210113,103999,20062,82555,1382,1398,408,981,9
20210114,105478,20243,83830,1405,1479,181,1275,23
20210115,107345,21397,84535,1413,1867,1154,705,8
20210116,108943,22156,85367,1420,1598,759,832,7
20210117,110387,19635,89317,1435,1444,-2521,3950,15
20210118,112004,20616,89939,1449,1617,981,622,14
20210119,113305,20641,91200,1464,1301,25,1261,15
20210120,114691,20877,92336,1478,1386,236,1136,14
20210121,116655,21524,93646,1485,1964,647,1310,7
20210122,118138,22518,94130,1490,1483,994,484,5
20210123,120602,23199,95901,1502,2464,681,1771,12
20210124,121566,22834,97228,1504,964,-365,1327,2
20210125,122996,23130,98359,1507,1430,296,1131,3
20210126,124299,23501,99276,1522,1303,371,917,15
20210127,126160,24252,100365,1543,1861,751,1089,21
20210128,127024,24624,100853,1547,864,372,488,4
20210129,128674,24317,102780,1577,1650,-307,1927,30
20210130,130557,25267,103712,1578,1883,950,932,1
20210131,131242,24667,104989,1586,685,-600,1277,8
20210201,131918,24036,106275,1607,676,-631,1286,21
20210202,133552,24388,107551,1613,1634,352,1276,6
20210203,134690,24415,108657,1618,1138,27,1106,5
20210204,136030,23949,110449,1632,1340,-466,1792,14
20210205,137654,24374,111639,1641,1624,425,1190,9
20210206,139242,25038,112557,1647,1588,664,918,6
20210207,139748,24556,113525,1667,506,-482,968,20
20210208,140391,24083,114635,1673,643,-473,1110,6
20210209,141447,23998,115755,1694,1056,-85,1120,21
20210210,142578,23929,116947,1702,1131,-69,1192,8
20210211,143516,23794,118012,1710,938,-135,1065,8
20210212,144521,23921,118866,1734,1005,127,854,24
20210213,145664,23518,120399,1747,1143,-403,1533,13
20210214,146184,23594,120838,1752,520,76,439,5
20210215,146928,22158,123009,1761,744,-1436,2171,9
20210216,148296,22036,124483,1777,1368,-122,1474,16
20210217,149369,21860,125722,1787,1073,-176,1239,10
20210218,150246,22026,126417,1803,877,166,695,16
20210219,150908,21571,127524,1813,662,-455,1107,10
20210220,151553,21717,128005,1831,645,146,481,18
20210221,152074,21616,128619,1839,521,-101,614,8
20210222,152616,21454,129300,1862,542,-162,681,23
20210223,153187,21370,129943,1874,571,-84,643,12
20210224,153842,21139,130818,1885,655,-231,875,11
20210225,154476,20886,131699,1891,634,-253,881,6
20210226,155076,20630,132544,1902,600,-256,845,11
20210227,155417,20256,133256,1905,341,-374,712,3
20210228,155657,19982,133768,1907,240,-274,512,2
20210301,156017,20198,133904,1915,360,216,136,8
20210302,156496,20022,134551,1923,479,-176,647,8
20210303,156960,19209,135812,1939,464,-813,1261,16
20210304,157671,19385,136335,1951,711,176,523,12
20210305,158042,19063,137025,1954,371,-322,690,3
20210306,158237,18628,137645,1964,195,-435,620,10
20210307,158506,18647,137890,1969,269,19,245,5
20210308,158906,18422,138502,1982,400,-225,612,13
20210309,159252,18208,139056,1988,346,-214,554,6
20210310,159646,17670,139983,1993,394,-538,927,5
20210311,159933,15528,142404,2001,287,-2142,2421,8
20210312,160332,14264,144059,2009,399,-1264,1655,8
20210313,160537,13810,144714,2013,205,-454,655,4
20210314,160657,13245,145399,2013,120,-565,685,0
20210315,160895,13127,145752,2016,238,-118,353,3
20210316,161074,12984,146072,2018,179,-143,320,2
20210317,161261,12839,146395,2027,187,-145,323,9
20210318,161409,12492,146890,2027,148,-347,495,0
20210319,161539,11931,147581,2027,130,-561,691,0
20210320,161651,11846,147775,2030,112,-85,194,3
20210321,161737,11808,147899,2030,86,-38,124,0
20210322,161868,11713,148125,2030,131,-95,226,0
20210323,162076,11515,148530,2031,208,-198,405,1
20210324,162178,11421,148726,2031,102,-94,196,0
20210325,162275,10357,149882,2036,97,-1064,1156,5
20210326,162388,10363,149986,2039,113,6,104,3
20210327,162489,10243,150205,2041,101,-120,219,2
20210328,162593,10237,150308,2048,104,-6,103,7
20210329,162641,10126,150466,2049,48,-111,158,1
20210330,162762,9174,151532,2056,121,-952,1066,7
20210331,162891,9186,151648,2057,129,12,116,1
20210401,162997,9231,151708,2058,106,45,60,1
20210402,163063,9170,151835,2058,66,-61,127,0
20210403,163113,9202,151853,2058,50,32,18,0
20210404,163195,9139,151998,2058,82,-63,145,0
20210405,163330,9227,152045,2058,135,88,47,0
20210406,163388,7700,153630,2058,58,-1527,1585,0
20210407,163498,7652,153788,2058,110,-48,158,0
20210408,163581,7518,154005,2058,83,-134,217,0
20210409,163652,7520,154073,2059,71,2,68,1
20210410,163736,7578,154098,2060,84,58,25,1
20210411,163799,7632,154107,2060,63,54,9,0
20210412,163837,7599,154177,2061,38,-33,70,1
20210413,163911,7625,154225,2061,74,26,48,0
20210414,164000,7669,154270,2061,89,44,45,0
20210415,164080,7734,154285,2061,80,65,15,0
20210416,164147,7782,154304,2061,67,48,19,0
20210417,164207,7821,154325,2061,60,39,21,0
20210418,164233,7840,154332,2061,26,19,7,0
20210419,164303,7858,154384,2061,70,18,52,0
20210420,164423,7956,154406,2061,120,98,22,0
20210421,164488,7986,154441,2061,65,30,35,0
20210422,164588,7949,154578,2061,100,-37,137,0
20210423,164633,7929,154643,2061,45,-20,65,0
20210424,164684,7936,154687,2061,51,7,44,0
20210425,164719,7731,154926,2062,35,-205,239,1
20210426,164756,7731,154963,2062,37,0,37,0
20210427,164912,7837,155012,2063,156,106,49,1
20210428,164993,7909,155021,2063,81,72,9,0
20210429,165055,7951,155041,2063,62,42,20,0
20210430,165110,7946,155101,2063,55,-5,60,0
20210501,165110,7946,155101,2063,0,0,0,0
20210502,165153,7981,155109,2063,43,35,8,0
20210503,165199,7765,155371,2063,46,-216,262,0
20210504,165215,7781,155371,2063,16,16,0,0
20210505,165273,7805,155403,2065,58,24,32,2
20210506,165301,7812,155424,2065,28,7,21,0
20210507,165340,7821,155454,2065,39,9,30,0
20210508,165370,7055,156250,2065,30,-766,796,0
20210509,165419,7057,156297,2065,49,2,47,0
20210510,165468,7085,156318,2065,49,28,21,0
20210511,165515,7092,156358,2065,47,7,40,0
20210512,165559,7119,156374,2066,44,27,16,1
20210513,165612,7159,156387,2066,53,40,13,0
20210514,165661,7196,156399,2066,49,37,12,0
20210515,165702,7224,156412,2066,41,28,13,0
20210516,165709,7230,156413,2066,7,6,1,0
20210517,165778,7296,156415,2067,69,66,2,1
20210518,165778,7296,156415,2067,0,0,0,0
20210519,165852,7329,156456,2067,74,33,41,0
20210520,165901,7375,156459,2067,49,46,3,0
20210521,165944,7415,156462,2067,43,40,3,0
20210522,165979,7444,156468,2067,35,29,6,0
20210523,166019,7476,156476,2067,40,32,8,0
20210524,166061,7502,156492,2067,42,26,16,0
20210525,166098,7499,156528,2071,37,-3,36,4
20210526,166146,7546,156529,2071,48,47,1,0
20210527,166191,7585,156535,2071,45,39,6,0
20210528,166254,7637,156546,2071,63,52,11,0
20210529,166285,7657,156557,2071,31,20,11,0
20210530,166315,7686,156558,2071,30,29,1,0
20210531,166518,5638,158781,2099,203,-2048,2223,28
20210601,166534,4500,159935,2099,16,-1138,1154,0
20210602,166560,4515,159946,2099,26,15,11,0
20210603,166682,2044,162521,2117,122,-2471,2575,18
20210604,166730,2029,162584,2117,48,-15,63,0
20210605,166756,1645,162994,2117,26,-384,410,0
20210606,166767,1554,163096,2117,11,-91,102,0
20210607,166816,1509,163190,2117,49,-45,94,0
20210608,166918,1542,163259,2117,102,33,69,0
20210609,166982,1534,163331,2117,64,-8,72,0
20210610,166982,1534,163331,2117,0,0,0,0
20210611,167051,1504,163430,2117,69,-30,99,0
20210612,167059,1506,163436,2117,8,2,6,0
20210613,167066,1486,163463,2117,7,-20,27,0
20210614,167078,1492,163469,2117,12,6,6,0
20210615,167095,1495,163483,2117,17,3,14,0
20210616,167103,1458,163528,2117,8,-37,45,0
20210617,167142,1490,163535,2117,39,32,7,0
20210618,167155,1498,163540,2117,13,8,5,0
20210619,167206,1539,163550,2117,51,41,10,0
20210620,167206,1532,163557,2117,0,-7,7,0
20210621,167292,1377,163797,2118,86,-155,240,1
20210622,167331,1300,163913,2118,39,-77,116,0
20210623,167375,1340,163917,2118,44,40,4,0
20210624,167401,1350,163933,2118,26,10,16,0
20210625,167430,1374,163937,2119,29,24,4,1
20210626,167465,1400,163946,2119,35,26,9,0
20210627,167467,1399,163949,2119,2,-1,3,0
20210628,167532,1429,163984,2119,65,30,35,0
20210629,167543,1438,163985,2120,11,9,1,1
20210630,167618,1254,164244,2120,75,-184,259,0
20210701,167692,1298,164273,2121,74,44,29,1
20210702,167732,1242,164369,2121,40,-56,96,0
20210703,167803,1304,164378,2121,71,62,9,0
20210704,167859,1356,164382,2121,56,52,4,0
20210705,167909,1387,164400,2122,50,31,18,1
20210706,168000,1473,164405,2122,91,86,5,0
20210707,168110,1580,164408,2122,110,107,3,0
20210708,168256,1719,164415,2122,146,139,7,0
20210709,168442,1897,164423,2122,186,178,8,0
20210710,168540,1987,164431,2122,98,90,8,0
20210711,168552,1989,164439,2124,12,2,8,2
20210712,168713,2113,164476,2124,161,124,37,0
20210713,168867,2119,164623,2125,154,6,147,1
20210714,168915,2138,164652,2125,48,19,29,0
20210715,169074,2286,164662,2126,159,148,10,1
20210716,169206,2414,164666,2126,132,128,4,0
20210717,169329,2531,164672,2126,123,117,6,0
20210718,169532,2706,164699,2127,203,175,27,1
20210719,169678,2830,164720,2128,146,124,21,1
20210720,169884,3023,164733,2128,206,193,13,0
20210721,169884,3023,164733,2128,0,0,0,0
20210722,170306,3404,164772,2130,422,381,39,2
20210723,170306,3404,164772,2130,0,0,0,0
20210724,170895,3975,164788,2132,589,571,16,2
20210725,171111,4190,164789,2132,216,215,1,0
20210726,171324,4392,164798,2134,213,202,9,2
20210727,171728,4757,164837,2134,404,365,39,0
20210728,172263,5238,164886,2139,535,481,49,5
20210729,172821,5750,164930,2141,558,512,44,2
20210730,173411,6284,164978,2149,590,534,48,8
20210731,173908,6765,164994,2149,497,481,16,0
20210801,174315,7161,165005,2149,407,396,11,0
20210802,174759,7562,165037,2160,444,401,32,11
20210803,175264,7979,165122,2163,505,417,85,3
20210804,176011,8636,165208,2167,747,657,86,4
20210805,176577,0,0,2178,566,-8636,-165208,11
20210806,177142,0,0,2181,565,0,0,3
20210807,177615,0,0,2185,473,0,0,4
20210808,178086,0,0,2187,471,0,0,2
20210809,178508,0,0,2192,422,0,0,5
20210810,179118,0,0,2194,610,0,0,2
20210811,179908,0,0,2195,790,0,0,1
20210812,180661,0,0,2200,753,0,0,5
20210813,181297,0,0,2211,636,0,0,11
20210814,181962,0,0,2219,665,0,0,8
20210815,182503,0,0,2219,541,0,0,0
20210816,183087,0,0,2223,584,0,0,4
20210817,183444,0,0,2229,357,0,0,6
20210818,183444,0,0,2229,0,0,0,0
20210819,185267,0,0,2244,1823,0,0,15
20210820,185571,0,0,2247,304,0,0,3
20210821,185571,0,0,2247,0,0,0,0
20210822,187023,0,0,2268,1452,0,0,21
20210823,187588,0,0,2276,565,0,0,8
20210824,188243,0,0,2281,655,0,0,5
20210825,188880,0,0,2288,637,0,0,7
20210826,189715,0,0,2298,835,0,0,10
20210827,190333,0,0,2308,618,0,0,10
20210828,190983,0,0,2361,650,0,0,53
20210829,191345,0,0,2454,362,0,0,93
20210830,191805,0,0,2455,460,0,0,1
20210831,192431,0,0,2469,626,0,0,14
20210901,193013,0,0,2480,582,0,0,11
20210902,193644,0,0,2488,631,0,0,8
20210903,194088,0,0,2495,444,0,0,7
20210904,195052,0,0,2522,964,0,0,27
