date,infected,active,recovered,dead,deltaInfected,deltaActive,deltaRecovered,deltaDead
20200224,2,2,0,0,2,2,0,0
20200225,2,2,0,0,0,0,0,0
20200226,4,4,0,0,2,2,0,0
20200227,4,4,0,0,0,0,0,0
20200228,4,4,0,0,0,0,0,0
20200229,6,5,1,0,2,1,1,0
20200301,6,5,1,0,0,0,0,0
20200302,6,5,1,0,0,0,0,0
20200303,12,10,2,0,6,5,1,0
20200304,15,13,2,0,3,3,0,0
20200305,16,14,2,0,1,1,0,0
20200306,16,14,2,0,0,0,0,0
20200307,16,14,2,0,0,0,0,0
20200308,16,14,2,0,0,0,0,0
20200309,16,14,2,0,0,0,0,0
20200310,18,9,9,0,2,-5,7,0
20200311,18,9,9,0,0,0,0,0
20200312,18,9,9,0,0,0,0,0
20200313,19,10,9,0,1,1,0,0
20200314,19,10,9,0,0,0,0,0
20200315,22,13,9,0,3,3,0,0
20200316,22,13,9,0,0,0,0,0
20200317,24,15,9,0,2,2,0,0
20200318,39,27,12,0,15,12,3,0
20200319,48,36,12,0,9,9,0,0
20200320,48,36,12,0,0,0,0,0
20200321,52,40,12,0,4,4,0,0
20200322,55,38,17,0,3,-2,5,0
20200323,66,49,17,0,11,11,0,0
20200324,84,67,17,0,18,18,0,0
20200325,99,82,17,0,15,15,0,0
20200326,109,86,23,0,10,4,6,0
20200327,131,108,23,0,22,22,0,0
20200328,152,129,23,0,21,21,0,0
20200329,167,144,23,0,15,15,0,0
20200330,179,150,29,0,12,6,6,0
20200331,192,157,34,1,13,7,5,1
20200401,210,175,34,1,18,18,0,0
20200402,231,173,57,1,21,-2,23,0
20200403,252,194,57,1,21,21,0,0
20200404,277,214,61,2,25,20,4,1
20200405,298,235,61,2,21,21,0,0
20200406,331,268,61,2,33,33,0,0
20200407,371,302,67,2,40,34,6,0
20200408,419,345,72,2,48,43,5,0
20200409,457,345,109,3,38,0,37,1
20200410,484,372,109,3,27,27,0,0
20200411,546,434,109,3,62,62,0,0
20200412,599,486,109,4,53,52,0,1
20200413,727,599,124,4,128,113,15,0
20200414,813,679,130,4,86,80,6,0
20200415,910,775,131,4,97,96,1,0
20200416,1019,839,176,4,109,64,45,0
20200417,1069,887,176,6,50,48,0,2
20200418,1180,998,176,6,111,111,0,0
20200419,1266,1026,233,7,86,28,57,1
20200420,1410,1165,238,7,144,139,5,0
20200421,1508,1262,238,8,98,97,0,1
20200422,1614,1368,238,8,106,106,0,0
20200423,1716,1400,307,9,102,32,69,1
20200424,1790,1455,325,10,74,55,18,1
20200425,1905,1566,329,10,115,111,4,0
20200426,1998,1655,333,10,93,89,4,0
20200427,2049,1675,364,10,51,20,31,0
20200428,2131,1757,364,10,82,82,0,0
20200429,2274,1900,364,10,143,143,0,0
20200430,2348,1842,495,11,74,-58,131,1
20200501,2447,1941,495,11,99,99,0,0
20200502,2483,1721,750,12,36,-220,255,1
20200503,2568,1806,750,12,85,85,0,0
20200504,2637,1809,816,12,69,3,66,0
20200505,2735,1864,858,13,98,55,42,1
20200506,2903,2002,888,13,168,138,30,0
20200507,2958,1963,980,15,55,-39,92,2
20200508,3112,2071,1025,16,154,108,45,1
20200509,3224,2139,1068,17,112,68,43,1
20200510,3399,2265,1117,17,175,126,49,0
20200511,3573,2306,1250,17,174,41,133,0
20200512,3721,2454,1250,17,148,148,0,0
20200513,4019,2713,1289,17,298,259,39,0
20200514,4341,3020,1303,18,322,307,14,1
20200515,4625,3255,1350,20,284,235,47,2
20200516,5029,3572,1436,21,404,317,86,1
20200517,5186,3699,1465,22,157,127,29,1
20200518,5379,3858,1496,25,193,159,31,3
20200519,5671,4070,1574,27,292,212,78,2
20200520,6043,4352,1661,30,372,282,87,3
20200521,6370,4518,1821,31,327,166,160,1
20200522,6794,4939,1821,34,424,421,0,3
20200523,7257,5373,1848,36,463,434,27,2
20200524,7770,5800,1933,37,513,427,85,1
20200525,7770,5800,1933,37,0,0,0,0
20200526,8118,6014,2067,37,348,214,134,0
20200527,8373,6157,2177,39,255,143,110,2
20200528,9009,6792,2177,40,636,635,0,1
20200529,9820,7384,2396,40,811,592,219,0
20200530,10423,7985,2396,42,603,601,0,2
20200531,11437,8706,2682,49,1014,721,286,7
20200601,12223,9491,2682,50,786,785,0,1
20200602,12799,9928,2812,59,576,437,130,9
20200603,13537,10625,2845,67,738,697,33,8
20200604,14316,10798,3451,67,779,173,606,0
20200605,15086,11563,3451,72,770,765,0,5
20200606,16016,12493,3451,72,930,930,0,0
20200607,16882,13356,3451,75,866,863,0,3
20200608,17486,13612,3793,81,604,256,342,6
20200609,18198,13963,4152,83,712,351,359,2
20200610,18887,13163,5640,84,689,-800,1488,1
20200611,19954,13242,6623,89,1067,79,983,5
20200612,21071,13486,7489,96,1117,244,866,7
20200613,22077,14448,7530,99,1006,962,41,3
20200614,23481,14923,8454,104,1404,475,924,5
20200615,24524,14883,9533,108,1043,-40,1079,4
20200616,25269,14066,11089,114,745,-817,1556,6
20200617,26079,14166,11797,116,810,100,708,2
20200618,26818,13435,13264,119,739,-731,1467,3
20200619,27670,13571,13974,125,852,136,710,6
20200620,28566,13658,14780,128,896,87,806,3
20200621,29471,13788,15552,131,905,130,772,3
20200622,31076,14531,16408,137,1605,743,856,6
20200623,32394,14975,17279,140,1318,444,871,3
20200624,33536,15422,17972,142,1142,447,693,2
20200625,34902,16238,18520,144,1366,816,548,2
20200626,36034,16399,19482,153,1132,161,962,9
20200627,36953,16431,20363,159,919,32,881,6
20200628,38150,16787,21200,163,1197,356,837,4
20200629,39060,16469,22422,169,910,-318,1222,6
20200630,40070,16469,23425,176,1010,0,1003,7
20200701,41194,16847,24162,185,1124,378,737,9
20200702,42555,17049,25318,188,1361,202,1156,3
20200703,43929,17567,26169,193,1374,518,851,5
20200704,45106,17935,26968,203,1177,368,799,10
20200705,46178,18048,27917,213,1072,113,949,10
20200706,47735,18371,29146,218,1557,323,1229,5
20200707,48997,17773,31000,224,1262,-598,1854,6
20200708,50207,17969,32005,233,1210,196,1005,9
20200709,51725,18468,33021,236,1518,499,1016,3
20200710,53614,19145,34225,244,1889,677,1204,8
20200711,54697,19194,35255,248,1083,49,1030,4
20200712,56015,19660,36098,257,1318,466,843,9
20200713,58179,20663,37257,259,2164,1003,1159,2
20200714,59568,21308,37987,273,1389,645,730,14
20200715,61247,21928,39038,281,1679,620,1051,8
20200716,62574,22194,40090,290,1327,266,1052,9
20200717,64193,22445,41450,298,1619,251,1360,8
20200718,65504,22424,42772,308,1311,-21,1322,10
20200719,66661,22339,44004,318,1157,-85,1232,10
20200720,68400,22924,45150,326,1739,585,1146,8
20200721,69887,22942,46608,337,1487,18,1458,11
20200722,71547,23276,47922,349,1660,334,1314,12
20200723,72646,20942,51349,355,1099,-2334,3427,6
20200724,73791,20425,53007,359,1145,-517,1658,4
20200725,74858,20426,54061,371,1067,1,1054,12
20200726,76005,20322,55299,384,1147,-104,1238,13
20200727,77058,19637,57028,393,1053,-685,1729,9
20200728,77904,18915,58587,402,846,-722,1559,9
20200729,78569,17917,60240,412,665,-998,1653,10
20200730,79159,17317,61421,421,590,-600,1181,9
20200731,79159,17317,61421,421,0,0,0,0
20200801,79159,17317,61421,421,0,0,0,0
20200802,79159,17317,61421,421,0,0,0,0
20200803,79159,17317,61421,421,0,0,0,0
20200804,79159,17317,61421,421,0,0,0,0
20200805,80286,9995,69803,488,1127,-7322,8382,67
20200806,80713,9311,70910,492,427,-684,1107,4
20200807,81067,8302,72263,502,354,-1009,1353,10
20200808,81357,7367,73481,509,290,-935,1218,7
20200809,81580,6376,74691,513,223,-991,1210,4
20200810,81787,5142,76124,521,207,-1234,1433,8
20200811,82050,4797,76720,533,263,-345,596,12
20200812,82299,4688,77072,539,249,-109,352,6
20200813,82531,4702,77278,551,232,14,206,12
20200814,82743,4759,77427,557,212,57,149,6
20200815,82924,4812,77550,562,181,53,123,5
20200816,83086,4834,77680,572,162,22,130,10
20200817,83226,4826,77812,588,140,-8,132,16
20200818,83418,4844,77977,597,192,18,165,9
20200819,83606,4815,78188,603,188,-29,211,6
20200820,83769,4774,78386,609,163,-41,198,6
20200821,83769,4774,78386,609,0,0,0,0
20200822,83769,4774,78386,609,0,0,0,0
20200823,83769,4774,78386,609,0,0,0,0
20200824,84509,4960,78912,637,740,186,526,28
20200825,84652,4863,79147,642,143,-97,235,5
20200826,84818,4763,79409,646,166,-100,262,4
20200827,85005,4747,79608,650,187,-16,199,4
20200828,85005,4747,79608,650,0,0,0,0
20200829,85005,4747,79608,650,0,0,0,0
20200830,85544,4408,80459,677,539,-339,851,27
20200831,85722,4227,80810,685,178,-181,351,8
20200901,85928,4215,81024,689,206,-12,214,4
20200902,85928,4215,81024,689,0,0,0,0
20200903,86380,3847,81828,705,452,-368,804,16
20200904,86380,3847,81828,705,0,0,0,0
20200905,86380,3847,81828,705,0,0,0,0
20200906,87072,3938,82406,728,692,91,578,23
20200907,87328,3789,82805,734,256,-149,399,6
20200908,87590,3875,82973,742,262,86,168,8
20200909,87939,4073,83115,751,349,198,142,9
20200910,88337,4250,83325,762,398,177,210,11
20200911,88337,4250,83325,762,0,0,0,0
20200912,88337,4250,83325,762,0,0,0,0
20200913,89746,5195,83771,780,1409,945,446,18
20200914,90222,5504,83928,790,476,309,157,10
20200915,90660,5750,84113,797,438,246,185,7
20200916,91196,6028,84363,805,536,278,250,8
20200917,91753,6287,84648,818,557,259,285,13
20200918,91753,6287,84648,818,0,0,0,0
20200919,91753,6287,84648,818,0,0,0,0
20200920,93475,7211,85418,846,1722,924,770,28
20200921,94051,7417,85781,853,576,206,363,7
20200922,94711,7651,86195,865,660,234,414,12
20200923,95339,7982,86482,875,628,331,287,10
20200924,95907,8257,86765,885,568,275,283,10
20200925,95907,8257,86765,885,0,0,0,0
20200926,95907,8257,86765,885,0,0,0,0
20200927,97450,8740,87801,909,1543,483,1036,24
20200928,98057,8899,88234,924,607,159,433,15
20200929,98585,9122,88528,935,528,223,294,11
20200930,98585,9122,88528,935,0,0,0,0
20201001,98585,9122,88528,935,0,0,0,0
20201002,98585,9122,88528,935,0,0,0,0
20201003,98585,9122,88528,935,0,0,0,0
20201004,101270,9997,90296,977,2685,875,1768,42
20201005,101814,10229,90600,985,544,232,304,8
20201006,102648,10383,91275,990,834,154,675,5
20201007,103465,11136,91329,1000,817,753,54,10
20201008,104129,11389,91731,1009,664,253,402,9
20201009,104129,11389,91731,1009,0,0,0,0
20201010,104129,11389,91731,1009,0,0,0,0
20201011,105890,12012,92840,1038,1761,623,1109,29
20201012,106575,12307,93222,1046,685,295,382,8
20201013,107213,12603,93557,1053,638,296,335,7
20201014,107776,12807,93908,1061,563,204,351,8
20201015,108296,12996,94229,1071,520,189,321,10
20201016,108296,12996,94229,1071,0,0,0,0
20201017,108296,12996,94229,1071,0,0,0,0
20201018,109953,13228,95624,1101,1657,232,1395,30
20201019,110594,13080,96400,1114,641,-148,776,13
20201020,111033,12962,96949,1122,439,-118,549,8
20201021,111484,12980,97367,1137,451,18,418,15
20201022,111837,12741,97949,1147,353,-239,582,10
20201023,111837,12741,97949,1147,0,0,0,0
20201024,111837,12741,97949,1147,0,0,0,0
20201025,112932,12480,99278,1174,1095,-261,1329,27
20201026,113354,12496,99668,1190,422,16,390,16
20201027,113820,12620,99997,1203,466,124,329,13
20201028,114434,10166,103060,1208,614,-2454,3063,5
20201029,114434,10166,103060,1208,0,0,0,0
20201030,114434,10166,103060,1208,0,0,0,0
20201031,114434,10166,103060,1208,0,0,0,0
20201101,115734,8788,105700,1246,1300,-1378,2640,38
20201102,116152,8701,106195,1256,418,-87,495,10
20201103,116528,8724,106540,1264,376,23,345,8
20201104,116847,8669,106903,1275,319,-55,363,11
20201105,117167,8513,107368,1286,320,-156,465,11
20201106,117167,8513,107368,1286,0,0,0,0
20201107,117167,8513,107368,1286,0,0,0,0
20201108,118140,8158,108681,1301,973,-355,1313,15
20201109,118503,8225,108968,1310,363,67,287,9
20201110,118884,8238,109330,1316,381,13,362,6
20201111,119186,8232,109633,1321,302,-6,303,5
20201112,119442,8066,110050,1326,256,-166,417,5
20201113,119442,8066,110050,1326,0,0,0,0
20201114,119442,8066,110050,1326,0,0,0,0
20201115,120389,7955,111096,1338,947,-111,1046,12
20201116,120718,7922,111446,1350,329,-33,350,12
20201117,120718,7922,111446,1350,0,0,0,0
20201118,121129,7755,112014,1360,411,-167,568,10
20201119,121360,7589,112406,1365,231,-166,392,5
20201120,121360,7589,112406,1365,0,0,0,0
20201121,121360,7589,112406,1365,0,0,0,0
20201122,122081,7432,113269,1380,721,-157,863,15
20201123,122356,7393,113577,1386,275,-39,308,6
20201124,122579,7332,113856,1391,223,-61,279,5
20201125,122579,7332,113856,1391,0,0,0,0
20201126,122579,7332,113856,1391,0,0,0,0
20201127,122579,7332,113856,1391,0,0,0,0
20201128,122579,7332,113856,1391,0,0,0,0
20201129,123484,7103,114963,1418,905,-229,1107,27
20201130,123699,7060,115216,1423,215,-43,253,5
20201201,123908,7037,115441,1430,209,-23,225,7
20201202,124145,7102,115613,1430,237,65,172,0
20201203,124329,7028,115866,1435,184,-74,253,5
20201204,124329,7028,115866,1435,0,0,0,0
20201205,124329,7028,115866,1435,0,0,0,0
20201206,124886,7088,116354,1444,557,60,488,9
20201207,125115,7157,116506,1452,229,69,152,8
20201208,125325,7151,116720,1454,210,-6,214,2
20201209,125490,6995,117034,1461,165,-156,314,7
20201210,125669,6879,117327,1463,179,-116,293,2
20201211,125669,6879,117327,1463,0,0,0,0
20201212,125669,6879,117327,1463,0,0,0,0
20201213,126240,6721,118048,1471,571,-158,721,8
20201214,126504,6745,118287,1472,264,24,239,1
20201215,126719,6739,118505,1475,215,-6,218,3
20201216,126835,6619,118736,1480,116,-120,231,5
20201217,127019,6527,119009,1483,184,-92,273,3
20201218,127019,6527,119009,1483,0,0,0,0
20201219,127019,6527,119009,1483,0,0,0,0
20201220,127667,6605,119574,1488,648,78,565,5
20201221,127931,6697,119745,1489,264,92,171,1
20201222,128143,6708,119945,1490,212,11,200,1
20201223,128236,6567,120178,1491,93,-141,233,1
20201224,128290,6358,120441,1491,54,-209,263,0
20201225,128290,6358,120441,1491,0,0,0,0
20201226,128290,6358,120441,1491,0,0,0,0
20201227,128472,6001,120976,1495,182,-357,535,4
20201228,128563,5886,121182,1495,91,-115,206,0
20201229,128633,5780,121356,1497,70,-106,174,2
20201230,128719,5608,121614,1497,86,-172,258,0
20201231,128867,5478,121890,1499,148,-130,276,2
20210101,128867,5478,121890,1499,0,0,0,0
20210102,128867,5478,121890,1499,0,0,0,0
20210103,129404,5637,122266,1501,537,159,376,2
20210104,129584,5710,122372,1502,180,73,106,1
20210105,129774,5866,122406,1502,190,156,34,0
20210106,129888,5928,122456,1504,114,62,50,2
20210107,130070,6009,122556,1505,182,81,100,1
20210108,130070,6009,122556,1505,0,0,0,0
20210109,130070,6009,122556,1505,0,0,0,0
20210110,130608,6233,122867,1508,538,224,311,3
20210111,130780,6248,123024,1508,172,15,157,0
20210112,130944,6249,123187,1508,164,1,163,0
20210113,131086,6163,123415,1508,142,-86,228,0
20210114,131264,6162,123593,1509,178,-1,178,1
20210115,131264,6162,123593,1509,0,0,0,0
20210116,131264,6162,123593,1509,0,0,0,0
20210117,131790,6211,124067,1512,526,49,474,3
20210118,132011,6284,124213,1514,221,73,146,2
20210119,132146,6232,124398,1516,135,-52,185,2
20210120,132317,6222,124579,1516,171,-10,181,0
20210121,132486,6239,124730,1517,169,17,151,1
20210122,132486,6239,124730,1517,0,0,0,0
20210123,132486,6239,124730,1517,0,0,0,0
20210124,133044,5261,126262,1521,558,-978,1532,4
20210125,133253,5397,126334,1522,209,136,72,1
20210126,133407,5474,126409,1524,154,77,75,2
20210127,133574,5563,126486,1525,167,89,77,1
20210128,133728,5629,126572,1527,154,66,86,2
20210129,133728,5629,126572,1527,0,0,0,0
20210130,133728,5629,126572,1527,0,0,0,0
20210131,134326,5943,126854,1529,598,314,282,2
20210201,134524,6043,126949,1532,198,100,95,3
20210202,134685,6099,127054,1532,161,56,105,0
20210203,134856,6155,127169,1532,171,56,115,0
20210204,135041,6243,127266,1532,185,88,97,0
20210205,135041,6243,127266,1532,0,0,0,0
20210206,135041,6243,127266,1532,0,0,0,0
20210207,135674,6442,127698,1534,633,199,432,2
20210208,135990,6602,127853,1535,316,160,155,1
20210209,136187,6562,128089,1536,197,-40,236,1
20210210,136377,6585,128255,1537,190,23,166,1
20210211,136622,6622,128461,1539,245,37,206,2
20210212,136622,6622,128461,1539,0,0,0,0
20210213,136622,6622,128461,1539,0,0,0,0
20210214,137306,6710,129054,1542,684,88,593,3
20210215,137592,6758,129291,1543,286,48,237,1
20210216,137929,6842,129543,1544,337,84,252,1
20210217,138206,6905,129752,1549,277,63,209,5
20210218,138494,6861,130084,1549,288,-44,332,0
20210219,138494,6861,130084,1549,0,0,0,0
20210220,138494,6861,130084,1549,0,0,0,0
20210221,139362,7157,130653,1552,868,296,569,3
20210222,139692,7484,130653,1555,330,327,0,3
20210223,139989,7289,131143,1557,297,-195,490,2
20210224,140300,7357,131385,1558,311,68,242,1
20210225,140588,7342,131684,1562,288,-15,299,4
20210226,140588,7342,131684,1562,0,0,0,0
20210227,140588,7342,131684,1562,0,0,0,0
20210228,141496,7467,132459,1570,908,125,775,8
20210301,141808,7546,132685,1577,312,79,226,7
20210302,142169,7644,132945,1580,361,98,260,3
20210303,142527,7806,133138,1583,358,162,193,3
20210304,142896,7822,133491,1583,369,16,353,0
20210305,142896,7822,133491,1583,0,0,0,0
20210306,142896,7822,133491,1583,0,0,0,0
20210307,143955,8050,134314,1591,1059,228,823,8
20210308,144404,8126,134684,1594,449,76,370,3
20210309,144831,8229,135005,1597,427,103,321,3
20210310,145257,8430,135227,1600,426,201,222,3
20210311,145257,8430,135227,1600,0,0,0,0
20210312,145257,8430,135227,1600,0,0,0,0
20210313,145257,8430,135227,1600,0,0,0,0
20210314,146867,8830,136429,1608,1610,400,1202,8
20210315,147423,9044,136770,1609,556,214,341,1
20210316,148010,9368,137028,1614,587,324,258,5
20210317,148558,9397,137544,1617,548,29,516,3
20210318,149135,9644,137871,1620,577,247,327,3
20210319,149135,9644,137871,1620,0,0,0,0
20210320,149135,9644,137871,1620,0,0,0,0
20210321,150800,10078,139100,1622,1665,434,1229,2
20210322,151528,10457,139442,1629,728,379,342,7
20210323,152364,10885,139846,1633,836,428,404,4
20210324,153105,11241,140220,1644,741,356,374,11
20210325,153838,11422,140766,1650,733,181,546,6
20210326,153838,11422,140766,1650,0,0,0,0
20210327,153838,11422,140766,1650,0,0,0,0
20210328,156087,12006,142420,1661,2249,584,1654,11
20210329,156883,12277,142944,1662,796,271,524,1
20210330,158056,12989,143398,1669,1173,712,454,7
20210331,159218,13574,143966,1678,1162,585,568,9
20210401,160018,13698,144639,1681,800,124,673,3
20210402,160018,13698,144639,1681,0,0,0,0
20210403,160018,13698,144639,1681,0,0,0,0
20210404,163157,14790,146677,1690,3139,1092,2038,9
20210405,164274,15013,147539,1722,1117,223,862,32
20210406,165480,15449,148303,1728,1206,436,764,6
20210407,166685,15901,149049,1735,1205,452,746,7
20210408,168005,16289,149969,1747,1320,388,920,12
20210409,168005,16289,149969,1747,0,0,0,0
20210410,168005,16289,149969,1747,0,0,0,0
20210411,171549,16989,152784,1776,3544,700,2815,29
20210412,173029,17254,153986,1789,1480,265,1202,13
20210413,174364,17795,154771,1798,1335,541,785,9
20210414,175633,18181,155645,1807,1269,386,874,9
20210415,176668,18002,156845,1821,1035,-179,1200,14
20210416,176668,18002,156845,1821,0,0,0,0
20210417,176668,18002,156845,1821,0,0,0,0
20210418,180031,17829,160324,1878,3363,-173,3479,57
20210419,181430,17870,161670,1890,1399,41,1346,12
20210420,182693,18128,162656,1909,1263,258,986,19
20210421,183770,18094,163750,1926,1077,-34,1094,17
20210422,185278,18285,165051,1942,1508,191,1301,16
20210423,185278,18285,165051,1942,0,0,0,0
20210424,185278,18285,165051,1942,0,0,0,0
20210425,188816,18069,168770,1977,3538,-216,3719,35
20210426,190270,18503,169784,1983,1454,434,1014,6
20210427,191398,18477,170929,1992,1128,-26,1145,9
20210428,192326,18477,171848,2001,928,0,919,9
20210429,193253,18120,173123,2010,927,-357,1275,9
20210430,193253,18120,173123,2010,0,0,0,0
20210501,193253,18120,173123,2010,0,0,0,0
20210502,195807,16931,176833,2043,2554,-1189,3710,33
20210503,196900,16795,178052,2053,1093,-136,1219,10
20210504,197802,16565,179175,2062,902,-230,1123,9
20210505,198572,15954,180547,2071,770,-611,1372,9
20210506,199344,15565,181696,2083,772,-389,1149,12
20210507,199344,15565,181696,2083,0,0,0,0
20210508,199344,15565,181696,2083,0,0,0,0
20210509,201350,14583,184647,2120,2006,-982,2951,37
20210510,202137,14392,185607,2138,787,-191,960,18
20210511,202713,14174,186391,2148,576,-218,784,10
20210512,202713,14174,186391,2148,0,0,0,0
20210513,202713,14174,186391,2148,0,0,0,0
20210514,202713,14174,186391,2148,0,0,0,0
20210515,202713,14174,186391,2148,0,0,0,0
20210516,205511,12976,190342,2193,2798,-1198,3951,45
20210517,206297,13026,191065,2206,786,50,723,13
20210518,207109,13351,191539,2219,812,325,474,13
20210519,207805,13379,192198,2228,696,28,659,9
20210520,208607,13395,192973,2239,802,16,775,11
20210521,208607,13395,192973,2239,0,0,0,0
20210522,208607,13395,192973,2239,0,0,0,0
20210523,210364,14149,193950,2265,1757,754,977,26
20210524,211221,13512,195435,2274,857,-637,1485,9
20210525,212038,14034,195720,2284,817,522,285,10
20210526,212904,14256,196355,2293,866,222,635,9
20210527,213784,14401,197080,2303,880,145,725,10
20210528,213784,14401,197080,2303,0,0,0,0
20210529,213784,14401,197080,2303,0,0,0,0
20210530,216183,14562,199287,2334,2399,161,2207,31
20210531,217224,14919,199960,2345,1041,357,673,11
20210601,218271,15494,200421,2356,1047,575,461,11
20210602,219529,16046,201113,2370,1258,552,692,14
20210603,220702,16296,202021,2385,1173,250,908,15
20210604,220702,16296,202021,2385,0,0,0,0
20210605,220702,16296,202021,2385,0,0,0,0
20210606,223879,16986,204480,2413,3177,690,2459,28
20210607,225095,17366,205305,2424,1216,380,825,11
20210608,226648,18188,206026,2434,1553,822,721,10
20210609,228579,19287,206844,2448,1931,1099,818,14
20210610,230219,19957,207795,2467,1640,670,951,19
20210611,230219,19957,207795,2467,0,0,0,0
20210612,230219,19957,207795,2467,0,0,0,0
20210613,234634,21169,210952,2513,4415,1212,3157,46
20210614,236440,22414,211494,2532,1806,1245,542,19
20210615,238566,23937,212064,2565,2126,1523,570,33
20210616,240708,25309,212808,2591,2142,1372,744,26
20210617,242723,26217,213880,2626,2015,908,1072,35
20210618,242723,26217,213880,2626,0,0,0,0
20210619,242723,26217,213880,2626,0,0,0,0
20210620,248043,26492,218841,2710,5320,275,4961,84
20210621,250572,27660,220171,2741,2529,1168,1330,31
20210622,252609,28577,221250,2782,2037,917,1079,41
20210623,254656,29496,222344,2816,2047,919,1094,34
20210624,256542,29617,224077,2848,1886,121,1733,32
20210625,256542,29617,224077,2848,0,0,0,0
20210626,256542,29617,224077,2848,0,0,0,0
20210627,262059,29094,229998,2967,5517,-523,5921,119
20210628,264302,29571,231718,3013,2243,477,1720,46
20210629,266536,30193,233287,3056,2234,622,1569,43
20210630,268545,30584,234861,3100,2009,391,1574,44
20210701,270504,30376,236988,3140,1959,-208,2127,40
20210702,270504,30376,236988,3140,0,0,0,0
20210703,270504,30376,236988,3140,0,0,0,0
20210704,275166,29009,242874,3283,4662,-1367,5886,143
20210705,276736,28638,244782,3316,1570,-371,1908,33
20210706,278560,28755,246466,3339,1824,117,1684,23
20210707,280235,28728,248151,3356,1675,-27,1685,17
20210708,281688,27753,250564,3371,1453,-975,2413,15
20210709,281688,27753,250564,3371,0,0,0,0
20210710,281688,27753,250564,3371,0,0,0,0
20210711,284905,23793,257689,3423,3217,-3960,7125,52
20210712,286072,23087,259550,3435,1167,-706,1861,12
20210713,287054,22756,260826,3472,982,-331,1276,37
20210714,288138,22480,262174,3484,1084,-276,1348,12
20210715,289042,21792,263752,3498,904,-688,1578,14
20210716,289042,21792,263752,3498,0,0,0,0
20210717,289042,21792,263752,3498,0,0,0,0
20210718,289042,21792,263752,3498,0,0,0,0
20210719,289042,21792,263752,3498,0,0,0,0
20210720,289042,21792,263752,3498,0,0,0,0
20210721,289042,21792,263752,3498,0,0,0,0
20210722,289042,21792,263752,3498,0,0,0,0
20210723,289042,21792,263752,3498,0,0,0,0
20210724,289042,21792,263752,3498,0,0,0,0
20210725,293954,21792,275760,3753,4912,0,12008,255
20210726,294526,14272,276483,3771,572,-7520,723,18
20210727,295017,14219,277010,3788,491,-53,527,17
20210728,295535,14101,277632,3802,518,-118,622,14
20210729,295857,13848,278195,3814,322,-253,563,12
20210730,295857,13848,278195,3814,0,0,0,0
20210731,295857,13848,278195,3814,0,0,0,0
20210801,296835,13093,279892,3850,978,-755,1697,36
20210802,297122,12831,280423,3868,287,-262,531,18
20210803,297431,12627,280927,3877,309,-204,504,9
20210804,297724,12111,281724,3889,293,-516,797,12
20210805,298020,0,0,3906,296,-12111,-281724,17
20210806,298020,0,0,3906,0,0,0,0
20210807,298020,0,0,3906,0,0,0,0
20210808,298706,0,0,3936,686,0,0,30
20210809,298942,0,0,3948,236,0,0,12
20210810,298942,0,0,3948,0,0,0,0
20210811,299418,0,0,3968,476,0,0,20
20210812,299642,0,0,3974,224,0,0,6
20210813,299642,0,0,3974,0,0,0,0
20210814,299642,0,0,3974,0,0,0,0
20210815,300194,0,0,3993,552,0,0,19
20210816,300408,0,0,3999,214,0,0,6
20210817,300581,0,0,4007,173,0,0,8
20210818,300728,0,0,4013,147,0,0,6
20210819,300914,0,0,4020,186,0,0,7
20210820,300914,0,0,4020,0,0,0,0
20210821,300914,0,0,4020,0,0,0,0
20210822,301299,0,0,4031,385,0,0,11
20210823,301450,0,0,4038,151,0,0,7
20210824,301570,0,0,4043,120,0,0,5
20210825,301683,0,0,4047,113,0,0,4
20210826,301784,0,0,4049,101,0,0,2
20210827,301784,0,0,4049,0,0,0,0
20210828,301784,0,0,4049,0,0,0,0
20210829,302132,0,0,4057,348,0,0,8
20210830,302239,0,0,4063,107,0,0,6
20210831,302300,0,0,4064,61,0,0,1
20210901,302393,0,0,4068,93,0,0,4
20210902,302466,0,0,4070,73,0,0,2
20210903,302466,0,0,4070,0,0,0,0
20210904,302466,0,0,4070,0,0,0,0
