date,infected,active,recovered,dead,deltaInfected,deltaActive,deltaRecovered,deltaDead
20200310,1,1,0,0,1,1,0,0
20200311,8,7,0,1,7,6,0,1
20200312,11,10,0,1,3,3,0,0
20200313,27,26,0,1,16,16,0,0
20200314,36,35,0,1,9,9,0,0
20200315,43,42,0,1,7,7,0,0
20200316,55,54,0,1,12,12,0,0
20200317,69,68,0,1,14,14,0,0
20200318,86,85,0,1,17,17,0,0
20200319,109,108,0,1,23,23,0,0
20200320,137,136,0,1,28,28,0,0
20200321,200,199,0,1,63,63,0,0
20200322,313,309,1,3,113,110,1,2
20200323,313,309,1,3,0,0,0,0
20200324,345,338,1,6,32,29,0,3
20200325,443,434,1,8,98,96,0,2
20200326,558,548,2,8,115,114,1,0
20200327,674,663,2,9,116,115,0,1
20200328,786,770,2,14,112,107,0,5
20200329,901,880,4,17,115,110,2,3
20200330,989,961,4,24,88,81,0,7
20200331,1181,1142,9,30,192,181,5,6
20200401,1181,1142,9,30,0,0,0,0
20200402,1317,1276,9,32,136,134,0,2
20200403,1475,1428,10,37,158,152,1,5
20200404,1673,1619,13,41,198,191,3,4
20200405,1801,1742,13,46,128,123,0,5
20200406,1988,1921,13,54,187,179,0,8
20200407,2100,2031,14,55,112,110,1,1
20200408,2249,2174,16,59,149,143,2,4
20200409,2528,2449,16,63,279,275,0,4
20200410,2752,2670,16,66,224,221,0,3
20200411,2974,2883,17,74,222,213,1,8
20200412,3234,3132,23,79,260,249,6,5
20200413,3400,3284,29,87,166,152,6,8
20200414,3472,3317,61,94,72,33,32,7
20200415,3574,3407,72,95,102,90,11,1
20200416,3751,3573,75,103,177,166,3,8
20200417,4016,3809,98,109,265,236,23,6
20200418,4210,3972,122,116,194,163,24,7
20200419,4273,4013,140,120,63,41,18,4
20200420,4467,4176,165,126,194,163,25,6
20200421,4658,4318,204,136,191,142,39,10
20200422,4821,4449,231,141,163,131,27,5
20200423,5166,4749,271,146,345,300,40,5
20200424,5338,4865,319,154,172,116,48,8
20200425,5538,5041,338,159,200,176,19,5
20200426,5779,5276,338,165,241,235,0,6
20200427,6021,5399,455,167,242,123,117,2
20200428,6021,5399,455,167,0,0,0,0
20200429,6378,5673,527,178,357,274,72,11
20200430,6532,5768,576,188,154,95,49,10
20200501,6720,5906,622,192,188,138,46,4
20200502,7090,6252,641,197,370,346,19,5
20200503,7090,6252,641,197,0,0,0,0
20200504,7197,6356,641,200,107,104,0,3
20200505,7523,6490,823,210,326,134,182,10
20200506,7731,6654,859,218,208,164,36,8
20200507,7868,6757,886,225,137,103,27,7
20200508,8070,6953,886,231,202,196,0,6
20200509,8282,3544,4501,237,212,-3409,3615,6
20200510,8448,3517,4687,244,166,-27,186,7
20200511,8616,3680,4687,249,168,163,0,5
20200512,8783,2510,6021,252,167,-1170,1334,3
20200513,8944,2621,6067,256,161,111,46,4
20200514,9118,2778,6080,260,174,157,13,4
20200515,9268,2922,6080,266,150,144,0,6
20200516,9449,3100,6080,269,181,178,0,3
20200517,9606,3250,6081,275,157,150,1,6
20200518,9726,3366,6081,279,120,116,0,4
20200519,9867,3392,6194,281,141,26,113,2
20200520,9977,3496,6194,287,110,104,0,6
20200521,10116,3580,6245,291,139,84,51,4
20200522,10267,3697,6275,295,151,117,30,4
20200523,10577,3999,6279,299,310,302,4,4
20200524,10926,4341,6279,306,349,342,0,7
20200525,11183,4594,6279,310,257,253,0,4
20200526,11447,4755,6379,313,264,161,100,3
20200527,11728,4034,7379,315,281,-721,1000,2
20200528,12131,4432,7379,320,403,398,0,5
20200529,12531,4665,7540,326,400,233,161,6
20200530,13018,3274,9414,330,487,-1391,1874,4
20200531,13463,3613,9514,336,445,339,100,6
20200601,13837,3979,9514,344,374,366,0,8
20200602,14095,4229,9514,352,258,250,0,8
20200603,14609,4733,9519,357,514,504,5,5
20200604,15044,5062,9619,363,435,329,100,6
20200605,15463,5374,9719,370,419,312,100,7
20200606,16004,5500,10118,386,541,126,399,16
20200607,16425,5814,10218,393,421,314,100,7
20200608,16854,6055,10401,398,429,241,183,5
20200609,17233,6269,10561,403,379,214,160,5
20200610,17889,6499,10977,413,656,230,416,10
20200611,18586,7191,10977,418,697,692,0,5
20200612,19211,5031,13759,421,625,-2160,2782,3
20200613,20059,5871,13759,429,848,840,0,8
20200614,21418,7215,13766,437,1359,1344,7,8
20200615,21422,7208,13766,448,4,-7,0,11
20200616,21962,7731,13774,457,540,523,8,9
20200617,22597,8353,13774,470,635,622,0,13
20200618,23351,9094,13782,475,754,741,8,5
20200619,24274,9430,14359,485,923,336,577,10
20200620,25222,10370,14359,493,948,940,0,8
20200621,26030,11170,14359,501,808,800,0,8
20200622,26752,11567,14664,521,722,397,305,20
20200623,27314,12084,14694,536,562,517,30,15
20200624,28030,12689,14794,547,716,605,100,11
20200625,29037,13673,14800,564,1007,984,6,17
20200626,29905,14060,15270,575,868,387,470,11
20200627,30658,14696,15370,592,753,636,100,17
20200628,31686,15612,15470,604,1028,916,100,12
20200629,32785,16570,15595,620,1099,958,125,16
20200630,33550,17174,15745,631,765,604,150,11
20200701,34463,17873,15945,645,913,699,200,14
20200702,35237,18125,16445,667,774,252,500,22
20200703,35995,18352,16945,698,758,227,500,31
20200704,36983,18502,17761,720,988,150,816,22
20200705,38149,19416,17986,747,1166,914,225,27
20200706,39334,20528,18036,770,1185,1112,50,23
20200707,40291,20766,18726,799,957,238,690,29
20200708,41251,20963,19469,819,960,197,743,20
20200709,42216,20940,20437,839,965,-23,968,20
20200710,43257,20968,21426,863,1041,28,989,24
20200711,44332,21269,22170,893,1075,301,744,30
20200712,45633,21685,23039,909,1301,416,869,16
20200713,47173,22322,23919,932,1540,637,880,23
20200714,48096,22469,24667,960,923,147,748,28
20200715,49243,22844,25417,982,1147,375,750,22
20200716,50373,23531,25842,1000,1130,687,425,18
20200717,51408,23850,26520,1038,1035,319,678,38
20200718,52261,23696,27494,1071,853,-154,974,33
20200719,53468,23890,28482,1096,1207,194,988,25
20200720,54426,24135,29164,1127,958,245,682,31
20200721,55153,23919,30075,1159,727,-216,911,32
20200722,55906,23604,31122,1180,753,-315,1047,21
20200723,56817,23780,31828,1209,911,176,706,29
20200724,57993,24039,32704,1250,1176,259,876,41
20200725,58864,24161,33428,1275,871,122,724,25
20200726,60296,24871,34131,1294,1432,710,703,19
20200727,61442,25034,35086,1322,1146,163,955,28
20200728,62223,24693,36181,1349,781,-341,1095,27
20200729,63269,24579,37316,1374,1046,-114,1135,25
20200730,64191,24576,38218,1397,922,-3,902,23
20200731,65256,24669,39166,1421,1065,93,948,24
20200801,66383,24853,40081,1449,1127,184,915,28
20200802,67453,24944,41038,1471,1070,91,957,22
20200803,68456,24866,42093,1497,1003,-78,1055,26
20200804,69424,24572,43330,1522,968,-294,1237,25
20200805,70231,23886,44792,1553,807,-686,1462,31
20200806,71418,24186,45658,1574,1187,300,866,21
20200807,72560,24294,46675,1591,1142,108,1017,17
20200808,73651,24558,47484,1609,1091,264,809,18
20200809,74492,24105,48748,1639,841,-453,1264,30
20200810,75394,24220,49510,1664,902,115,762,25
20200811,76464,24119,50665,1680,1070,-101,1155,16
20200812,77377,24077,51597,1703,913,-42,932,23
20200813,78446,24514,52210,1722,1069,437,613,19
20200814,79402,24782,52886,1734,956,268,676,12
20200815,80665,25062,53857,1746,1263,280,971,12
20200816,81940,25172,55001,1767,1275,110,1144,21
20200817,82543,24910,55845,1788,603,-262,844,21
20200818,82790,23790,57191,1809,247,-1120,1346,21
20200819,83754,23653,58274,1827,964,-137,1083,18
20200820,83855,22837,59174,1844,101,-816,900,17
20200821,84392,22811,59722,1859,537,-26,548,15
20200822,85480,23074,60528,1878,1088,263,806,19
20200823,86900,23588,61420,1892,1420,514,892,14
20200824,87485,23394,62185,1906,585,-194,765,14
20200825,88381,23703,62759,1919,896,309,574,13
20200826,89082,23555,63595,1932,701,-148,836,13
20200827,89982,24038,63996,1948,900,483,401,16
20200828,90624,24056,64602,1966,642,18,606,18
20200829,91337,24235,65119,1983,713,179,517,17
20200830,92065,24323,65747,1995,728,88,628,12
20200831,92982,24807,66173,2002,917,484,426,7
20200901,93552,24560,66974,2018,570,-247,801,16
20200902,94084,24567,67487,2030,532,7,513,12
20200903,94914,24670,68198,2046,830,103,711,16
20200904,95596,24791,68742,2063,682,121,544,17
20200905,96305,25007,69223,2075,709,216,481,12
20200906,97043,25296,69661,2086,738,289,438,11
20200907,97578,25232,70247,2099,535,-64,586,13
20200908,98407,25549,70751,2107,829,317,504,8
20200909,99042,25507,71419,2116,635,-42,668,9
20200910,99715,25385,72203,2127,673,-122,784,11
20200911,100330,25332,72858,2140,615,-53,655,13
20200912,101041,25410,73476,2155,711,78,618,15
20200913,101745,25472,74107,2166,704,62,631,11
20200914,102204,25249,74782,2173,459,-223,675,7
20200915,102832,25053,75592,2187,628,-196,810,14
20200916,103466,24481,76787,2198,634,-572,1195,11
20200917,104138,24044,77881,2213,672,-437,1094,15
20200918,104879,23557,79093,2229,741,-487,1212,16
20200919,105601,23164,80190,2247,722,-393,1097,18
20200920,106203,22581,81365,2257,602,-583,1175,10
20200921,106810,22218,82320,2272,607,-363,955,15
20200922,107284,21681,83318,2285,474,-537,998,13
20200923,107990,21262,84437,2291,706,-419,1119,6
20200924,108726,20935,85494,2297,736,-327,1057,6
20200925,109431,20962,86158,2311,705,27,664,14
20200926,110108,20989,86796,2323,677,27,638,12
20200927,110555,21000,87215,2340,447,11,419,17
20200928,111277,21234,87695,2348,722,234,480,8
20200929,111853,21287,88202,2364,576,53,507,16
20200930,112595,21162,89061,2372,742,-125,859,8
20201001,113342,21052,89903,2387,747,-110,842,15
20201002,113962,20784,90772,2406,620,-268,869,19
20201003,114653,21044,91195,2414,691,260,423,8
20201004,115286,21054,91809,2423,633,10,614,9
20201005,115919,21066,92423,2430,633,12,614,7
20201006,116602,21212,92950,2440,683,146,527,10
20201007,117300,21242,93610,2448,698,30,660,8
20201008,118054,21200,94391,2463,754,-42,781,15
20201009,118841,21405,94962,2474,787,205,571,11
20201010,119666,21632,95552,2482,825,227,590,8
20201011,120313,21658,96164,2491,647,26,612,9
20201012,120802,21625,96675,2502,489,-33,511,11
20201013,121296,21488,97297,2511,494,-137,622,9
20201014,122128,21690,97919,2519,832,202,622,8
20201015,122883,21683,98671,2529,755,-7,752,10
20201016,123498,21666,99286,2546,615,-17,615,17
20201017,124107,21202,100348,2557,609,-464,1062,11
20201018,124745,21140,101041,2564,638,-62,693,7
20201019,125181,21062,101545,2574,436,-78,504,10
20201020,125739,21126,102028,2585,558,64,483,11
20201021,126435,21113,102725,2597,696,-13,697,12
20201022,127227,21217,103398,2612,792,104,673,15
20201023,127866,21259,103985,2622,639,42,587,10
20201024,128515,21325,104562,2628,649,66,577,6
20201025,129200,21336,105231,2633,685,11,669,5
20201026,129751,21403,105710,2638,551,67,479,5
20201027,130422,21332,106440,2650,671,-71,730,12
20201028,131247,21193,107391,2663,825,-139,951,13
20201029,132045,21025,108342,2678,798,-168,951,15
20201030,132867,20810,109369,2688,822,-215,1027,10
20201031,133598,20346,110552,2700,731,-464,1183,12
20201101,134336,19996,111634,2706,738,-350,1082,6
20201102,134915,19630,112565,2720,579,-366,931,14
20201103,135592,19482,113379,2731,677,-148,814,11
20201104,136024,19073,114207,2744,432,-409,828,13
20201105,136567,18733,115078,2756,543,-340,871,12
20201106,137760,19000,115990,2770,1193,267,912,14
20201107,138506,18902,116823,2781,746,-98,833,11
20201108,139527,18959,117770,2798,1021,57,947,17
20201109,140331,18812,118711,2808,804,-147,941,10
20201110,141302,18778,119707,2817,971,-34,996,9
20201111,142465,18819,120823,2823,1163,41,1116,6
20201112,143352,18452,122070,2830,887,-367,1247,7
20201113,144477,18392,123229,2856,1125,-60,1159,26
20201114,145309,18171,124271,2867,832,-221,1042,11
20201115,146653,18410,125370,2873,1344,239,1099,6
20201116,147667,18040,126746,2881,1014,-370,1376,8
20201117,148721,17586,128242,2893,1054,-454,1496,12
20201118,149833,17171,129755,2907,1112,-415,1513,14
20201119,151089,16852,131315,2922,1256,-319,1560,15
20201120,152289,16609,132748,2932,1200,-243,1433,10
20201121,153577,16271,134360,2946,1288,-338,1612,14
20201122,154783,15864,135962,2957,1206,-407,1602,11
20201123,155658,15681,137004,2973,875,-183,1042,16
20201124,156930,15937,138007,2986,1272,256,1003,13
20201125,158532,16174,139356,3002,1602,237,1349,16
20201126,160287,16293,140976,3018,1755,119,1620,16
20201127,161744,16668,142046,3030,1457,375,1070,12
20201128,163453,17542,142872,3039,1709,874,826,9
20201129,164729,18053,143616,3060,1276,511,744,21
20201130,165806,18265,144462,3079,1077,212,846,19
20201201,167311,18695,145518,3098,1505,430,1056,19
20201202,169339,19649,146576,3114,2028,954,1058,16
20201203,171219,19682,148396,3141,1880,33,1820,27
20201204,173607,20402,150051,3154,2388,720,1655,13
20201205,175907,21487,151247,3173,2300,1085,1196,19
20201206,177719,21636,152890,3193,1812,149,1643,20
20201207,179230,21688,154330,3212,1511,52,1440,19
20201208,181166,22055,155870,3241,1936,367,1540,29
20201209,182977,22843,156870,3264,1811,788,1000,23
20201210,185424,24249,157888,3287,2447,1406,1018,23
20201211,187779,25400,159070,3309,2355,1151,1182,22
20201212,190585,26613,160641,3331,2806,1213,1571,22
20201213,193007,27546,162105,3356,2422,933,1464,25
20201214,194619,27903,163334,3382,1612,357,1229,26
20201215,196987,28721,164855,3411,2368,818,1521,29
20201216,199947,29908,166600,3439,2960,1187,1745,28
20201217,203295,31576,168238,3481,3348,1668,1638,42
20201218,206310,32636,170170,3504,3015,1060,1932,23
20201219,209584,34312,171745,3527,3274,1676,1575,23
20201220,212339,35265,173508,3566,2755,953,1763,39
20201221,214038,35490,174951,3597,1699,225,1443,31
20201222,217202,37142,176428,3632,3164,1652,1477,35
20201223,220261,38457,178140,3664,3059,1315,1712,32
20201224,223674,39914,180045,3715,3413,1457,1905,51
20201225,226660,41155,181749,3756,2986,1241,1704,41
20201226,228724,41403,183522,3799,2064,248,1773,43
20201227,231357,41551,185966,3840,2633,148,2444,41
20201228,233705,42261,187552,3892,2348,710,1586,52
20201229,238279,44582,189764,3933,4574,2321,2212,41
20201230,242744,46168,192601,3975,4465,1586,2837,42
20201231,246790,47630,195138,4022,4046,1462,2537,47
20210101,249733,47741,197928,4064,2943,111,2790,42
20210102,251764,47967,199694,4103,2031,226,1766,39
20210103,253736,47780,201816,4140,1972,-187,2122,37
20210104,256230,48345,203688,4197,2494,565,1872,57
20210105,259770,49445,206087,4238,3540,1100,2399,41
20210106,264956,52053,208620,4283,5186,2608,2533,45
20210107,269091,52114,212656,4321,4135,61,4036,38
20210108,273037,53313,215361,4363,3946,1199,2705,42
20210109,276772,54822,217544,4406,3735,1509,2183,43
20210110,279196,55597,219144,4455,2424,775,1600,49
20210111,281353,56020,220833,4500,2157,423,1689,45
20210112,285093,56897,223635,4561,3740,877,2802,61
20210113,288408,56673,227141,4594,3315,-224,3506,33
20210114,291285,55932,230702,4651,2877,-741,3561,57
20210115,293592,54608,234295,4689,2307,-1324,3593,38
20210116,296269,54577,236954,4738,2677,-31,2659,49
20210117,298019,54233,238999,4787,1750,-344,2045,49
20210118,299361,53405,241128,4828,1342,-828,2129,41
20210119,301534,53513,243157,4864,2173,108,2029,36
20210120,303777,52413,246452,4912,2243,-1100,3295,48
20210121,305752,50593,250215,4944,1975,-1820,3763,32
20210122,307793,49310,253503,4980,2041,-1283,3288,36
20210123,309851,48220,256597,5034,2058,-1090,3094,54
20210124,311244,47086,259095,5063,1393,-1134,2498,29
20210125,312158,45769,261291,5098,914,-1317,2196,35
20210126,313834,45202,263495,5137,1676,-567,2204,39
20210127,315400,43690,266534,5176,1566,-1512,3039,39
20210128,316808,41975,269637,5196,1408,-1715,3103,20
20210129,318253,40852,272180,5221,1445,-1123,2543,25
20210130,319453,39403,274806,5244,1200,-1449,2626,23
20210131,320379,38692,276417,5270,926,-711,1611,26
20210201,321103,37365,278442,5296,724,-1327,2025,26
20210202,322201,36035,280827,5339,1098,-1330,2385,43
20210203,323382,34718,283298,5366,1181,-1317,2471,27
20210204,324489,33608,285490,5391,1107,-1110,2192,25
20210205,325487,32215,287846,5426,998,-1393,2356,35
20210206,326464,30885,290124,5455,977,-1330,2278,29
20210207,327091,29309,292302,5480,627,-1576,2178,25
20210208,327654,27738,294410,5506,563,-1571,2108,26
20210209,328476,25295,297650,5531,822,-2443,3240,25
20210210,329367,23207,300610,5550,891,-2088,2960,19
20210211,330075,20893,303610,5572,708,-2314,3000,22
20210212,330985,18756,306634,5595,910,-2137,3024,23
20210213,331692,16775,309296,5621,707,-1981,2662,26
20210214,332179,14760,311783,5636,487,-2015,2487,15
20210215,332679,13254,313783,5642,500,-1506,2000,6
20210216,333251,12799,314797,5655,572,-455,1014,13
20210217,333755,12035,316048,5672,504,-764,1251,17
20210218,334463,11337,317432,5694,708,-698,1384,22
20210219,335339,10833,318795,5711,876,-504,1363,17
20210220,336037,10489,319821,5727,698,-344,1026,16
20210221,336521,10111,320668,5742,484,-378,847,15
20210222,337087,9892,321439,5756,566,-219,771,14
20210223,337805,9795,322238,5772,718,-97,799,16
20210224,338701,9629,323283,5789,896,-166,1045,17
20210225,339383,9417,324156,5810,682,-212,873,21
20210226,339781,9125,324836,5820,398,-292,680,10
20210227,340445,9123,325491,5831,664,-2,655,11
20210228,340915,8857,326213,5845,470,-266,722,14
20210301,341420,8245,327317,5858,505,-612,1104,13
20210302,342019,8048,328100,5871,599,-197,783,13
20210303,342741,7912,328945,5884,722,-136,845,13
20210304,343281,7677,329709,5895,540,-235,764,11
20210305,343743,7362,330474,5907,462,-315,765,12
20210306,344477,7334,331233,5910,734,-28,759,3
20210307,344834,7149,331762,5923,357,-185,529,13
20210308,345236,7083,332219,5934,402,-66,457,11
20210309,345759,6810,333005,5944,523,-273,786,10
20210310,346301,6669,333675,5957,542,-141,670,13
20210311,346775,6547,334256,5972,474,-122,581,15
20210312,347226,6450,334795,5981,451,-97,539,9
20210313,347641,6252,335402,5987,415,-198,607,6
20210314,347919,6075,335850,5994,278,-177,448,7
20210315,348155,5873,336277,6005,236,-202,427,11
20210316,348580,5561,337010,6009,425,-312,733,4
20210317,349020,5372,337630,6018,440,-189,620,9
20210318,349505,5299,338181,6025,485,-73,551,7
20210319,350220,5440,338745,6035,715,141,564,10
20210320,350665,5384,339239,6042,445,-56,494,7
20210321,350991,5382,339565,6044,326,-2,326,2
20210322,351213,5200,339961,6052,222,-182,396,8
20210323,351667,5114,340493,6060,454,-86,532,8
20210324,352082,5043,340974,6065,415,-71,481,5
20210325,352579,5030,341476,6073,497,-13,502,8
20210326,353017,5030,341900,6087,438,0,424,14
20210327,353497,5028,342379,6090,480,-2,479,3
20210328,353839,4965,342774,6100,342,-63,395,10
20210329,354085,4925,343057,6103,246,-40,283,3
20210330,354604,4994,343501,6109,519,69,444,6
20210331,355051,5033,343904,6114,447,39,403,5
20210401,355499,5053,344327,6119,448,20,423,5
20210402,355850,5023,344701,6126,351,-30,374,7
20210403,356073,4822,345120,6131,223,-201,419,5
20210404,356377,4749,345493,6135,304,-73,373,4
20210405,356556,4699,345719,6138,179,-50,226,3
20210406,356913,4614,346153,6146,357,-85,434,8
20210407,357277,4518,346611,6148,364,-96,458,2
20210408,357704,4492,347060,6152,427,-26,449,4
20210409,358098,4459,347483,6156,394,-33,423,4
20210410,358377,4320,347898,6159,279,-139,415,3
20210411,358611,4217,348231,6163,234,-103,333,4
20210412,358792,4071,348554,6167,181,-146,323,4
20210413,359121,3995,348953,6173,329,-76,399,6
20210414,359516,4021,349318,6177,395,26,365,4
20210415,359830,3929,349718,6183,314,-92,400,6
20210416,360249,3930,350134,6185,419,1,416,2
20210417,360597,4063,350347,6187,348,133,213,2
20210418,360841,4043,350610,6188,244,-20,263,1
20210419,361044,4020,350835,6189,203,-23,225,1
20210420,361319,3899,351228,6192,275,-121,393,3
20210421,361678,3900,351582,6196,359,1,354,4
20210422,361992,3845,351949,6198,314,-55,367,2
20210423,362358,3903,352255,6200,366,58,306,2
20210424,362696,3966,352523,6207,338,63,268,7
20210425,362967,3925,352833,6209,271,-41,310,2
20210426,363165,3906,353047,6212,198,-19,214,3
20210427,363533,3814,353503,6216,368,-92,456,4
20210428,363895,3899,353774,6222,362,85,271,6
20210429,364218,3897,354094,6227,323,-2,320,5
20210430,364576,3959,354385,6232,358,62,291,5
20210501,364844,3896,354713,6235,268,-63,328,3
20210502,365104,3892,354974,6238,260,-4,261,3
20210503,365299,3868,355187,6244,195,-24,213,6
20210504,365619,3872,355499,6248,320,4,312,4
20210505,365975,3895,355828,6252,356,23,329,4
20210506,366364,3965,356144,6255,389,70,316,3
20210507,366762,3984,356520,6258,398,19,376,3
20210508,367270,4153,356852,6265,508,169,332,7
20210509,367656,4284,357101,6271,386,131,249,6
20210510,367908,4278,357353,6277,252,-6,252,6
20210511,368368,4372,357714,6282,460,94,361,5
20210512,368930,4601,358044,6285,562,229,330,3
20210513,369455,4809,358358,6288,525,208,314,3
20210514,370043,5081,358670,6292,588,272,312,4
20210515,370533,5299,358938,6296,490,218,268,4
20210516,370877,5367,359214,6296,344,68,276,0
20210517,371145,5367,359481,6297,268,0,267,1
20210518,371684,5536,359848,6300,539,169,367,3
20210519,372221,5662,360254,6305,537,126,406,5
20210520,372800,5821,360665,6314,579,159,411,9
20210521,373308,5876,361111,6321,508,55,446,7
20210522,373774,5914,361532,6328,466,38,421,7
20210523,374121,5887,361903,6331,347,-27,371,3
20210524,374356,5833,362177,6346,235,-54,274,15
20210525,374937,5819,362765,6353,581,-14,588,7
20210526,375600,5961,363282,6357,663,142,517,4
20210527,376237,6058,363818,6361,637,97,536,4
20210528,376854,6192,364297,6365,617,134,479,4
20210529,377428,6276,364783,6369,574,84,486,4
20210530,377776,6281,365125,6370,348,5,342,1
20210531,378097,6327,365399,6371,321,46,274,1
20210601,378828,6412,366039,6377,731,85,640,6
20210602,379506,6617,366508,6381,678,205,469,4
20210603,380207,6812,367007,6388,701,195,499,7
20210604,381122,7184,367549,6389,915,372,542,1
20210605,381949,7563,367991,6395,827,379,442,6
20210606,382475,7708,368365,6402,526,145,374,7
20210607,382851,7794,368653,6404,376,86,288,2
20210608,383733,8052,369273,6408,882,258,620,4
20210609,384512,8242,369857,6413,779,190,584,5
20210610,385353,8449,370485,6419,841,207,628,6
20210611,386269,8827,371015,6427,916,378,530,8
20210612,387127,9091,371597,6439,858,264,582,12
20210613,387842,9414,371984,6444,715,323,387,5
20210614,388325,9533,372341,6451,483,119,357,7
20210615,389173,9651,373070,6452,848,118,729,1
20210616,390221,9868,373896,6457,1048,217,826,5
20210617,391190,10029,374703,6458,969,161,807,1
20210618,392166,10214,375487,6465,976,185,784,7
20210619,393144,10461,376215,6468,978,247,728,3
20210620,393727,10491,376761,6475,583,30,546,7
20210621,394241,10521,377243,6477,514,30,482,2
20210622,395449,10857,378109,6483,1208,336,866,6
20210623,396526,11081,378954,6491,1077,224,845,8
20210624,397727,11369,379858,6500,1201,288,904,9
20210625,398820,11653,380662,6505,1093,284,804,5
20210626,399877,11814,381549,6514,1057,161,887,9
20210627,400666,11988,382154,6524,789,174,605,10
20210628,401332,12132,382671,6529,666,144,517,5
20210629,402581,12389,383656,6536,1249,257,985,7
20210630,403778,12530,384703,6545,1197,141,1047,9
20210701,404983,12760,385671,6552,1205,230,968,7
20210702,406013,12832,386621,6560,1030,72,950,8
20210703,407330,13146,387617,6567,1317,314,996,7
20210704,408123,13256,388293,6574,793,110,676,7
20210705,408728,12711,389434,6583,605,-545,1141,9
20210706,410004,13501,389912,6591,1276,790,478,8
20210707,411226,13540,391087,6599,1222,39,1175,8
20210708,412466,13600,392262,6604,1240,60,1175,5
20210709,413626,13635,393377,6614,1160,35,1115,10
20210710,414647,13555,394465,6627,1021,-80,1088,13
20210711,415480,13539,395309,6632,833,-16,844,5
20210712,416232,13637,395949,6646,752,98,640,14
20210713,417087,13281,397152,6654,855,-356,1203,8
20210714,418604,13643,398300,6661,1517,362,1148,7
20210715,419829,13684,399471,6674,1225,41,1171,13
20210716,420916,13636,400592,6688,1087,-48,1121,14
20210717,421957,13502,401758,6697,1041,-134,1166,9
20210718,422678,13424,402551,6703,721,-78,793,6
20210719,423366,13448,403208,6710,688,24,657,7
20210720,424455,13133,404606,6716,1089,-315,1398,6
20210721,425599,13065,405811,6723,1144,-68,1205,7
20210722,426849,13064,407055,6730,1250,-1,1244,7
20210723,427987,13064,408155,6743,1138,0,1100,13
20210724,429083,13117,409216,6750,1096,53,1061,7
20210725,429949,13195,409995,6759,866,78,779,9
20210726,430444,12998,410678,6768,495,-197,683,9
20210727,431554,12828,411945,6781,1110,-170,1267,13
20210728,432523,12738,412994,6791,969,-90,1049,10
20210729,433545,12629,414118,6798,1022,-109,1124,7
20210730,434460,12387,415265,6808,915,-242,1147,10
20210731,435655,12569,416263,6823,1195,182,998,15
20210801,436475,12505,417137,6833,820,-64,874,10
20210802,436812,12260,417710,6842,337,-245,573,9
20210803,437744,11958,418935,6851,932,-302,1225,9
20210804,438781,11808,420113,6860,1037,-150,1178,9
20210805,439599,0,0,6875,818,-11808,-420113,15
20210806,439599,0,0,6875,0,0,0,0
20210807,441316,0,0,6894,1717,0,0,19
20210808,442295,0,0,6906,979,0,0,12
20210809,442818,0,0,6912,523,0,0,6
20210810,443718,0,0,6918,900,0,0,6
20210811,444695,0,0,6924,977,0,0,6
20210812,445651,0,0,6932,956,0,0,8
20210813,446409,0,0,6939,758,0,0,7
20210814,447261,0,0,6947,852,0,0,8
20210815,447824,0,0,6951,563,0,0,4
20210816,448268,0,0,6962,444,0,0,11
20210817,448924,0,0,6970,656,0,0,8
20210818,449762,0,0,6981,838,0,0,11
20210819,450624,0,0,6990,862,0,0,9
20210820,451293,0,0,6998,669,0,0,8
20210821,451984,0,0,7003,691,0,0,5
20210822,452598,0,0,7009,614,0,0,6
20210823,452986,0,0,7015,388,0,0,6
20210824,453466,0,0,7018,480,0,0,3
20210825,454330,0,0,7023,864,0,0,5
20210826,454878,0,0,7031,548,0,0,8
20210827,455527,0,0,7039,649,0,0,8
20210828,456203,0,0,7043,676,0,0,4
20210829,456666,0,0,7046,463,0,0,3
20210830,457037,0,0,7054,371,0,0,8
20210831,457487,0,0,7061,450,0,0,7
20210901,458157,0,0,7066,670,0,0,5
20210902,458638,0,0,7069,481,0,0,3
20210903,459077,0,0,7073,439,0,0,4
20210904,459519,0,0,7081,442,0,0,8
