date,infected,active,recovered,dead,deltaInfected,deltaActive,deltaRecovered,deltaDead
20200320,1,1,0,0,1,1,0,0
20200321,1,1,0,0,0,0,0,0
20200322,1,1,0,0,0,0,0,0
20200323,1,1,0,0,0,0,0,0
20200324,1,1,0,0,0,0,0,0
20200325,1,1,0,0,0,0,0,0
20200326,1,1,0,0,0,0,0,0
20200327,1,1,0,0,0,0,0,0
20200328,1,1,0,0,0,0,0,0
20200329,1,1,0,0,0,0,0,0
20200330,1,1,0,0,0,0,0,0
20200331,1,1,0,0,0,0,0,0
20200401,1,1,0,0,0,0,0,0
20200402,1,1,0,0,0,0,0,0
20200403,1,1,0,0,0,0,0,0
20200404,1,1,0,0,0,0,0,0
20200405,1,1,0,0,0,0,0,0
20200406,2,2,0,0,1,1,0,0
20200407,2,2,0,0,0,0,0,0
20200408,2,2,0,0,0,0,0,0
20200409,2,2,0,0,0,0,0,0
20200410,2,2,0,0,0,0,0,0
20200411,2,2,0,0,0,0,0,0
20200412,2,2,0,0,0,0,0,0
20200413,2,2,0,0,0,0,0,0
20200414,2,2,0,0,0,0,0,0
20200415,2,2,0,0,0,0,0,0
20200416,7,7,0,0,5,5,0,0
20200417,7,7,0,0,0,0,0,0
20200418,7,7,0,0,0,0,0,0
20200419,7,7,0,0,0,0,0,0
20200420,7,7,0,0,0,0,0,0
20200421,7,7,0,0,0,0,0,0
20200422,8,8,0,0,1,1,0,0
20200423,8,8,0,0,0,0,0,0
20200424,8,8,0,0,0,0,0,0
20200425,8,8,0,0,0,0,0,0
20200426,8,8,0,0,0,0,0,0
20200427,8,8,0,0,0,0,0,0
20200428,8,8,0,0,0,0,0,0
20200429,8,8,0,0,0,0,0,0
20200430,8,8,0,0,0,0,0,0
20200501,8,8,0,0,0,0,0,0
20200502,8,8,0,0,0,0,0,0
20200503,8,8,0,0,0,0,0,0
20200504,8,0,8,0,0,-8,8,0
20200505,8,0,8,0,0,0,0,0
20200506,8,0,8,0,0,0,0,0
20200507,8,0,8,0,0,0,0,0
20200508,8,0,8,0,0,0,0,0
20200509,8,0,8,0,0,0,0,0
20200510,8,0,8,0,0,0,0,0
20200511,8,0,8,0,0,0,0,0
20200512,8,0,8,0,0,0,0,0
20200513,8,0,8,0,0,0,0,0
20200514,8,0,8,0,0,0,0,0
20200515,8,0,8,0,0,0,0,0
20200516,8,0,8,0,0,0,0,0
20200517,8,0,8,0,0,0,0,0
20200518,8,0,8,0,0,0,0,0
20200519,8,0,8,0,0,0,0,0
20200520,8,0,8,0,0,0,0,0
20200521,8,0,8,0,0,0,0,0
20200522,8,0,8,0,0,0,0,0
20200523,8,0,8,0,0,0,0,0
20200524,8,0,8,0,0,0,0,0
20200525,8,0,8,0,0,0,0,0
20200526,8,0,8,0,0,0,0,0
20200527,8,0,8,0,0,0,0,0
20200528,8,0,8,0,0,0,0,0
20200529,8,0,8,0,0,0,0,0
20200530,8,0,8,0,0,0,0,0
20200531,8,0,8,0,0,0,0,0
20200601,8,0,8,0,0,0,0,0
20200602,8,0,8,0,0,0,0,0
20200603,8,0,8,0,0,0,0,0
20200604,8,0,8,0,0,0,0,0
20200605,8,0,8,0,0,0,0,0
20200606,8,0,8,0,0,0,0,0
20200607,8,0,8,0,0,0,0,0
20200608,8,0,8,0,0,0,0,0
20200609,8,0,8,0,0,0,0,0
20200610,8,0,8,0,0,0,0,0
20200611,8,0,8,0,0,0,0,0
20200612,8,0,8,0,0,0,0,0
20200613,8,0,8,0,0,0,0,0
20200614,8,0,8,0,0,0,0,0
20200615,8,0,8,0,0,0,0,0
20200616,8,0,8,0,0,0,0,0
20200617,8,0,8,0,0,0,0,0
20200618,8,0,8,0,0,0,0,0
20200619,8,0,8,0,0,0,0,0
20200620,8,0,8,0,0,0,0,0
20200621,8,0,8,0,0,0,0,0
20200622,9,1,8,0,1,1,0,0
20200623,9,1,8,0,0,0,0,0
20200624,10,2,8,0,1,1,0,0
20200625,10,2,8,0,0,0,0,0
20200626,11,3,8,0,1,1,0,0
20200627,11,3,8,0,0,0,0,0
20200628,11,3,8,0,0,0,0,0
20200629,11,3,8,0,0,0,0,0
20200630,11,3,8,0,0,0,0,0
20200701,11,3,8,0,0,0,0,0
20200702,11,3,8,0,0,0,0,0
20200703,11,3,8,0,0,0,0,0
20200704,11,3,8,0,0,0,0,0
20200705,11,3,8,0,0,0,0,0
20200706,11,3,8,0,0,0,0,0
20200707,11,3,8,0,0,0,0,0
20200708,11,3,8,0,0,0,0,0
20200709,11,3,8,0,0,0,0,0
20200710,11,3,8,0,0,0,0,0
20200711,11,3,8,0,0,0,0,0
20200712,11,3,8,0,0,0,0,0
20200713,11,3,8,0,0,0,0,0
20200714,11,3,8,0,0,0,0,0
20200715,11,3,8,0,0,0,0,0
20200716,11,3,8,0,0,0,0,0
20200717,15,7,8,0,4,4,0,0
20200718,16,8,8,0,1,1,0,0
20200719,16,8,8,0,0,0,0,0
20200720,19,10,8,1,3,2,0,1
20200721,27,18,8,1,8,8,0,0
20200722,30,22,8,0,3,4,0,-1
20200723,31,20,11,0,1,-2,3,0
20200724,32,21,11,0,1,1,0,0
20200725,39,28,11,0,7,7,0,0
20200726,62,51,11,0,23,23,0,0
20200727,62,51,11,0,0,0,0,0
20200728,63,52,11,0,1,1,0,0
20200729,63,51,11,1,0,-1,0,1
20200730,63,50,11,2,0,-1,0,1
20200731,72,59,11,2,9,9,0,0
20200801,91,55,34,2,19,-4,23,0
20200802,110,74,34,2,19,19,0,0
20200803,111,75,34,2,1,1,0,0
20200804,114,78,34,2,3,3,0,0
20200805,153,107,44,2,39,29,10,0
20200806,163,107,53,3,10,0,9,1
20200807,188,132,53,3,25,25,0,0
20200808,188,132,53,3,0,0,0,0
20200809,214,158,53,3,26,26,0,0
20200810,214,158,53,3,0,0,0,0
20200811,214,140,71,3,0,-18,18,0
20200812,287,206,78,3,73,66,7,0
20200813,271,190,78,3,-16,-16,0,0
20200814,271,190,78,3,0,0,0,0
20200815,271,190,78,3,0,0,0,0
20200816,323,210,110,3,52,20,32,0
20200817,333,220,110,3,10,10,0,0
20200818,347,234,110,3,14,14,0,0
20200819,347,234,110,3,0,0,0,0
20200820,361,159,198,4,14,-75,88,1
20200821,361,159,198,4,0,0,0,0
20200822,361,159,198,4,0,0,0,0
20200823,401,165,232,4,40,6,34,0
20200824,401,165,232,4,0,0,0,0
20200825,419,183,232,4,18,18,0,0
20200826,419,183,232,4,0,0,0,0
20200827,424,188,232,4,5,5,0,0
20200828,453,216,232,5,29,28,0,1
20200829,453,216,232,5,0,0,0,0
20200830,459,222,232,5,6,6,0,0
20200831,459,222,232,5,0,0,0,0
20200901,460,223,232,5,1,1,0,0
20200902,471,234,232,5,11,11,0,0
20200903,471,234,232,5,0,0,0,0
20200904,479,242,232,5,8,8,0,0
20200905,488,251,232,5,9,9,0,0
20200906,497,260,232,5,9,9,0,0
20200907,497,260,232,5,0,0,0,0
20200908,503,266,232,5,6,6,0,0
20200909,504,267,232,5,1,1,0,0
20200910,507,270,232,5,3,3,0,0
20200911,508,271,232,5,1,1,0,0
20200912,508,271,232,5,0,0,0,0
20200913,510,272,232,6,2,1,0,1
20200914,511,273,232,6,1,1,0,0
20200915,511,273,232,6,0,0,0,0
20200916,516,278,232,6,5,5,0,0
20200917,516,278,232,6,0,0,0,0
20200918,516,278,232,6,0,0,0,0
20200919,516,278,232,6,0,0,0,0
20200920,517,278,232,7,1,0,0,1
20200921,517,278,232,7,0,0,0,0
20200922,527,288,232,7,10,10,0,0
20200923,527,288,232,7,0,0,0,0
20200924,531,8,516,7,4,-280,284,0
20200925,532,9,516,7,1,1,0,0
20200926,532,9,516,7,0,0,0,0
20200927,532,9,516,7,0,0,0,0
20200928,532,9,516,7,0,0,0,0
20200929,534,11,516,7,2,2,0,0
20200930,534,11,516,7,0,0,0,0
20201001,539,13,519,7,5,2,3,0
20201002,539,13,519,7,0,0,0,0
20201003,540,6,527,7,1,-7,8,0
20201004,540,6,527,7,0,0,0,0
20201005,540,6,527,7,0,0,0,0
20201006,541,7,527,7,1,1,0,0
20201007,541,7,527,7,0,0,0,0
20201008,549,10,532,7,8,3,5,0
20201009,549,10,532,7,0,0,0,0
20201010,549,10,532,7,0,0,0,0
20201011,554,15,532,7,5,5,0,0
20201012,565,21,537,7,11,6,5,0
20201013,565,21,537,7,0,0,0,0
20201014,578,34,537,7,13,13,0,0
20201015,578,34,537,7,0,0,0,0
20201016,578,34,537,7,0,0,0,0
20201017,581,34,540,7,3,0,3,0
20201018,581,34,540,7,0,0,0,0
20201019,581,33,541,7,0,-1,1,0
20201020,581,33,541,7,0,0,0,0
20201021,581,33,541,7,0,0,0,0
20201022,583,31,545,7,2,-2,4,0
20201023,583,31,545,7,0,0,0,0
20201024,583,31,545,7,0,0,0,0
20201025,583,31,545,7,0,0,0,0
20201026,588,35,546,7,5,4,1,0
20201027,588,35,546,7,0,0,0,0
20201028,588,35,546,7,0,0,0,0
20201029,589,7,575,7,1,-28,29,0
20201030,589,7,575,7,0,0,0,0
20201031,589,7,575,7,0,0,0,0
20201101,589,7,575,7,0,0,0,0
20201102,590,8,575,7,1,1,0,0
20201103,597,10,580,7,7,2,5,0
20201104,597,10,580,7,0,0,0,0
20201105,597,10,580,7,0,0,0,0
20201106,597,10,580,7,0,0,0,0
20201107,597,10,580,7,0,0,0,0
20201108,599,7,585,7,2,-3,5,0
20201109,599,7,585,7,0,0,0,0
20201110,599,6,586,7,0,-1,1,0
20201111,599,6,586,7,0,0,0,0
20201112,599,6,586,7,0,0,0,0
20201113,600,7,586,7,1,1,0,0
20201114,600,7,586,7,0,0,0,0
20201115,602,9,586,7,2,2,0,0
20201116,602,9,586,7,0,0,0,0
20201117,602,9,586,7,0,0,0,0
20201118,604,11,586,7,2,2,0,0
20201119,604,11,586,7,0,0,0,0
20201120,604,11,586,7,0,0,0,0
20201121,604,11,586,7,0,0,0,0
20201122,604,11,586,7,0,0,0,0
20201123,630,35,588,7,26,24,2,0
20201124,630,35,588,7,0,0,0,0
20201125,645,50,588,7,15,15,0,0
20201126,645,50,588,7,0,0,0,0
20201127,645,50,588,7,0,0,0,0
20201128,645,50,588,7,0,0,0,0
20201129,645,50,588,7,0,0,0,0
20201130,656,52,597,7,11,2,9,0
20201201,669,65,597,7,13,13,0,0
20201202,669,65,597,7,0,0,0,0
20201203,671,67,597,7,2,2,0,0
20201204,671,67,597,7,0,0,0,0
20201205,671,67,597,7,0,0,0,0
20201206,671,67,597,7,0,0,0,0
20201207,671,67,597,7,0,0,0,0
20201208,684,76,601,7,13,9,4,0
20201209,684,76,601,7,0,0,0,0
20201210,684,76,601,7,0,0,0,0
20201211,720,111,601,8,36,35,0,1
20201212,720,111,601,8,0,0,0,0
20201213,725,116,601,8,5,5,0,0
20201214,725,116,601,8,0,0,0,0
20201215,729,120,601,8,4,4,0,0
20201216,729,120,601,8,0,0,0,0
20201217,760,151,601,8,31,31,0,0
20201218,760,151,601,8,0,0,0,0
20201219,760,151,601,8,0,0,0,0
20201220,760,151,601,8,0,0,0,0
20201221,761,151,601,9,1,0,0,1
20201222,761,151,601,9,0,0,0,0
20201223,761,151,601,9,0,0,0,0
20201224,780,110,661,9,19,-41,60,0
20201225,780,110,661,9,0,0,0,0
20201226,780,110,661,9,0,0,0,0
20201227,780,110,661,9,0,0,0,0
20201228,780,110,661,9,0,0,0,0
20201229,780,110,661,9,0,0,0,0
20201230,780,110,661,9,0,0,0,0
20201231,780,110,661,9,0,0,0,0
20210101,780,110,661,9,0,0,0,0
20210102,780,110,661,9,0,0,0,0
20210103,799,35,755,9,19,-75,94,0
20210104,799,35,755,9,0,0,0,0
20210105,799,35,755,9,0,0,0,0
20210106,799,35,755,9,0,0,0,0
20210107,799,35,755,9,0,0,0,0
20210108,811,47,755,9,12,12,0,0
20210109,811,47,755,9,0,0,0,0
20210110,811,47,755,9,0,0,0,0
20210111,819,55,755,9,8,8,0,0
20210112,823,59,755,9,4,4,0,0
20210113,833,69,755,9,10,10,0,0
20210114,834,70,755,9,1,1,0,0
20210115,834,70,755,9,0,0,0,0
20210116,834,70,755,9,0,0,0,0
20210117,834,70,755,9,0,0,0,0
20210118,834,70,755,9,0,0,0,0
20210119,834,70,755,9,0,0,0,0
20210120,835,36,790,9,1,-34,35,0
20210121,835,36,790,9,0,0,0,0
20210122,835,36,790,9,0,0,0,0
20210123,835,36,790,9,0,0,0,0
20210124,835,36,790,9,0,0,0,0
20210125,835,36,790,9,0,0,0,0
20210126,850,29,812,9,15,-7,22,0
20210127,851,30,812,9,1,1,0,0
20210128,851,30,812,9,0,0,0,0
20210129,851,30,812,9,0,0,0,0
20210130,851,30,812,9,0,0,0,0
20210131,851,30,812,9,0,0,0,0
20210201,867,30,828,9,16,0,16,0
20210202,867,30,828,9,0,0,0,0
20210203,867,30,828,9,0,0,0,0
20210204,867,30,828,9,0,0,0,0
20210205,891,54,828,9,24,24,0,0
20210206,891,54,828,9,0,0,0,0
20210207,895,40,846,9,4,-14,18,0
20210208,900,45,846,9,5,5,0,0
20210209,900,45,846,9,0,0,0,0
20210210,900,45,846,9,0,0,0,0
20210211,914,59,846,9,14,14,0,0
20210212,914,59,846,9,0,0,0,0
20210213,914,59,846,9,0,0,0,0
20210214,914,59,846,9,0,0,0,0
20210215,914,59,846,9,0,0,0,0
20210216,955,99,846,10,41,40,0,1
20210217,955,99,846,10,0,0,0,0
20210218,955,99,846,10,0,0,0,0
20210219,955,99,846,10,0,0,0,0
20210220,970,114,846,10,15,15,0,0
20210221,970,114,846,10,0,0,0,0
20210222,1056,200,846,10,86,86,0,0
20210223,1111,255,846,10,55,55,0,0
20210224,1139,282,846,11,28,27,0,1
20210225,1228,370,846,12,89,88,0,1
20210226,1228,370,846,12,0,0,0,0
20210227,1275,417,846,12,47,47,0,0
20210228,1275,417,846,12,0,0,0,0
20210301,1365,505,846,14,90,88,0,2
20210302,1365,505,846,14,0,0,0,0
20210303,1365,505,846,14,0,0,0,0
20210304,1365,505,846,14,0,0,0,0
20210305,1492,630,846,16,127,125,0,2
20210306,1492,630,846,16,0,0,0,0
20210307,1583,721,846,16,91,91,0,0
20210308,1670,808,846,16,87,87,0,0
20210309,1741,879,846,16,71,71,0,0
20210310,1741,874,846,16,0,-5,0,0
20210311,1819,952,846,21,78,78,0,5
20210312,1819,952,846,21,0,0,0,0
20210313,1819,952,846,21,0,0,0,0
20210314,2173,1306,846,21,354,354,0,0
20210315,2269,1397,846,26,96,91,0,5
20210316,2351,1479,846,26,82,82,0,0
20210317,2351,1479,846,26,0,0,0,0
20210318,2479,1602,846,31,128,123,0,5
20210319,2658,1776,846,36,179,174,0,5
20210320,3085,2203,846,36,427,427,0,0
20210321,3085,2203,846,36,0,0,0,0
20210322,3359,2477,846,36,274,274,0,0
20210323,3758,2875,846,37,399,398,0,1
20210324,4109,3224,846,39,351,349,0,2
20210325,4109,3224,846,39,0,0,0,0
20210326,4660,3775,846,39,551,551,0,0
20210327,4660,4293,846,39,0,518,0,0
20210328,5184,4293,846,45,524,0,0,6
20210329,5349,4454,846,49,165,161,0,4
20210330,5620,4718,846,56,271,264,0,7
20210331,5991,5085,846,60,371,367,0,4
20210401,6112,5206,846,60,121,121,0,0
20210402,6475,5569,846,60,363,363,0,0
20210403,6619,5713,846,60,144,144,0,0
20210404,7038,6131,846,61,419,418,0,1
20210405,7406,6493,846,67,368,362,0,6
20210406,7406,6493,846,67,0,0,0,0
20210407,7634,6720,846,68,228,227,0,1
20210408,7839,6925,846,68,205,205,0,0
20210409,7839,6925,846,68,0,0,0,0
20210410,8342,7428,846,68,503,503,0,0
20210411,8442,7528,846,68,100,100,0,0
20210412,8602,7687,846,69,160,159,0,1
20210413,8821,7906,846,69,219,219,0,0
20210414,8984,8067,846,71,163,161,0,2
20210415,9188,8260,846,82,204,193,0,11
20210416,9343,8415,846,82,155,155,0,0
20210417,9343,8415,846,82,0,0,0,0
20210418,9738,8803,846,89,395,388,0,7
20210419,9952,9015,846,91,214,212,0,2
20210420,9952,2497,846,91,0,-6518,0,0
20210421,9952,2875,846,91,0,378,0,0
20210422,10338,2875,7364,99,386,0,6518,8
20210423,10338,2875,7364,99,0,0,0,0
20210424,10602,2199,8301,102,264,-676,937,3
20210425,10670,2199,8369,102,68,0,68,0
20210426,10835,2169,8561,105,165,-30,192,3
20210427,10835,2169,8561,105,0,0,0,0
20210428,10915,2035,8773,107,80,-134,212,2
20210429,10997,1947,8943,107,82,-88,170,0
20210430,10997,1947,8943,107,0,0,0,0
20210501,11119,1702,9302,115,122,-245,359,8
20210502,11206,1616,9475,115,87,-86,173,0
20210503,11262,1449,9698,115,56,-167,223,0
20210504,11273,1379,9773,121,11,-70,75,6
20210505,11273,1379,9773,121,0,0,0,0
20210506,11630,1197,10312,121,357,-182,539,0
20210507,11630,1197,10312,121,0,0,0,0
20210508,11630,1197,10312,121,0,0,0,0
20210509,11630,1197,10312,121,0,0,0,0
20210510,12086,1366,10599,121,456,169,287,0
20210511,12493,1530,10833,130,407,164,234,9
20210512,12997,1952,10915,130,504,422,82,0
20210513,13242,2114,10995,133,245,162,80,3
20210514,13707,2537,11034,136,465,423,39,3
20210515,13707,2537,11034,136,0,0,0,0
20210516,13707,2537,11034,136,0,0,0,0
20210517,13707,2537,11034,136,0,0,0,0
20210518,14206,2734,11336,136,499,197,302,0
20210519,14639,890,13608,141,433,-1844,2272,5
20210520,14910,955,13801,154,271,65,193,13
20210521,14910,955,13801,154,0,0,0,0
20210522,14910,955,13801,154,0,0,0,0
20210523,14910,955,13801,154,0,0,0,0
20210524,15187,923,14108,156,277,-32,307,2
20210525,15222,883,14183,156,35,-40,75,0
20210526,15368,1019,14190,159,146,136,7,3
20210527,15415,910,14343,162,47,-109,153,3
20210528,15772,753,14857,162,357,-157,514,0
20210529,15772,753,14857,162,0,0,0,0
20210530,15848,749,14937,162,76,-4,80,0
20210531,15910,681,15067,162,62,-68,130,0
20210601,15910,681,15067,162,0,0,0,0
20210602,15910,681,15067,162,0,0,0,0
20210603,16185,615,15408,162,275,-66,341,0
20210604,16185,615,15408,162,0,0,0,0
20210605,16258,549,15545,164,73,-66,137,2
20210606,16327,522,15641,164,69,-27,96,0
20210607,16374,551,15659,164,47,29,18,0
20210608,16398,523,15711,164,24,-28,52,0
20210609,16580,539,15877,164,182,16,166,0
20210610,16621,515,15942,164,41,-24,65,0
20210611,16621,515,15942,164,0,0,0,0
20210612,16661,480,16017,164,40,-35,75,0
20210613,16682,500,16017,165,21,20,0,1
20210614,16682,500,16017,165,0,0,0,0
20210615,16682,500,16017,165,0,0,0,0
20210616,16791,494,16132,165,109,-6,115,0
20210617,16799,500,16132,167,8,6,0,2
20210618,16799,500,16132,167,0,0,0,0
20210619,16933,451,16309,173,134,-49,177,6
20210620,16933,451,16309,173,0,0,0,0
20210621,17013,444,16396,173,80,-7,87,0
20210622,17013,444,16396,173,0,0,0,0
20210623,17079,426,16480,173,66,-18,84,0
20210624,17079,426,16480,173,0,0,0,0
20210625,17079,426,16480,173,0,0,0,0
20210626,17098,407,16518,173,19,-19,38,0
20210627,17098,407,16518,173,0,0,0,0
20210628,17098,407,16518,173,0,0,0,0
20210629,17098,407,16518,173,0,0,0,0
20210630,17098,407,16518,173,0,0,0,0
20210701,17098,407,16518,173,0,0,0,0
20210702,17098,407,16518,173,0,0,0,0
20210703,17098,407,16518,173,0,0,0,0
20210704,17098,407,16518,173,0,0,0,0
20210705,17098,407,16518,173,0,0,0,0
20210706,17098,407,16518,173,0,0,0,0
20210707,17292,597,16518,177,194,190,0,4
20210708,17292,597,16518,177,0,0,0,0
20210709,17292,597,16518,177,0,0,0,0
20210710,17292,597,16518,177,0,0,0,0
20210711,17340,186,16975,179,48,-411,457,2
20210712,17340,186,16975,179,0,0,0,0
20210713,17340,186,16975,179,0,0,0,0
20210714,17340,186,16975,179,0,0,0,0
20210715,17340,186,16975,179,0,0,0,0
20210716,17340,186,16975,179,0,0,0,0
20210717,17340,186,16975,179,0,0,0,0
20210718,17340,186,16975,179,0,0,0,0
20210719,17467,134,17146,187,127,-52,171,8
20210720,17515,171,17153,191,48,37,7,4
20210721,17524,159,17173,192,9,-12,20,1
20210722,17581,212,17177,192,57,53,4,0
20210723,17581,212,17177,192,0,0,0,0
20210724,17637,223,17222,192,56,11,45,0
20210725,17637,223,17222,192,0,0,0,0
20210726,17637,223,17222,192,0,0,0,0
20210727,17655,206,17257,192,18,-17,35,0
20210728,17670,217,17261,192,15,11,4,0
20210729,17673,207,17274,192,3,-10,13,0
20210730,17673,207,17274,192,0,0,0,0
20210731,17717,201,17324,192,44,-6,50,0
20210801,17717,201,17324,192,0,0,0,0
20210802,17774,198,17384,192,57,-3,60,0
20210803,17774,198,17384,192,0,0,0,0
20210804,17774,198,17384,192,0,0,0,0
20210805,17774,0,0,192,0,-198,-17384,0
20210806,17774,0,0,192,0,0,0,0
20210807,17774,0,0,192,0,0,0,0
20210808,17774,0,0,192,0,0,0,0
20210809,17774,0,0,192,0,0,0,0
20210810,17774,0,0,192,0,0,0,0
20210811,17780,0,0,192,6,0,0,0
20210812,17806,0,0,192,26,0,0,0
20210813,17806,0,0,192,0,0,0,0
20210814,17806,0,0,192,0,0,0,0
20210815,17806,0,0,192,0,0,0,0
20210816,17812,0,0,192,6,0,0,0
20210817,17812,0,0,192,0,0,0,0
20210818,17832,0,0,192,20,0,0,0
20210819,17832,0,0,192,0,0,0,0
20210820,17832,0,0,192,0,0,0,0
20210821,17832,0,0,192,0,0,0,0
20210822,17832,0,0,192,0,0,0,0
20210823,17838,0,0,192,6,0,0,0
20210824,17838,0,0,192,0,0,0,0
20210825,17838,0,0,192,0,0,0,0
20210826,17838,0,0,192,0,0,0,0
20210827,17838,0,0,192,0,0,0,0
20210828,17838,0,0,192,0,0,0,0
20210829,17838,0,0,192,0,0,0,0
20210830,17838,0,0,192,0,0,0,0
20210831,17838,0,0,192,0,0,0,0
20210901,17926,0,0,192,88,0,0,0
20210902,17926,0,0,192,0,0,0,0
20210903,17926,0,0,192,0,0,0,0
20210904,17926,0,0,192,0,0,0,0
