date,infected,active,recovered,dead,deltaInfected,deltaActive,deltaRecovered,deltaDead
20200226,2,2,0,0,2,2,0,0
20200227,2,2,0,0,0,0,0,0
20200228,2,2,0,0,0,0,0,0
20200229,4,4,0,0,2,2,0,0
20200301,4,4,0,0,0,0,0,0
20200302,4,4,0,0,0,0,0,0
20200303,5,5,0,0,1,1,0,0
20200304,5,5,0,0,0,0,0,0
20200305,5,5,0,0,0,0,0,0
20200306,6,6,0,0,1,1,0,0
20200307,6,6,0,0,0,0,0,0
20200308,6,5,1,0,0,-1,1,0
20200309,6,5,1,0,0,0,0,0
20200310,16,15,1,0,10,10,0,0
20200311,19,17,2,0,3,2,1,0
20200312,20,18,2,0,1,1,0,0
20200313,28,26,2,0,8,8,0,0
20200314,31,29,2,0,3,3,0,0
20200315,53,51,2,0,22,22,0,0
20200316,136,134,2,0,83,83,0,0
20200317,236,234,2,0,100,100,0,0
20200318,299,297,2,0,63,63,0,0
20200319,454,439,13,2,155,142,11,2
20200320,501,485,13,3,47,46,0,1
20200321,730,714,13,3,229,229,0,0
20200322,776,759,13,4,46,45,0,1
20200323,875,856,13,6,99,97,0,2
20200324,972,947,18,7,97,91,5,1
20200325,1063,1034,21,8,91,87,3,1
20200326,1201,1171,21,9,138,137,0,1
20200327,1373,1339,23,11,172,168,2,2
20200328,1495,1454,29,12,122,115,6,1
20200329,1597,1554,29,14,102,100,0,2
20200330,1717,1620,76,21,120,66,47,7
20200331,1938,1836,76,26,221,216,0,5
20200401,2118,1997,94,27,180,161,18,1
20200402,2421,2262,125,34,303,265,31,7
20200403,2686,2520,126,40,265,258,1,6
20200404,2818,2646,131,41,132,126,5,1
20200405,3157,2899,211,47,339,253,80,6
20200406,3766,3454,259,53,609,555,48,6
20200407,4035,3549,429,57,269,95,170,4
20200408,4263,3735,467,61,228,186,38,4
20200409,4489,3852,572,65,226,117,105,4
20200410,4695,3902,727,66,206,50,155,1
20200411,5011,4163,762,86,316,261,35,20
20200412,5230,4111,1028,91,219,-52,266,5
20200413,5496,4308,1095,93,266,197,67,2
20200414,5837,4363,1378,96,341,55,283,3
20200415,6383,4826,1446,111,546,463,68,15
20200416,6919,5146,1645,128,536,320,199,17
20200417,7025,5125,1765,135,106,-21,120,7
20200418,7638,5663,1832,143,613,538,67,8
20200419,8348,6312,1868,168,710,649,36,25
20200420,8418,6272,1970,176,70,-40,102,8
20200421,9565,7291,2073,201,1147,1019,103,25
20200422,10076,7708,2156,212,511,417,83,11
20200423,11155,8391,2527,237,1079,683,371,25
20200424,11940,8932,2755,253,785,541,228,16
20200425,12723,9588,2866,269,783,656,111,16
20200426,13328,10111,2936,281,605,523,70,12
20200427,13915,10594,3029,292,587,483,93,11
20200428,14612,11067,3233,312,697,473,204,20
20200429,15525,11757,3425,343,913,690,192,31
20200430,16817,12117,4315,385,1292,360,890,42
20200501,18114,12982,4715,417,1297,865,400,32
20200502,19103,13846,4817,440,989,864,102,23
20200503,20084,14513,5114,457,981,667,297,17
20200504,20941,14830,5635,476,857,317,521,19
20200505,22049,15734,5801,514,1108,904,166,38
20200506,24073,17045,6464,564,2024,1311,663,50
20200507,24644,17595,6464,585,571,550,0,21
20200508,26435,18306,7530,599,1791,711,1066,14
20200509,28736,20291,7809,636,2301,1985,279,37
20200510,30334,21612,8063,659,1598,1321,254,23
20200511,32081,22820,8555,706,1747,1208,492,47
20200512,34336,24787,8812,737,2255,1967,257,31
20200513,35298,25638,8899,761,962,851,87,24
20200514,35788,25323,9695,770,490,-315,796,9
20200515,38799,27085,10880,834,3011,1762,1185,64
20200516,38799,27085,10880,834,0,0,0,0
20200517,40151,27937,11341,873,1352,852,461,39
20200518,42125,29300,11922,903,1974,1363,581,30
20200519,43966,30538,12489,939,1841,1238,567,36
20200520,45898,31812,13101,985,1932,1274,612,46
20200521,48091,32919,14155,1017,2193,1107,1054,32
20200522,50694,34426,15201,1067,2603,1507,1046,50
20200523,52437,34683,16653,1101,1743,257,1452,34
20200524,54601,36270,17198,1133,2164,1587,545,32
20200525,56349,37700,17482,1167,1748,1430,284,34
20200526,57705,38194,18314,1197,1356,494,832,30
20200527,59151,38784,19142,1225,1446,590,828,28
20200528,61227,39736,20231,1260,2076,952,1089,35
20200529,64028,40406,22305,1317,2801,670,2074,57
20200530,66457,40931,24131,1395,2429,525,1826,78
20200531,69496,42742,25271,1483,3039,1811,1140,88
20200601,72460,44834,26083,1543,2964,2092,812,60
20200602,76398,47667,27110,1621,3938,2833,1027,78
20200603,80463,49852,28923,1688,4065,2185,1813,67
20200604,85264,53366,30128,1770,4801,3514,1205,82
20200605,89249,56213,31198,1838,3985,2847,1070,68
20200606,93983,59467,32581,1935,4734,3254,1383,97
20200607,98943,63476,33465,2002,4960,4009,884,67
20200608,108317,71127,35018,2172,9374,7651,1553,170
20200609,113702,75139,36308,2255,5385,4012,1290,83
20200610,113702,75139,36308,2255,0,0,0,0
20200611,125933,83223,40247,2463,12231,8084,3939,208
20200612,125933,83223,40247,2463,0,0,0,0
20200613,132405,79798,50056,2551,6472,-3425,9809,88
20200614,144478,88028,53721,2729,12073,8230,3665,178
20200615,148921,89692,56390,2839,4443,1664,2669,110
20200616,154760,93348,58437,2975,5839,3656,2047,136
20200617,160118,97810,59215,3093,5358,4462,778,118
20200618,165062,100450,61383,3229,4944,2640,2168,136
20200619,171666,104780,63504,3382,6604,4330,2121,153
20200620,176617,105224,67892,3501,4951,444,4388,119
20200621,181088,106040,71458,3590,4471,816,3566,89
20200622,185034,107868,73471,3695,3946,1828,2013,105
20200623,188926,107417,77754,3755,3892,-451,4283,60
20200624,192970,107760,81307,3903,4044,343,3553,148
20200625,195745,107615,84168,3962,2775,-145,2861,59
20200626,198883,107942,86906,4035,3138,327,2738,73
20200627,202955,106213,92624,4118,4072,-1729,5718,83
20200628,206512,106938,95407,4167,3557,725,2783,49
20200629,209337,106530,98503,4304,2825,-408,3096,137
20200630,213470,108273,100802,4395,4133,1743,2299,91
20200701,217809,108642,104694,4473,4339,369,3892,78
20200702,221896,103722,113623,4551,4087,-4920,8929,78
20200703,221896,103722,113623,4551,0,0,0,0
20200704,225283,95570,125094,4619,3387,-8152,11471,68
20200705,231818,95407,131649,4762,6535,-163,6555,143
20200706,234509,94713,134957,4839,2691,-694,3308,77
20200707,237489,91602,140965,4922,2980,-3111,6008,83
20200708,240848,90554,145311,4983,3359,-1048,4346,61
20200709,243599,89449,149092,5058,2751,-1105,3781,75
20200710,246351,88094,153134,5123,2752,-1355,4042,65
20200711,248872,86975,156700,5197,2521,-1119,3566,74
20200712,251625,84442,161917,5266,2753,-2533,5217,69
20200713,253604,77628,170656,5320,1979,-6814,8739,54
20200714,255769,77573,172810,5386,2165,-55,2154,66
20200715,257914,73751,178737,5426,2145,-3822,5927,40
20200716,257914,73751,178737,5426,0,0,0,0
20200717,261917,57886,198509,5522,4003,-15865,19772,96
20200718,263496,53652,204276,5568,1579,-4234,5767,46
20200719,265083,53555,205929,5599,1587,-97,1653,31
20200720,266096,52427,208030,5639,1013,-1128,2101,40
20200721,267428,51283,210468,5677,1332,-1144,2438,38
20200722,269191,50307,213175,5709,1763,-976,2707,32
20200723,270400,44854,219783,5763,1209,-5453,6608,54
20200724,271887,29504,236596,5787,1487,-15350,16813,24
20200725,273113,29857,237434,5822,1226,353,838,35
20200726,273113,29857,237434,5822,0,0,0,0
20200727,274289,27421,241026,5842,1176,-2436,3592,20
20200728,275225,26924,242436,5865,936,-497,1410,23
20200729,276288,25513,244883,5892,1063,-1411,2447,27
20200730,277402,25347,246131,5924,1114,-166,1248,32
20200731,278305,25177,247177,5951,903,-170,1046,27
20200801,278305,25177,247177,5951,0,0,0,0
20200802,279699,25146,248577,5976,1394,-31,1400,25
20200803,280461,25065,249397,5999,762,-81,820,23
20200804,280461,25065,249397,5999,0,0,0,0
20200805,281136,20836,254286,6014,675,-4229,4889,15
20200806,281863,19770,256058,6035,727,-1066,1772,21
20200807,282645,18494,258099,6052,782,-1276,2041,17
20200808,283487,17815,259604,6068,842,-679,1505,16
20200809,284121,17791,260248,6082,634,-24,644,14
20200810,284660,17799,260764,6097,539,8,516,15
20200811,285191,17833,261246,6112,531,34,482,15
20200812,286674,16475,264060,6139,1483,-1358,2814,27
20200813,286674,16475,264060,6139,0,0,0,0
20200814,287300,15932,265215,6153,626,-543,1155,14
20200815,288047,16261,265624,6162,747,329,409,9
20200816,289215,13953,269087,6175,1168,-2308,3463,13
20200817,289215,13953,269087,6175,0,0,0,0
20200818,289832,13653,269989,6190,617,-300,902,15
20200819,290445,12116,272128,6201,613,-1537,2139,11
20200820,290958,11945,272804,6209,513,-171,676,8
20200821,291588,11790,273579,6219,630,-155,775,10
20200822,292174,10626,275317,6231,586,-1164,1738,12
20200823,293261,10188,276829,6244,1087,-438,1512,13
20200824,293261,10188,276829,6244,0,0,0,0
20200825,293711,9031,278425,6255,450,-1157,1596,11
20200826,294193,8987,278939,6267,482,-44,514,12
20200827,294638,8803,279561,6274,445,-184,622,7
20200828,295053,8833,279937,6283,415,30,376,9
20200829,295372,8748,280340,6284,319,-85,403,1
20200830,295636,8801,280547,6288,264,53,207,4
20200831,295849,8873,280682,6294,213,72,135,6
20200901,296149,8881,280970,6298,300,8,288,4
20200902,297014,8761,281925,6328,865,-120,955,30
20200903,297512,8909,282268,6335,498,148,343,7
20200904,298025,9132,282553,6340,513,223,285,5
20200905,298025,9132,282553,6340,0,0,0,0
20200906,298903,6542,286016,6345,878,-2590,3463,5
20200907,299233,6726,286157,6350,330,184,141,5
20200908,299659,6794,286506,6359,426,68,349,9
20200909,300030,5634,287658,6365,371,-1160,1152,6
20200910,300371,5795,288206,6370,341,161,548,5
20200911,300955,6046,288536,6373,584,251,330,3
20200912,301481,5673,289429,6379,526,-373,893,6
20200913,302020,5831,289806,6383,539,158,377,4
20200914,302424,5774,290261,6389,404,-57,455,6
20200915,303089,5936,290760,6393,665,162,499,4
20200916,303634,6066,291169,6399,545,130,409,6
20200917,304386,6295,291683,6408,752,229,514,9
20200918,305031,6572,292044,6415,645,277,361,7
20200919,305671,6952,292303,6416,640,380,259,1
20200920,306304,7015,292869,6420,633,63,566,4
20200921,306886,7303,293159,6424,582,288,290,4
20200922,307418,7070,293916,6432,532,-233,757,8
20200923,308217,7388,294392,6437,799,318,476,5
20200924,309015,7831,294740,6444,798,443,348,7
20200925,309581,7797,295333,6451,566,-34,593,7
20200926,310275,8205,295613,6457,694,408,280,6
20200927,310841,8353,296022,6466,566,148,409,9
20200928,311516,8702,296340,6474,675,349,318,8
20200929,312263,8903,296881,6479,747,201,541,5
20200930,312806,8825,297497,6484,543,-78,616,5
20201001,313431,8877,298055,6499,625,52,558,15
20201002,313984,8884,298593,6507,553,7,538,8
20201003,314616,9135,298968,6513,632,251,375,6
20201004,314616,9135,298968,6513,0,0,0,0
20201005,315727,8588,300616,6523,1111,-547,1648,10
20201006,316351,8528,301288,6535,624,-60,672,12
20201007,316934,8015,302375,6544,583,-513,1087,9
20201008,317595,8335,302708,6552,661,320,333,8
20201009,318266,8646,303062,6558,671,311,354,6
20201010,318932,8904,303458,6570,666,258,396,12
20201011,319317,8552,304185,6580,385,-352,727,10
20201012,319848,8651,304609,6588,531,99,424,8
20201013,320463,8782,305080,6601,615,131,471,13
20201014,321218,9209,305395,6614,755,427,315,13
20201015,321877,9421,305835,6621,659,212,440,7
20201016,322452,9174,306640,6638,575,-247,805,17
20201017,323019,9296,307069,6654,567,122,429,16
20201018,323452,9384,307409,6659,433,88,340,5
20201019,324034,9384,308010,6673,582,0,601,14
20201020,324744,9378,308674,6692,710,-6,664,19
20201021,325480,9642,309136,6702,736,264,462,10
20201022,326216,9855,309646,6715,736,213,510,13
20201023,327063,10235,310101,6727,847,380,455,12
20201024,327895,10668,310491,6736,832,433,390,9
20201025,328602,10788,311075,6739,707,120,584,3
20201026,329375,11190,311440,6745,773,402,365,6
20201027,330200,11627,311814,6759,825,437,374,14
20201028,331108,11695,312638,6775,908,68,824,16
20201029,332186,11864,313527,6795,1078,169,889,20
20201030,332993,12121,314066,6806,807,257,539,11
20201031,333970,12592,314555,6823,977,471,489,17
20201101,335093,13242,315016,6835,1123,650,461,12
20201102,336260,13965,315446,6849,1167,723,430,14
20201103,337573,14646,316060,6867,1313,681,614,18
20201104,338875,15317,316665,6893,1302,671,605,26
20201105,340251,16242,317086,6923,1376,925,421,30
20201106,341753,16912,317898,6943,1502,670,812,20
20201107,343189,17804,318417,6968,1436,892,519,25
20201108,344839,18981,318881,6977,1650,1177,464,9
20201109,346476,20045,319431,7000,1637,1064,550,23
20201110,348184,21098,320065,7021,1708,1053,634,21
20201111,349992,22088,320849,7055,1808,990,784,34
20201112,352296,23641,321563,7092,2304,1553,714,37
20201113,354461,24938,322414,7109,2165,1297,851,17
20201114,356904,26538,323225,7141,2443,1600,811,32
20201115,359032,28048,323824,7160,2128,1510,599,19
20201116,361082,29055,324834,7193,2050,1007,1010,33
20201117,363380,30362,325788,7230,2298,1307,954,37
20201118,365927,32005,326674,7248,2547,1643,886,18
20201119,368665,33562,327542,7561,2738,1557,868,313
20201120,371508,34974,328931,7603,2843,1412,1389,42
20201121,374173,36683,329828,7662,2665,1709,897,59
20201122,376929,38348,330885,7696,2756,1665,1057,34
20201123,379883,40379,331760,7744,2954,2031,875,48
20201124,382892,42115,332974,7803,3009,1736,1214,59
20201125,386198,43963,334392,7843,3306,1848,1418,40
20201126,389311,45533,335881,7897,3113,1570,1489,54
20201127,392356,46861,337553,7942,3045,1328,1672,45
20201128,395185,47390,339810,7985,2829,529,2257,43
20201129,398024,48576,341423,8025,2839,1186,1613,40
20201130,400482,49105,343286,8091,2458,529,1863,66
20201201,403311,49780,345365,8166,2829,675,2079,75
20201202,406810,51654,346951,8205,3499,1874,1586,39
20201203,410072,51507,350305,8260,3262,-147,3354,55
20201204,413191,52359,352529,8303,3119,852,2224,43
20201205,416499,53126,355012,8361,3308,767,2483,58
20201206,420294,55354,356542,8398,3795,2228,1530,37
20201207,423179,44218,370474,8487,2885,-11136,13932,89
20201208,426142,45324,372271,8547,2963,1106,1797,60
20201209,429280,46376,374301,8603,3138,1052,2030,56
20201210,432327,44582,379092,8653,3047,-1794,4791,50
20201211,435056,45124,381208,8724,2729,542,2116,71
20201212,438425,46629,383000,8796,3369,1505,1792,72
20201213,440787,47236,384719,8832,2362,607,1719,36
20201214,443246,48008,386333,8905,2459,772,1614,73
20201215,445977,48369,388598,9010,2731,361,2265,105
20201216,448522,42851,396591,9080,2545,-5518,7993,70
20201217,451494,42478,399852,9164,2972,-373,3261,84
20201218,454673,40922,404501,9250,3179,-1556,4649,86
20201219,457288,40553,407405,9330,2615,-369,2904,80
20201220,458968,40491,409085,9392,1680,-62,1680,62
20201221,460672,40261,410937,9474,1704,-230,1852,82
20201222,462814,37905,415352,9557,2142,-2356,4415,83
20201223,465070,38268,417134,9668,2256,363,1782,111
20201224,467222,38511,418958,9753,2152,243,1824,85
20201225,469482,39177,420489,9816,2260,666,1531,63
20201226,471335,39329,422132,9874,1853,152,1643,58
20201227,473309,39488,423892,9929,1974,159,1760,55
20201228,475085,39599,425494,9992,1776,111,1602,63
20201229,477240,37080,430113,10047,2155,-2519,4619,55
20201230,479715,34537,435073,10105,2475,-2543,4960,58
20201231,482178,34773,437229,10176,2463,236,2156,71
20210101,484362,35130,438974,10258,2184,357,1745,82
20210102,486634,35663,440660,10311,2272,533,1686,53
20210103,488529,35722,442457,10350,1895,59,1797,39
20210104,490476,35707,444360,10409,1947,-15,1903,59
20210105,492594,33740,448393,10461,2118,-1967,4033,52
20210106,495075,34049,450515,10511,2481,309,2122,50
20210107,497510,33124,453828,10558,2435,-925,3313,47
20210108,499517,33474,455445,10598,2007,350,1617,40
20210109,502416,34803,456969,10644,2899,1329,1524,46
20210110,504293,35246,458371,10676,1877,443,1402,32
20210111,506701,34007,461977,10717,2408,-1239,3606,41
20210112,508824,33102,464950,10772,2123,-905,2973,55
20210113,511921,33869,467234,10818,3097,767,2284,46
20210114,514338,34169,469306,10863,2417,300,2072,45
20210115,516770,33763,472099,10908,2432,-406,2793,45
20210116,519291,34701,473639,10951,2521,938,1540,43
20210117,521211,34986,475228,10997,1920,285,1589,46
20210118,523011,35485,476471,11055,1800,499,1243,58
20210119,524783,35163,478517,11103,1772,-322,2046,48
20210120,527146,35293,480696,11157,2363,130,2179,54
20210121,528891,34916,482771,11204,1745,-377,2075,47
20210122,530818,35063,484508,11247,1927,147,1737,43
20210123,532412,34628,486489,11295,1594,-435,1981,48
20210124,534041,33820,488903,11318,1629,-808,2414,23
20210125,535914,34412,490126,11376,1873,592,1223,58
20210126,537477,33820,492207,11450,1563,-592,2081,74
20210127,539387,33295,494578,11514,1910,-525,2371,64
20210128,541031,32726,496745,11560,1644,-569,2167,46
20210129,543214,33439,498152,11623,2183,713,1407,63
20210130,544813,33182,499974,11657,1599,-257,1822,34
20210131,546428,33493,501252,11683,1615,311,1278,26
20210201,547648,33365,502537,11746,1220,-128,1285,63
20210202,549032,33184,504046,11802,1384,-181,1509,56
20210203,550540,32889,505818,11833,1508,-295,1772,31
20210204,551842,32454,507502,11886,1302,-435,1684,53
20210205,553128,32514,508700,11914,1286,60,1198,28
20210206,554474,32265,510242,11967,1346,-249,1542,53
20210207,555511,31983,511502,12026,1037,-282,1260,59
20210208,556519,31510,512943,12066,1008,-473,1441,40
20210209,557591,30512,514951,12128,1072,-998,2008,62
20210210,559093,30225,516683,12185,1502,-287,1732,57
20210211,560363,29981,518164,12218,1270,-244,1481,33
20210212,561625,25649,523700,12276,1262,-4332,5536,58
20210213,563029,25635,525087,12307,1404,-14,1387,31
20210214,564077,25747,525997,12333,1048,112,910,26
20210215,564077,25747,525997,12333,0,0,0,0
20210216,565989,25008,528545,12436,1912,-739,2548,103
20210217,567261,24176,530597,12488,1272,-832,2052,52
20210218,568506,24139,531840,12527,1245,-37,1243,39
20210219,569846,24081,533202,12563,1340,-58,1362,36
20210220,571174,24466,534107,12601,1328,385,905,38
20210221,572334,24226,535491,12617,1160,-240,1384,16
20210222,573384,24483,536243,12658,1050,257,752,41
20210223,574580,23665,538207,12708,1196,-818,1964,50
20210224,575941,23281,539888,12772,1361,-384,1681,64
20210225,577482,22285,542393,12804,1541,-996,2505,32
20210226,578797,21554,544406,12837,1315,-731,2013,33
20210227,579973,21836,545277,12860,1176,282,871,23
20210228,581365,22098,546371,12896,1392,262,1094,36
20210301,582528,22184,547406,12938,1163,86,1035,42
20210302,583916,16648,554255,13013,1388,-5536,6849,75
20210303,585435,17117,555242,13076,1519,469,987,63
20210304,587014,17117,556769,13128,1579,0,1527,52
20210305,588728,17352,558210,13166,1714,235,1441,38
20210306,590508,18055,559248,13205,1780,703,1038,39
20210307,592100,18415,560458,13227,1592,360,1210,22
20210308,593453,16349,563823,13281,1353,-2066,3365,54
20210309,595239,16699,565216,13324,1786,350,1393,43
20210310,597497,17628,566492,13377,2258,929,1276,53
20210311,600198,18703,568065,13430,2701,1075,1573,53
20210312,602536,19764,569296,13476,2338,1061,1231,46
20210313,605200,21121,570571,13508,2664,1357,1275,32
20210314,607453,22038,571878,13537,2253,917,1307,29
20210315,609964,23355,573014,13595,2511,1317,1136,58
20210316,612315,22792,575867,13656,2351,-563,2853,61
20210317,615810,24592,577501,13717,3495,1800,1634,61
20210318,619259,27188,578314,13757,3449,2596,813,40
20210319,623135,29576,579760,13799,3876,2388,1446,42
20210320,626802,31107,581852,13843,3667,1531,2092,44
20210321,630471,33070,583538,13863,3669,1963,1686,20
20210322,633741,34535,585271,13935,3270,1465,1733,72
20210323,637042,36849,586228,13965,3301,2314,957,30
20210324,640988,37985,588975,14028,3946,1136,2747,63
20210325,645356,40120,591145,14091,4368,2135,2170,63
20210326,649824,42384,593282,14158,4468,2264,2137,67
20210327,654591,44447,595929,14215,4767,2063,2647,57
20210328,659116,46663,598197,14256,4525,2216,2268,41
20210329,663200,48566,600278,14356,4084,1903,2081,100
20210330,667957,50397,603126,14434,4757,1831,2848,78
20210331,672931,53127,605274,14530,4974,2730,2148,96
20210401,678165,56347,607205,14613,5234,3220,1931,83
20210402,682888,56347,609691,14697,4723,0,2486,84
20210403,687908,60072,613058,14778,5020,3725,3367,81
20210404,692231,61450,615960,14821,4323,1378,2902,43
20210405,696184,63102,618158,14924,3953,1652,2198,103
20210406,700188,64373,620789,15026,4004,1271,2631,102
20210407,705517,66994,623399,15124,5329,2621,2610,98
20210408,710829,69811,625789,15229,5312,2817,2390,105
20210409,715968,73078,627561,15329,5139,3267,1772,100
20210410,721018,73875,631700,15443,5050,797,4139,114
20210411,725602,75266,634835,15501,4584,1391,3135,58
20210412,729920,76034,638267,15619,4318,768,3432,118
20210413,734423,76757,641912,15754,4503,723,3645,135
20210414,739818,77294,646652,15872,5395,537,4740,118
20210415,745182,78425,650775,15982,5364,1131,4123,110
20210416,750158,79108,654956,16094,4976,683,4181,112
20210417,756285,80559,659483,16243,6127,1451,4527,149
20210418,761437,82276,662845,16316,5152,1717,3362,73
20210419,766882,83298,667131,16453,5445,1022,4286,137
20210420,772381,83162,672619,16600,5499,-136,5488,147
20210421,778238,84935,676605,16698,5857,1773,3986,98
20210422,784108,84976,682290,16842,5870,41,5685,144
20210423,790016,84976,686488,16999,5908,0,4198,157
20210424,795627,86529,689812,17117,5611,1553,3324,118
20210425,800452,89219,694046,17187,4825,2690,4234,70
20210426,804939,87794,699816,17329,4487,-1425,5770,142
20210427,810231,88207,704494,17530,5292,413,4678,201
20210428,815711,89838,708193,17680,5480,1631,3699,150
20210429,820823,91547,711465,17811,5112,1709,3272,131
20210430,825519,90553,717009,17957,4696,-994,5544,146
20210501,829933,89661,722202,18070,4414,-892,5193,113
20210502,834146,87953,728044,18149,4213,-1708,5842,79
20210503,837523,86151,733062,18310,3377,-1802,5018,161
20210504,837523,86151,733062,18310,0,0,0,0
20210505,841636,84480,738727,18429,4113,-1671,5665,119
20210506,850131,83699,747755,18677,8495,-781,9028,248
20210507,854240,82731,752712,18797,4109,-968,4957,120
20210508,858026,81830,757281,18915,3786,-901,4569,118
20210509,861473,81830,762105,18993,3447,0,4824,78
20210510,864557,78959,766492,19106,3084,-2871,4387,113
20210511,867438,76536,771692,19210,2881,-2423,5200,104
20210512,870703,75052,776315,19336,3265,-1484,4623,126
20210513,873220,73398,780438,19384,2517,-1654,4123,48
20210514,874751,71804,783480,19467,1531,-1594,3042,83
20210515,877130,68819,788768,19543,2379,-2985,5288,76
20210516,880362,68223,792522,19617,3232,-596,3754,74
20210517,882928,67665,795511,19752,2566,-558,2989,135
20210518,886184,66377,799951,19856,3256,-1288,4440,104
20210519,890391,66282,804122,19987,4207,-95,4171,131
20210520,893461,63229,810143,20089,3070,-3053,6021,102
20210521,897468,63436,813855,20177,4007,207,3712,88
20210522,900552,62620,817681,20251,3084,-816,3826,74
20210523,903599,62917,820374,20308,3047,297,2693,57
20210524,905852,62295,823157,20400,2253,-622,2783,92
20210525,908576,60268,827843,20465,2724,-2027,4686,65
20210526,911302,59018,831744,20540,2726,-1250,3901,75
20210527,913784,58611,834566,20607,2482,-407,2822,67
20210528,916239,58857,836702,20680,2455,246,2136,73
20210529,918936,58878,839322,20736,2697,21,2620,56
20210530,921053,59033,841241,20779,2117,155,1919,43
20210531,922824,57336,844638,20850,1771,-1697,3397,71
20210601,924667,55052,848685,20930,1843,-2284,4047,80
20210602,926695,53099,852574,21022,2028,-1953,3889,92
20210603,928588,51478,856005,21105,1893,-1621,3431,83
20210604,930511,48937,860385,21189,1923,-2541,4380,84
20210605,932140,47764,863111,21265,1629,-1173,2726,76
20210606,933630,47376,864931,21323,1490,-388,1820,58
20210607,935013,46190,867447,21376,1383,-1186,2516,53
20210608,936131,44987,869691,21453,1118,-1203,2244,77
20210609,937434,44236,871669,21529,1303,-751,1978,76
20210610,938737,43618,873543,21576,1303,-618,1874,47
20210611,939931,42717,875581,21633,1194,-901,2038,57
20210612,941170,42290,877191,21689,1239,-427,1610,56
20210613,942189,41726,878740,21723,1019,-564,1549,34
20210614,943027,40929,880316,21782,838,-797,1576,59
20210615,944065,39905,882332,21828,1038,-1024,2016,46
20210616,945184,36215,887095,21874,1119,-3690,4763,46
20210617,946227,35809,888505,21913,1043,-406,1410,39
20210618,947218,35491,889787,21940,991,-318,1282,27
20210619,947218,35491,889787,21940,0,0,0,0
20210620,949175,34020,893148,22007,1957,-1471,3361,67
20210621,949838,33452,894352,22034,663,-568,1204,27
20210622,950768,33005,895690,22073,930,-447,1338,39
20210623,951865,32936,896821,22108,1097,-69,1131,35
20210624,952907,32921,897834,22152,1042,-15,1013,44
20210625,953842,32710,898944,22188,935,-211,1110,36
20210626,954743,32241,900291,22211,901,-469,1347,23
20210627,955657,32225,901201,22231,914,-16,910,20
20210628,956392,32153,901985,22254,735,-72,784,23
20210629,957371,31606,903484,22281,979,-547,1499,27
20210630,958408,31767,904320,22321,1037,161,836,40
20210701,959685,31910,905430,22345,1277,143,1110,24
20210702,961085,32319,906387,22379,1400,409,957,34
20210703,962313,32621,907284,22408,1228,302,897,29
20210704,963660,33299,907934,22427,1347,678,650,19
20210705,964490,33390,908648,22452,830,91,714,25
20210706,966007,34013,909525,22469,1517,623,877,17
20210707,967633,34531,910609,22493,1626,518,1084,24
20210708,969476,35573,911383,22520,1843,1042,774,27
20210709,971304,36454,912295,22555,1828,881,912,35
20210710,973284,37499,913203,22582,1980,1045,908,27
20210711,975092,38622,913873,22597,1808,1123,670,15
20210712,976867,39644,914605,22618,1775,1022,732,21
20210713,978847,40862,915343,22642,1980,1218,738,24
20210714,981392,42330,916373,22689,2545,1468,1030,47
20210715,983719,43670,917329,22720,2327,1340,956,31
20210716,986668,45579,918329,22760,2949,1909,1000,40
20210717,989275,47331,919163,22781,2607,1752,834,21
20210718,991727,48850,920066,22811,2452,1519,903,30
20210719,993872,49929,921095,22848,2145,1079,1029,37
20210720,996451,51529,922034,22888,2579,1600,939,40
20210721,998609,52752,922929,22928,2158,1223,895,40
20210722,1000034,53623,923472,22939,1425,871,543,11
20210723,1000034,53623,923472,22939,0,0,0,0
20210724,1004694,55720,925958,23016,4660,2097,2486,77
20210725,1008446,57799,927599,23048,3752,2079,1641,32
20210726,1011708,59899,928722,23087,3262,2100,1123,39
20210727,1015827,56952,935742,23133,4119,-2947,7020,46
20210728,1020324,59761,937354,23209,4497,2809,1612,76
20210729,1024861,62723,938843,23295,4537,2962,1489,86
20210730,1029811,66287,940164,23360,4950,3564,1321,65
20210731,1034837,69756,941659,23422,5026,3469,1495,62
20210801,1039695,73213,943020,23462,4858,3457,1361,40
20210802,1043277,75373,944375,23529,3582,2160,1355,67
20210803,1047999,78595,945829,23575,4722,3222,1454,46
20210804,1053660,77409,952616,23635,5661,-1186,6787,60
20210805,1058405,0,0,23702,4745,-77409,-952616,67
20210806,1063125,0,0,23797,4720,0,0,95
20210807,1067580,0,0,23865,4455,0,0,68
20210808,1071620,0,0,23918,4040,0,0,53
20210809,1075504,0,0,24004,3884,0,0,86
20210810,1080360,0,0,24085,4856,0,0,81
20210811,1085294,0,0,24187,4934,0,0,102
20210812,1089913,0,0,24266,4619,0,0,79
20210813,1094699,0,0,24339,4786,0,0,73
20210814,1098410,0,0,24406,3711,0,0,67
20210815,1102079,0,0,24478,3669,0,0,72
20210816,1105300,0,0,24573,3221,0,0,95
20210817,1109274,0,0,24639,3974,0,0,66
20210818,1113647,0,0,24713,4373,0,0,74
20210819,1116886,0,0,24783,3239,0,0,70
20210820,1119970,0,0,24848,3084,0,0,65
20210821,1123812,0,0,24923,3842,0,0,75
20210822,1127584,0,0,25003,3772,0,0,80
20210823,1131659,0,0,25094,4075,0,0,91
20210824,1135858,0,0,25220,4199,0,0,126
20210825,1140411,0,0,25320,4553,0,0,100
20210826,1144341,0,0,25415,3930,0,0,95
20210827,1148572,0,0,25535,4231,0,0,120
20210828,1152481,0,0,25604,3909,0,0,69
20210829,1156281,0,0,25670,3800,0,0,66
20210830,1160119,0,0,25788,3838,0,0,118
20210831,1163688,0,0,25889,3569,0,0,101
20210901,1167757,0,0,25978,4069,0,0,89
20210902,1171578,0,0,26035,3821,0,0,57
20210903,1171578,0,0,26035,0,0,0,0
20210904,1179305,0,0,26175,7727,0,0,140
