date,infected,active,recovered,dead,deltaInfected,deltaActive,deltaRecovered,deltaDead
20200304,1,1,0,0,1,1,0,0
20200305,1,1,0,0,0,0,0,0
20200306,5,5,0,0,4,4,0,0
20200307,5,5,0,0,0,0,0,0
20200308,11,11,0,0,6,6,0,0
20200309,16,16,0,0,5,5,0,0
20200310,22,22,0,0,6,6,0,0
20200311,31,31,0,0,9,9,0,0
20200312,49,48,0,1,18,17,0,1
20200313,68,66,0,2,19,18,0,1
20200314,103,100,0,3,35,34,0,1
20200315,119,116,0,3,16,16,0,0
20200316,177,160,13,4,58,44,13,1
20200317,238,220,13,5,61,60,0,1
20200318,251,233,13,5,13,13,0,0
20200319,355,349,1,5,104,116,-12,0
20200320,425,419,1,5,70,70,0,0
20200321,536,530,1,5,111,111,0,0
20200322,634,614,13,7,98,84,12,2
20200323,749,728,13,8,115,114,0,1
20200324,901,890,1,10,152,162,-12,2
20200325,1051,1030,7,14,150,140,6,4
20200326,1221,1198,7,16,170,168,0,2
20200327,1389,1366,7,16,168,168,0,0
20200328,1638,1613,7,18,249,247,0,2
20200329,1862,1833,7,22,224,220,0,4
20200330,2055,2017,7,31,193,184,0,9
20200331,2311,2271,7,33,256,254,0,2
20200401,2554,2464,47,43,243,193,40,10
20200402,2946,2833,56,57,392,369,9,14
20200403,3383,3256,56,71,437,423,0,14
20200404,3627,3432,116,79,244,176,60,8
20200405,4102,3874,134,94,475,442,18,15
20200406,4413,4144,162,107,311,270,28,13
20200407,4848,4528,191,129,435,384,29,22
20200408,5205,4824,222,159,357,296,31,30
20200409,5575,5117,284,174,370,293,62,15
20200410,5955,5456,318,181,380,339,34,7
20200411,6356,5773,375,208,401,317,57,27
20200412,6674,6003,439,232,318,230,64,24
20200413,6934,6202,487,245,260,199,48,13
20200414,7202,6321,618,263,268,119,131,18
20200415,7582,6628,668,286,380,307,50,23
20200416,7918,6830,774,314,336,202,106,28
20200417,8379,7181,866,332,461,351,92,18
20200418,8742,7414,981,347,363,233,115,15
20200419,9287,7887,1040,360,545,473,59,13
20200420,9593,8080,1133,380,306,193,93,20
20200421,9856,8158,1297,401,263,78,164,21
20200422,10169,8230,1513,426,313,72,216,25
20200423,10511,8317,1740,454,342,87,227,28
20200424,10892,8454,1944,494,381,137,204,40
20200425,11273,8623,2126,524,381,169,182,30
20200426,11617,8817,2265,535,344,194,139,11
20200427,11902,8874,2466,562,285,57,201,27
20200428,12218,8967,2655,596,316,93,189,34
20200429,12640,8991,3025,624,422,24,370,28
20200430,12877,8997,3236,644,237,6,211,20
20200501,13105,8963,3491,651,228,-34,255,7
20200502,13375,8949,3762,664,270,-14,271,13
20200503,13693,9070,3945,678,318,121,183,14
20200504,14006,9213,4095,698,313,143,150,20
20200505,14431,9435,4280,716,425,222,185,18
20200506,14740,9352,4655,733,309,-83,375,17
20200507,15047,9430,4862,755,307,78,207,22
20200508,15366,9406,5184,776,319,-24,322,21
20200509,15651,9429,5437,785,285,23,253,9
20200510,15996,9498,5698,800,345,69,261,15
20200511,16326,9699,5816,811,330,201,118,11
20200512,16921,9951,6131,839,595,252,315,28
20200513,17204,9933,6410,861,283,-18,279,22
20200514,17615,10036,6696,883,411,103,286,22
20200515,18016,10191,6918,907,401,155,222,24
20200516,18257,10167,7175,915,241,-24,257,8
20200517,18529,10153,7451,925,272,-14,276,10
20200518,18885,10321,7628,936,356,168,177,11
20200519,19268,10417,7903,948,383,96,275,12
20200520,19739,10594,8183,962,471,177,280,14
20200521,20143,10719,8452,972,404,125,269,10
20200522,20619,10906,8731,982,476,187,279,10
20200523,20931,10961,8977,993,312,55,246,11
20200524,21326,11136,9194,996,395,175,217,3
20200525,21631,11348,9276,1007,305,212,82,11
20200526,22074,11030,10020,1024,443,-318,744,17
20200527,22473,11115,10330,1028,399,85,310,4
20200528,22825,11227,10560,1038,352,112,230,10
20200529,23155,11412,10692,1051,330,185,132,13
20200530,23571,11494,11016,1061,416,82,324,10
20200531,23786,11451,11271,1064,215,-43,255,3
20200601,24165,11642,11449,1074,379,191,178,10
20200602,24395,11577,11726,1092,230,-65,277,18
20200603,24687,11558,12014,1115,292,-19,288,23
20200604,25048,11704,12227,1117,361,146,213,2
20200605,25410,11863,12410,1137,362,159,183,20
20200606,25986,12192,12641,1153,576,329,231,16
20200607,26561,12549,12855,1157,575,357,214,4
20200608,27160,12996,12998,1166,599,447,143,9
20200609,27560,13181,13196,1183,400,185,198,17
20200610,27842,13225,13411,1206,282,44,215,23
20200611,28201,13290,13696,1215,359,65,285,9
20200612,28577,13550,13805,1222,376,260,109,7
20200613,29017,13676,14104,1237,440,126,299,15
20200614,29392,13919,14226,1247,375,243,122,10
20200615,29788,14149,14383,1256,396,230,157,9
20200616,30195,14269,14654,1272,407,120,271,16
20200617,30701,14494,14921,1286,506,225,267,14
20200618,31015,14382,15317,1316,314,-112,396,30
20200619,31316,14284,15698,1334,301,-98,381,18
20200620,31620,14093,16181,1346,304,-191,483,12
20200621,31931,13892,16683,1356,311,-201,502,10
20200622,32227,13792,17076,1359,296,-100,393,3
20200623,32527,13579,17573,1375,300,-213,497,16
20200624,32821,13291,18134,1396,294,-288,561,21
20200625,33119,13053,18654,1412,298,-238,520,16
20200626,33395,12748,19218,1429,276,-305,564,17
20200627,33714,12307,19972,1435,319,-441,754,6
20200628,33907,11921,20548,1438,193,-386,576,3
20200629,34154,11813,20897,1444,247,-108,349,6
20200630,34393,11649,21281,1463,239,-164,384,19
20200701,34775,11507,21791,1477,382,-142,510,14
20200702,35146,11445,22209,1492,371,-62,418,15
20200703,35405,11247,22651,1507,259,-198,442,15
20200704,35719,11080,23127,1512,314,-167,476,5
20200705,35950,10687,23746,1517,231,-393,619,5
20200706,36155,10668,23966,1521,205,-19,220,4
20200707,36412,10646,24238,1528,257,-22,272,7
20200708,36689,10269,24878,1542,277,-377,640,14
20200709,36951,9923,25477,1551,262,-346,599,9
20200710,37216,9606,26048,1562,265,-317,571,11
20200711,37521,9318,26635,1568,305,-288,587,6
20200712,37891,9172,27148,1571,370,-146,513,3
20200713,38190,9099,27515,1576,299,-73,367,5
20200714,38457,9113,27756,1588,267,14,241,12
20200715,38721,8635,28492,1594,264,-478,736,6
20200716,39054,8521,28928,1605,333,-114,436,11
20200717,39407,8290,29505,1612,353,-231,577,7
20200718,39746,8204,29924,1618,339,-86,419,6
20200719,40104,8188,30292,1624,358,-16,368,6
20200720,40383,8217,30539,1627,279,29,247,3
20200721,40782,8375,30771,1636,399,158,232,9
20200722,41162,8381,31139,1642,380,6,368,6
20200723,41580,8388,31541,1651,418,7,402,9
20200724,42038,8386,31997,1655,458,-2,456,4
20200725,42622,8539,32419,1664,584,153,422,9
20200726,43065,8641,32753,1671,443,102,334,7
20200727,43402,8870,32856,1676,337,229,103,5
20200728,43904,9179,33043,1682,502,309,187,6
20200729,44416,9532,33190,1694,512,353,147,12
20200730,45031,9679,33643,1709,615,147,453,15
20200731,45688,9985,33987,1716,657,306,344,7
20200801,46346,10251,34374,1721,658,266,387,5
20200802,46894,10454,34709,1731,548,203,335,10
20200803,47469,10856,34881,1732,575,402,172,1
20200804,48149,11355,35056,1738,680,499,175,6
20200805,48789,11712,35321,1756,640,357,265,18
20200806,49515,12099,35642,1774,726,387,321,18
20200807,50324,12496,36041,1787,809,397,399,13
20200808,51167,12964,36403,1800,843,468,362,13
20200809,51791,13293,36691,1807,624,329,288,7
20200810,52410,13724,36877,1809,619,431,186,2
20200811,52961,13990,37150,1821,551,266,273,12
20200812,53676,14235,37611,1830,715,245,461,9
20200813,54487,14682,37961,1844,811,447,350,14
20200814,55319,15099,38362,1858,832,417,401,14
20200815,56090,15368,38853,1869,771,269,491,11
20200816,56684,15677,39130,1877,594,309,277,8
20200817,57279,16035,39359,1885,595,358,229,8
20200818,57876,16337,39643,1896,597,302,284,11
20200819,58611,16599,40099,1913,735,262,456,17
20200820,59378,16972,40481,1925,767,373,382,12
20200821,60281,17314,41029,1938,903,342,548,13
20200822,61181,17569,41661,1951,900,255,632,13
20200823,61762,17624,42183,1955,581,55,522,4
20200824,62310,17902,42448,1960,548,278,265,5
20200825,63073,18312,42784,1977,763,410,336,17
20200826,63802,18409,43399,1994,729,97,615,17
20200827,64689,18582,44097,2010,887,173,698,16
20200828,65480,18677,44785,2018,791,95,688,8
20200829,66239,18671,45536,2032,759,-6,751,14
20200830,66870,18645,46192,2033,631,-26,656,1
20200831,67372,18695,46638,2039,502,50,446,6
20200901,67922,18834,47030,2058,550,139,392,19
20200902,68517,18574,47865,2078,595,-260,835,20
20200903,69129,18444,48593,2092,612,-130,728,14
20200904,69820,17900,49820,2100,691,-544,1227,8
20200905,70387,15928,52346,2113,567,-1972,2526,13
20200906,70824,14448,54256,2120,437,-1480,1910,7
20200907,71126,13889,55113,2124,302,-559,857,4
20200908,71526,13480,55910,2136,400,-409,797,12
20200909,71947,12665,57135,2147,421,-815,1225,11
20200910,72453,12225,58069,2159,506,-440,934,12
20200911,73047,12030,58848,2169,594,-195,779,10
20200912,73650,11743,59725,2182,603,-287,877,13
20200913,74152,11305,60659,2188,502,-438,934,6
20200914,74529,11229,61097,2203,377,-76,438,15
20200915,75134,11359,61548,2227,605,130,451,24
20200916,75734,11387,62110,2237,600,28,562,10
20200917,76571,11593,62725,2253,837,206,615,16
20200918,77328,11746,63312,2270,757,153,587,17
20200919,78330,12187,63861,2282,1002,441,549,12
20200920,79240,12645,64302,2293,910,458,441,11
20200921,79988,13086,64604,2298,748,441,302,5
20200922,80699,13411,64972,2316,711,325,368,18
20200923,81673,13768,65561,2344,974,357,589,28
20200924,82809,14282,66158,2369,1136,514,597,25
20200925,84396,15264,66740,2392,1587,982,582,23
20200926,85980,16230,67326,2424,1584,966,586,32
20200927,87330,16994,67904,2432,1350,764,578,8
20200928,88636,17769,68420,2447,1306,775,516,15
20200929,89962,18524,68955,2483,1326,755,535,36
20200930,91514,19306,69695,2513,1552,782,740,30
20201001,93481,20537,70401,2543,1967,1231,706,30
20201002,95773,21850,71353,2570,2292,1313,952,27
20201003,98140,23327,72209,2604,2367,1477,856,34
20201004,100074,24441,73003,2630,1934,1114,794,26
20201005,102080,25869,73552,2659,2006,1428,549,29
20201006,104316,27441,74158,2717,2236,1572,606,58
20201007,107319,29181,75346,2792,3003,1740,1188,75
20201008,111599,32242,76490,2867,4280,3061,1144,75
20201009,116338,35544,77875,2919,4739,3302,1385,52
20201010,121638,39684,78982,2972,5300,4140,1107,53
20201011,125816,42510,80302,3004,4178,2826,1320,32
20201012,130210,45970,81201,3039,4394,3460,899,35
20201013,135278,50173,82004,3101,5068,4203,803,62
20201014,141804,54740,83847,3217,6526,4567,1843,116
20201015,149903,61007,85588,3308,8099,6267,1741,91
20201016,157608,66395,87773,3440,7705,5388,2185,132
20201017,167230,73544,90162,3524,9622,7149,2389,84
20201018,175766,79542,92651,3573,8536,5998,2489,49
20201019,183248,85620,94014,3614,7482,6078,1363,41
20201020,192539,92862,95956,3721,9291,7242,1942,107
20201021,202579,99844,98884,3851,10040,6982,2928,130
20201022,214686,108463,102204,4019,12107,8619,3320,168
20201023,228318,119054,105092,4172,13632,10591,2888,153
20201024,241946,128251,109344,4351,13628,9197,4252,179
20201025,253688,136631,112619,4438,11742,8380,3275,87
20201026,263929,144144,115302,4483,10241,7513,2683,45
20201027,280229,156377,119237,4615,16300,12233,3935,132
20201028,299049,170696,123504,4849,18820,14319,4267,234
20201029,319205,184789,129267,5149,20156,14093,5763,300
20201030,340834,200759,134724,5351,21629,15970,5457,202
20201031,362731,216820,140280,5631,21897,16061,5556,280
20201101,379902,227524,146595,5783,17171,10704,6315,152
20201102,395480,235192,154413,5875,15578,7668,7818,92
20201103,414844,248756,159986,6102,19364,13564,5573,227
20201104,439536,264101,168960,6475,24692,15345,8974,373
20201105,466679,282156,177681,6842,27143,18055,8721,367
20201106,493765,297803,188675,7287,27086,15647,10994,445
20201107,521640,313494,200510,7636,27875,15691,11835,349
20201108,546425,329190,209363,7872,24785,15696,8853,236
20201109,568138,340722,219371,8045,21713,11532,10008,173
20201110,593592,354556,230661,8375,25454,13834,11290,330
20201111,618813,367133,242875,8805,25221,12577,12214,430
20201112,641496,378067,254349,9080,22683,10934,11474,275
20201113,665547,388468,267580,9499,24051,10401,13231,419
20201114,691118,398858,282215,10045,25571,10390,14635,546
20201115,712972,407841,294783,10348,21854,8983,12568,303
20201116,733788,417275,306022,10491,20816,9434,11239,143
20201117,752940,417810,324282,10848,19152,535,18260,357
20201118,772823,418489,342883,11451,19883,679,18601,603
20201119,796798,422824,361886,12088,23975,4335,19003,637
20201120,819262,424748,381800,12714,22464,1924,19914,626
20201121,843475,423112,407075,13288,24213,-1636,25275,574
20201122,861331,423742,423971,13618,17856,630,16896,330
20201123,876333,423691,438868,13774,15002,-51,14897,156
20201124,909066,440035,454717,14314,32733,16344,15849,540
20201125,924422,439907,469527,14988,15356,-128,14810,674
20201126,941112,430675,494869,15568,16690,-9232,25342,580
20201127,958416,425633,516636,16147,17304,-5042,21767,579
20201128,973593,418574,538273,16746,15177,-7059,21637,599
20201129,985075,408617,559429,17029,11482,-9957,21156,283
20201130,990811,396147,577514,17150,5736,-12470,18085,121
20201201,999924,384736,597589,17599,9113,-11411,20075,449
20201202,1013747,372559,622980,18208,13823,-12177,25391,609
20201203,1028610,363222,646560,18828,14863,-9337,23580,620
20201204,1041846,356074,666413,19359,13236,-7148,19853,531
20201205,1054273,346502,687910,19861,12427,-9572,21497,502
20201206,1063449,336640,706720,20089,9176,-9862,18810,228
20201207,1067870,325243,722446,20181,4421,-11397,15726,92
20201208,1076180,316743,738845,20592,8310,-8500,16399,411
20201209,1088346,298945,768241,21160,12166,-17798,29396,568
20201210,1102096,288347,792119,21630,13750,-10598,23878,470
20201211,1115201,277671,815356,22174,13105,-10676,23237,544
20201212,1126700,263483,840541,22676,11499,-14188,25185,502
20201213,1135676,253917,858895,22864,8976,-9566,18354,188
20201214,1140572,248457,869155,22960,4896,-5460,10260,96
20201215,1147446,244389,879748,23309,6874,-4068,10593,349
20201216,1159901,243337,892650,23914,12455,-1052,12902,605
20201217,1171854,244160,903349,24345,11953,823,10699,431
20201218,1182864,242517,915576,24771,11010,-1643,12227,426
20201219,1194110,241133,927723,25254,11246,-1384,12147,483
20201220,1202700,239034,938269,25397,8590,-2099,10546,143
20201221,1207333,235842,946017,25474,4633,-3192,7748,77
20201222,1214525,234470,954272,25783,7192,-1372,8255,309
20201223,1226883,235450,965178,26255,12358,980,10906,472
20201224,1239998,237370,975876,26752,13115,1920,10698,497
20201225,1249079,237404,984683,26992,9081,34,8807,240
20201226,1253957,234515,992381,27061,4878,-2889,7698,69
20201227,1257799,231071,999610,27118,3842,-3444,7229,57
20201228,1261010,228487,1005376,27147,3211,-2584,5766,29
20201229,1268634,227175,1014005,27454,7624,-1312,8629,307
20201230,1281414,227506,1025889,28019,12780,331,11884,565
20201231,1294878,230186,1036138,28554,13464,2680,10249,535
20210101,1305774,230537,1046281,28956,10896,351,10143,402
20210102,1312780,228286,1055436,29058,7006,-2251,9155,102
20210103,1318562,226350,1063093,29119,5782,-1936,7657,61
20210104,1322947,224232,1069554,29161,4385,-2118,6461,42
20210105,1330543,222149,1078892,29502,7596,-2083,9338,341
20210106,1344763,226964,1087744,30055,14220,4815,8852,553
20210107,1356882,231025,1095616,30241,12119,4061,7872,186
20210108,1365645,230472,1104599,30574,8763,-553,8983,333
20210109,1376389,231640,1113738,31011,10744,1168,9139,437
20210110,1385522,231015,1123318,31189,9133,-625,9580,178
20210111,1390385,228661,1130460,31264,4863,-2354,7142,75
20210112,1395779,226060,1138126,31593,5394,-2601,7666,329
20210113,1404905,225708,1147123,32074,9126,-352,8997,481
20210114,1414362,226083,1155823,32456,9457,375,8700,382
20210115,1422320,224826,1164650,32844,7958,-1257,8827,388
20210116,1429612,223312,1173087,33213,7292,-1514,8437,369
20210117,1435582,220901,1181326,33355,5970,-2411,8239,142
20210118,1438914,217788,1187719,33407,3332,-3113,6393,52
20210119,1443804,213072,1197034,33698,4890,-4716,9315,291
20210120,1450747,209247,1207359,34141,6943,-3825,10325,443
20210121,1457755,207462,1215732,34561,7008,-1785,8373,420
20210122,1464448,213808,1215732,34908,6693,6346,0,347
20210123,1470879,212844,1222782,35253,6431,-964,7050,345
20210124,1475445,209636,1230446,35363,4566,-3208,7664,110
20210125,1478119,204982,1237736,35401,2674,-4654,7290,38
20210126,1482722,203482,1243575,35665,4603,-1500,5839,264
20210127,1489512,207191,1246267,36054,6790,3709,2692,389
20210128,1496665,209330,1250892,36443,7153,2139,4625,389
20210129,1502810,208678,1257352,36780,6145,-652,6460,337
20210130,1508674,207018,1264574,37082,5864,-1660,7222,302
20210131,1513385,205738,1270467,37180,4711,-1280,5893,98
20210201,1515889,202031,1276636,37222,2504,-3707,6169,42
20210202,1520215,201343,1281396,37476,4326,-688,4760,254
20210203,1527016,205421,1283698,37897,6801,4078,2302,421
20210204,1533511,207004,1288163,38344,6495,1583,4465,447
20210205,1539564,206165,1294687,38712,6053,-839,6524,368
20210206,1545530,204965,1301571,38994,5966,-1200,6884,282
20210207,1550255,204007,1307161,39087,4725,-958,5590,93
20210208,1552686,200698,1312856,39132,2431,-3309,5695,45
20210209,1556685,199851,1317474,39360,3999,-847,4618,228
20210210,1563645,204289,1319635,39721,6960,4438,2161,361
20210211,1570658,206380,1324101,40177,7013,2091,4466,456
20210212,1577036,206485,1330127,40424,6378,105,6026,247
20210213,1583621,206445,1336467,40709,6585,-40,6340,285
20210214,1588955,206117,1342031,40807,5334,-328,5564,98
20210215,1591497,202995,1347670,40832,2542,-3122,5639,25
20210216,1596673,203202,1352443,41028,5176,207,4773,196
20210217,1605372,209466,1354598,41308,8699,6264,2155,280
20210218,1614446,214198,1358666,41582,9074,4732,4068,274
20210219,1623218,216179,1365216,41823,8772,1981,6550,241
20210220,1631727,217324,1372326,42077,8509,1145,7110,254
20210221,1638767,218182,1378414,42171,7040,858,6088,94
20210222,1642658,216097,1384373,42188,3891,-2085,5959,17
20210223,1648962,217010,1389516,42436,6304,913,5143,248
20210224,1661109,226320,1391981,42808,12147,9310,2465,372
20210225,1673252,232816,1397342,43094,12143,6496,5361,286
20210226,1684788,235883,1405552,43353,11536,3067,8210,259
20210227,1696885,238768,1414461,43656,12097,2885,8909,303
20210228,1706986,240388,1422829,43769,10101,1620,8368,113
20210301,1711772,237118,1430861,43793,4786,-3270,8032,24
20210302,1719708,237668,1438032,44008,7936,550,7171,215
20210303,1735406,249567,1441479,44360,15698,11899,3447,352
20210304,1750659,257391,1448619,44649,15253,7824,7140,289
20210305,1766490,262014,1459564,44912,15831,4623,10945,263
20210306,1781345,264578,1471608,45159,14855,2564,12044,247
20210307,1794914,267061,1482568,45285,13569,2483,10960,126
20210308,1801083,261683,1494083,45317,6169,-5378,11515,32
20210309,1811036,262084,1503353,45599,9953,401,9270,282
20210310,1828313,274411,1507905,45997,17277,12327,4552,398
20210311,1849424,286511,1516540,46373,21111,12100,8635,376
20210312,1868297,291089,1530484,46724,18873,4578,13944,351
20210313,1889360,296141,1546151,47068,21063,5052,15667,344
20210314,1906632,299227,1560227,47178,17272,3086,14076,110
20210315,1917527,295866,1574455,47206,10895,-3361,14228,28
20210316,1931921,297179,1587164,47578,14394,1313,12709,372
20210317,1956974,315777,1593165,48032,25053,18598,6001,454
20210318,1984248,332028,1603832,48388,27274,16251,10667,356
20210319,2010244,341165,1620272,48807,25996,9137,16440,419
20210320,2036700,347491,1640050,49159,26456,6326,19778,352
20210321,2058550,352423,1656827,49300,21850,4932,16777,141
20210322,2073129,347756,1676008,49365,14579,-4667,19181,65
20210323,2089869,346233,1693875,49761,16740,-1523,17867,396
20210324,2120671,362485,1707846,50340,30802,16252,13971,579
20210325,2154821,381105,1722856,50860,34150,18620,15010,520
20210326,2189966,391438,1747223,51305,35145,10333,24367,445
20210327,2221725,394904,1775068,51753,31759,3466,27845,448
20210328,2250991,400185,1798922,51884,29266,5281,23854,131
20210329,2267964,391601,1824431,51932,16973,-8584,25509,48
20210330,2288826,388235,1848199,52392,20862,-3366,23768,460
20210331,2321717,406747,1861925,53045,32891,18512,13726,653
20210401,2356970,421126,1882179,53665,35253,14379,20254,620
20210402,2387511,422097,1911249,54165,30541,971,29070,500
20210403,2415584,414853,1945994,54737,28073,-7244,34745,572
20210404,2438542,405168,1978433,54941,22958,-9685,32439,204
20210405,2448463,384150,2009308,55005,9921,-21018,30875,64
20210406,2456709,365067,2036577,55065,8246,-19083,27269,60
20210407,2471617,361217,2054697,55703,14908,-3850,18120,638
20210408,2499507,366344,2076504,56659,27890,5127,21807,956
20210409,2528006,362803,2107776,57427,28499,-3541,31272,768
20210410,2552898,351657,2143065,58176,24892,-11146,35289,749
20210411,2574631,344909,2171301,58421,21733,-6748,28236,245
20210412,2586647,330384,2197782,58481,12016,-14525,26481,60
20210413,2599850,321069,2219655,59126,13203,-9315,21873,645
20210414,2621116,331385,2229801,59930,21266,10316,10146,804
20210415,2642242,342992,2238638,60612,21126,11607,8837,682
20210416,2660088,343648,2255232,61208,17846,656,16594,596
20210417,2675874,328828,2285221,61825,15786,-14820,29989,617
20210418,2688025,314848,2311145,62032,12151,-13980,25924,207
20210419,2695327,298216,2334978,62133,7302,-16632,23833,101
20210420,2704571,287185,2354652,62734,9244,-11031,19674,601
20210421,2718493,288790,2366230,63473,13922,1605,11578,739
20210422,2731256,286301,2380787,64168,12763,-2489,14557,695
20210423,2742122,275958,2401457,64707,10866,-10343,20670,539
20210424,2751632,263751,2422659,65222,9510,-12207,21202,515
20210425,2758856,254029,2439412,65415,7224,-9722,16753,193
20210426,2762323,241881,2455005,65437,3467,-12148,15593,22
20210427,2768034,235101,2467036,65897,5711,-6780,12031,460
20210428,2776927,236420,2473974,66533,8893,1319,6938,636
20210429,2785353,234500,2483780,67073,8426,-1920,9806,540
20210430,2792142,227830,2496810,67502,6789,-6670,13030,429
20210501,2798617,219835,2510858,67924,6475,-7995,14048,422
20210502,2803233,214197,2520968,68068,4616,-5638,10110,144
20210503,2805756,207807,2529844,68105,2523,-6390,8876,37
20210504,2808052,202988,2536931,68133,2296,-4819,7087,28
20210505,2811951,202785,2540684,68482,3899,-203,3753,349
20210506,2818378,202634,2546751,68993,6427,-151,6067,511
20210507,2824425,199921,2555059,69445,6047,-2713,8308,452
20210508,2829196,196251,2563079,69866,4771,-3670,8020,421
20210509,2833052,193539,2569501,70012,3856,-2712,6422,146
20210510,2835083,189015,2576034,70034,2031,-4524,6533,22
20210511,2838180,187599,2580245,70336,3097,-1416,4211,302
20210512,2842339,189141,2582519,70679,4159,1542,2274,343
20210513,2845762,189990,2584751,71021,3423,849,2232,342
20210514,2849014,188426,2589277,71311,3252,-1564,4526,290
20210515,2851911,184667,2595635,71609,2897,-3759,6358,298
20210516,2854079,181441,2600974,71664,2168,-3226,5339,55
20210517,2855190,177812,2605703,71675,1111,-3629,4729,11
20210518,2856924,175788,2609216,71920,1734,-2024,3513,245
20210519,2859261,176079,2610932,72250,2337,291,1716,330
20210520,2861351,174831,2614020,72500,2090,-1248,3088,250
20210521,2863031,172309,2618031,72691,1680,-2522,4011,191
20210522,2864546,169978,2621686,72882,1515,-2331,3655,191
20210523,2865622,167970,2624724,72928,1076,-2008,3038,46
20210524,2866181,165557,2627679,72945,559,-2413,2955,17
20210525,2867187,164465,2629626,73096,1006,-1092,1947,151
20210526,2868450,164564,2630581,73305,1263,99,955,209
20210527,2869652,163729,2632483,73440,1202,-835,1902,135
20210528,2870595,162327,2634711,73557,943,-1402,2228,117
20210529,2871371,161014,2636675,73682,776,-1313,1964,125
20210530,2871950,159990,2638222,73738,579,-1024,1547,56
20210531,2872283,158849,2639689,73745,333,-1141,1467,7
20210601,2872868,158340,2640672,73856,585,-509,983,111
20210602,2873527,158404,2641139,73984,659,64,467,128
20210603,2874092,157890,2642127,74075,565,-514,988,91
20210604,2874411,156997,2643313,74101,319,-893,1186,26
20210605,2874824,156412,2644273,74139,413,-585,960,38
20210606,2875136,155834,2645150,74152,312,-578,877,13
20210607,2875328,155291,2645877,74160,192,-543,727,8
20210608,2875729,155134,2646340,74255,401,-157,463,95
20210609,2876289,155279,2646647,74363,560,145,307,108
20210610,2876667,155125,2647095,74447,378,-154,448,84
20210611,2877007,154804,2647688,74515,340,-321,593,68
20210612,2877243,154474,2648207,74562,236,-330,519,47
20210613,2877469,154392,2648504,74573,226,-82,297,11
20210614,2877608,154175,2648859,74574,139,-217,355,1
20210615,2877819,154113,2649080,74626,211,-62,221,52
20210616,2878061,154189,2649184,74688,242,76,104,62
20210617,2878276,154007,2649535,74734,215,-182,351,46
20210618,2878466,153805,2649879,74782,190,-202,344,48
20210619,2878634,153617,2650194,74823,168,-188,315,41
20210620,2878767,153463,2650476,74828,133,-154,282,5
20210621,2878840,153363,2650648,74829,73,-100,172,1
20210622,2879030,153399,2650773,74858,190,36,125,29
20210623,2879192,153460,2650839,74893,162,61,66,35
20210624,2879336,153374,2651045,74917,144,-86,206,24
20210625,2879470,153308,2651209,74953,134,-66,164,36
20210626,2879569,153235,2651360,74974,99,-73,151,21
20210627,2879638,153137,2651522,74979,69,-98,162,5
20210628,2879689,153029,2651681,74979,51,-108,159,0
20210629,2879811,153047,2651759,75005,122,18,78,26
20210630,2879912,153104,2651787,75021,101,57,28,16
20210701,2880010,153060,2651906,75044,98,-44,119,23
20210702,2880107,153038,2652004,75065,97,-22,98,21
20210703,2880215,153060,2652072,75083,108,22,68,18
20210704,2880270,153021,2652165,75084,55,-39,93,1
20210705,2880308,152995,2652228,75085,38,-26,63,1
20210706,2880403,153043,2652265,75095,95,48,37,10
20210707,2880503,153096,2652293,75114,100,53,28,19
20210708,2880596,153089,2652372,75135,93,-7,79,21
20210709,2880670,153109,2652409,75152,74,20,37,17
20210710,2880755,153138,2652458,75159,85,29,49,7
20210711,2880821,153156,2652505,75160,66,18,47,1
20210712,2880865,153128,2652577,75160,44,-28,72,0
20210713,2880959,153182,2652604,75173,94,54,27,13
20210714,2881046,153286,2652581,75179,87,104,-23,6
20210715,2881151,153305,2652655,75191,105,19,74,12
20210716,2881241,153293,2652743,75205,90,-12,88,14
20210717,2881355,153192,2652951,75212,114,-101,208,7
20210718,2881424,153225,2652984,75215,69,33,33,3
20210719,2881491,153242,2653034,75215,67,17,50,0
20210720,2881594,153381,2652994,75219,103,139,-40,4
20210721,2881718,153471,2653025,75222,124,90,31,3
20210722,2881840,153521,2653088,75231,122,50,63,9
20210723,2881948,153541,2653172,75235,108,20,84,4
20210724,2882066,153604,2653221,75241,118,63,49,6
20210725,2882146,153625,2653279,75242,80,21,58,1
20210726,2882220,153619,2653359,75242,74,-6,80,0
20210727,2882327,153671,2653407,75249,107,52,48,7
20210728,2882465,153767,2653446,75252,138,96,39,3
20210729,2882630,153844,2653529,75257,165,77,83,5
20210730,2882786,153919,2653608,75259,156,75,79,2
20210731,2882939,153978,2653700,75261,153,59,92,2
20210801,2883029,153961,2653807,75261,90,-17,107,0
20210802,2883120,153959,2653900,75261,91,-2,93,0
20210803,2883284,154085,2653934,75265,164,126,34,4
20210804,2883448,154198,2653981,75269,164,113,47,4
20210805,2883624,0,0,75275,176,-154198,-2653981,6
20210806,2883796,0,0,75281,172,0,0,6
20210807,2883976,0,0,75285,180,0,0,4
20210808,2884098,0,0,75285,122,0,0,0
20210809,2884162,0,0,75285,64,0,0,0
20210810,2884361,0,0,75285,199,0,0,0
20210811,2884557,0,0,75289,196,0,0,4
20210812,2884780,0,0,75291,223,0,0,2
20210813,2884974,0,0,75297,194,0,0,6
20210814,2885185,0,0,75299,211,0,0,2
20210815,2885333,0,0,75299,148,0,0,0
20210816,2885461,0,0,75299,128,0,0,0
20210817,2885676,0,0,75306,215,0,0,7
20210818,2885883,0,0,75307,207,0,0,1
20210819,2886079,0,0,75311,196,0,0,4
20210820,2886291,0,0,75315,212,0,0,4
20210821,2886513,0,0,75316,222,0,0,1
20210822,2886698,0,0,75316,185,0,0,0
20210823,2886805,0,0,75316,107,0,0,0
20210824,2887037,0,0,75324,232,0,0,8
20210825,2887270,0,0,75329,233,0,0,5
20210826,2887485,0,0,75332,215,0,0,3
20210827,2887739,0,0,75335,254,0,0,3
20210828,2888028,0,0,75340,289,0,0,5
20210829,2888231,0,0,75340,203,0,0,0
20210830,2888385,0,0,75340,154,0,0,0
20210831,2888670,0,0,75345,285,0,0,5
20210901,2889036,0,0,75358,366,0,0,13
20210902,2889412,0,0,75367,376,0,0,9
20210903,2889773,0,0,75372,361,0,0,5
20210904,2890161,0,0,75379,388,0,0,7
