country,population
AD,77281
AE,9269612
AF,34656032
AG,100963
AI,
AL,2876101
AM,2924816
AN,
AO,28813463
AQ,
AR,43847430
AS,55599
AT,8747358
AU,24127159
AW,104822
AX,
AZ,9762274
BA,3516816
BB,284996
BD,162951560
BE,11348159
BF,18646433
BG,7127822
BH,1425171
BI,10524117
BJ,10872298
BL,
BM,65331
BN,423196
BO,10887882
BR,207652865
BS,391232
BT,797765
BV,
BW,2250260
BY,9507120
BZ,366954
CA,36286425
CC,
CD,78736153
CF,4594621
CG,5125821
CH,8372098
CI,23695919
CK,
CL,17909754
CM,23439189
CN,1378665000
CO,48653419
CR,4857274
CU,11475982
CV,539560
CX,
CY,1170125
CZ,10561633
DE,82667685
DJ,942333
DK,5731118
DM,73543
DO,10648791
DZ,40606052
EC,16385068
EE,1316481
EG,95688681
EH,
ER,
ES,46443959
ET,102403196
FI,5495096
FJ,898760
FK,
FM,104937
FO,49117
FR,66896109
GA,1979786
GB,65637239
GD,107317
GE,3719300
GF,
GG,
GH,28206728
GI,34408
GL,56186
GM,2038501
GN,12395924
GP,
GQ,1221490
GR,10746740
GS,
GT,16582469
GU,162896
GW,1815698
GY,773303
HK,7346700
HM,
HN,9112867
HR,4170600
HT,10847334
HU,9817958
ID,261115456
IE,4773095
IL,8547100
IM,83737
IN,1324171354
IO,
IQ,37202572
IR,80277428
IS,334252
IT,60600590
JE,
JM,2881355
JO,9455802
JP,126994511
KE,48461567
KG,6082700
KH,15762370
KI,114395
KM,795601
KN,54821
KP,25368620
KR,51245707
KW,4052584
KY,60765
KZ,17797032
LA,6758353
LB,6006668
LC,178015
LI,37666
LK,21203000
LR,4613823
LS,2203821
LT,2872298
LU,582972
LV,1960424
LY,6293253
MA,35276786
MC,38499
MD,3552000
ME,622781
MF,31949
MG,24894551
MH,53066
MK,2081206
ML,17994837
MM,52885223
MN,3027398
MO,612167
MP,55023
MQ,
MR,4301018
MS,
MT,436947
MU,1263473
MV,417492
MW,18091575
MX,127540423
MY,31187265
MZ,28829476
NA,2479713
NC,278000
NE,20672987
NF,
NG,185989640
NI,6149928
NL,17018408
NO,5232929
NP,28982771
NR,13049
NU,
NZ,4692700
OM,4424762
PA,4034119
PE,31773839
PF,280208
PG,8084991
PH,103320222
PK,193203476
PL,37948016
PM,
PN,
PR,3411307
PS,4551566
PT,10324611
PW,21503
PY,6725308
QA,2569804
RE,
RO,19705301
RS,7057412
RU,144342396
RW,11917508
SA,32275687
SB,599419
SC,94677
SD,39578828
SE,9903122
SG,5607283
SH,
SI,2064845
SJ,
SK,5428704
SL,7396190
SM,33203
SN,15411614
SO,14317996
SR,558368
ST,199910
SV,6344722
SY,18430453
SZ,1343098
TC,34900
TD,14452543
TF,
TG,7606374
TH,68863514
TJ,8734951
TK,
TL,1268671
TM,5662544
TN,11403248
TO,107122
TR,79512426
TT,1364962
TV,11097
TW,
TZ,55572201
UA,45004645
UG,41487965
UM,
US,323127513
UY,3444006
UZ,31848200
VA,
VC,109643
VE,31568179
VG,30661
VI,102951
VN,92701100
VU,270402
WF,
WS,195125
YE,27584213
YT,
ZA,55908865
ZM,16591390
ZW,16150362
