date,infected,active,recovered,dead,deltaInfected,deltaActive,deltaRecovered,deltaDead
20200122,0,0,0,0,0,0,0,0
20200123,0,0,0,0,0,0,0,0
20200124,0,0,0,0,0,0,0,0
20200125,0,0,0,0,0,0,0,0
20200126,0,0,0,0,0,0,0,0
20200127,0,0,0,0,0,0,0,0
20200128,0,0,0,0,0,0,0,0
20200129,0,0,0,0,0,0,0,0
20200130,0,0,0,0,0,0,0,0
20200131,0,0,0,0,0,0,0,0
20200201,0,0,0,0,0,0,0,0
20200202,0,0,0,0,0,0,0,0
20200203,0,0,0,0,0,0,0,0
20200204,0,0,0,0,0,0,0,0
20200205,0,0,0,0,0,0,0,0
20200206,0,0,0,0,0,0,0,0
20200207,0,0,0,0,0,0,0,0
20200208,0,0,0,0,0,0,0,0
20200209,0,0,0,0,0,0,0,0
20200210,0,0,0,0,0,0,0,0
20200211,0,0,0,0,0,0,0,0
20200212,0,0,0,0,0,0,0,0
20200213,0,0,0,0,0,0,0,0
20200214,0,0,0,0,0,0,0,0
20200215,0,0,0,0,0,0,0,0
20200216,0,0,0,0,0,0,0,0
20200217,0,0,0,0,0,0,0,0
20200218,0,0,0,0,0,0,0,0
20200219,0,0,0,0,0,0,0,0
20200220,0,0,0,0,0,0,0,0
20200221,0,0,0,0,0,0,0,0
20200222,0,0,0,0,0,0,0,0
20200223,0,0,0,0,0,0,0,0
20200224,0,0,0,0,0,0,0,0
20200225,0,0,0,0,0,0,0,0
20200226,0,0,0,0,0,0,0,0
20200227,0,0,0,0,0,0,0,0
20200228,0,0,0,0,0,0,0,0
20200229,0,0,0,0,0,0,0,0
20200301,0,0,0,0,0,0,0,0
20200302,0,0,0,0,0,0,0,0
20200303,0,0,0,0,0,0,0,0
20200304,0,0,0,0,0,0,0,0
20200305,0,0,0,0,0,0,0,0
20200306,0,0,0,0,0,0,0,0
20200307,0,0,0,0,0,0,0,0
20200308,0,0,0,0,0,0,0,0
20200309,0,0,0,0,0,0,0,0
20200310,0,0,0,0,0,0,0,0
20200311,0,0,0,0,0,0,0,0
20200312,0,0,0,0,0,0,0,0
20200313,0,0,0,0,0,0,0,0
20200314,0,0,0,0,0,0,0,0
20200315,0,0,0,0,0,0,0,0
20200316,0,0,0,0,0,0,0,0
20200317,0,0,0,0,0,0,0,0
20200318,0,0,0,0,0,0,0,0
20200319,0,0,0,0,0,0,0,0
20200320,0,0,0,0,0,0,0,0
20200321,0,0,0,0,0,0,0,0
20200322,0,0,0,0,0,0,0,0
20200323,0,0,0,0,0,0,0,0
20200324,0,0,0,0,0,0,0,0
20200325,0,0,0,0,0,0,0,0
20200326,0,0,0,0,0,0,0,0
20200327,0,0,0,0,0,0,0,0
20200328,0,0,0,0,0,0,0,0
20200329,0,0,0,0,0,0,0,0
20200330,0,0,0,0,0,0,0,0
20200331,0,0,0,0,0,0,0,0
20200401,0,0,0,0,0,0,0,0
20200402,0,0,0,0,0,0,0,0
20200403,0,0,0,0,0,0,0,0
20200404,0,0,0,0,0,0,0,0
20200405,0,0,0,0,0,0,0,0
20200406,0,0,0,0,0,0,0,0
20200407,0,0,0,0,0,0,0,0
20200408,0,0,0,0,0,0,0,0
20200409,0,0,0,0,0,0,0,0
20200410,0,0,0,0,0,0,0,0
20200411,0,0,0,0,0,0,0,0
20200412,0,0,0,0,0,0,0,0
20200413,0,0,0,0,0,0,0,0
20200414,0,0,0,0,0,0,0,0
20200415,0,0,0,0,0,0,0,0
20200416,0,0,0,0,0,0,0,0
20200417,0,0,0,0,0,0,0,0
20200418,0,0,0,0,0,0,0,0
20200419,0,0,0,0,0,0,0,0
20200420,0,0,0,0,0,0,0,0
20200421,0,0,0,0,0,0,0,0
20200422,0,0,0,0,0,0,0,0
20200423,0,0,0,0,0,0,0,0
20200424,0,0,0,0,0,0,0,0
20200425,0,0,0,0,0,0,0,0
20200426,0,0,0,0,0,0,0,0
20200427,0,0,0,0,0,0,0,0
20200428,0,0,0,0,0,0,0,0
20200429,0,0,0,0,0,0,0,0
20200430,0,0,0,0,0,0,0,0
20200501,0,0,0,0,0,0,0,0
20200502,0,0,0,0,0,0,0,0
20200503,0,0,0,0,0,0,0,0
20200504,0,0,0,0,0,0,0,0
20200505,0,0,0,0,0,0,0,0
20200506,0,0,0,0,0,0,0,0
20200507,0,0,0,0,0,0,0,0
20200508,0,0,0,0,0,0,0,0
20200509,0,0,0,0,0,0,0,0
20200510,0,0,0,0,0,0,0,0
20200511,0,0,0,0,0,0,0,0
20200512,0,0,0,0,0,0,0,0
20200513,0,0,0,0,0,0,0,0
20200514,0,0,0,0,0,0,0,0
20200515,0,0,0,0,0,0,0,0
20200516,0,0,0,0,0,0,0,0
20200517,0,0,0,0,0,0,0,0
20200518,0,0,0,0,0,0,0,0
20200519,0,0,0,0,0,0,0,0
20200520,0,0,0,0,0,0,0,0
20200521,0,0,0,0,0,0,0,0
20200522,0,0,0,0,0,0,0,0
20200523,0,0,0,0,0,0,0,0
20200524,0,0,0,0,0,0,0,0
20200525,0,0,0,0,0,0,0,0
20200526,0,0,0,0,0,0,0,0
20200527,0,0,0,0,0,0,0,0
20200528,0,0,0,0,0,0,0,0
20200529,0,0,0,0,0,0,0,0
20200530,0,0,0,0,0,0,0,0
20200531,0,0,0,0,0,0,0,0
20200601,0,0,0,0,0,0,0,0
20200602,0,0,0,0,0,0,0,0
20200603,0,0,0,0,0,0,0,0
20200604,0,0,0,0,0,0,0,0
20200605,0,0,0,0,0,0,0,0
20200606,0,0,0,0,0,0,0,0
20200607,0,0,0,0,0,0,0,0
20200608,0,0,0,0,0,0,0,0
20200609,0,0,0,0,0,0,0,0
20200610,0,0,0,0,0,0,0,0
20200611,0,0,0,0,0,0,0,0
20200612,0,0,0,0,0,0,0,0
20200613,0,0,0,0,0,0,0,0
20200614,0,0,0,0,0,0,0,0
20200615,0,0,0,0,0,0,0,0
20200616,0,0,0,0,0,0,0,0
20200617,0,0,0,0,0,0,0,0
20200618,0,0,0,0,0,0,0,0
20200619,0,0,0,0,0,0,0,0
20200620,0,0,0,0,0,0,0,0
20200621,0,0,0,0,0,0,0,0
20200622,0,0,0,0,0,0,0,0
20200623,0,0,0,0,0,0,0,0
20200624,0,0,0,0,0,0,0,0
20200625,0,0,0,0,0,0,0,0
20200626,0,0,0,0,0,0,0,0
20200627,0,0,0,0,0,0,0,0
20200628,0,0,0,0,0,0,0,0
20200629,0,0,0,0,0,0,0,0
20200630,0,0,0,0,0,0,0,0
20200701,0,0,0,0,0,0,0,0
20200702,0,0,0,0,0,0,0,0
20200703,0,0,0,0,0,0,0,0
20200704,0,0,0,0,0,0,0,0
20200705,0,0,0,0,0,0,0,0
20200706,0,0,0,0,0,0,0,0
20200707,0,0,0,0,0,0,0,0
20200708,0,0,0,0,0,0,0,0
20200709,0,0,0,0,0,0,0,0
20200710,0,0,0,0,0,0,0,0
20200711,0,0,0,0,0,0,0,0
20200712,0,0,0,0,0,0,0,0
20200713,0,0,0,0,0,0,0,0
20200714,0,0,0,0,0,0,0,0
20200715,0,0,0,0,0,0,0,0
20200716,0,0,0,0,0,0,0,0
20200717,0,0,0,0,0,0,0,0
20200718,0,0,0,0,0,0,0,0
20200719,0,0,0,0,0,0,0,0
20200720,0,0,0,0,0,0,0,0
20200721,0,0,0,0,0,0,0,0
20200722,0,0,0,0,0,0,0,0
20200723,0,0,0,0,0,0,0,0
20200724,0,0,0,0,0,0,0,0
20200725,0,0,0,0,0,0,0,0
20200726,0,0,0,0,0,0,0,0
20200727,0,0,0,0,0,0,0,0
20200728,0,0,0,0,0,0,0,0
20200729,0,0,0,0,0,0,0,0
20200730,0,0,0,0,0,0,0,0
20200731,0,0,0,0,0,0,0,0
20200801,0,0,0,0,0,0,0,0
20200802,0,0,0,0,0,0,0,0
20200803,0,0,0,0,0,0,0,0
20200804,0,0,0,0,0,0,0,0
20200805,0,0,0,0,0,0,0,0
20200806,0,0,0,0,0,0,0,0
20200807,0,0,0,0,0,0,0,0
20200808,0,0,0,0,0,0,0,0
20200809,0,0,0,0,0,0,0,0
20200810,0,0,0,0,0,0,0,0
20200811,0,0,0,0,0,0,0,0
20200812,0,0,0,0,0,0,0,0
20200813,0,0,0,0,0,0,0,0
20200814,0,0,0,0,0,0,0,0
20200815,0,0,0,0,0,0,0,0
20200816,0,0,0,0,0,0,0,0
20200817,0,0,0,0,0,0,0,0
20200818,0,0,0,0,0,0,0,0
20200819,0,0,0,0,0,0,0,0
20200820,0,0,0,0,0,0,0,0
20200821,0,0,0,0,0,0,0,0
20200822,0,0,0,0,0,0,0,0
20200823,0,0,0,0,0,0,0,0
20200824,0,0,0,0,0,0,0,0
20200825,0,0,0,0,0,0,0,0
20200826,0,0,0,0,0,0,0,0
20200827,0,0,0,0,0,0,0,0
20200828,0,0,0,0,0,0,0,0
20200829,0,0,0,0,0,0,0,0
20200830,0,0,0,0,0,0,0,0
20200831,0,0,0,0,0,0,0,0
20200901,0,0,0,0,0,0,0,0
20200902,0,0,0,0,0,0,0,0
20200903,0,0,0,0,0,0,0,0
20200904,0,0,0,0,0,0,0,0
20200905,0,0,0,0,0,0,0,0
20200906,0,0,0,0,0,0,0,0
20200907,0,0,0,0,0,0,0,0
20200908,0,0,0,0,0,0,0,0
20200909,0,0,0,0,0,0,0,0
20200910,0,0,0,0,0,0,0,0
20200911,0,0,0,0,0,0,0,0
20200912,0,0,0,0,0,0,0,0
20200913,0,0,0,0,0,0,0,0
20200914,0,0,0,0,0,0,0,0
20200915,0,0,0,0,0,0,0,0
20200916,0,0,0,0,0,0,0,0
20200917,0,0,0,0,0,0,0,0
20200918,0,0,0,0,0,0,0,0
20200919,0,0,0,0,0,0,0,0
20200920,0,0,0,0,0,0,0,0
20200921,0,0,0,0,0,0,0,0
20200922,0,0,0,0,0,0,0,0
20200923,0,0,0,0,0,0,0,0
20200924,0,0,0,0,0,0,0,0
20200925,0,0,0,0,0,0,0,0
20200926,0,0,0,0,0,0,0,0
20200927,0,0,0,0,0,0,0,0
20200928,0,0,0,0,0,0,0,0
20200929,0,0,0,0,0,0,0,0
20200930,0,0,0,0,0,0,0,0
20201001,0,0,0,0,0,0,0,0
20201002,0,0,0,0,0,0,0,0
20201003,0,0,0,0,0,0,0,0
20201004,0,0,0,0,0,0,0,0
20201005,0,0,0,0,0,0,0,0
20201006,0,0,0,0,0,0,0,0
20201007,0,0,0,0,0,0,0,0
20201008,0,0,0,0,0,0,0,0
20201009,0,0,0,0,0,0,0,0
20201010,0,0,0,0,0,0,0,0
20201011,0,0,0,0,0,0,0,0
20201012,0,0,0,0,0,0,0,0
20201013,0,0,0,0,0,0,0,0
20201014,0,0,0,0,0,0,0,0
20201015,0,0,0,0,0,0,0,0
20201016,0,0,0,0,0,0,0,0
20201017,0,0,0,0,0,0,0,0
20201018,0,0,0,0,0,0,0,0
20201019,0,0,0,0,0,0,0,0
20201020,0,0,0,0,0,0,0,0
20201021,0,0,0,0,0,0,0,0
20201022,0,0,0,0,0,0,0,0
20201023,0,0,0,0,0,0,0,0
20201024,0,0,0,0,0,0,0,0
20201025,0,0,0,0,0,0,0,0
20201026,0,0,0,0,0,0,0,0
20201027,0,0,0,0,0,0,0,0
20201028,0,0,0,0,0,0,0,0
20201029,0,0,0,0,0,0,0,0
20201030,0,0,0,0,0,0,0,0
20201031,0,0,0,0,0,0,0,0
20201101,0,0,0,0,0,0,0,0
20201102,0,0,0,0,0,0,0,0
20201103,0,0,0,0,0,0,0,0
20201104,0,0,0,0,0,0,0,0
20201105,0,0,0,0,0,0,0,0
20201106,0,0,0,0,0,0,0,0
20201107,0,0,0,0,0,0,0,0
20201108,0,0,0,0,0,0,0,0
20201109,0,0,0,0,0,0,0,0
20201110,0,0,0,0,0,0,0,0
20201111,0,0,0,0,0,0,0,0
20201112,0,0,0,0,0,0,0,0
20201113,0,0,0,0,0,0,0,0
20201114,0,0,0,0,0,0,0,0
20201115,0,0,0,0,0,0,0,0
20201116,0,0,0,0,0,0,0,0
20201117,0,0,0,0,0,0,0,0
20201118,0,0,0,0,0,0,0,0
20201119,0,0,0,0,0,0,0,0
20201120,0,0,0,0,0,0,0,0
20201121,0,0,0,0,0,0,0,0
20201122,0,0,0,0,0,0,0,0
20201123,0,0,0,0,0,0,0,0
20201124,0,0,0,0,0,0,0,0
20201125,0,0,0,0,0,0,0,0
20201126,0,0,0,0,0,0,0,0
20201127,0,0,0,0,0,0,0,0
20201128,0,0,0,0,0,0,0,0
20201129,0,0,0,0,0,0,0,0
20201130,0,0,0,0,0,0,0,0
20201201,0,0,0,0,0,0,0,0
20201202,0,0,0,0,0,0,0,0
20201203,0,0,0,0,0,0,0,0
20201204,0,0,0,0,0,0,0,0
20201205,0,0,0,0,0,0,0,0
20201206,0,0,0,0,0,0,0,0
20201207,0,0,0,0,0,0,0,0
20201208,0,0,0,0,0,0,0,0
20201209,0,0,0,0,0,0,0,0
20201210,0,0,0,0,0,0,0,0
20201211,0,0,0,0,0,0,0,0
20201212,0,0,0,0,0,0,0,0
20201213,0,0,0,0,0,0,0,0
20201214,0,0,0,0,0,0,0,0
20201215,0,0,0,0,0,0,0,0
20201216,0,0,0,0,0,0,0,0
20201217,0,0,0,0,0,0,0,0
20201218,0,0,0,0,0,0,0,0
20201219,0,0,0,0,0,0,0,0
20201220,0,0,0,0,0,0,0,0
20201221,0,0,0,0,0,0,0,0
20201222,0,0,0,0,0,0,0,0
20201223,0,0,0,0,0,0,0,0
20201224,0,0,0,0,0,0,0,0
20201225,0,0,0,0,0,0,0,0
20201226,0,0,0,0,0,0,0,0
20201227,0,0,0,0,0,0,0,0
20201228,0,0,0,0,0,0,0,0
20201229,0,0,0,0,0,0,0,0
20201230,0,0,0,0,0,0,0,0
20201231,0,0,0,0,0,0,0,0
20210101,0,0,0,0,0,0,0,0
20210102,0,0,0,0,0,0,0,0
20210103,0,0,0,0,0,0,0,0
20210104,0,0,0,0,0,0,0,0
20210105,0,0,0,0,0,0,0,0
20210106,0,0,0,0,0,0,0,0
20210107,0,0,0,0,0,0,0,0
20210108,0,0,0,0,0,0,0,0
20210109,0,0,0,0,0,0,0,0
20210110,0,0,0,0,0,0,0,0
20210111,0,0,0,0,0,0,0,0
20210112,0,0,0,0,0,0,0,0
20210113,0,0,0,0,0,0,0,0
20210114,0,0,0,0,0,0,0,0
20210115,0,0,0,0,0,0,0,0
20210116,0,0,0,0,0,0,0,0
20210117,0,0,0,0,0,0,0,0
20210118,0,0,0,0,0,0,0,0
20210119,0,0,0,0,0,0,0,0
20210120,0,0,0,0,0,0,0,0
20210121,0,0,0,0,0,0,0,0
20210122,0,0,0,0,0,0,0,0
20210123,0,0,0,0,0,0,0,0
20210124,0,0,0,0,0,0,0,0
20210125,0,0,0,0,0,0,0,0
20210126,0,0,0,0,0,0,0,0
20210127,0,0,0,0,0,0,0,0
20210128,0,0,0,0,0,0,0,0
20210129,0,0,0,0,0,0,0,0
20210130,0,0,0,0,0,0,0,0
20210131,0,0,0,0,0,0,0,0
20210201,0,0,0,0,0,0,0,0
20210202,0,0,0,0,0,0,0,0
20210203,0,0,0,0,0,0,0,0
20210204,0,0,0,0,0,0,0,0
20210205,0,0,0,0,0,0,0,0
20210206,0,0,0,0,0,0,0,0
20210207,0,0,0,0,0,0,0,0
20210208,0,0,0,0,0,0,0,0
20210209,0,0,0,0,0,0,0,0
20210210,0,0,0,0,0,0,0,0
20210211,0,0,0,0,0,0,0,0
20210212,0,0,0,0,0,0,0,0
20210213,0,0,0,0,0,0,0,0
20210214,0,0,0,0,0,0,0,0
20210215,0,0,0,0,0,0,0,0
20210216,0,0,0,0,0,0,0,0
20210217,0,0,0,0,0,0,0,0
20210218,0,0,0,0,0,0,0,0
20210219,0,0,0,0,0,0,0,0
20210220,0,0,0,0,0,0,0,0
20210221,0,0,0,0,0,0,0,0
20210222,0,0,0,0,0,0,0,0
20210223,0,0,0,0,0,0,0,0
20210224,0,0,0,0,0,0,0,0
20210225,0,0,0,0,0,0,0,0
20210226,0,0,0,0,0,0,0,0
20210227,0,0,0,0,0,0,0,0
20210228,0,0,0,0,0,0,0,0
20210301,0,0,0,0,0,0,0,0
20210302,0,0,0,0,0,0,0,0
20210303,0,0,0,0,0,0,0,0
20210304,0,0,0,0,0,0,0,0
20210305,0,0,0,0,0,0,0,0
20210306,0,0,0,0,0,0,0,0
20210307,0,0,0,0,0,0,0,0
20210308,0,0,0,0,0,0,0,0
20210309,0,0,0,0,0,0,0,0
20210310,0,0,0,0,0,0,0,0
20210311,0,0,0,0,0,0,0,0
20210312,0,0,0,0,0,0,0,0
20210313,0,0,0,0,0,0,0,0
20210314,0,0,0,0,0,0,0,0
20210315,0,0,0,0,0,0,0,0
20210316,0,0,0,0,0,0,0,0
20210317,0,0,0,0,0,0,0,0
20210318,0,0,0,0,0,0,0,0
20210319,0,0,0,0,0,0,0,0
20210320,0,0,0,0,0,0,0,0
20210321,0,0,0,0,0,0,0,0
20210322,0,0,0,0,0,0,0,0
20210323,0,0,0,0,0,0,0,0
20210324,0,0,0,0,0,0,0,0
20210325,0,0,0,0,0,0,0,0
20210326,0,0,0,0,0,0,0,0
20210327,0,0,0,0,0,0,0,0
20210328,0,0,0,0,0,0,0,0
20210329,0,0,0,0,0,0,0,0
20210330,0,0,0,0,0,0,0,0
20210331,0,0,0,0,0,0,0,0
20210401,0,0,0,0,0,0,0,0
20210402,0,0,0,0,0,0,0,0
20210403,0,0,0,0,0,0,0,0
20210404,0,0,0,0,0,0,0,0
20210405,0,0,0,0,0,0,0,0
20210406,0,0,0,0,0,0,0,0
20210407,0,0,0,0,0,0,0,0
20210408,0,0,0,0,0,0,0,0
20210409,0,0,0,0,0,0,0,0
20210410,0,0,0,0,0,0,0,0
20210411,0,0,0,0,0,0,0,0
20210412,0,0,0,0,0,0,0,0
20210413,0,0,0,0,0,0,0,0
20210414,0,0,0,0,0,0,0,0
20210415,0,0,0,0,0,0,0,0
20210416,0,0,0,0,0,0,0,0
20210417,0,0,0,0,0,0,0,0
20210418,0,0,0,0,0,0,0,0
20210419,0,0,0,0,0,0,0,0
20210420,0,0,0,0,0,0,0,0
20210421,0,0,0,0,0,0,0,0
20210422,0,0,0,0,0,0,0,0
20210423,0,0,0,0,0,0,0,0
20210424,0,0,0,0,0,0,0,0
20210425,0,0,0,0,0,0,0,0
20210426,0,0,0,0,0,0,0,0
20210427,0,0,0,0,0,0,0,0
20210428,0,0,0,0,0,0,0,0
20210429,0,0,0,0,0,0,0,0
20210430,0,0,0,0,0,0,0,0
20210501,0,0,0,0,0,0,0,0
20210502,0,0,0,0,0,0,0,0
20210503,0,0,0,0,0,0,0,0
20210504,0,0,0,0,0,0,0,0
20210505,0,0,0,0,0,0,0,0
20210506,0,0,0,0,0,0,0,0
20210507,0,0,0,0,0,0,0,0
20210508,0,0,0,0,0,0,0,0
20210509,0,0,0,0,0,0,0,0
20210510,0,0,0,0,0,0,0,0
20210511,0,0,0,0,0,0,0,0
20210512,0,0,0,0,0,0,0,0
20210513,0,0,0,0,0,0,0,0
20210514,0,0,0,0,0,0,0,0
20210515,0,0,0,0,0,0,0,0
20210516,0,0,0,0,0,0,0,0
20210517,0,0,0,0,0,0,0,0
20210518,0,0,0,0,0,0,0,0
20210519,0,0,0,0,0,0,0,0
20210520,0,0,0,0,0,0,0,0
20210521,0,0,0,0,0,0,0,0
20210522,0,0,0,0,0,0,0,0
20210523,0,0,0,0,0,0,0,0
20210524,0,0,0,0,0,0,0,0
20210525,0,0,0,0,0,0,0,0
20210526,0,0,0,0,0,0,0,0
20210527,0,0,0,0,0,0,0,0
20210528,0,0,0,0,0,0,0,0
20210529,0,0,0,0,0,0,0,0
20210530,0,0,0,0,0,0,0,0
20210531,0,0,0,0,0,0,0,0
20210601,0,0,0,0,0,0,0,0
20210602,0,0,0,0,0,0,0,0
20210603,0,0,0,0,0,0,0,0
20210604,0,0,0,0,0,0,0,0
20210605,0,0,0,0,0,0,0,0
20210606,0,0,0,0,0,0,0,0
20210607,0,0,0,0,0,0,0,0
20210608,0,0,0,0,0,0,0,0
20210609,0,0,0,0,0,0,0,0
20210610,0,0,0,0,0,0,0,0
20210611,0,0,0,0,0,0,0,0
20210612,0,0,0,0,0,0,0,0
20210613,0,0,0,0,0,0,0,0
20210614,0,0,0,0,0,0,0,0
20210615,0,0,0,0,0,0,0,0
20210616,0,0,0,0,0,0,0,0
20210617,0,2,0,0,0,2,0,0
20210618,0,2,0,0,0,0,0,0
20210619,0,2,0,0,0,0,0,0
20210620,0,2,0,0,0,0,0,0
20210621,0,2,0,0,0,0,0,0
20210622,0,0,0,0,0,-2,0,0
20210623,0,0,0,0,0,0,0,0
20210624,0,0,0,0,0,0,0,0
20210625,0,0,0,0,0,0,0,0
20210626,0,0,0,0,0,0,0,0
20210627,0,0,0,0,0,0,0,0
20210628,0,0,0,0,0,0,0,0
20210629,0,0,0,0,0,0,0,0
20210630,0,0,0,0,0,0,0,0
20210701,0,0,0,0,0,0,0,0
20210702,0,0,0,0,0,0,0,0
20210703,0,0,0,0,0,0,0,0
20210704,0,0,0,0,0,0,0,0
20210705,0,0,0,0,0,0,0,0
20210706,0,0,0,0,0,0,0,0
20210707,0,0,0,0,0,0,0,0
20210708,0,0,0,0,0,0,0,0
20210709,0,0,0,0,0,0,0,0
20210710,0,0,0,0,0,0,0,0
20210711,0,0,0,0,0,0,0,0
20210712,0,0,0,0,0,0,0,0
20210713,0,0,0,0,0,0,0,0
20210714,0,0,0,0,0,0,0,0
20210715,0,0,0,0,0,0,0,0
20210716,0,0,0,0,0,0,0,0
20210717,0,0,0,0,0,0,0,0
20210718,0,0,0,0,0,0,0,0
20210719,0,0,0,0,0,0,0,0
20210720,0,0,0,0,0,0,0,0
20210721,0,0,0,0,0,0,0,0
20210722,0,0,0,0,0,0,0,0
20210723,0,0,0,0,0,0,0,0
20210724,0,0,0,0,0,0,0,0
20210725,0,0,0,0,0,0,0,0
20210726,0,0,0,0,0,0,0,0
20210727,0,0,0,0,0,0,0,0
20210728,0,0,0,0,0,0,0,0
20210729,0,0,0,0,0,0,0,0
20210730,0,0,0,0,0,0,0,0
20210731,0,0,0,0,0,0,0,0
20210801,0,0,0,0,0,0,0,0
20210802,0,0,0,0,0,0,0,0
20210803,0,0,0,0,0,0,0,0
20210804,0,0,0,0,0,0,0,0
20210805,0,0,0,0,0,0,0,0
20210806,0,0,0,0,0,0,0,0
20210807,0,0,0,0,0,0,0,0
20210808,0,0,0,0,0,0,0,0
20210809,0,0,0,0,0,0,0,0
20210810,0,0,0,0,0,0,0,0
20210811,0,0,0,0,0,0,0,0
20210812,0,0,0,0,0,0,0,0
20210813,0,0,0,0,0,0,0,0
20210814,0,0,0,0,0,0,0,0
20210815,0,0,0,0,0,0,0,0
20210816,0,0,0,0,0,0,0,0
20210817,0,0,0,0,0,0,0,0
20210818,0,0,0,0,0,0,0,0
20210819,0,0,0,0,0,0,0,0
20210820,0,0,0,0,0,0,0,0
20210821,0,0,0,0,0,0,0,0
20210822,1,0,0,0,1,0,0,0
20210823,1,0,0,0,0,0,0,0
20210824,2,0,0,0,1,0,0,0
20210825,2,0,0,0,0,0,0,0
20210826,2,0,0,0,0,0,0,0
20210827,2,0,0,0,0,0,0,0
20210828,2,0,0,0,0,0,0,0
20210829,2,0,0,0,0,0,0,0
20210830,2,0,0,0,0,0,0,0
20210831,2,0,0,0,0,0,0,0
20210901,2,0,0,0,0,0,0,0
20210902,2,0,0,0,0,0,0,0
20210903,2,0,0,0,0,0,0,0
20210904,2,0,0,0,0,0,0,0
