date,infected,active,recovered,dead,deltaInfected,deltaActive,deltaRecovered,deltaDead
20200306,1,1,0,0,1,1,0,0
20200307,1,1,0,0,0,0,0,0
20200308,1,1,0,0,0,0,0,0
20200309,1,1,0,0,0,0,0,0
20200310,5,5,0,0,4,4,0,0
20200311,12,12,0,0,7,7,0,0
20200312,19,19,0,0,7,7,0,0
20200313,35,35,0,0,16,16,0,0
20200314,46,46,0,0,11,11,0,0
20200315,48,48,0,0,2,2,0,0
20200316,55,54,1,0,7,6,1,0
20200317,65,64,1,0,10,10,0,0
20200318,83,82,1,0,18,18,0,0
20200319,103,102,1,0,20,20,0,0
20200320,135,133,1,1,32,31,0,1
20200321,171,169,1,1,36,36,0,0
20200322,222,218,2,2,51,49,1,1
20200323,249,243,3,3,27,25,1,1
20200324,303,285,15,3,54,42,12,0
20200325,384,365,15,4,81,80,0,1
20200326,384,383,0,1,0,18,-15,-3
20200327,457,456,0,1,73,73,0,0
20200328,659,649,0,10,202,193,0,9
20200329,741,728,0,13,82,79,0,3
20200330,785,769,0,16,44,41,0,3
20200331,900,884,0,16,115,115,0,0
20200401,1060,1032,0,28,160,148,0,12
20200402,1171,1140,0,31,111,108,0,3
20200403,1476,1437,0,39,305,297,0,8
20200404,1624,1580,0,44,148,143,0,5
20200405,1908,1857,0,51,284,277,0,7
20200406,2200,2142,0,58,292,285,0,7
20200407,2447,2386,0,61,247,244,0,3
20200408,2666,2601,0,65,219,215,0,4
20200409,2867,2801,0,66,201,200,0,1
20200410,3105,3034,0,71,238,233,0,5
20200411,3380,3306,0,74,275,272,0,3
20200412,3630,3550,0,80,250,244,0,6
20200413,4054,3969,0,85,424,419,0,5
20200414,4465,4371,0,94,411,402,0,9
20200415,4873,4774,0,99,408,403,0,5
20200416,5318,5215,0,103,445,441,0,4
20200417,5690,5046,534,110,372,-169,534,7
20200418,5994,5240,637,117,304,194,103,7
20200419,6318,5443,753,122,324,203,116,5
20200420,6630,5635,870,125,312,192,117,3
20200421,6630,5635,870,125,0,0,0,0
20200422,6630,5635,870,125,0,0,0,0
20200423,6630,5635,870,125,0,0,0,0
20200424,6630,5635,870,125,0,0,0,0
20200425,6630,5635,870,125,0,0,0,0
20200426,6630,5635,870,125,0,0,0,0
20200427,6630,5635,870,125,0,0,0,0
20200428,6630,5635,870,125,0,0,0,0
20200429,6630,5635,870,125,0,0,0,0
20200430,9009,7487,1343,179,2379,1852,473,54
20200501,9009,7487,1343,179,0,0,0,0
20200502,9362,7747,1426,189,353,260,83,10
20200503,9464,7720,1551,193,102,-27,125,4
20200504,9557,7786,1574,197,93,66,23,4
20200505,9677,7754,1723,200,120,-32,149,3
20200506,9791,7617,1971,203,114,-137,248,3
20200507,9848,7482,2160,206,57,-135,189,3
20200508,9943,7281,2453,209,95,-201,293,3
20200509,10032,7085,2732,215,89,-196,279,6
20200510,10032,7085,2732,215,0,0,0,0
20200511,10176,6668,3290,218,144,-417,558,3
20200512,10243,6423,3600,220,67,-245,310,2
20200513,10295,6249,3824,222,52,-174,224,2
20200514,10374,6066,4084,224,79,-183,260,2
20200515,10438,5912,4301,225,64,-154,217,1
20200516,10496,5789,4479,228,58,-123,178,3
20200517,10610,5667,4713,230,114,-122,234,2
20200518,10699,5669,4799,231,89,2,86,1
20200519,10733,5595,4904,234,34,-74,105,3
20200520,10833,5531,5067,235,100,-64,163,1
20200521,10919,5312,5370,237,86,-219,303,2
20200522,11024,5246,5541,237,105,-66,171,0
20200523,11092,5155,5699,238,68,-91,158,1
20200524,11159,5064,5857,238,67,-91,158,0
20200525,11193,5034,5920,239,34,-30,63,1
20200526,11227,4921,6067,239,34,-113,147,0
20200527,11275,4758,6277,240,48,-163,210,1
20200528,11300,4621,6438,241,25,-137,161,1
20200529,11354,4588,6524,242,54,-33,86,1
20200530,11381,4533,6606,242,27,-55,82,0
20200531,11412,4471,6698,243,31,-62,92,1
20200601,11430,4460,6726,244,18,-11,28,1
20200602,11454,4443,6766,245,24,-17,40,1
20200603,11523,4426,6852,245,69,-17,86,0
20200604,11571,4415,6910,246,48,-11,58,1
20200605,11667,4489,6931,247,96,74,21,1
20200606,11741,437,11056,248,74,-4052,4125,1
20200607,11823,226,11348,249,82,-211,292,1
20200608,11896,457,11189,250,73,231,-159,1
20200609,11965,447,11268,250,69,-10,79,0
20200610,12031,432,11348,251,66,-15,80,1
20200611,12102,488,11362,252,71,56,14,1
20200612,12175,512,11411,252,73,24,49,0
20200613,12251,533,11465,253,76,21,54,1
20200614,12310,545,11511,254,59,12,46,1
20200615,12367,551,11561,255,57,6,50,1
20200616,12426,546,11624,256,59,-5,63,1
20200617,12522,568,11697,257,96,22,73,1
20200618,12616,589,11769,258,94,21,72,1
20200619,12709,628,11822,259,93,39,53,1
20200620,12803,654,11889,260,94,26,67,1
20200621,12894,686,11947,261,91,32,58,1
20200622,12990,731,11997,262,96,45,50,1
20200623,13092,775,12054,263,102,44,57,1
20200624,13235,861,12111,263,143,86,57,0
20200625,13372,954,12154,264,137,93,43,1
20200626,13565,1068,12232,265,193,114,78,1
20200627,13792,1187,12338,267,227,119,106,2
20200628,14046,1312,12464,270,254,125,126,3
20200629,14288,1433,12581,274,242,121,117,4
20200630,14564,1625,12662,277,276,192,81,3
20200701,14836,1783,12772,281,272,158,110,4
20200702,15195,1996,12912,287,359,213,140,6
20200703,15504,2142,13064,298,309,146,152,11
20200704,15829,2347,13176,306,325,205,112,8
20200705,16131,2553,13267,311,302,206,91,5
20200706,16420,2737,13366,317,289,184,99,6
20200707,16719,2942,13447,330,299,205,81,13
20200708,17076,3173,13562,341,357,231,115,11
20200709,17342,3339,13651,352,266,166,89,11
20200710,17728,3639,13719,370,386,300,68,18
20200711,18073,3911,13780,382,345,272,61,12
20200712,18360,4091,13876,393,287,180,96,11
20200713,18639,4294,13940,405,279,203,64,12
20200714,18983,4574,13991,418,344,280,51,13
20200715,19334,4858,14047,429,351,284,56,11
20200716,19717,4858,14417,442,383,0,370,13
20200717,20109,4858,14799,452,392,0,382,10
20200718,20498,4858,15179,461,389,0,380,9
20200719,20894,4858,15564,472,396,0,385,11
20200720,21253,20771,0,482,359,15913,-15564,10
20200721,21605,21114,0,491,352,343,0,9
20200722,22031,21532,0,499,426,418,0,8
20200723,22443,21935,0,508,412,403,0,9
20200724,22852,22334,0,518,409,399,0,10
20200725,22852,22334,0,518,0,0,0,0
20200726,23730,23196,0,534,878,862,0,16
20200727,24141,23598,0,543,411,402,0,9
20200728,24520,23969,0,551,379,371,0,8
20200729,24892,24334,0,558,372,365,0,7
20200730,25213,24648,0,565,321,314,0,7
20200731,25552,24979,0,573,339,331,0,8
20200801,25882,25300,0,582,330,321,0,9
20200802,26193,25603,0,590,311,303,0,8
20200803,26451,25853,0,598,258,250,0,8
20200804,26738,26133,0,605,287,280,0,7
20200805,27033,26419,0,614,295,286,0,9
20200806,27332,26711,0,621,299,292,0,7
20200807,27608,26982,0,626,276,271,0,5
20200808,27863,27231,0,632,255,249,0,6
20200809,28099,27458,0,641,236,227,0,9
20200810,28262,27616,0,646,163,158,0,5
20200811,28497,27845,0,652,235,229,0,6
20200812,28751,28093,0,658,254,248,0,6
20200813,28998,28337,0,661,247,244,0,3
20200814,29233,28568,0,665,235,231,0,4
20200815,29471,28801,0,670,238,233,0,5
20200816,29682,29008,0,674,211,207,0,4
20200817,29782,29105,0,677,100,97,0,3
20200818,29890,29209,0,681,108,104,0,4
20200819,30048,29364,0,684,158,155,0,3
20200820,30209,29520,0,689,161,156,0,5
20200821,30378,29686,0,692,169,166,0,3
20200822,30548,29853,0,695,170,167,0,3
20200823,30657,29959,0,698,109,106,0,3
20200824,30714,30013,0,701,57,54,0,3
20200825,30820,30115,0,705,106,102,0,4
20200826,30974,30267,0,707,154,152,0,2
20200827,31099,30392,0,707,125,125,0,0
20200828,31207,30498,0,709,108,106,0,2
20200829,31282,30572,0,710,75,74,0,1
20200830,31365,30654,0,711,83,82,0,1
20200831,31406,30693,0,713,41,39,0,2
20200901,31482,30767,0,715,76,74,0,2
20200902,31581,30865,0,716,99,98,0,1
20200903,31676,30958,0,718,95,93,0,2
20200904,31772,31051,0,721,96,93,0,3
20200905,31849,31126,0,723,77,75,0,2
20200906,31905,31181,0,724,56,55,0,1
20200907,31941,31216,0,725,36,35,0,1
20200908,31994,31267,0,727,53,51,0,2
20200909,32078,31350,0,728,84,83,0,1
20200910,32136,31407,0,729,58,57,0,1
20200911,32228,31498,0,730,92,91,0,1
20200912,32300,31569,0,731,72,71,0,1
20200913,32408,31675,0,733,108,106,0,2
20200914,32437,31704,0,733,29,29,0,0
20200915,32511,31776,0,735,74,72,0,2
20200916,32613,31877,0,736,102,101,0,1
20200917,32695,31957,0,738,82,80,0,2
20200918,32757,32018,0,739,62,61,0,1
20200919,32840,32100,0,740,83,82,0,1
20200920,32908,32167,0,741,68,67,0,1
20200921,32938,32195,0,743,30,28,0,2
20200922,32999,32256,0,743,61,61,0,0
20200923,33080,32336,0,744,81,80,0,1
20200924,33163,32418,0,745,83,82,0,1
20200925,33238,32492,0,746,75,74,0,1
20200926,33312,32566,0,746,74,74,0,0
20200927,33384,32637,0,747,72,71,0,1
20200928,33414,32666,0,748,30,29,0,1
20200929,33479,32730,0,749,65,64,0,1
20200930,33551,32802,0,749,72,72,0,0
20201001,33662,32912,0,750,111,110,0,1
20201002,33735,32984,0,751,73,72,0,1
20201003,33842,33089,0,753,107,105,0,2
20201004,33901,33147,0,754,59,58,0,1
20201005,33952,33147,0,756,51,0,0,2
20201006,34072,33315,0,757,120,168,0,1
20201007,34193,33435,0,758,121,120,0,1
20201008,34344,33584,0,760,151,149,0,2
20201009,34517,33756,0,761,173,172,0,1
20201010,34685,33923,0,762,168,167,0,1
20201011,34787,34024,0,763,102,101,0,1
20201012,34854,34089,0,765,67,65,0,2
20201013,35006,34239,0,767,152,150,0,2
20201014,35251,34483,0,768,245,244,0,1
20201015,35454,34684,0,770,203,201,0,2
20201016,35719,34947,0,772,265,263,0,2
20201017,35946,35172,0,774,227,225,0,2
20201018,36160,35384,0,776,214,212,0,2
20201019,36282,35504,0,778,122,120,0,2
20201020,36608,35828,0,780,326,324,0,2
20201021,37120,36340,0,780,512,512,0,0
20201022,37536,36753,0,783,416,413,0,3
20201023,38115,37329,0,786,579,576,0,3
20201024,38872,38083,0,789,757,754,0,3
20201025,39486,38694,0,792,614,611,0,3
20201026,39827,39034,0,793,341,340,0,1
20201027,40880,40082,0,798,1053,1048,0,5
20201028,42208,41405,0,803,1328,1323,0,5
20201029,43592,42783,0,809,1384,1378,0,6
20201030,45137,44323,0,814,1545,1540,0,5
20201031,46954,46134,0,820,1817,1811,0,6
20201101,48403,47577,0,826,1449,1443,0,6
20201102,49205,48372,0,833,802,795,0,7
20201103,51083,50239,0,844,1878,1867,0,11
20201104,53495,52645,0,850,2412,2406,0,6
20201105,55676,54815,0,861,2181,2170,0,11
20201106,57958,57087,0,871,2282,2272,0,10
20201107,60635,59755,0,880,2677,2668,0,9
20201108,62747,61857,0,890,2112,2102,0,10
20201109,64065,63164,0,901,1318,1307,0,11
20201110,66888,65973,0,915,2823,2809,0,14
20201111,70424,69488,0,936,3536,3515,0,21
20201112,73765,72810,0,955,3341,3322,0,19
20201113,77264,76292,0,972,3499,3482,0,17
20201114,81086,80097,0,989,3822,3805,0,17
20201115,84568,83559,0,1009,3482,3462,0,20
20201116,87381,86351,0,1030,2813,2792,0,21
20201117,92375,91321,0,1054,4994,4970,0,24
20201118,97988,96907,0,1081,5613,5586,0,27
20201119,104097,102987,0,1110,6109,6080,0,29
20201120,110351,109211,0,1140,6254,6224,0,30
20201121,116125,114957,0,1168,5774,5746,0,28
20201122,121120,119921,0,1199,4995,4964,0,31
20201123,126187,124950,0,1237,5067,5029,0,38
20201124,133029,131755,0,1274,6842,6805,0,37
20201125,140608,139293,0,1315,7579,7538,0,41
20201126,148214,146848,0,1366,7606,7555,0,51
20201127,155994,154571,0,1423,7780,7723,0,57
20201128,163035,161551,0,1484,7041,6980,0,61
20201129,169214,167665,0,1549,6179,6114,0,65
20201130,175438,173834,0,1604,6224,6169,0,55
20201201,183437,181785,0,1652,7999,7951,0,48
20201202,191356,189652,0,1704,7919,7867,0,52
20201203,199158,197393,0,1765,7802,7741,0,61
20201204,206940,205106,0,1834,7782,7713,0,69
20201205,213843,211952,0,1891,6903,6846,0,57
20201206,219652,217703,0,1949,5809,5751,0,58
20201207,226209,224204,0,2005,6557,6501,0,56
20201208,234027,231965,0,2062,7818,7761,0,57
20201209,241831,239715,0,2116,7804,7750,0,54
20201210,249224,247052,0,2172,7393,7337,0,56
20201211,255758,253531,0,2227,6534,6479,0,55
20201212,261437,259162,0,2275,5679,5631,0,48
20201213,266432,264101,0,2331,4995,4939,0,56
20201214,271364,268984,0,2380,4932,4883,0,49
20201215,277248,274815,0,2433,5884,5831,0,53
20201216,282601,280119,0,2482,5353,5304,0,49
20201217,287730,285201,0,2529,5129,5082,0,47
20201218,292640,290060,0,2580,4910,4859,0,51
20201219,296528,293896,0,2632,3888,3836,0,52
20201220,300062,297376,0,2686,3534,3480,0,54
20201221,303747,301014,0,2733,3685,3638,0,47
20201222,307827,305045,0,2782,4080,4031,0,49
20201223,312253,309420,0,2833,4426,4375,0,51
20201224,316344,313462,0,2882,4091,4042,0,49
20201225,320167,317236,0,2931,3823,3774,0,49
20201226,323367,320384,0,2983,3200,3148,0,52
20201227,326060,323030,0,3030,2693,2646,0,47
20201228,328619,325546,0,3073,2559,2516,0,43
20201229,331755,328636,0,3119,3136,3090,0,46
20201230,334991,331828,0,3163,3236,3192,0,44
20201231,337923,334712,0,3211,2932,2884,0,48
20210101,339997,336747,0,3250,2074,2035,0,39
20210102,341904,338616,0,3288,1907,1869,0,38
20210103,343870,340545,0,3325,1966,1929,0,37
20210104,346585,343221,0,3364,2715,2676,0,39
20210105,349238,345833,0,3405,2653,2612,0,41
20210106,352120,348676,0,3444,2882,2843,0,39
20210107,353907,350428,0,3479,1787,1752,0,35
20210108,356125,352612,0,3513,2218,2184,0,34
20210109,356125,352612,0,3513,0,0,0,0
20210110,359689,356107,0,3582,3564,3495,0,69
20210111,361782,358172,0,3610,2093,2065,0,28
20210112,363924,360285,0,3639,2142,2113,0,29
20210113,366191,362527,0,3664,2267,2242,0,25
20210114,368072,364385,0,3687,1881,1858,0,23
20210115,369823,366115,0,3708,1751,1730,0,21
20210116,371216,367486,0,3730,1393,1371,0,22
20210117,372533,368783,0,3750,1317,1297,0,20
20210118,374111,370340,0,3771,1578,1557,0,21
20210119,375799,372008,0,3791,1688,1668,0,20
20210120,377445,373635,0,3810,1646,1627,0,19
20210121,379093,375263,0,3830,1648,1628,0,20
20210122,380802,376953,0,3849,1709,1690,0,19
20210123,382285,378417,0,3868,1483,1464,0,19
20210124,383603,379717,0,3886,1318,1300,0,18
20210125,385126,381221,0,3905,1523,1504,0,19
20210126,387206,383282,0,3924,2080,2061,0,19
20210127,389045,385101,0,3944,1839,1819,0,20
20210128,390637,386672,0,3965,1592,1571,0,21
20210129,392354,388371,0,3983,1717,1699,0,18
20210130,393897,389897,0,4000,1543,1526,0,17
20210131,395263,391243,0,4020,1366,1346,0,20
20210201,397002,392964,0,4038,1739,1721,0,18
20210202,398905,394849,0,4056,1903,1885,0,18
20210203,400837,396766,0,4071,1932,1917,0,15
20210204,402700,398615,0,4085,1863,1849,0,14
20210205,404668,400569,0,4099,1968,1954,0,14
20210206,406352,402240,0,4112,1684,1671,0,13
20210207,407881,403755,0,4126,1529,1515,0,14
20210208,409841,405702,0,4139,1960,1947,0,13
20210209,411855,407701,0,4154,2014,1999,0,15
20210210,413943,409775,0,4168,2088,2074,0,14
20210211,415943,411760,0,4183,2000,1985,0,15
20210212,417871,413672,0,4199,1928,1912,0,16
20210213,419493,415279,0,4214,1622,1607,0,15
20210214,420879,416649,0,4230,1386,1370,0,16
20210215,422210,417965,0,4245,1331,1316,0,15
20210216,424020,419759,0,4261,1810,1794,0,16
20210217,426487,422210,0,4277,2467,2451,0,16
20210218,429048,424756,0,4292,2561,2546,0,15
20210219,431680,427374,0,4306,2632,2618,0,14
20210220,434122,429801,0,4321,2442,2427,0,15
20210221,436640,432303,0,4337,2518,2502,0,16
20210222,439596,435245,0,4351,2956,2942,0,14
20210223,442853,438487,0,4366,3257,3242,0,15
20210224,446313,441930,0,4383,3460,3443,0,17
20210225,449901,445503,0,4398,3588,3573,0,15
20210226,453240,448826,0,4414,3339,3323,0,16
20210227,456450,452021,0,4429,3210,3195,0,15
20210228,459259,454816,0,4443,2809,2795,0,14
20210301,462728,458269,0,4459,3469,3453,0,16
20210302,466885,462410,0,4475,4157,4141,0,16
20210303,470941,466450,0,4491,4056,4040,0,16
20210304,474807,470299,0,4508,3866,3849,0,17
20210305,478878,474353,0,4525,4071,4054,0,17
20210306,482397,477855,0,4542,3519,3502,0,17
20210307,485439,480877,0,4562,3042,3022,0,20
20210308,489530,484951,0,4579,4091,4074,0,17
20210309,494106,489507,0,4599,4576,4556,0,20
20210310,498696,494076,0,4620,4590,4569,0,21
20210311,503291,498647,0,4644,4595,4571,0,24
20210312,507959,503289,0,4670,4668,4642,0,26
20210313,512051,507357,0,4694,4092,4068,0,24
20210314,516277,511558,0,4719,4226,4201,0,25
20210315,520911,516164,0,4747,4634,4606,0,28
20210316,526112,521334,0,4778,5201,5170,0,31
20210317,531558,526748,0,4810,5446,5414,0,32
20210318,536904,532064,0,4840,5346,5316,0,30
20210319,542209,537340,0,4869,5305,5276,0,29
20210320,546896,541996,0,4900,4687,4656,0,31
20210321,551128,546194,0,4934,4232,4198,0,34
20210322,555897,550931,0,4966,4769,4737,0,32
20210323,561372,556370,0,5002,5475,5439,0,36
20210324,566669,561630,0,5039,5297,5260,0,37
20210325,571895,566820,0,5075,5226,5190,0,36
20210326,571895,566820,0,5075,0,0,0,0
20210327,581617,576466,0,5151,9722,9646,0,76
20210328,585506,580316,0,5190,3889,3850,0,39
20210329,585506,580316,0,5190,0,0,0,0
20210330,595489,590219,0,5270,9983,9903,0,80
20210331,600596,595288,0,5308,5107,5069,0,38
20210401,605406,600061,0,5345,4810,4773,0,37
20210402,610232,604848,0,5384,4826,4787,0,39
20210403,614365,608943,0,5422,4133,4095,0,38
20210404,617669,612211,0,5458,3304,3268,0,36
20210405,621375,615878,0,5497,3706,3667,0,39
20210406,625773,620236,0,5537,4398,4358,0,40
20210407,629388,623809,0,5579,3615,3573,0,42
20210408,633013,627393,0,5620,3625,3584,0,41
20210409,636418,630759,0,5659,3405,3366,0,39
20210410,639476,633776,0,5700,3058,3017,0,41
20210411,642208,636473,0,5735,2732,2697,0,35
20210412,645173,639400,0,5773,2965,2927,0,38
20210413,648745,642937,0,5808,3572,3537,0,35
20210414,651899,646053,0,5846,3154,3116,0,38
20210415,654870,648989,0,5881,2971,2936,0,35
20210416,657716,651796,0,5920,2846,2807,0,39
20210417,660299,654345,0,5954,2583,2549,0,34
20210418,662368,656377,0,5991,2069,2032,0,37
20210419,664972,658946,0,6026,2604,2569,0,35
20210420,667937,661879,0,6058,2965,2933,0,32
20210421,670801,664706,0,6095,2864,2827,0,37
20210422,673520,667390,0,6130,2719,2684,0,35
20210423,675904,669740,0,6164,2384,2350,0,34
20210424,677972,671776,0,6196,2068,2036,0,32
20210425,679667,673440,0,6227,1695,1664,0,31
20210426,681654,675397,0,6257,1987,1957,0,30
20210427,683799,677513,0,6286,2145,2116,0,29
20210428,685937,679625,0,6312,2138,2112,0,26
20210429,687944,681607,0,6337,2007,1982,0,25
20210430,689557,683195,0,6362,1613,1588,0,25
20210501,690931,684545,0,6386,1374,1350,0,24
20210502,691920,685511,0,6409,989,966,0,23
20210503,693169,686737,0,6432,1249,1226,0,23
20210504,694473,688017,0,6456,1304,1280,0,24
20210505,695875,689397,0,6478,1402,1380,0,22
20210506,697241,690742,0,6499,1366,1345,0,21
20210507,698518,691999,0,6519,1277,1257,0,20
20210508,698518,691999,0,6519,0,0,0,0
20210509,700408,693850,0,6558,1890,1851,0,39
20210510,701326,694750,0,6576,918,900,0,18
20210511,702451,695857,0,6594,1125,1107,0,18
20210512,703497,696886,0,6611,1046,1029,0,17
20210513,703497,696886,0,6611,0,0,0,0
20210514,705185,698539,0,6646,1688,1653,0,35
20210515,705890,699226,0,6664,705,687,0,18
20210516,706458,699777,0,6681,568,551,0,17
20210517,707033,700337,0,6696,575,560,0,15
20210518,707719,701009,0,6710,686,672,0,14
20210519,708328,701603,0,6725,609,594,0,15
20210520,708878,702139,0,6739,550,536,0,14
20210521,709269,702517,0,6752,391,378,0,13
20210522,709673,702907,0,6766,404,390,0,14
20210523,709939,703162,0,6777,266,255,0,11
20210524,710315,703527,0,6788,376,365,0,11
20210525,710729,703928,0,6801,414,401,0,13
20210526,711116,704305,0,6811,387,377,0,10
20210527,711442,704619,0,6823,326,314,0,12
20210528,711772,704938,0,6834,330,319,0,11
20210529,712046,705202,0,6844,274,264,0,10
20210530,712224,705370,0,6854,178,168,0,10
20210531,712472,705607,0,6865,248,237,0,11
20210601,712702,705830,0,6872,230,223,0,7
20210602,712989,706108,0,6881,287,278,0,9
20210603,713207,706317,0,6890,218,209,0,9
20210604,713417,706517,0,6900,210,200,0,10
20210605,713562,706653,0,6909,145,136,0,9
20210606,713678,706761,0,6917,116,108,0,8
20210607,713840,706916,0,6924,162,155,0,7
20210608,714054,707124,0,6930,214,208,0,6
20210609,714252,707314,0,6938,198,190,0,8
20210610,714462,707517,0,6945,210,203,0,7
20210611,714634,707683,0,6951,172,166,0,6
20210612,714753,707795,0,6958,119,112,0,7
20210613,714891,707929,0,6962,138,134,0,4
20210614,715015,708045,0,6970,124,116,0,8
20210615,715147,708171,0,6976,132,126,0,6
20210616,715307,708327,0,6980,160,156,0,4
20210617,715442,708457,0,6985,135,130,0,5
20210618,715604,708614,0,6990,162,157,0,5
20210619,715693,708696,0,6997,89,82,0,7
20210620,715753,708752,0,7001,60,56,0,4
20210621,715841,708837,0,7004,88,85,0,3
20210622,715913,708903,0,7010,72,66,0,6
20210623,716016,709003,0,7013,103,100,0,3
20210624,716096,709077,0,7019,80,74,0,6
20210625,716172,709148,0,7024,76,71,0,5
20210626,716238,709209,0,7029,66,61,0,5
20210627,716301,709270,0,7031,63,61,0,2
20210628,716385,709346,0,7039,84,76,0,8
20210629,716458,709415,0,7043,73,69,0,4
20210630,716562,709515,0,7047,104,100,0,4
20210701,716643,709596,0,7047,81,81,0,0
20210702,716717,709666,0,7051,74,70,0,4
20210703,716796,709741,0,7055,79,75,0,4
20210704,716873,709815,0,7058,77,74,0,3
20210705,716983,709924,0,7059,110,109,0,1
20210706,717093,710032,0,7061,110,108,0,2
20210707,717196,710133,0,7063,103,101,0,2
20210708,717293,710229,0,7064,97,96,0,1
20210709,717403,710336,0,7067,110,107,0,3
20210710,717480,710410,0,7070,77,74,0,3
20210711,717549,710477,0,7072,69,67,0,2
20210712,717667,710594,0,7073,118,117,0,1
20210713,717812,710736,0,7076,145,142,0,3
20210714,717937,710860,0,7077,125,124,0,1
20210715,718093,711015,0,7078,156,155,0,1
20210716,718299,711221,0,7078,206,206,0,0
20210717,718465,711385,0,7080,166,164,0,2
20210718,718590,711507,0,7083,125,122,0,3
20210719,718817,711733,0,7084,227,226,0,1
20210720,719006,711918,0,7088,189,185,0,4
20210721,719234,712142,0,7092,228,224,0,4
20210722,719462,712367,0,7095,228,225,0,3
20210723,719664,712566,0,7098,202,199,0,3
20210724,719913,712810,0,7103,249,244,0,5
20210725,720112,713008,0,7104,199,198,0,1
20210726,720353,713248,0,7105,241,240,0,1
20210727,720643,713535,0,7108,290,287,0,3
20210728,720975,713867,0,7108,332,332,0,0
20210729,721267,714157,0,7110,292,290,0,2
20210730,721620,714508,0,7112,353,351,0,2
20210731,721918,714804,0,7114,298,296,0,2
20210801,722221,715103,0,7118,303,299,0,4
20210802,722607,715485,0,7122,386,382,0,4
20210803,723031,715904,0,7127,424,419,0,5
20210804,723518,716389,0,7129,487,485,0,2
20210805,724097,0,0,7132,579,-716389,0,3
20210806,724661,0,0,7133,564,0,0,1
20210807,725245,0,0,7135,584,0,0,2
20210808,725702,0,0,7139,457,0,0,4
20210809,726454,0,0,7143,752,0,0,4
20210810,727246,0,0,7146,792,0,0,3
20210811,728167,0,0,7151,921,0,0,5
20210812,729150,0,0,7152,983,0,0,1
20210813,730222,0,0,7158,1072,0,0,6
20210814,731227,0,0,7163,1005,0,0,5
20210815,732044,0,0,7167,817,0,0,4
20210816,733332,0,0,7174,1288,0,0,7
20210817,734816,0,0,7177,1484,0,0,3
20210818,736313,0,0,7183,1497,0,0,6
20210819,737969,0,0,7188,1656,0,0,5
20210820,739561,0,0,7195,1592,0,0,7
20210821,741071,0,0,7206,1510,0,0,11
20210822,742313,0,0,7214,1242,0,0,8
20210823,744150,0,0,7218,1837,0,0,4
20210824,746366,0,0,7226,2216,0,0,8
20210825,748693,0,0,7233,2327,0,0,7
20210826,751147,0,0,7240,2454,0,0,7
20210827,753581,0,0,7248,2434,0,0,8
20210828,755895,0,0,7257,2314,0,0,9
20210829,757617,0,0,7266,1722,0,0,9
20210830,759952,0,0,7278,2335,0,0,12
20210831,762933,0,0,7292,2981,0,0,14
20210901,766279,0,0,7307,3346,0,0,15
20210902,769803,0,0,7322,3524,0,0,15
20210903,773426,0,0,7339,3623,0,0,17
20210904,776923,0,0,7358,3497,0,0,19
