date,infected,active,recovered,dead,deltaInfected,deltaActive,deltaRecovered,deltaDead
20200314,1,1,0,0,1,1,0,0
20200315,1,1,0,0,0,0,0,0
20200316,5,5,0,0,4,4,0,0
20200317,7,7,0,0,2,2,0,0
20200318,8,8,0,0,1,1,0,0
20200319,8,8,0,0,0,0,0,0
20200320,17,17,0,0,9,9,0,0
20200321,17,17,0,0,0,0,0,0
20200322,19,19,0,0,2,2,0,0
20200323,36,36,0,0,17,17,0,0
20200324,40,40,0,0,4,4,0,0
20200325,41,41,0,0,1,1,0,0
20200326,50,50,0,0,9,9,0,0
20200327,54,54,0,0,4,4,0,0
20200328,60,60,0,0,6,6,0,0
20200329,70,70,0,0,10,10,0,0
20200330,70,70,0,0,0,0,0,0
20200331,75,75,0,0,5,5,0,0
20200401,82,82,0,0,7,7,0,0
20200402,84,84,0,0,2,2,0,0
20200403,89,89,0,0,5,5,0,0
20200404,102,102,0,0,13,13,0,0
20200405,104,100,4,0,2,-2,4,0
20200406,105,101,4,0,1,1,0,0
20200407,105,98,7,0,0,-3,3,0
20200408,110,103,7,0,5,5,0,0
20200409,110,103,7,0,0,0,0,0
20200410,118,111,7,0,8,8,0,0
20200411,120,102,18,0,2,-9,11,0
20200412,126,101,25,0,6,-1,7,0
20200413,127,85,42,0,1,-16,17,0
20200414,134,85,49,0,7,0,7,0
20200415,136,82,54,0,2,-3,5,0
20200416,138,78,60,0,2,-4,6,0
20200417,143,78,65,0,5,0,5,0
20200418,144,75,69,0,1,-3,4,0
20200419,147,71,76,0,3,-4,7,0
20200420,147,71,76,0,0,0,0,0
20200421,150,66,84,0,3,-5,8,0
20200422,153,69,84,0,3,3,0,0
20200423,154,67,87,0,1,-2,3,0
20200424,176,89,87,0,22,22,0,0
20200425,183,95,88,0,7,6,1,0
20200426,191,99,92,0,8,4,4,0
20200427,207,114,93,0,16,15,1,0
20200428,212,117,95,0,5,3,2,0
20200429,225,127,98,0,13,10,3,0
20200430,243,139,104,0,18,12,6,0
20200501,249,140,109,0,6,1,5,0
20200502,255,135,120,0,6,-5,11,0
20200503,259,135,124,0,4,0,4,0
20200504,261,133,128,0,2,-2,4,0
20200505,261,132,129,0,0,-1,1,0
20200506,268,138,130,0,7,6,1,0
20200507,271,138,133,0,3,0,3,0
20200508,273,137,136,0,2,-1,3,0
20200509,280,140,140,0,7,3,4,0
20200510,284,144,140,0,4,4,0,0
20200511,285,135,150,0,1,-9,10,0
20200512,286,133,153,0,1,-2,3,0
20200513,287,123,164,0,1,-10,11,0
20200514,287,119,168,0,0,-4,4,0
20200515,287,110,177,0,0,-9,9,0
20200516,289,111,178,0,2,1,1,0
20200517,292,95,197,0,3,-16,19,0
20200518,297,94,203,0,5,-1,6,0
20200519,308,99,209,0,11,5,6,0
20200520,314,98,216,0,6,-1,7,0
20200521,320,103,217,0,6,5,1,0
20200522,321,99,222,0,1,-4,5,0
20200523,325,98,227,0,4,-1,5,0
20200524,327,90,237,0,2,-8,10,0
20200525,336,98,238,0,9,8,1,0
20200526,339,95,244,0,3,-3,6,0
20200527,346,101,245,0,7,6,1,0
20200528,349,104,245,0,3,3,0,0
20200529,355,108,247,0,6,4,2,0
20200530,359,108,250,1,4,0,3,1
20200531,370,113,256,1,11,5,6,0
20200601,377,114,262,1,7,1,6,0
20200602,384,113,269,2,7,-1,7,1
20200603,397,124,271,2,13,11,2,0
20200604,410,128,280,2,13,4,9,0
20200605,420,136,282,2,10,8,2,0
20200606,431,146,283,2,11,10,1,0
20200607,439,147,290,2,8,1,7,0
20200608,451,152,297,2,12,5,7,0
20200609,463,161,300,2,12,9,3,0
20200610,476,167,307,2,13,6,7,0
20200611,494,179,313,2,18,12,6,0
20200612,510,187,321,2,16,8,8,0
20200613,541,207,332,2,31,20,11,0
20200614,582,248,332,2,41,41,0,0
20200615,612,272,338,2,30,24,6,0
20200616,636,296,338,2,24,24,0,0
20200617,639,290,347,2,3,-6,9,0
20200618,646,294,350,2,7,4,3,0
20200619,661,308,351,2,15,14,1,0
20200620,702,343,357,2,41,35,6,0
20200621,728,367,359,2,26,24,2,0
20200622,787,415,370,2,59,48,11,0
20200623,798,425,371,2,11,10,1,0
20200624,830,452,376,2,32,27,5,0
20200625,850,463,385,2,20,11,9,0
20200626,858,458,398,2,8,-5,13,0
20200627,878,463,413,2,20,5,15,0
20200628,900,455,443,2,22,-8,30,0
20200629,1001,556,443,2,101,101,0,0
20200630,1025,576,447,2,24,20,4,0
20200701,1042,559,480,3,17,-17,33,1
20200702,1063,567,493,3,21,8,13,0
20200703,1081,566,512,3,18,-1,19,0
20200704,1092,566,523,3,11,0,11,0
20200705,1105,535,567,3,13,-31,44,0
20200706,1113,535,575,3,8,0,8,0
20200707,1172,574,595,3,59,39,20,0
20200708,1194,581,610,3,22,7,15,0
20200709,1210,584,623,3,16,3,13,0
20200710,1252,614,635,3,42,30,12,0
20200711,1299,632,663,4,47,18,28,1
20200712,1337,649,684,4,38,17,21,0
20200713,1378,664,710,4,41,15,26,0
20200714,1416,675,737,4,38,11,27,0
20200715,1435,679,752,4,19,4,15,0
20200716,1473,699,770,4,38,20,18,0
20200717,1485,670,811,4,12,-29,41,0
20200718,1539,715,819,5,54,45,8,1
20200719,1582,743,834,5,43,28,15,0
20200720,1629,786,838,5,47,43,4,0
20200721,1655,802,848,5,26,16,10,0
20200722,1689,817,867,5,34,15,19,0
20200723,1710,816,889,5,21,-1,22,0
20200724,1729,824,900,5,19,8,11,0
20200725,1752,840,907,5,23,16,7,0
20200726,1821,898,918,5,69,58,11,0
20200727,1879,899,975,5,58,1,57,0
20200728,1926,916,1005,5,47,17,30,0
20200729,1963,922,1036,5,37,6,31,0
20200730,1994,904,1085,5,31,-18,49,0
20200731,2022,911,1106,5,28,7,21,0
20200801,2042,918,1119,5,20,7,13,0
20200802,2062,913,1144,5,20,-5,25,0
20200803,2092,918,1169,5,30,5,25,0
20200804,2099,872,1222,5,7,-46,53,0
20200805,2104,862,1237,5,5,-10,15,0
20200806,2111,848,1258,5,7,-14,21,0
20200807,2128,826,1297,5,17,-22,39,0
20200808,2134,828,1300,6,6,2,3,1
20200809,2140,787,1346,7,6,-41,46,1
20200810,2152,753,1392,7,12,-34,46,0
20200811,2171,686,1478,7,19,-67,86,0
20200812,2189,657,1524,8,18,-29,46,1
20200813,2200,634,1558,8,11,-23,34,0
20200814,2293,681,1604,8,93,47,46,0
20200815,2352,713,1631,8,59,32,27,0
20200816,2453,797,1648,8,101,84,17,0
20200817,2540,871,1661,8,87,74,13,0
20200818,2577,884,1683,10,37,13,22,2
20200819,2644,936,1698,10,67,52,15,0
20200820,2717,1001,1705,11,73,65,7,1
20200821,2780,1057,1712,11,63,56,7,0
20200822,2889,1124,1754,11,109,67,42,0
20200823,3089,1322,1755,12,200,198,1,1
20200824,3306,1507,1785,14,217,185,30,2
20200825,3537,1716,1806,15,231,209,21,1
20200826,3625,1800,1810,15,88,84,4,0
20200827,3672,1794,1863,15,47,-6,53,0
20200828,3742,1860,1866,16,70,66,3,1
20200829,3843,1923,1904,16,101,63,38,0
20200830,4020,2086,1918,16,177,163,14,0
20200831,4063,2034,2013,16,43,-52,95,0
20200901,4142,2082,2044,16,79,48,31,0
20200902,4218,2130,2071,17,76,48,27,1
20200903,4255,2074,2163,18,37,-56,92,1
20200904,4304,2095,2191,18,49,21,28,0
20200905,4349,2132,2199,18,45,37,8,0
20200906,4374,2120,2235,19,25,-12,36,1
20200907,4409,2119,2271,19,35,-1,36,0
20200908,4439,2112,2307,20,30,-7,36,1
20200909,4460,2114,2325,21,21,2,18,1
20200910,4479,2105,2352,22,19,-9,27,1
20200911,4534,2062,2450,22,55,-43,98,0
20200912,4565,1999,2544,22,31,-63,94,0
20200913,4591,2013,2556,22,26,14,12,0
20200914,4602,1844,2736,22,11,-169,180,0
20200915,4624,1835,2767,22,22,-9,31,0
20200916,4634,1823,2789,22,10,-12,22,0
20200917,4653,1813,2817,23,19,-10,28,1
20200918,4671,1801,2845,25,18,-12,28,2
20200919,4689,1753,2910,26,18,-48,65,1
20200920,4711,1724,2961,26,22,-29,51,0
20200921,4722,1722,2973,27,11,-2,12,1
20200922,4738,1720,2991,27,16,-2,18,0
20200923,4779,1757,2995,27,41,37,4,0
20200924,4789,1712,3050,27,10,-45,55,0
20200925,4798,1689,3080,29,9,-23,30,2
20200926,4811,1691,3091,29,13,2,11,0
20200927,4820,1692,3099,29,9,1,8,0
20200928,4832,1686,3117,29,12,-6,18,0
20200929,4836,1682,3125,29,4,-4,8,0
20200930,4840,1657,3154,29,4,-25,29,0
20201001,4843,1633,3181,29,3,-24,27,0
20201002,4847,1621,3197,29,4,-12,16,0
20201003,4852,1612,3211,29,5,-9,14,0
20201004,4866,1621,3216,29,14,9,5,0
20201005,4867,1612,3226,29,1,-9,10,0
20201006,4873,1598,3246,29,6,-14,20,0
20201007,4883,1446,3408,29,10,-152,162,0
20201008,4885,1314,3542,29,2,-132,134,0
20201009,4890,1305,3555,30,5,-9,13,1
20201010,4892,1296,3566,30,2,-9,11,0
20201011,4896,1259,3606,31,4,-37,40,1
20201012,4905,996,3877,32,9,-263,271,1
20201013,4908,746,4130,32,3,-250,253,0
20201014,4940,509,4398,33,32,-237,268,1
20201015,4953,319,4601,33,13,-190,203,0
20201016,4965,267,4664,34,12,-52,63,1
20201017,4971,169,4768,34,6,-98,104,0
20201018,4974,157,4783,34,3,-12,15,0
20201019,4992,161,4797,34,18,4,14,0
20201020,4996,165,4797,34,4,4,0,0
20201021,5012,180,4798,34,16,15,1,0
20201022,5017,180,4803,34,5,0,5,0
20201023,5052,212,4806,34,35,32,3,0
20201024,5060,220,4806,34,8,8,0,0
20201025,5066,202,4830,34,6,-18,24,0
20201026,5073,191,4848,34,7,-11,18,0
20201027,5084,198,4851,35,11,7,3,1
20201028,5129,243,4851,35,45,45,0,0
20201029,5131,245,4851,35,2,2,0,0
20201030,5134,221,4878,35,3,-24,27,0
20201031,5137,223,4879,35,3,2,1,0
20201101,5146,190,4921,35,9,-33,42,0
20201102,5155,198,4922,35,9,8,1,0
20201103,5162,197,4930,35,7,-1,8,0
20201104,5174,209,4930,35,12,12,0,0
20201105,5192,216,4940,36,18,7,10,1
20201106,5208,219,4953,36,16,3,13,0
20201107,5213,224,4953,36,5,5,0,0
20201108,5222,226,4960,36,9,2,7,0
20201109,5242,237,4967,38,20,11,7,2
20201110,5262,255,4967,40,20,18,0,2
20201111,5312,297,4974,41,50,42,7,1
20201112,5319,304,4974,41,7,7,0,0
20201113,5362,327,4993,42,43,23,19,1
20201114,5394,358,4994,42,32,31,1,0
20201115,5455,415,4995,45,61,57,1,3
20201116,5491,442,5004,45,36,27,9,0
20201117,5507,453,5008,46,16,11,4,1
20201118,5543,410,5087,46,36,-43,79,0
20201119,5572,389,5137,46,29,-21,50,0
20201120,5586,381,5159,46,14,-8,22,0
20201121,5620,411,5163,46,34,30,4,0
20201122,5665,454,5164,47,45,43,1,1
20201123,5726,482,5197,47,61,28,33,0
20201124,5750,462,5241,47,24,-20,44,0
20201125,5779,415,5317,47,29,-47,76,0
20201126,5851,459,5345,47,72,44,28,0
20201127,5872,428,5397,47,21,-31,52,0
20201128,5891,364,5480,47,19,-64,83,0
20201129,5919,391,5480,48,28,27,0,1
20201130,5934,369,5516,49,15,-22,36,1
20201201,5948,355,5544,49,14,-14,28,0
20201202,5994,369,5575,50,46,14,31,1
20201203,6011,365,5596,50,17,-4,21,0
20201204,6043,320,5672,51,32,-45,76,1
20201205,6084,337,5696,51,41,17,24,0
20201206,6129,382,5696,51,45,45,0,0
20201207,6191,444,5696,51,62,62,0,0
20201208,6237,471,5715,51,46,27,19,0
20201209,6278,510,5715,53,41,39,0,2
20201210,6349,507,5789,53,71,-3,74,0
20201211,6428,548,5826,54,79,41,37,1
20201212,6528,580,5892,56,100,32,66,2
20201213,6659,648,5955,56,131,68,63,0
20201214,6747,695,5996,56,88,47,41,0
20201215,6832,739,6036,57,85,44,40,1
20201216,6954,840,6057,57,122,101,21,0
20201217,7032,886,6089,57,78,46,32,0
20201218,7105,959,6089,57,73,73,0,0
20201219,7232,1084,6089,59,127,125,0,2
20201220,7293,1139,6091,63,61,55,2,4
20201221,7402,1237,6100,65,109,98,9,2
20201222,7511,1282,6163,66,109,45,63,1
20201223,7598,1369,6163,66,87,87,0,0
20201224,7670,1398,6203,69,72,29,40,3
20201225,7743,1471,6203,69,73,73,0,0
20201226,7817,1518,6227,72,74,47,24,3
20201227,7970,1607,6289,74,153,89,62,2
20201228,8021,1607,6339,75,51,0,50,1
20201229,8128,1710,6339,79,107,103,0,4
20201230,8250,1795,6369,86,122,85,30,7
20201231,8383,1749,6542,92,133,-46,173,6
20210101,8460,1768,6598,94,77,19,56,2
20210102,8567,1784,6685,98,107,16,87,4
20210103,8676,1823,6752,101,109,39,67,3
20210104,8848,1927,6816,105,172,104,64,4
20210105,8955,1967,6878,110,107,40,62,5
20210106,9058,2006,6940,112,103,39,62,2
20210107,9225,2172,6940,113,167,166,0,1
20210108,9368,2313,6940,115,143,141,0,2
20210109,9461,2387,6956,118,93,74,16,3
20210110,9630,2536,6974,120,169,149,18,2
20210111,9784,2686,6974,124,154,150,0,4
20210112,9950,2851,6974,125,166,165,0,1
20210113,10122,3020,6974,128,172,169,0,3
20210114,10316,3209,6974,133,194,189,0,5
20210115,10573,3407,7028,138,257,198,54,5
20210116,10850,3517,7193,140,277,110,165,2
20210117,11032,3527,7363,142,182,10,170,2
20210118,11259,3701,7412,146,227,174,49,4
20210119,11548,3820,7580,148,289,119,168,2
20210120,11860,3895,7812,153,312,75,232,5
20210121,12170,4035,7973,162,310,140,161,9
20210122,12443,4094,8184,165,273,59,211,3
20210123,12647,4156,8319,172,204,62,135,7
20210124,12975,4381,8420,174,328,225,101,2
20210125,13311,4453,8681,177,336,72,261,3
20210126,13885,4843,8861,181,574,390,180,4
20210127,14166,4941,9042,183,281,98,181,2
20210128,14529,5109,9234,186,363,168,192,3
20210129,14784,5077,9519,188,255,-32,285,2
20210130,15118,5121,9804,193,334,44,285,5
20210131,15304,5021,10087,196,186,-100,283,3
20210201,15459,4989,10272,198,155,-32,185,2
20210202,15688,4738,10745,205,229,-251,473,7
20210203,15834,4663,10963,208,146,-75,218,3
20210204,15988,4426,11352,210,154,-237,389,2
20210205,16186,4356,11617,213,198,-70,265,3
20210206,16337,4073,12047,217,151,-283,430,4
20210207,16451,3889,12342,220,114,-184,295,3
20210208,16621,3769,12629,223,170,-120,287,3
20210209,16811,3597,12988,226,190,-172,359,3
20210210,16941,3323,13389,229,130,-274,401,3
20210211,17068,3159,13678,231,127,-164,289,2
20210212,17200,3027,13937,236,132,-132,259,5
20210213,17267,2554,14477,236,67,-473,540,0
20210214,17343,2312,14792,239,76,-242,315,3
20210215,17484,2120,15125,239,141,-192,333,0
20210216,17594,1879,15475,240,110,-241,350,1
20210217,17716,1555,15918,243,122,-324,443,3
20210218,17835,1429,16163,243,119,-126,245,0
20210219,17929,1297,16387,245,94,-132,224,2
20210220,17988,1144,16597,247,59,-153,210,2
20210221,18053,1001,16803,249,65,-143,206,2
20210222,18199,955,16992,252,146,-46,189,3
20210223,18325,821,17251,253,126,-134,259,1
20210224,18443,925,17264,254,118,104,13,1
20210225,18553,1016,17279,258,110,91,15,4
20210226,18689,1129,17302,258,136,113,23,0
20210227,18790,1222,17307,261,101,93,5,3
20210228,18850,1276,17313,261,60,54,6,0
20210301,18986,1400,17322,264,136,124,9,3
20210302,19111,1374,17472,265,125,-26,150,1
20210303,19198,1364,17569,265,87,-10,97,0
20210304,19334,1386,17682,266,136,22,113,1
20210305,19426,1408,17751,267,92,22,69,1
20210306,19509,1432,17810,267,83,24,59,0
20210307,19551,1443,17840,268,42,11,30,1
20210308,19659,1480,17911,268,108,37,71,0
20210309,19779,1476,18033,270,120,-4,122,2
20210310,19846,1457,18118,271,67,-19,85,1
20210311,19945,1436,18236,273,99,-21,118,2
20210312,20057,1421,18361,275,112,-15,125,2
20210313,20143,1367,18500,276,86,-54,139,1
20210314,20186,1340,18566,280,43,-27,66,4
20210315,20302,1385,18635,282,116,45,69,2
20210316,20412,1326,18804,282,110,-59,169,0
20210317,20480,1291,18906,283,68,-35,102,1
20210318,20551,1260,19007,284,71,-31,101,1
20210319,20681,1251,19143,287,130,-9,136,3
20210320,20761,1311,19163,287,80,60,20,0
20210321,20828,1358,19180,290,67,47,17,3
20210322,20896,1390,19214,292,68,32,34,2
20210323,20975,1370,19310,295,79,-20,96,3
20210324,21106,1368,19441,297,131,-2,131,2
20210325,21210,1372,19540,298,104,4,99,1
20210326,21309,1352,19657,300,99,-20,117,2
20210327,21370,1328,19741,301,61,-24,84,1
20210328,21419,1333,19785,301,49,5,44,0
20210329,21490,1325,19860,305,71,-8,75,4
20210330,21645,1338,20001,306,155,13,141,1
20210331,21783,1294,20182,307,138,-44,181,1
20210401,21918,1302,20308,308,135,8,126,1
20210402,22167,1459,20398,310,249,157,90,2
20210403,22243,1460,20472,311,76,1,74,1
20210404,22482,1652,20519,311,239,192,47,0
20210405,22684,1779,20594,311,202,127,75,0
20210406,22862,1843,20705,314,178,64,111,3
20210407,23041,1892,20835,314,179,49,130,0
20210408,23152,1968,20870,314,111,76,35,0
20210409,23260,1955,20991,314,108,-13,121,0
20210410,23343,1957,21072,314,83,2,81,0
20210411,23426,1868,21243,315,83,-89,171,1
20210412,23535,1947,21272,316,109,79,29,1
20210413,23603,1892,21395,316,68,-55,123,0
20210414,23672,1761,21594,317,69,-131,199,1
20210415,23744,1618,21805,321,72,-143,211,4
20210416,23812,1475,22015,322,68,-143,210,1
20210417,23866,1462,22082,322,54,-13,67,0
20210418,23888,1322,22241,325,22,-140,159,3
20210419,23934,1200,22408,326,46,-122,167,1
20210420,24005,1118,22560,327,71,-82,152,1
20210421,24112,1206,22579,327,107,88,19,0
20210422,24262,1285,22649,328,150,79,70,1
20210423,24459,1435,22696,328,197,150,47,0
20210424,24535,1341,22866,328,76,-94,170,0
20210425,24593,1322,22941,330,58,-19,75,2
20210426,24677,1342,23005,330,84,20,64,0
20210427,24814,1394,23089,331,137,52,84,1
20210428,24888,1381,23175,332,74,-13,86,1
20210429,24995,1456,23206,333,107,75,31,1
20210430,25116,1547,23234,335,121,91,28,2
20210501,25225,1545,23345,335,109,-2,111,0
20210502,25253,1474,23442,337,28,-71,97,2
20210503,25311,1461,23513,337,58,-13,71,0
20210504,25351,1491,23523,337,40,30,10,0
20210505,25421,1373,23710,338,70,-118,187,1
20210506,25486,1272,23876,338,65,-101,166,0
20210507,25539,1151,24050,338,53,-121,174,0
20210508,25586,1129,24119,338,47,-22,69,0
20210509,25652,1161,24153,338,66,32,34,0
20210510,25714,1221,24155,338,62,60,2,0
20210511,25773,1100,24333,340,59,-121,178,2
20210512,25846,1095,24411,340,73,-5,78,0
20210513,25934,1106,24486,342,88,11,75,2
20210514,26033,1098,24592,343,99,-8,106,1
20210515,26099,1062,24694,343,66,-36,102,0
20210516,26141,1033,24764,344,42,-29,70,1
20210517,26215,1106,24764,345,74,73,0,1
20210518,26344,1190,24808,346,129,84,44,1
20210519,26424,1268,24808,348,80,78,0,2
20210520,26529,1296,24884,349,105,28,76,1
20210521,26601,1285,24967,349,72,-11,83,0
20210522,26658,1342,24967,349,57,57,0,0
20210523,26688,1242,25097,349,30,-100,130,0
20210524,26730,1237,25144,349,42,-5,47,0
20210525,26780,1148,25283,349,50,-89,139,0
20210526,26817,1098,25369,350,37,-50,86,1
20210527,26843,1039,25453,351,26,-59,84,1
20210528,26878,984,25542,352,35,-55,89,1
20210529,26892,938,25602,352,14,-46,60,0
20210530,26918,957,25609,352,26,19,7,0
20210531,26963,927,25683,353,45,-30,74,1
20210601,27023,816,25850,357,60,-111,167,4
20210602,27064,758,25948,358,41,-58,98,1
20210603,27119,733,26028,358,55,-25,80,0
20210604,27162,674,26129,359,43,-59,101,1
20210605,27211,681,26171,359,49,7,42,0
20210606,27245,660,26225,360,34,-21,54,1
20210607,27307,693,26254,360,62,33,29,0
20210608,27434,793,26277,364,127,100,23,4
20210609,27548,842,26341,365,114,49,64,1
20210610,27660,953,26341,366,112,111,0,1
20210611,27862,1153,26341,368,202,200,0,2
20210612,28146,1435,26341,370,284,282,0,2
20210613,28373,1662,26341,370,227,227,0,0
20210614,28614,1859,26383,372,241,197,42,2
20210615,28912,2157,26383,372,298,298,0,0
20210616,29175,2416,26383,376,263,259,0,4
20210617,29597,2828,26392,377,422,412,9,1
20210618,30048,3277,26393,378,451,449,1,1
20210619,30517,3560,26578,379,469,283,185,1
20210620,30813,3727,26704,382,296,167,126,3
20210621,31435,4343,26704,388,622,616,0,6
20210622,32296,5192,26712,392,861,849,8,4
20210623,33260,6129,26734,397,964,937,22,5
20210624,34143,6876,26865,402,883,747,131,5
20210625,35018,7637,26977,404,875,761,112,2
20210626,35886,8498,26977,411,868,861,0,7
20210627,36627,9117,27090,420,741,619,113,9
20210628,37384,9685,27272,427,757,568,182,7
20210629,38198,10495,27272,431,814,810,0,4
20210630,39047,11337,27272,438,849,842,0,7
20210701,39914,12194,27272,448,867,857,0,10
20210702,40798,13073,27272,453,884,879,0,5
20210703,41696,13625,27606,465,898,552,334,12
20210704,42585,14509,27606,470,889,884,0,5
20210705,43396,15080,27837,479,811,571,231,9
20210706,44279,15397,28391,491,883,317,554,12
20210707,45039,15325,29207,507,760,-72,816,16
20210708,45950,15238,30191,521,911,-87,984,14
20210709,46837,15166,31137,534,887,-72,946,13
20210710,47667,15110,32006,551,830,-56,869,17
20210711,48244,15161,32523,560,577,51,517,9
20210712,49016,15078,33356,582,772,-83,833,22
20210713,49808,14643,34567,598,792,-435,1211,16
20210714,50742,14553,35582,607,934,-90,1015,9
20210715,51625,14531,36478,616,883,-22,896,9
20210716,52552,14716,37210,626,927,185,732,10
20210717,54549,15725,38186,638,1997,1009,976,12
20210718,57322,16632,40041,649,2773,907,1855,11
20210719,58235,16523,41046,666,913,-109,1005,17
20210720,59141,16513,41951,677,906,-10,905,11
20210721,60066,16318,43055,693,925,-195,1104,16
20210722,61375,16747,43924,704,1309,429,869,11
20210723,62328,16747,44739,718,953,0,815,14
20210724,62328,16862,44739,727,0,115,0,9
20210725,62946,17465,44739,742,618,603,0,15
20210726,66018,20507,44754,757,3072,3042,15,15
20210727,66987,21447,44769,771,969,940,15,14
20210728,67902,22335,44791,776,915,888,22,5
20210729,68867,23266,44814,787,965,931,23,11
20210730,69838,24217,44823,798,971,951,9,11
20210731,70698,25053,44837,808,860,836,14,10
20210801,71346,25669,44856,821,648,616,19,13
20210802,72066,26360,44875,831,720,691,19,10
20210803,72841,27110,44887,844,775,750,12,13
20210804,73610,27849,44911,850,769,739,24,6
20210805,74364,0,0,860,754,-27849,-44911,10
20210806,74993,0,0,874,629,0,0,14
20210807,75643,0,0,881,650,0,0,7
20210808,76091,0,0,890,448,0,0,9
20210809,76635,0,0,898,544,0,0,8
20210810,77235,0,0,911,600,0,0,13
20210811,77854,0,0,920,619,0,0,9
20210812,78303,0,0,930,449,0,0,10
20210813,78818,0,0,938,515,0,0,8
20210814,79284,0,0,949,466,0,0,11
20210815,79702,0,0,959,418,0,0,10
20210816,80137,0,0,969,435,0,0,10
20210817,80694,0,0,977,557,0,0,8
20210818,81339,0,0,980,645,0,0,3
20210819,81835,0,0,996,496,0,0,16
20210820,82215,0,0,1005,380,0,0,9
20210821,82630,0,0,1010,415,0,0,5
20210822,83023,0,0,1021,393,0,0,11
20210823,83519,0,0,1027,496,0,0,6
20210824,84127,0,0,1038,608,0,0,11
20210825,84631,0,0,1048,504,0,0,10
20210826,85201,0,0,1056,570,0,0,8
20210827,85723,0,0,1065,522,0,0,9
20210828,86242,0,0,1074,519,0,0,9
20210829,86613,0,0,1079,371,0,0,5
20210830,87131,0,0,1083,518,0,0,4
20210831,87627,0,0,1089,496,0,0,6
20210901,88197,0,0,1097,570,0,0,8
20210902,88682,0,0,1105,485,0,0,8
20210903,89172,0,0,1112,490,0,0,7
20210904,89524,0,0,1117,352,0,0,5
