date,infected,active,recovered,dead,deltaInfected,deltaActive,deltaRecovered,deltaDead
20201012,2,2,0,0,2,2,0,0
20201013,2,2,0,0,0,0,0,0
20201014,2,2,0,0,0,0,0,0
20201015,3,3,0,0,1,1,0,0
20201016,3,3,0,0,0,0,0,0
20201017,3,3,0,0,0,0,0,0
20201018,3,3,0,0,0,0,0,0
20201019,3,3,0,0,0,0,0,0
20201020,3,3,0,0,0,0,0,0
20201021,3,3,0,0,0,0,0,0
20201022,4,1,3,0,1,-2,3,0
20201023,4,1,3,0,0,0,0,0
20201024,4,1,3,0,0,0,0,0
20201025,4,1,3,0,0,0,0,0
20201026,4,0,4,0,0,-1,1,0
20201027,8,4,4,0,4,4,0,0
20201028,8,4,4,0,0,0,0,0
20201029,8,4,4,0,0,0,0,0
20201030,8,4,4,0,0,0,0,0
20201031,8,4,4,0,0,0,0,0
20201101,8,4,4,0,0,0,0,0
20201102,13,9,4,0,5,5,0,0
20201103,13,9,4,0,0,0,0,0
20201104,13,9,4,0,0,0,0,0
20201105,13,9,4,0,0,0,0,0
20201106,13,9,4,0,0,0,0,0
20201107,13,9,4,0,0,0,0,0
20201108,13,9,4,0,0,0,0,0
20201109,16,11,5,0,3,2,1,0
20201110,16,11,5,0,0,0,0,0
20201111,16,11,5,0,0,0,0,0
20201112,16,11,5,0,0,0,0,0
20201113,16,11,5,0,0,0,0,0
20201114,16,11,5,0,0,0,0,0
20201115,16,11,5,0,0,0,0,0
20201116,16,11,5,0,0,0,0,0
20201117,16,11,5,0,0,0,0,0
20201118,16,11,5,0,0,0,0,0
20201119,16,11,5,0,0,0,0,0
20201120,16,11,5,0,0,0,0,0
20201121,16,11,5,0,0,0,0,0
20201122,16,11,5,0,0,0,0,0
20201123,16,11,5,0,0,0,0,0
20201124,17,12,5,0,1,1,0,0
20201125,17,12,5,0,0,0,0,0
20201126,17,12,5,0,0,0,0,0
20201127,17,12,5,0,0,0,0,0
20201128,17,12,5,0,0,0,0,0
20201129,17,12,5,0,0,0,0,0
20201130,17,12,5,0,0,0,0,0
20201201,17,12,5,0,0,0,0,0
20201202,17,12,5,0,0,0,0,0
20201203,17,12,5,0,0,0,0,0
20201204,17,12,5,0,0,0,0,0
20201205,17,12,5,0,0,0,0,0
20201206,17,12,5,0,0,0,0,0
20201207,17,12,5,0,0,0,0,0
20201208,17,12,5,0,0,0,0,0
20201209,17,12,5,0,0,0,0,0
20201210,17,12,5,0,0,0,0,0
20201211,17,12,5,0,0,0,0,0
20201212,17,12,5,0,0,0,0,0
20201213,17,12,5,0,0,0,0,0
20201214,17,12,5,0,0,0,0,0
20201215,17,12,5,0,0,0,0,0
20201216,17,12,5,0,0,0,0,0
20201217,17,12,5,0,0,0,0,0
20201218,17,12,5,0,0,0,0,0
20201219,17,12,5,0,0,0,0,0
20201220,17,12,5,0,0,0,0,0
20201221,17,12,5,0,0,0,0,0
20201222,17,12,5,0,0,0,0,0
20201223,17,12,5,0,0,0,0,0
20201224,17,12,5,0,0,0,0,0
20201225,17,12,5,0,0,0,0,0
20201226,17,12,5,0,0,0,0,0
20201227,17,12,5,0,0,0,0,0
20201228,17,7,5,0,0,-5,0,0
20201229,17,7,5,0,0,0,0,0
20201230,17,7,5,0,0,0,0,0
20201231,17,7,5,0,0,0,0,0
20210101,17,7,5,0,0,0,0,0
20210102,17,7,5,0,0,0,0,0
20210103,17,7,5,0,0,0,0,0
20210104,17,7,5,0,0,0,0,0
20210105,17,7,5,0,0,0,0,0
20210106,17,7,5,0,0,0,0,0
20210107,17,7,10,0,0,0,5,0
20210108,17,7,10,0,0,0,0,0
20210109,17,7,10,0,0,0,0,0
20210110,17,7,10,0,0,0,0,0
20210111,17,7,10,0,0,0,0,0
20210112,17,7,10,0,0,0,0,0
20210113,17,7,10,0,0,0,0,0
20210114,17,7,10,0,0,0,0,0
20210115,17,7,10,0,0,0,0,0
20210116,17,7,10,0,0,0,0,0
20210117,17,7,10,0,0,0,0,0
20210118,17,7,10,0,0,0,0,0
20210119,17,7,10,0,0,0,0,0
20210120,17,7,10,0,0,0,0,0
20210121,17,7,10,0,0,0,0,0
20210122,17,7,10,0,0,0,0,0
20210123,17,7,10,0,0,0,0,0
20210124,17,7,10,0,0,0,0,0
20210125,17,7,10,0,0,0,0,0
20210126,17,7,10,0,0,0,0,0
20210127,17,7,10,0,0,0,0,0
20210128,17,7,10,0,0,0,0,0
20210129,17,7,10,0,0,0,0,0
20210130,17,7,10,0,0,0,0,0
20210131,17,7,10,0,0,0,0,0
20210201,17,7,10,0,0,0,0,0
20210202,17,7,10,0,0,0,0,0
20210203,17,7,10,0,0,0,0,0
20210204,17,7,10,0,0,0,0,0
20210205,17,7,10,0,0,0,0,0
20210206,17,7,10,0,0,0,0,0
20210207,17,7,10,0,0,0,0,0
20210208,17,7,10,0,0,0,0,0
20210209,17,7,10,0,0,0,0,0
20210210,18,4,14,0,1,-3,4,0
20210211,18,4,14,0,0,0,0,0
20210212,18,4,14,0,0,0,0,0
20210213,18,4,14,0,0,0,0,0
20210214,18,4,14,0,0,0,0,0
20210215,18,4,14,0,0,0,0,0
20210216,18,4,14,0,0,0,0,0
20210217,18,4,14,0,0,0,0,0
20210218,18,4,14,0,0,0,0,0
20210219,18,4,14,0,0,0,0,0
20210220,18,4,14,0,0,0,0,0
20210221,18,4,14,0,0,0,0,0
20210222,18,4,14,0,0,0,0,0
20210223,18,4,14,0,0,0,0,0
20210224,18,4,14,0,0,0,0,0
20210225,18,4,14,0,0,0,0,0
20210226,18,4,14,0,0,0,0,0
20210227,18,4,14,0,0,0,0,0
20210228,18,4,14,0,0,0,0,0
20210301,18,4,14,0,0,0,0,0
20210302,18,4,14,0,0,0,0,0
20210303,18,4,14,0,0,0,0,0
20210304,18,4,14,0,0,0,0,0
20210305,18,4,14,0,0,0,0,0
20210306,18,4,14,0,0,0,0,0
20210307,18,4,14,0,0,0,0,0
20210308,18,4,14,0,0,0,0,0
20210309,18,4,14,0,0,0,0,0
20210310,18,2,14,0,0,-2,0,0
20210311,18,2,14,0,0,0,0,0
20210312,18,2,16,0,0,0,2,0
20210313,18,2,16,0,0,0,0,0
20210314,18,2,16,0,0,0,0,0
20210315,18,2,16,0,0,0,0,0
20210316,18,2,16,0,0,0,0,0
20210317,18,2,16,0,0,0,0,0
20210318,18,2,16,0,0,0,0,0
20210319,18,2,16,0,0,0,0,0
20210320,18,2,16,0,0,0,0,0
20210321,18,2,16,0,0,0,0,0
20210322,18,2,16,0,0,0,0,0
20210323,18,2,16,0,0,0,0,0
20210324,18,2,16,0,0,0,0,0
20210325,18,2,16,0,0,0,0,0
20210326,18,2,16,0,0,0,0,0
20210327,18,2,16,0,0,0,0,0
20210328,18,2,16,0,0,0,0,0
20210329,18,2,16,0,0,0,0,0
20210330,18,1,16,0,0,-1,0,0
20210331,19,1,18,0,1,0,2,0
20210401,19,1,18,0,0,0,0,0
20210402,19,1,18,0,0,0,0,0
20210403,19,1,18,0,0,0,0,0
20210404,19,1,18,0,0,0,0,0
20210405,19,1,18,0,0,0,0,0
20210406,19,1,18,0,0,0,0,0
20210407,19,1,18,0,0,0,0,0
20210408,19,1,18,0,0,0,0,0
20210409,19,1,18,0,0,0,0,0
20210410,19,1,18,0,0,0,0,0
20210411,19,1,18,0,0,0,0,0
20210412,19,1,18,0,0,0,0,0
20210413,19,1,18,0,0,0,0,0
20210414,19,1,18,0,0,0,0,0
20210415,19,1,18,0,0,0,0,0
20210416,20,2,18,0,1,1,0,0
20210417,20,2,18,0,0,0,0,0
20210418,20,2,18,0,0,0,0,0
20210419,20,2,18,0,0,0,0,0
20210420,20,2,18,0,0,0,0,0
20210421,20,2,18,0,0,0,0,0
20210422,20,2,18,0,0,0,0,0
20210423,20,2,18,0,0,0,0,0
20210424,20,2,18,0,0,0,0,0
20210425,20,2,18,0,0,0,0,0
20210426,20,1,19,0,0,-1,1,0
20210427,20,1,19,0,0,0,0,0
20210428,20,0,20,0,0,-1,1,0
20210429,20,0,20,0,0,0,0,0
20210430,20,0,20,0,0,0,0,0
20210501,20,0,20,0,0,0,0,0
20210502,20,0,20,0,0,0,0,0
20210503,20,0,20,0,0,0,0,0
20210504,20,0,20,0,0,0,0,0
20210505,20,0,20,0,0,0,0,0
20210506,20,0,20,0,0,0,0,0
20210507,20,0,20,0,0,0,0,0
20210508,20,0,20,0,0,0,0,0
20210509,20,0,20,0,0,0,0,0
20210510,20,0,20,0,0,0,0,0
20210511,20,0,20,0,0,0,0,0
20210512,20,0,20,0,0,0,0,0
20210513,20,0,20,0,0,0,0,0
20210514,20,0,20,0,0,0,0,0
20210515,20,0,20,0,0,0,0,0
20210516,20,0,20,0,0,0,0,0
20210517,20,0,20,0,0,0,0,0
20210518,20,0,20,0,0,0,0,0
20210519,20,0,20,0,0,0,0,0
20210520,20,0,20,0,0,0,0,0
20210521,20,0,20,0,0,0,0,0
20210522,20,0,20,0,0,0,0,0
20210523,20,0,20,0,0,0,0,0
20210524,20,0,20,0,0,0,0,0
20210525,20,0,20,0,0,0,0,0
20210526,20,0,20,0,0,0,0,0
20210527,20,0,20,0,0,0,0,0
20210528,20,0,20,0,0,0,0,0
20210529,20,0,20,0,0,0,0,0
20210530,20,0,20,0,0,0,0,0
20210531,20,0,20,0,0,0,0,0
20210601,20,0,20,0,0,0,0,0
20210602,20,0,20,0,0,0,0,0
20210603,20,0,20,0,0,0,0,0
20210604,20,0,20,0,0,0,0,0
20210605,20,0,20,0,0,0,0,0
20210606,20,0,20,0,0,0,0,0
20210607,20,0,20,0,0,0,0,0
20210608,20,0,20,0,0,0,0,0
20210609,20,0,20,0,0,0,0,0
20210610,20,0,20,0,0,0,0,0
20210611,20,0,20,0,0,0,0,0
20210612,20,0,20,0,0,0,0,0
20210613,20,0,20,0,0,0,0,0
20210614,20,0,20,0,0,0,0,0
20210615,20,0,20,0,0,0,0,0
20210616,20,0,20,0,0,0,0,0
20210617,20,0,20,0,0,0,0,0
20210618,20,0,20,0,0,0,0,0
20210619,20,0,20,0,0,0,0,0
20210620,20,0,20,0,0,0,0,0
20210621,20,0,20,0,0,0,0,0
20210622,20,0,20,0,0,0,0,0
20210623,20,0,20,0,0,0,0,0
20210624,20,0,20,0,0,0,0,0
20210625,20,0,20,0,0,0,0,0
20210626,20,0,20,0,0,0,0,0
20210627,20,0,20,0,0,0,0,0
20210628,20,0,20,0,0,0,0,0
20210629,20,0,20,0,0,0,0,0
20210630,20,0,20,0,0,0,0,0
20210701,20,0,20,0,0,0,0,0
20210702,20,0,20,0,0,0,0,0
20210703,20,0,20,0,0,0,0,0
20210704,20,0,20,0,0,0,0,0
20210705,20,0,20,0,0,0,0,0
20210706,20,0,20,0,0,0,0,0
20210707,20,0,20,0,0,0,0,0
20210708,20,0,20,0,0,0,0,0
20210709,20,0,20,0,0,0,0,0
20210710,20,0,20,0,0,0,0,0
20210711,20,0,20,0,0,0,0,0
20210712,20,0,20,0,0,0,0,0
20210713,20,0,20,0,0,0,0,0
20210714,20,0,20,0,0,0,0,0
20210715,20,0,20,0,0,0,0,0
20210716,20,0,20,0,0,0,0,0
20210717,20,0,20,0,0,0,0,0
20210718,20,0,20,0,0,0,0,0
20210719,20,0,20,0,0,0,0,0
20210720,20,0,20,0,0,0,0,0
20210721,20,0,20,0,0,0,0,0
20210722,20,0,20,0,0,0,0,0
20210723,20,0,20,0,0,0,0,0
20210724,20,0,20,0,0,0,0,0
20210725,20,0,20,0,0,0,0,0
20210726,20,0,20,0,0,0,0,0
20210727,20,0,20,0,0,0,0,0
20210728,20,0,20,0,0,0,0,0
20210729,20,0,20,0,0,0,0,0
20210730,20,0,20,0,0,0,0,0
20210731,20,0,20,0,0,0,0,0
20210801,20,0,20,0,0,0,0,0
20210802,20,0,20,0,0,0,0,0
20210803,20,0,20,0,0,0,0,0
20210804,20,0,20,0,0,0,0,0
20210805,20,0,0,0,0,0,-20,0
20210806,20,0,0,0,0,0,0,0
20210807,20,0,0,0,0,0,0,0
20210808,20,0,0,0,0,0,0,0
20210809,20,0,0,0,0,0,0,0
20210810,20,0,0,0,0,0,0,0
20210811,20,0,0,0,0,0,0,0
20210812,20,0,0,0,0,0,0,0
20210813,20,0,0,0,0,0,0,0
20210814,20,0,0,0,0,0,0,0
20210815,20,0,0,0,0,0,0,0
20210816,20,0,0,0,0,0,0,0
20210817,20,0,0,0,0,0,0,0
20210818,20,0,0,0,0,0,0,0
20210819,20,0,0,0,0,0,0,0
20210820,20,0,0,0,0,0,0,0
20210821,20,0,0,0,0,0,0,0
20210822,20,0,0,0,0,0,0,0
20210823,20,0,0,0,0,0,0,0
20210824,20,0,0,0,0,0,0,0
20210825,20,0,0,0,0,0,0,0
20210826,20,0,0,0,0,0,0,0
20210827,20,0,0,0,0,0,0,0
20210828,20,0,0,0,0,0,0,0
20210829,20,0,0,0,0,0,0,0
20210830,20,0,0,0,0,0,0,0
20210831,20,0,0,0,0,0,0,0
20210901,20,0,0,0,0,0,0,0
20210902,20,0,0,0,0,0,0,0
20210903,20,0,0,0,0,0,0,0
20210904,20,0,0,0,0,0,0,0
