date,infected,active,recovered,dead,deltaInfected,deltaActive,deltaRecovered,deltaDead
20200313,0,-1,0,1,0,-1,0,1
20200314,1,0,0,1,1,1,0,0
20200315,1,0,0,1,0,0,0,0
20200316,1,0,0,1,0,0,0,0
20200317,1,0,0,1,0,0,0,0
20200318,1,0,0,1,0,0,0,0
20200319,1,0,0,1,0,0,0,0
20200320,1,0,0,1,0,0,0,0
20200321,2,1,0,1,1,1,0,0
20200322,2,1,0,1,0,0,0,0
20200323,2,1,0,1,0,0,0,0
20200324,3,2,0,1,1,1,0,0
20200325,3,2,0,1,0,0,0,0
20200326,3,2,0,1,0,0,0,0
20200327,3,2,0,1,0,0,0,0
20200328,5,4,0,1,2,2,0,0
20200329,5,5,0,1,0,1,0,0
20200330,6,4,0,2,1,-1,0,1
20200331,7,4,1,2,1,0,1,0
20200401,7,3,2,2,0,-1,1,0
20200402,7,4,2,2,0,1,0,0
20200403,10,6,2,2,3,2,0,0
20200404,10,6,2,2,0,0,0,0
20200405,12,8,2,2,2,2,0,0
20200406,12,8,2,2,0,0,0,0
20200407,14,10,2,2,2,2,0,0
20200408,14,10,2,2,0,0,0,0
20200409,14,11,2,2,0,1,0,0
20200410,15,13,2,2,1,2,0,0
20200411,19,15,2,2,4,2,0,0
20200412,19,15,2,2,0,0,0,0
20200413,19,21,4,4,0,6,2,2
20200414,29,23,4,5,10,2,0,1
20200415,32,23,4,5,3,0,0,0
20200416,32,23,4,5,0,0,0,0
20200417,32,23,4,6,0,0,0,1
20200418,66,50,6,10,34,27,2,4
20200419,66,50,6,10,0,0,0,0
20200420,92,87,8,12,26,37,2,2
20200421,107,87,8,12,15,0,0,0
20200422,140,115,12,13,33,28,4,1
20200423,162,144,14,16,22,29,2,3
20200424,174,144,14,16,12,0,0,0
20200425,213,177,19,17,39,33,5,1
20200426,237,196,20,21,24,19,1,4
20200427,275,232,21,22,38,36,1,1
20200428,318,262,31,25,43,30,10,3
20200429,375,315,32,28,57,53,1,3
20200430,375,372,39,31,0,57,7,3
20200501,442,451,46,36,67,79,7,5
20200502,533,499,52,41,91,48,6,5
20200503,592,499,52,41,59,0,0,0
20200504,678,576,61,41,86,77,9,0
20200505,778,663,70,45,100,87,9,4
20200506,852,723,80,49,74,60,10,4
20200507,930,786,92,52,78,63,12,3
20200508,930,950,102,59,0,164,10,7
20200509,1111,981,119,64,181,31,17,5
20200510,1164,1146,149,70,53,165,30,6
20200511,1365,1290,162,74,201,144,13,4
20200512,1526,1408,173,80,161,118,11,6
20200513,1660,1530,198,90,134,122,25,10
20200514,1818,1530,198,90,158,0,0,0
20200515,1964,1668,205,91,146,138,7,1
20200516,1964,1970,222,97,0,302,17,6
20200517,2289,1970,222,97,325,0,0,0
20200518,2591,2239,247,105,302,269,25,8
20200519,2591,2331,286,111,0,92,39,6
20200520,2728,2331,286,111,137,0,0,0
20200521,3138,2708,309,121,410,377,23,10
20200522,3138,2869,372,137,0,161,63,16
20200523,3378,3058,424,146,240,189,52,9
20200524,3634,3197,458,165,256,139,34,19
20200525,3826,3303,503,170,192,106,45,5
20200526,3976,3303,503,170,150,0,0,0
20200527,4146,3402,749,195,170,99,246,25
20200528,4346,3402,749,195,200,0,0,0
20200529,4346,3472,816,233,0,70,67,38
20200530,4521,3266,1272,262,175,-206,456,29
20200531,4800,3317,1423,286,279,51,151,24
20200601,5026,3353,1522,298,226,36,99,12
20200602,5173,3378,1625,307,147,25,103,9
20200603,5310,3474,1711,314,137,96,86,7
20200604,5499,3556,1825,333,189,82,114,19
20200605,5714,3594,1924,347,215,38,99,14
20200606,5866,3708,2014,359,152,114,90,12
20200607,6081,3708,2014,359,215,0,0,0
20200608,6081,3811,2059,372,0,103,45,13
20200609,6242,3911,2127,389,161,100,68,17
20200610,6427,3979,2202,401,185,68,75,12
20200611,6582,4039,2278,413,155,60,76,12
20200612,6730,4030,2416,433,148,-9,138,20
20200613,6879,4004,2556,447,149,-26,140,14
20200614,7007,4151,2610,459,128,147,54,12
20200615,7220,4247,2720,468,213,96,110,9
20200616,7435,4443,2820,477,215,196,100,9
20200617,7740,4567,2966,487,305,124,146,10
20200618,8020,4567,2966,487,280,0,0,0
20200619,8020,4724,3086,506,0,157,120,19
20200620,8416,4734,3325,521,396,10,239,15
20200621,8580,4734,3325,521,164,0,0,0
20200622,8698,4705,3460,533,118,-29,135,12
20200623,8796,4642,3699,548,98,-63,239,15
20200624,8887,4642,3699,548,91,0,0,0
20200625,8887,4622,3806,556,0,-20,107,8
20200626,8982,4671,4014,572,95,49,208,16
20200627,9257,4671,4014,572,275,0,0,0
20200628,9314,4671,4014,572,57,0,0,0
20200629,9320,4671,4014,572,6,0,0,0
20200630,9372,4671,4014,572,52,0,0,0
20200701,9500,4365,4606,602,128,-306,592,30
20200702,9573,4365,4606,602,73,0,0,0
20200703,9689,4435,4624,604,116,70,18,2
20200704,9689,4486,4673,608,0,51,49,4
20200705,9767,4486,4673,608,78,0,0,0
20200706,9767,4379,4899,616,0,-107,226,8
20200707,9894,4341,5034,622,127,-38,135,6
20200708,9997,4374,5074,636,103,33,40,14
20200709,10084,4317,5200,641,87,-57,126,5
20200710,10204,4278,5277,649,120,-39,77,8
20200711,10204,4259,5341,650,0,-19,64,1
20200712,10250,4259,5341,650,46,0,0,0
20200713,10250,4256,5403,657,0,-3,62,7
20200714,10316,4179,5579,659,66,-77,176,2
20200715,10417,4258,5601,668,101,79,22,9
20200716,10527,4258,5601,668,110,0,0,0
20200717,10527,4258,5601,668,0,0,0,0
20200718,10527,4372,5637,673,0,114,36,5
20200719,10762,4592,5707,693,235,220,70,20
20200720,10992,4592,5707,693,230,0,0,0
20200721,10992,4592,5707,693,0,0,0,0
20200722,11127,4694,5835,708,135,102,128,15
20200723,11237,4694,5835,708,110,0,0,0
20200724,11302,4732,5855,715,65,38,20,7
20200725,11302,4778,5890,717,0,46,35,2
20200726,11385,4778,5890,717,83,0,0,0
20200727,11424,4765,5939,720,39,-13,49,3
20200728,11496,4770,6001,725,72,5,62,5
20200729,11579,4770,6001,725,83,0,0,0
20200730,11579,4770,6001,725,0,0,0,0
20200731,11579,4779,6119,746,0,9,118,21
20200801,11644,4849,6137,752,65,70,18,6
20200802,11738,4849,6137,752,94,0,0,0
20200803,11738,4849,6137,752,0,0,0,0
20200804,11780,4823,6194,763,42,-26,57,11
20200805,11780,4823,6194,763,0,0,0,0
20200806,11850,4823,6194,763,70,0,0,0
20200807,11894,4878,6243,773,44,55,49,10
20200808,11894,4878,6243,773,0,0,0,0
20200809,11956,4909,6266,781,62,31,23,8
20200810,12033,4909,6266,781,77,0,0,0
20200811,12033,4965,6282,786,0,56,16,5
20200812,12115,4965,6282,786,82,0,0,0
20200813,12162,5018,6305,792,47,53,23,6
20200814,12211,5044,6325,793,49,26,20,1
20200815,12314,5075,6340,796,103,31,15,3
20200816,12410,5166,6350,798,96,91,10,2
20200817,12485,5222,6385,803,75,56,35,5
20200818,12546,5282,6398,805,61,60,13,2
20200819,12582,5309,6429,808,36,27,31,3
20200820,12623,5314,6456,812,41,5,27,4
20200821,12682,5335,6476,812,59,21,20,0
20200822,12836,5375,6492,815,154,40,16,3
20200823,12903,5524,6497,815,67,149,5,0
20200824,12974,5547,6538,818,71,23,41,3
20200825,12974,5598,6557,819,0,51,19,1
20200826,13045,5598,6557,819,71,0,0,0
20200827,13082,5628,6594,823,37,30,37,4
20200828,13189,5656,6603,823,107,28,9,0
20200829,13189,5754,6612,823,0,98,9,0
20200830,13189,5754,6612,823,0,0,0,0
20200831,13189,5754,6612,823,0,0,0,0
20200901,13189,5754,6612,823,0,0,0,0
20200902,13189,5754,6612,823,0,0,0,0
20200903,13189,5754,6612,823,0,0,0,0
20200904,13189,5754,6612,823,0,0,0,0
20200905,13407,5850,6725,832,218,96,113,9
20200906,13437,5874,6730,833,30,24,5,1
20200907,13437,5874,6730,833,0,0,0,0
20200908,13470,5874,6730,833,33,0,0,0
20200909,13470,5874,6730,833,0,0,0,0
20200910,13470,5874,6730,833,0,0,0,0
20200911,13516,5905,6731,834,46,31,1,1
20200912,13532,5905,6731,834,16,0,0,0
20200913,13532,5924,6757,835,0,19,26,1
20200914,13532,5940,6759,836,0,16,2,1
20200915,13535,5940,6759,836,3,0,0,0
20200916,13535,5940,6759,836,0,0,0,0
20200917,13535,5940,6759,836,0,0,0,0
20200918,13555,5940,6759,836,20,0,0,0
20200919,13555,5940,6759,836,0,0,0,0
20200920,13555,5959,6760,836,0,19,1,0
20200921,13576,5959,6760,836,21,0,0,0
20200922,13578,5982,6760,836,2,23,0,0
20200923,13578,5982,6760,836,0,0,0,0
20200924,13592,5992,6764,836,14,10,4,0
20200925,13604,5992,6764,836,12,0,0,0
20200926,13606,6006,6764,836,2,14,0,0
20200927,13610,6006,6764,836,4,0,0,0
20200928,13613,6006,6764,836,3,0,0,0
20200929,13640,6040,6764,836,27,34,0,0
20200930,13646,6040,6764,836,6,0,0,0
20201001,13653,6053,6764,836,7,13,0,0
20201002,13657,6053,6764,836,4,0,0,0
20201003,13658,6053,6764,836,1,0,0,0
20201004,13660,6053,6764,836,2,0,0,0
20201005,13660,6053,6764,836,0,0,0,0
20201006,13668,6053,6764,836,8,0,0,0
20201007,13668,6068,6764,836,0,15,0,0
20201008,13670,6070,6764,836,2,2,0,0
20201009,13673,6070,6764,836,3,0,0,0
20201010,13682,6070,6764,836,9,0,0,0
20201011,13685,6073,6764,836,3,3,0,0
20201012,13691,6091,6764,836,6,18,0,0
20201013,13691,6091,6764,836,0,0,0,0
20201014,13697,6091,6764,836,6,0,0,0
20201015,13697,6091,6764,836,0,0,0,0
20201016,13700,6091,6764,836,3,0,0,0
20201017,13700,6091,6764,836,0,0,0,0
20201018,13711,6097,6764,836,11,6,0,0
20201019,13724,6124,6764,836,13,27,0,0
20201020,13724,6124,6764,836,0,0,0,0
20201021,13728,6124,6764,836,4,0,0,0
20201022,13728,6124,6764,836,0,0,0,0
20201023,13733,6124,6764,836,5,0,0,0
20201024,13733,6141,6764,837,0,17,0,1
20201025,13742,6141,6764,837,9,0,0,0
20201026,13742,6146,6764,837,0,5,0,0
20201027,13747,6146,6764,837,5,0,0,0
20201028,13765,6164,6764,837,18,18,0,0
20201029,13777,6171,6764,837,12,7,0,0
20201030,13804,6203,6764,837,27,32,0,0
20201031,13804,6203,6764,837,0,0,0,0
20201101,13804,6218,6764,837,0,15,0,0
20201102,13819,6265,6764,837,15,47,0,0
20201103,13866,6304,6764,837,47,39,0,0
20201104,13905,6342,6764,837,39,38,0,0
20201105,13996,6342,6764,837,91,0,0,0
20201106,14033,6342,6764,837,37,0,0,0
20201107,14090,6342,6764,837,57,0,0,0
20201108,14155,3491,9484,1115,65,-2851,2720,278
20201109,14205,3547,9492,1116,50,56,8,1
20201110,14301,3547,9492,1116,96,0,0,0
20201111,14346,3705,9525,1116,45,158,33,0
20201112,14401,3750,9535,1116,55,45,10,0
20201113,14498,3750,9535,1116,97,0,0,0
20201114,14626,3750,9535,1116,128,0,0,0
20201115,14728,3939,9571,1116,102,189,36,0
20201116,15047,4028,9581,1119,319,89,10,3
20201117,15153,4263,9609,1175,106,235,28,56
20201118,15299,4263,9609,1175,146,0,0,0
20201119,15530,4450,9670,1179,231,187,61,4
20201120,15839,4663,9682,1185,309,213,12,6
20201121,16052,4919,9727,1193,213,256,45,8
20201122,16187,5118,9737,1197,135,199,10,4
20201123,16431,5118,9737,1197,244,0,0,0
20201124,16649,5375,9854,1202,218,257,117,5
20201125,16864,5531,9908,1210,215,156,54,8
20201126,17068,5685,9964,1215,204,154,56,5
20201127,17404,5685,9964,1215,336,0,0,0
20201128,17627,5994,10175,1235,223,309,211,20
20201129,17810,5994,10175,1235,183,0,0,0
20201130,18045,6259,10302,1249,235,265,127,14
20201201,18254,6421,10369,1255,209,162,67,6
20201202,18535,6496,10493,1265,281,75,124,10
20201203,18884,6592,10672,1271,349,96,179,6
20201204,19196,6592,10672,1271,312,0,0,0
20201205,19468,6964,10942,1290,272,372,270,19
20201206,19747,7152,11021,1295,279,188,79,5
20201207,20084,7262,11184,1301,337,110,163,6
20201208,20296,7262,11184,1301,212,0,0,0
20201209,20468,7433,11344,1307,172,171,160,6
20201210,20844,7476,11673,1319,376,43,329,12
20201211,21147,7649,11855,1340,303,173,182,21
20201212,21386,7576,12227,1344,239,-73,372,4
20201213,21591,7726,12313,1347,205,150,86,3
20201214,21864,7784,12452,1355,273,58,139,8
20201215,22082,7825,12667,1372,218,41,215,17
20201216,22265,7945,12753,1384,183,120,86,12
20201217,22621,7984,12873,1408,356,39,120,24
20201218,22823,7984,12873,1408,202,0,0,0
20201219,22990,8172,13024,1425,167,188,151,17
20201220,23100,8218,13171,1434,110,46,147,9
20201221,23316,8253,13260,1450,216,35,89,16
20201222,23572,8324,13524,1468,256,71,264,18
20201223,23846,8324,13524,1468,274,0,0,0
20201224,24058,8324,13524,1468,212,0,0,0
20201225,24341,8324,13524,1468,283,0,0,0
20201226,24588,8324,13524,1468,247,0,0,0
20201227,24694,8324,13524,1468,106,0,0,0
20201228,24888,8324,13524,1468,194,0,0,0
20201229,25060,8324,13524,1468,172,0,0,0
20201230,25238,8324,13524,1468,178,0,0,0
20201231,25500,8324,13524,1468,262,0,0,0
20210101,25730,8324,13524,1468,230,0,0,0
20210102,25882,8324,13524,1468,152,0,0,0
20210103,26039,8324,13524,1468,157,0,0,0
20210104,26279,8324,13524,1468,240,0,0,0
20210105,26279,8324,13524,1468,0,0,0,0
20210106,26279,8324,13524,1468,0,0,0,0
20210107,26279,8324,13524,1468,0,0,0,0
20210108,26279,8324,13524,1468,0,0,0,0
20210109,26279,8324,13524,1468,0,0,0,0
20210110,27494,8324,13524,1468,1215,0,0,0
20210111,27619,8324,13524,1468,125,0,0,0
20210112,27768,8324,13524,1468,149,0,0,0
20210113,27827,8914,15240,1576,59,590,1716,108
20210114,27969,8914,15240,1576,142,0,0,0
20210115,28097,8914,15240,1576,128,0,0,0
20210116,28179,8914,15240,1576,82,0,0,0
20210117,28233,8988,15688,1603,54,74,448,27
20210118,28317,8988,15688,1603,84,0,0,0
20210119,28450,8988,15688,1603,133,0,0,0
20210120,28522,8988,15688,1603,72,0,0,0
20210121,28522,8988,15688,1603,0,0,0,0
20210122,28522,8988,15688,1603,0,0,0,0
20210123,28522,8988,15688,1603,0,0,0,0
20210124,28522,8988,15688,1603,0,0,0,0
20210125,28522,4904,19884,1738,0,-4084,4196,135
20210126,28522,6092,20680,1750,0,1188,796,12
20210127,28994,6298,20936,1760,472,206,256,10
20210128,29066,6113,21155,1798,72,-185,219,38
20210129,29291,6338,21155,1798,225,225,0,0
20210130,29291,6187,21300,1804,0,-151,145,6
20210131,29380,6163,21410,1807,89,-24,110,3
20210201,29449,6133,21504,1812,69,-30,94,5
20210202,29488,6045,21614,1829,39,-88,110,17
20210203,29536,6011,21695,1830,48,-34,81,1
20210204,29577,5952,21794,1831,41,-59,99,1
20210205,29634,6009,21794,1831,57,57,0,0
20210206,29634,6009,21794,1831,0,0,0,0
20210207,29634,5813,21986,1835,0,-196,192,4
20210208,29765,5878,22052,1835,131,65,66,0
20210209,29851,5964,22052,1835,86,86,0,0
20210210,29851,5794,22208,1849,0,-170,156,14
20210211,29933,5876,22208,1849,82,82,0,0
20210212,29933,5876,22208,1849,0,0,0,0
20210213,29933,5876,22208,1849,0,0,0,0
20210214,29933,5876,22208,1849,0,0,0,0
20210215,29933,5590,22485,1858,0,-286,277,9
20210216,30052,5666,22523,1863,119,76,38,5
20210217,30078,5608,22606,1864,26,-58,83,1
20210218,30115,5613,22638,1864,37,5,32,0
20210219,30128,5626,22638,1864,13,13,0,0
20210220,30128,5626,22638,1864,0,0,0,0
20210221,30128,5626,22638,1864,0,0,0,0
20210222,30128,5460,22797,1871,0,-166,159,7
20210223,30205,5506,22823,1876,77,46,26,5
20210224,30236,5537,22823,1876,31,31,0,0
20210225,30236,5514,22844,1878,0,-23,21,2
20210226,30284,5543,22863,1878,48,29,19,0
20210227,30316,5549,22887,1880,32,6,24,2
20210228,30347,5560,22907,1880,31,11,20,0
20210301,30364,5499,22975,1890,17,-61,68,10
20210302,30417,5438,23084,1895,53,-61,109,5
20210303,30479,5500,23084,1895,62,62,0,0
20210304,30479,5500,23084,1895,0,0,0,0
20210305,30479,5500,23084,1895,0,0,0,0
20210306,30479,5428,23156,1895,0,-72,72,0
20210307,30540,5489,23156,1895,61,61,0,0
20210308,30540,5357,23268,1915,0,-132,112,20
20210309,30686,5503,23268,1915,146,146,0,0
20210310,30686,5503,23268,1915,0,0,0,0
20210311,30686,5349,23397,1940,0,-154,129,25
20210312,30873,5536,23397,1940,187,187,0,0
20210313,30873,5536,23397,1940,0,0,0,0
20210314,30873,5536,23397,1940,0,0,0,0
20210315,30873,5331,23583,1959,0,-205,186,19
20210316,30989,5447,23583,1959,116,116,0,0
20210317,30989,5447,23583,1959,0,0,0,0
20210318,30989,5447,23583,1959,0,0,0,0
20210319,30989,5447,23583,1959,0,0,0,0
20210320,30989,5447,23583,1959,0,0,0,0
20210321,30989,5278,23725,1986,0,-169,142,27
20210322,31147,5436,23725,1986,158,158,0,0
20210323,31147,5286,23858,2003,0,-150,133,17
20210324,31282,5264,23990,2028,135,-22,132,25
20210325,31407,5389,23990,2028,125,125,0,0
20210326,31407,5389,23990,2028,0,0,0,0
20210327,31407,5389,23990,2028,0,0,0,0
20210328,31407,5389,23990,2028,0,0,0,0
20210329,31407,5389,23990,2028,0,0,0,0
20210330,31407,5287,24079,2041,0,-102,89,13
20210331,31833,5556,24214,2063,426,269,135,22
20210401,31833,5556,24214,2063,0,0,0,0
20210402,31833,5556,24214,2063,0,0,0,0
20210403,31833,5556,24214,2063,0,0,0,0
20210404,31833,5556,24214,2063,0,0,0,0
20210405,31833,5556,24214,2063,0,0,0,0
20210406,31833,5556,24214,2063,0,0,0,0
20210407,31833,5556,24214,2063,0,0,0,0
20210408,31833,5556,24214,2063,0,0,0,0
20210409,31833,5556,24214,2063,0,0,0,0
20210410,31833,5556,24214,2063,0,0,0,0
20210411,31833,5556,24214,2063,0,0,0,0
20210412,31833,5556,24214,2063,0,0,0,0
20210413,31833,4188,25451,2194,0,-1368,1237,131
20210414,32932,5185,25539,2208,1099,997,88,14
20210415,32932,5185,25539,2208,0,0,0,0
20210416,33022,5275,25539,2208,90,90,0,0
20210417,33022,5275,25539,2208,0,0,0,0
20210418,33022,5275,25539,2208,0,0,0,0
20210419,33022,4654,26087,2281,0,-621,548,73
20210420,33083,4548,26248,2287,61,-106,161,6
20210421,33157,4544,26324,2289,74,-4,76,2
20210422,33599,4888,26411,2300,442,344,87,11
20210423,33673,4962,26411,2300,74,74,0,0
20210424,33673,4962,26411,2300,0,0,0,0
20210425,33673,4962,26411,2300,0,0,0,0
20210426,33673,4611,26722,2340,0,-351,311,40
20210427,33891,4747,26795,2349,218,136,73,9
20210428,33944,4800,26795,2349,53,53,0,0
20210429,33944,4800,26795,2349,0,0,0,0
20210430,33944,4800,26795,2349,0,0,0,0
20210501,33944,4800,26795,2349,0,0,0,0
20210502,33944,4800,26795,2349,0,0,0,0
20210503,33944,4800,26795,2349,0,0,0,0
20210504,33944,4332,27247,2365,0,-468,452,16
20210505,34082,4470,27247,2365,138,138,0,0
20210506,34461,4849,27247,2365,379,379,0,0
20210507,34461,4849,27247,2365,0,0,0,0
20210508,34461,4849,27247,2365,0,0,0,0
20210509,34461,4849,27247,2365,0,0,0,0
20210510,34889,4494,27949,2446,428,-355,702,81
20210511,34889,4494,27949,2446,0,0,0,0
20210512,34889,4494,27949,2446,0,0,0,0
20210513,34889,4494,27949,2446,0,0,0,0
20210514,34889,4494,27949,2446,0,0,0,0
20210515,34889,4494,27949,2446,0,0,0,0
20210516,34889,4494,27949,2446,0,0,0,0
20210517,34889,4494,27949,2446,0,0,0,0
20210518,34889,4494,27949,2446,0,0,0,0
20210519,34889,4494,27949,2446,0,0,0,0
20210520,34889,4372,27949,2568,0,-122,0,122
20210521,34889,4372,27949,2568,0,0,0,0
20210522,34889,4372,27949,2568,0,0,0,0
20210523,34889,4372,27949,2568,0,0,0,0
20210524,34889,4340,27949,2600,0,-32,0,32
20210525,34889,4340,27949,2600,0,0,0,0
20210526,34889,4340,27949,2600,0,0,0,0
20210527,34889,4340,27949,2600,0,0,0,0
20210528,35289,4740,27949,2600,400,400,0,0
20210529,35289,4740,27949,2600,0,0,0,0
20210530,35289,3389,29270,2630,0,-1351,1321,30
20210531,35495,3557,29307,2631,206,168,37,1
20210601,35512,3486,29364,2662,17,-71,57,31
20210602,35537,3511,29364,2662,25,25,0,0
20210603,35656,3630,29364,2662,119,119,0,0
20210604,35656,3630,29364,2662,0,0,0,0
20210605,35656,3630,29364,2662,0,0,0,0
20210606,35656,3243,29716,2697,0,-387,352,35
20210607,36004,3591,29716,2697,348,348,0,0
20210608,36004,3481,29812,2711,0,-110,96,14
20210609,36122,3562,29841,2719,118,81,29,8
20210610,36203,3643,29841,2719,81,81,0,0
20210611,36203,3643,29841,2719,0,0,0,0
20210612,36203,3643,29841,2719,0,0,0,0
20210613,36203,3477,29994,2732,0,-166,153,13
20210614,36304,3578,29994,2732,101,101,0,0
20210615,36304,3578,29994,2732,0,0,0,0
20210616,36304,3505,30062,2737,0,-73,68,5
20210617,36347,3548,30062,2737,43,43,0,0
20210618,36347,3548,30062,2737,0,0,0,0
20210619,36347,3548,30062,2737,0,0,0,0
20210620,36347,3548,30062,2737,0,0,0,0
20210621,36347,3548,30062,2737,0,0,0,0
20210622,36347,3229,30370,2748,0,-319,308,11
20210623,36522,3368,30404,2750,175,139,34,2
20210624,36558,3385,30423,2750,36,17,19,0
20210625,36574,3401,30423,2750,16,16,0,0
20210626,36574,3401,30423,2750,0,0,0,0
20210627,36574,3333,30487,2754,0,-68,64,4
20210628,36620,3379,30487,2754,46,46,0,0
20210629,36620,3350,30516,2754,0,-29,29,0
20210630,36658,3388,30516,2754,38,38,0,0
20210701,36658,3355,30543,2760,0,-33,27,6
20210702,36658,3355,30543,2760,0,0,0,0
20210703,36658,3355,30543,2760,0,0,0,0
20210704,36658,3355,30543,2760,0,0,0,0
20210705,36709,3341,30608,2760,51,-14,65,0
20210706,36799,3392,30647,2760,90,51,39,0
20210707,36805,3398,30647,2760,6,6,0,0
20210708,36805,3398,30647,2760,0,0,0,0
20210709,36805,3398,30647,2760,0,0,0,0
20210710,36805,3398,30647,2760,0,0,0,0
20210711,36805,3398,30647,2760,0,0,0,0
20210712,36805,3398,30647,2760,0,0,0,0
20210713,36805,34045,30647,2760,0,30647,0,0
20210714,36805,3384,30647,2774,0,-30661,0,14
20210715,36986,3565,30647,2774,181,181,0,0
20210716,36986,3563,30647,2776,0,-2,0,2
20210717,36986,3563,30647,2776,0,0,0,0
20210718,36986,3563,30647,2776,0,0,0,0
20210719,37138,3715,30647,2776,152,152,0,0
20210720,37138,3715,30647,2776,0,0,0,0
20210721,37138,3715,30647,2776,0,0,0,0
20210722,37138,3715,30647,2776,0,0,0,0
20210723,37138,3715,30647,2776,0,0,0,0
20210724,37138,3715,30647,2776,0,0,0,0
20210725,37138,3715,30647,2776,0,0,0,0
20210726,37138,3715,30647,2776,0,0,0,0
20210727,37138,3715,30647,2776,0,0,0,0
20210728,37138,3715,30647,2776,0,0,0,0
20210729,37138,3715,30647,2776,0,0,0,0
20210730,37138,3715,30647,2776,0,0,0,0
20210731,37138,3715,30647,2776,0,0,0,0
20210801,37138,3715,30647,2776,0,0,0,0
20210802,37138,3715,30647,2776,0,0,0,0
20210803,37138,3715,30647,2776,0,0,0,0
20210804,37138,3715,30647,2776,0,0,0,0
20210805,37138,0,0,2776,0,-3715,-30647,0
20210806,37138,0,0,2776,0,0,0,0
20210807,37138,0,0,2776,0,0,0,0
20210808,37138,0,0,2776,0,0,0,0
20210809,37138,0,0,2776,0,0,0,0
20210810,37528,0,0,2776,390,0,0,0
20210811,37528,0,0,2776,0,0,0,0
20210812,37532,0,0,2803,4,0,0,27
20210813,37543,0,0,2804,11,0,0,1
20210814,37543,0,0,2804,0,0,0,0
20210815,37543,0,0,2813,0,0,0,9
20210816,37556,0,0,2816,13,0,0,3
20210817,37556,0,0,2816,0,0,0,0
20210818,37616,0,0,2818,60,0,0,2
20210819,37616,0,0,2820,0,0,0,2
20210820,37620,0,0,2820,4,0,0,0
20210821,37620,0,0,2820,0,0,0,0
20210822,37620,0,0,2822,0,0,0,2
20210823,37639,0,0,2826,19,0,0,4
20210824,37648,0,0,2828,9,0,0,2
20210825,37662,0,0,2828,14,0,0,0
20210826,37698,0,0,2831,36,0,0,3
20210827,37699,0,0,2831,1,0,0,0
20210828,37699,0,0,2831,0,0,0,0
20210829,37699,0,0,2831,0,0,0,0
20210830,37708,0,0,2831,9,0,0,0
20210831,37709,0,0,2831,1,0,0,0
20210901,37709,0,0,2837,0,0,0,6
20210902,37711,0,0,2837,2,0,0,0
20210903,37886,0,0,2837,175,0,0,0
20210904,37886,0,0,2837,0,0,0,0
