date,infected,active,recovered,dead,deltaInfected,deltaActive,deltaRecovered,deltaDead
20200123,1,1,0,0,1,1,0,0
20200124,3,3,0,0,2,2,0,0
20200125,3,3,0,0,0,0,0,0
20200126,4,4,0,0,1,1,0,0
20200127,5,5,0,0,1,1,0,0
20200128,7,7,0,0,2,2,0,0
20200129,7,7,0,0,0,0,0,0
20200130,10,10,0,0,3,3,0,0
20200131,13,13,0,0,3,3,0,0
20200201,16,16,0,0,3,3,0,0
20200202,18,18,0,0,2,2,0,0
20200203,18,18,0,0,0,0,0,0
20200204,24,24,0,0,6,6,0,0
20200205,28,28,0,0,4,4,0,0
20200206,28,28,0,0,0,0,0,0
20200207,30,30,0,0,2,2,0,0
20200208,33,31,2,0,3,1,2,0
20200209,40,38,2,0,7,7,0,0
20200210,45,43,2,0,5,5,0,0
20200211,47,38,9,0,2,-5,7,0
20200212,50,35,15,0,3,-3,6,0
20200213,58,43,15,0,8,8,0,0
20200214,67,50,17,0,9,7,2,0
20200215,72,54,18,0,5,4,1,0
20200216,75,57,18,0,3,3,0,0
20200217,77,53,24,0,2,-4,6,0
20200218,81,52,29,0,4,-1,5,0
20200219,84,50,34,0,3,-2,5,0
20200220,84,50,34,0,0,0,0,0
20200221,85,48,37,0,1,-2,3,0
20200222,85,48,37,0,0,0,0,0
20200223,89,38,51,0,4,-10,14,0
20200224,89,38,51,0,0,0,0,0
20200225,91,38,53,0,2,0,2,0
20200226,93,31,62,0,2,-7,9,0
20200227,93,31,62,0,0,0,0,0
20200228,93,31,62,0,0,0,0,0
20200229,102,30,72,0,9,-1,10,0
20200301,106,34,72,0,4,4,0,0
20200302,108,30,78,0,2,-4,6,0
20200303,110,32,78,0,2,2,0,0
20200304,110,32,78,0,0,0,0,0
20200305,117,39,78,0,7,7,0,0
20200306,130,52,78,0,13,13,0,0
20200307,138,60,78,0,8,8,0,0
20200308,150,72,78,0,12,12,0,0
20200309,150,72,78,0,0,0,0,0
20200310,160,82,78,0,10,10,0,0
20200311,178,82,96,0,18,0,18,0
20200312,178,82,96,0,0,0,0,0
20200313,200,103,97,0,22,21,1,0
20200314,212,107,105,0,12,4,8,0
20200315,226,121,105,0,14,14,0,0
20200316,243,134,109,0,17,13,4,0
20200317,266,152,114,0,23,18,5,0
20200318,313,199,114,0,47,47,0,0
20200319,345,231,114,0,32,32,0,0
20200320,385,261,124,0,40,30,10,0
20200321,432,290,140,2,47,29,16,2
20200322,455,309,144,2,23,19,4,0
20200323,509,355,152,2,54,46,8,0
20200324,558,400,156,2,49,45,4,0
20200325,631,469,160,2,73,69,4,0
20200326,683,509,172,2,52,40,12,0
20200327,732,547,183,2,49,38,11,0
20200328,802,602,198,2,70,55,15,0
20200329,844,629,212,3,42,27,14,1
20200330,879,648,228,3,35,19,16,0
20200331,926,683,240,3,47,35,12,0
20200401,1000,752,245,3,74,69,5,0
20200402,1049,779,266,4,49,27,21,1
20200403,1114,827,282,5,65,48,16,1
20200404,1189,886,297,6,75,59,15,1
20200405,1309,983,320,6,120,97,23,0
20200406,1375,1025,344,6,66,42,24,0
20200407,1481,1098,377,6,106,73,33,0
20200408,1623,1211,406,6,142,113,29,0
20200409,1910,1444,460,6,287,233,54,0
20200410,2108,1609,492,7,198,165,32,1
20200411,2299,1763,528,8,191,154,36,1
20200412,2532,1964,560,8,233,201,32,0
20200413,2918,2323,586,9,386,359,26,1
20200414,3252,2631,611,10,334,308,25,1
20200415,3699,3037,652,10,447,406,41,0
20200416,4427,3734,683,10,728,697,31,0
20200417,5050,4331,708,11,623,597,25,1
20200418,5992,5241,740,11,942,910,32,0
20200419,6588,5809,768,11,596,568,28,0
20200420,8014,7202,801,11,1426,1393,33,0
20200421,9125,8275,839,11,1111,1073,38,0
20200422,10141,9233,896,12,1016,958,57,1
20200423,11178,10242,924,12,1037,1009,28,0
20200424,12075,11107,956,12,897,865,32,0
20200425,12693,11679,1002,12,618,572,46,0
20200426,13624,12552,1060,12,931,873,58,0
20200427,14423,13314,1095,14,799,762,35,2
20200428,14951,13809,1128,14,528,495,33,0
20200429,15641,14439,1188,14,690,630,60,0
20200430,16169,14910,1244,15,528,471,56,1
20200501,17101,15817,1268,16,932,907,24,1
20200502,17548,16184,1347,17,447,367,79,1
20200503,18205,16779,1408,18,657,595,61,1
20200504,18778,17303,1457,18,573,524,49,0
20200505,19410,17873,1519,18,632,570,62,0
20200506,20198,18544,1634,20,788,671,115,2
20200507,20939,19207,1712,20,741,663,78,0
20200508,21707,19647,2040,20,768,440,328,0
20200509,22460,20144,2296,20,753,497,256,0
20200510,23336,20595,2721,20,876,451,425,0
20200511,23822,20576,3225,21,486,-19,504,1
20200512,24671,20799,3851,21,849,223,626,0
20200513,25346,20516,4809,21,675,-283,958,0
20200514,26098,20104,5973,21,752,-412,1164,0
20200515,26891,19622,7248,21,793,-482,1275,0
20200516,27356,18992,8342,22,465,-630,1094,1
20200517,28038,18676,9340,22,682,-316,998,0
20200518,28343,18486,9835,22,305,-190,495,0
20200519,28794,18407,10365,22,451,-79,530,0
20200520,29364,18135,11207,22,570,-272,842,0
20200521,29812,17672,12117,23,448,-463,910,1
20200522,30426,17408,12995,23,614,-264,878,0
20200523,31068,17163,13882,23,642,-245,887,0
20200524,31616,16717,14876,23,548,-446,994,0
20200525,31960,16199,15738,23,344,-518,862,0
20200526,32343,15876,16444,23,383,-323,706,0
20200527,32876,15577,17276,23,533,-299,832,0
20200528,33249,14932,18294,23,373,-645,1018,0
20200529,33860,14206,19631,23,611,-726,1337,0
20200530,34366,13616,20727,23,506,-590,1096,0
20200531,34884,13162,21699,23,518,-454,972,0
20200601,35292,12802,22466,24,408,-360,767,1
20200602,35836,12637,23175,24,544,-165,709,0
20200603,36405,12799,23582,24,569,162,407,0
20200604,36922,12994,23904,24,517,195,322,0
20200605,37183,12950,24209,24,261,-44,305,0
20200606,37527,12943,24559,25,344,-7,350,1
20200607,37910,12999,24886,25,383,56,327,0
20200608,38296,12903,25368,25,386,-96,482,0
20200609,38514,12612,25877,25,218,-291,509,0
20200610,38965,12408,26532,25,451,-204,655,0
20200611,39387,12076,27286,25,422,-332,754,0
20200612,39850,11785,28040,25,463,-291,754,0
20200613,40197,11363,28808,26,347,-422,768,1
20200614,40604,10989,29589,26,407,-374,781,0
20200615,40818,10426,30366,26,214,-563,777,0
20200616,40969,9780,31163,26,151,-646,797,0
20200617,41216,9252,31938,26,247,-528,775,0
20200618,41473,8735,32712,26,257,-517,774,0
20200619,41615,8130,33459,26,142,-605,747,0
20200620,41833,7583,34224,26,218,-547,765,0
20200621,42095,7127,34942,26,262,-456,718,0
20200622,42313,6697,35590,26,218,-430,648,0
20200623,42432,6411,35995,26,119,-286,405,0
20200624,42623,6298,36299,26,191,-113,304,0
20200625,42736,6106,36604,26,113,-192,305,0
20200626,42955,6104,36825,26,219,-2,221,0
20200627,43246,6057,37163,26,291,-47,338,0
20200628,43459,5925,37508,26,213,-132,345,0
20200629,43661,5650,37985,26,202,-275,477,0
20200630,43907,5381,38500,26,246,-269,515,0
20200701,44122,5085,39011,26,215,-296,511,0
20200702,44310,4855,39429,26,188,-230,418,0
20200703,44479,4684,39769,26,169,-171,340,0
20200704,44664,4521,40117,26,185,-163,348,0
20200705,44800,4333,40441,26,136,-188,324,0
20200706,44983,4240,40717,26,183,-93,276,0
20200707,45140,4112,41002,26,157,-128,285,0
20200708,45298,3949,41323,26,158,-163,321,0
20200709,45423,3752,41645,26,125,-197,322,0
20200710,45614,3808,41780,26,191,56,135,0
20200711,45783,3731,42026,26,169,-77,246,0
20200712,45961,3650,42285,26,178,-81,259,0
20200713,46283,3716,42541,26,322,66,256,0
20200714,46630,3866,42737,27,347,150,196,1
20200715,46878,3863,42988,27,248,-3,251,0
20200716,47126,3843,43256,27,248,-20,268,0
20200717,47453,3849,43577,27,327,6,321,0
20200718,47655,3795,43833,27,202,-54,256,0
20200719,47912,3799,44086,27,257,4,253,0
20200720,48035,3637,44371,27,123,-162,285,0
20200721,48434,3823,44584,27,399,186,213,0
20200722,48744,3922,44795,27,310,99,211,0
20200723,49098,4056,45015,27,354,134,220,0
20200724,49375,4176,45172,27,277,120,157,0
20200725,49888,4509,45352,27,513,333,180,0
20200726,50369,4821,45521,27,481,312,169,0
20200727,50838,5119,45692,27,469,298,171,0
20200728,51197,5277,45893,27,359,158,201,0
20200729,51531,5406,46098,27,334,129,205,0
20200730,51809,5474,46308,27,278,68,210,0
20200731,52205,5687,46491,27,396,213,183,0
20200801,52512,5745,46740,27,307,58,249,0
20200802,52825,5872,46926,27,313,127,186,0
20200803,53051,5845,47179,27,226,-27,253,0
20200804,53346,5865,47454,27,295,20,275,0
20200805,54254,6459,47768,27,908,594,314,0
20200806,54555,6497,48031,27,301,38,263,0
20200807,54797,6458,48312,27,242,-39,281,0
20200808,54929,6319,48583,27,132,-139,271,0
20200809,55104,6162,48915,27,175,-157,332,0
20200810,55292,5656,49609,27,188,-506,694,0
20200811,55353,5198,50128,27,61,-458,519,0
20200812,55395,4848,50520,27,42,-350,392,0
20200813,55497,4734,50736,27,102,-114,216,0
20200814,55580,4504,51049,27,83,-230,313,0
20200815,55661,4113,51521,27,81,-391,472,0
20200816,55747,3767,51953,27,86,-346,432,0
20200817,55838,3461,52350,27,91,-306,397,0
20200818,55938,3378,52533,27,100,-83,183,0
20200819,56031,3194,52810,27,93,-184,277,0
20200820,56099,2953,53119,27,68,-241,309,0
20200821,56216,2538,53651,27,117,-415,532,0
20200822,56266,2319,53920,27,50,-219,269,0
20200823,56353,2162,54164,27,87,-157,244,0
20200824,56404,1790,54587,27,51,-372,423,0
20200825,56435,1592,54816,27,31,-198,229,0
20200826,56495,1497,54971,27,60,-95,155,0
20200827,56572,1406,55139,27,77,-91,168,0
20200828,56666,1302,55337,27,94,-104,198,0
20200829,56717,1243,55447,27,51,-59,110,0
20200830,56771,1158,55586,27,54,-85,139,0
20200831,56812,1127,55658,27,41,-31,72,0
20200901,56852,1076,55749,27,40,-51,91,0
20200902,56860,942,55891,27,8,-134,142,0
20200903,56908,853,56028,27,48,-89,137,0
20200904,56948,747,56174,27,40,-106,146,0
20200905,56982,688,56267,27,34,-59,93,0
20200906,57022,662,56333,27,40,-26,66,0
20200907,57044,609,56408,27,22,-53,75,0
20200908,57091,603,56461,27,47,-6,53,0
20200909,57166,647,56492,27,75,44,31,0
20200910,57229,644,56558,27,63,-3,66,0
20200911,57315,681,56607,27,86,37,49,0
20200912,57357,631,56699,27,42,-50,92,0
20200913,57406,615,56764,27,49,-16,65,0
20200914,57454,625,56802,27,48,10,38,0
20200915,57488,577,56884,27,34,-48,82,0
20200916,57514,532,56955,27,26,-45,71,0
20200917,57532,466,57039,27,18,-66,84,0
20200918,57543,445,57071,27,11,-21,32,0
20200919,57558,389,57142,27,15,-56,71,0
20200920,57576,368,57181,27,18,-21,39,0
20200921,57606,338,57241,27,30,-30,60,0
20200922,57627,338,57262,27,21,0,21,0
20200923,57639,321,57291,27,12,-17,29,0
20200924,57654,294,57333,27,15,-27,42,0
20200925,57665,297,57341,27,11,3,8,0
20200926,57685,299,57359,27,20,2,18,0
20200927,57700,306,57367,27,15,7,8,0
20200928,57715,295,57393,27,15,-11,26,0
20200929,57742,249,57466,27,27,-46,73,0
20200930,57765,250,57488,27,23,1,22,0
20201001,57784,245,57512,27,19,-5,24,0
20201002,57794,233,57534,27,10,-12,22,0
20201003,57800,211,57562,27,6,-22,28,0
20201004,57812,210,57575,27,12,-1,13,0
20201005,57819,195,57597,27,7,-15,22,0
20201006,57830,191,57612,27,11,-4,15,0
20201007,57840,189,57624,27,10,-2,12,0
20201008,57849,154,57668,27,9,-35,44,0
20201009,57859,157,57675,27,10,3,7,0
20201010,57866,141,57698,27,7,-16,23,0
20201011,57876,144,57705,27,10,3,7,0
20201012,57880,124,57728,28,4,-20,23,1
20201013,57884,116,57740,28,4,-8,12,0
20201014,57889,109,57752,28,5,-7,12,0
20201015,57892,100,57764,28,3,-9,12,0
20201016,57901,89,57784,28,9,-11,20,0
20201017,57904,78,57798,28,3,-11,14,0
20201018,57911,76,57807,28,7,-2,9,0
20201019,57915,68,57819,28,4,-8,12,0
20201020,57921,74,57819,28,6,6,0,0
20201021,57933,84,57821,28,12,10,2,0
20201022,57941,84,57829,28,8,0,8,0
20201023,57951,91,57832,28,10,7,3,0
20201024,57965,93,57844,28,14,2,12,0
20201025,57970,84,57858,28,5,-9,14,0
20201026,57973,66,57879,28,3,-18,21,0
20201027,57980,69,57883,28,7,3,4,0
20201028,57987,69,57890,28,7,0,7,0
20201029,57994,67,57899,28,7,-2,9,0
20201030,58003,66,57909,28,9,-1,10,0
20201031,58015,74,57913,28,12,8,4,0
20201101,58019,67,57924,28,4,-7,11,0
20201102,58020,68,57924,28,1,1,0,0
20201103,58029,64,57937,28,9,-4,13,0
20201104,58036,70,57938,28,7,6,1,0
20201105,58043,66,57949,28,7,-4,11,0
20201106,58047,60,57959,28,4,-6,10,0
20201107,58054,58,57968,28,7,-2,9,0
20201108,58056,53,57975,28,2,-5,7,0
20201109,58064,55,57981,28,8,2,6,0
20201110,58073,60,57985,28,9,5,4,0
20201111,58091,73,57990,28,18,13,5,0
20201112,58102,72,58002,28,11,-1,12,0
20201113,58114,78,58008,28,12,6,6,0
20201114,58116,69,58019,28,2,-9,11,0
20201115,58119,62,58029,28,3,-7,10,0
20201116,58124,63,58033,28,5,1,4,0
20201117,58130,63,58039,28,6,0,6,0
20201118,58135,61,58046,28,5,-2,7,0
20201119,58139,59,58052,28,4,-2,6,0
20201120,58143,57,58058,28,4,-2,6,0
20201121,58148,56,58064,28,5,-1,6,0
20201122,58160,65,58067,28,12,9,3,0
20201123,58165,66,58071,28,5,1,4,0
20201124,58183,76,58079,28,18,10,8,0
20201125,58190,71,58091,28,7,-5,12,0
20201126,58195,63,58104,28,5,-8,13,0
20201127,58199,60,58111,28,4,-3,7,0
20201128,58205,57,58119,29,6,-3,8,1
20201129,58213,60,58124,29,8,3,5,0
20201130,58218,55,58134,29,5,-5,10,0
20201201,58228,60,58139,29,10,5,5,0
20201202,58230,57,58144,29,2,-3,5,0
20201203,58239,65,58145,29,9,8,1,0
20201204,58242,61,58152,29,3,-4,7,0
20201205,58255,68,58158,29,13,7,6,0
20201206,58260,71,58160,29,5,3,2,0
20201207,58273,76,58168,29,13,5,8,0
20201208,58285,80,58176,29,12,4,8,0
20201209,58291,80,58182,29,6,0,6,0
20201210,58297,80,58188,29,6,0,6,0
20201211,58305,84,58192,29,8,4,4,0
20201212,58313,87,58197,29,8,3,5,0
20201213,58320,83,58208,29,7,-4,11,0
20201214,58325,86,58210,29,5,3,2,0
20201215,58341,79,58233,29,16,-7,23,0
20201216,58353,86,58238,29,12,7,5,0
20201217,58377,96,58252,29,24,10,14,0
20201218,58386,92,58265,29,9,-4,13,0
20201219,58403,100,58274,29,17,8,9,0
20201220,58422,114,58279,29,19,14,5,0
20201221,58432,116,58287,29,10,2,8,0
20201222,58461,128,58304,29,29,12,17,0
20201223,58482,131,58322,29,21,3,18,0
20201224,58495,134,58332,29,13,3,10,0
20201225,58509,128,58352,29,14,-6,20,0
20201226,58519,128,58362,29,10,0,10,0
20201227,58524,125,58370,29,5,-3,8,0
20201228,58529,114,58386,29,5,-11,16,0
20201229,58542,113,58400,29,13,-1,14,0
20201230,58569,129,58411,29,27,16,11,0
20201231,58599,121,58449,29,30,-8,38,0
20210101,58629,151,58449,29,30,30,0,0
20210102,58662,157,58476,29,33,6,27,0
20210103,58697,181,58487,29,35,24,11,0
20210104,58721,195,58497,29,24,14,10,0
20210105,58749,203,58517,29,28,8,20,0
20210106,58780,210,58541,29,31,7,24,0
20210107,58813,222,58562,29,33,12,21,0
20210108,58836,227,58580,29,23,5,18,0
20210109,58865,225,58611,29,29,-2,31,0
20210110,58907,242,58636,29,42,17,25,0
20210111,58929,232,58668,29,22,-10,32,0
20210112,58946,223,58694,29,17,-9,26,0
20210113,58984,233,58722,29,38,10,28,0
20210114,59029,243,58757,29,45,10,35,0
20210115,59059,259,58771,29,30,16,14,0
20210116,59083,270,58784,29,24,11,13,0
20210117,59113,238,58846,29,30,-32,62,0
20210118,59127,230,58868,29,14,-8,22,0
20210119,59157,234,58894,29,30,4,26,0
20210120,59197,242,58926,29,40,8,32,0
20210121,59235,247,58959,29,38,5,33,0
20210122,59250,238,58983,29,15,-9,24,0
20210123,59260,216,59015,29,10,-22,32,0
20210124,59308,238,59041,29,48,22,26,0
20210125,59352,257,59066,29,44,19,25,0
20210126,59366,251,59086,29,14,-6,20,0
20210127,59391,258,59104,29,25,7,18,0
20210128,59425,248,59148,29,34,-10,44,0
20210129,59449,239,59181,29,24,-9,33,0
20210130,59507,282,59196,29,58,43,15,0
20210131,59536,279,59228,29,29,-3,32,0
20210201,59565,265,59271,29,29,-14,43,0
20210202,59584,254,59301,29,19,-11,30,0
20210203,59602,253,59320,29,18,-1,19,0
20210204,59624,247,59348,29,22,-6,28,0
20210205,59649,247,59373,29,25,0,25,0
20210206,59675,241,59405,29,26,-6,32,0
20210207,59699,237,59433,29,24,-4,28,0
20210208,59721,208,59484,29,22,-29,51,0
20210209,59732,197,59506,29,11,-11,22,0
20210210,59747,192,59526,29,15,-5,20,0
20210211,59759,172,59558,29,12,-20,32,0
20210212,59777,179,59569,29,18,7,11,0
20210213,59786,153,59604,29,9,-26,35,0
20210214,59800,150,59621,29,14,-3,17,0
20210215,59809,139,59641,29,9,-11,20,0
20210216,59810,120,59661,29,1,-19,20,0
20210217,59821,116,59676,29,11,-4,15,0
20210218,59832,124,59679,29,11,8,3,0
20210219,59846,120,59697,29,14,-4,18,0
20210220,59858,110,59719,29,12,-10,22,0
20210221,59869,109,59731,29,11,-1,12,0
20210222,59879,104,59746,29,10,-5,15,0
20210223,59883,101,59753,29,4,-3,7,0
20210224,59890,100,59761,29,7,-1,8,0
20210225,59900,86,59785,29,10,-14,24,0
20210226,59913,81,59803,29,13,-5,18,0
20210227,59925,80,59816,29,12,-1,13,0
20210228,59936,84,59823,29,11,4,7,0
20210301,59948,89,59830,29,12,5,7,0
20210302,59956,85,59842,29,8,-4,12,0
20210303,59979,101,59849,29,23,16,7,0
20210304,59998,112,59857,29,19,11,8,0
20210305,60007,108,59870,29,9,-4,13,0
20210306,60020,112,59879,29,13,4,9,0
20210307,60033,110,59894,29,13,-2,15,0
20210308,60046,117,59900,29,13,7,6,0
20210309,60052,118,59905,29,6,1,5,0
20210310,60062,122,59911,29,10,4,6,0
20210311,60070,102,59939,29,8,-20,28,0
20210312,60080,101,59950,29,10,-1,11,0
20210313,60088,97,59961,30,8,-4,11,1
20210314,60105,107,59968,30,17,10,7,0
20210315,60117,113,59974,30,12,6,6,0
20210316,60128,114,59984,30,11,1,10,0
20210317,60137,106,60001,30,9,-8,17,0
20210318,60152,108,60014,30,15,2,13,0
20210319,60167,118,60019,30,15,10,5,0
20210320,60184,132,60022,30,17,14,3,0
20210321,60196,128,60038,30,12,-4,16,0
20210322,60208,127,60051,30,12,-1,13,0
20210323,60221,128,60063,30,13,1,12,0
20210324,60236,128,60078,30,15,0,15,0
20210325,60253,137,60086,30,17,9,8,0
20210326,60265,132,60103,30,12,-5,17,0
20210327,60288,145,60113,30,23,13,10,0
20210328,60300,148,60122,30,12,3,9,0
20210329,60321,160,60131,30,21,12,9,0
20210330,60347,179,60138,30,26,19,7,0
20210331,60381,202,60149,30,34,23,11,0
20210401,60407,216,60161,30,26,14,12,0
20210402,60450,244,60176,30,43,28,15,0
20210403,60468,253,60185,30,18,9,9,0
20210404,60478,246,60202,30,10,-7,17,0
20210405,60495,251,60214,30,17,5,12,0
20210406,60519,250,60239,30,24,-1,25,0
20210407,60554,264,60260,30,35,14,21,0
20210408,60575,261,60284,30,21,-3,24,0
20210409,60601,267,60304,30,26,6,20,0
20210410,60633,281,60322,30,32,14,18,0
20210411,60653,288,60335,30,20,7,13,0
20210412,60678,291,60357,30,25,3,22,0
20210413,60692,288,60374,30,14,-3,17,0
20210414,60719,297,60392,30,27,9,18,0
20210415,60735,288,60417,30,16,-9,25,0
20210416,60769,293,60446,30,34,5,29,0
20210417,60808,315,60463,30,39,22,17,0
20210418,60831,316,60485,30,23,1,22,0
20210419,60851,318,60503,30,20,2,18,0
20210420,60865,295,60540,30,14,-23,37,0
20210421,60880,274,60576,30,15,-21,36,0
20210422,60904,271,60603,30,24,-3,27,0
20210423,60943,300,60613,30,39,29,10,0
20210424,60966,307,60629,30,23,7,16,0
20210425,61006,314,60662,30,40,7,33,0
20210426,61051,339,60682,30,45,25,20,0
20210427,61063,329,60704,30,12,-10,22,0
20210428,61086,338,60718,30,23,9,14,0
20210429,61121,373,60718,30,35,35,0,0
20210430,61145,364,60751,30,24,-9,33,0
20210501,61179,383,60765,31,34,19,14,1
20210502,61218,401,60786,31,39,18,21,0
20210503,61235,398,60806,31,17,-3,20,0
20210504,61252,398,60823,31,17,0,17,0
20210505,61268,393,60844,31,16,-5,21,0
20210506,61286,382,60873,31,18,-11,29,0
20210507,61311,374,60906,31,25,-8,33,0
20210508,61331,388,60912,31,20,14,6,0
20210509,61359,395,60933,31,28,7,21,0
20210510,61378,394,60953,31,19,-1,20,0
20210511,61403,397,60975,31,25,3,22,0
20210512,61419,382,61006,31,16,-15,31,0
20210513,61453,393,61029,31,34,11,23,0
20210514,61505,427,61047,31,52,34,18,0
20210515,61536,443,61062,31,31,16,15,0
20210516,61585,450,61104,31,49,7,42,0
20210517,61613,459,61123,31,28,9,19,0
20210518,61651,486,61134,31,38,27,11,0
20210519,61689,475,61183,31,38,-11,49,0
20210520,61730,469,61229,32,41,-6,46,1
20210521,61770,496,61242,32,40,27,13,0
20210522,61799,490,61277,32,29,-6,35,0
20210523,61824,498,61294,32,25,8,17,0
20210524,61860,512,61316,32,36,14,22,0
20210525,61890,529,61329,32,30,17,13,0
20210526,61916,524,61360,32,26,-5,31,0
20210527,61940,536,61372,32,24,12,12,0
20210528,61970,531,61407,32,30,-5,35,0
20210529,62003,548,61423,32,33,17,16,0
20210530,62028,561,61434,33,25,13,11,1
20210531,62051,559,61459,33,23,-2,25,0
20210601,62069,555,61481,33,18,-4,22,0
20210602,62100,544,61523,33,31,-11,42,0
20210603,62145,555,61557,33,45,11,34,0
20210604,62158,545,61580,33,13,-10,23,0
20210605,62176,530,61613,33,18,-15,33,0
20210606,62196,528,61635,33,20,-2,22,0
20210607,62210,517,61660,33,14,-11,25,0
20210608,62219,483,61702,34,9,-34,42,1
20210609,62223,449,61740,34,4,-34,38,0
20210610,62236,437,61765,34,13,-12,25,0
20210611,62245,412,61799,34,9,-25,34,0
20210612,62263,430,61799,34,18,18,0,0
20210613,62276,373,61869,34,13,-57,70,0
20210614,62301,373,61894,34,25,0,25,0
20210615,62315,370,61911,34,14,-3,17,0
20210616,62339,374,61931,34,24,4,20,0
20210617,62366,372,61960,34,27,-2,29,0
20210618,62382,361,61987,34,16,-11,27,0
20210619,62403,346,62023,34,21,-15,36,0
20210620,62414,338,62042,34,11,-8,19,0
20210621,62430,325,62070,35,16,-13,28,1
20210622,62448,315,62098,35,18,-10,28,0
20210623,62470,322,62113,35,22,7,15,0
20210624,62493,318,62140,35,23,-4,27,0
20210625,62513,317,62161,35,20,-1,21,0
20210626,62530,313,62181,36,17,-4,20,1
20210627,62544,313,62195,36,14,0,14,0
20210628,62553,305,62212,36,9,-8,17,0
20210629,62563,308,62563,36,10,3,351,0
20210630,62579,315,62228,36,16,7,-335,0
20210701,62589,319,62234,36,10,4,6,0
20210702,62599,313,62250,36,10,-6,16,0
20210703,62606,305,62265,36,7,-8,15,0
20210704,62617,295,62286,36,11,-10,21,0
20210705,62630,295,62299,36,13,0,13,0
20210706,62640,291,62313,36,10,-4,14,0
20210707,62652,275,62341,36,12,-16,28,0
20210708,62668,269,62363,36,16,-6,22,0
20210709,62678,268,62374,36,10,-1,11,0
20210710,62684,251,62397,36,6,-17,23,0
20210711,62692,242,62414,36,8,-9,17,0
20210712,62718,250,62432,36,26,8,18,0
20210713,62744,255,62453,36,26,5,21,0
20210714,62804,301,62467,36,60,46,14,0
20210715,62852,335,62481,36,48,34,14,0
20210716,62913,379,62498,36,61,44,17,0
20210717,62981,433,62512,36,68,54,14,0
20210718,63073,511,62526,36,92,78,14,0
20210719,63245,677,62532,36,172,166,6,0
20210720,63440,861,62543,36,195,184,11,0
20210721,63621,1025,62560,36,181,164,17,0
20210722,63791,1179,62576,36,170,154,16,0
20210723,63924,1301,62587,36,133,122,11,0
20210724,64054,1422,62595,37,130,121,8,1
20210725,64179,1537,62605,37,125,115,10,0
20210726,64314,1660,62617,37,135,123,12,0
20210727,64453,1779,62637,37,139,119,20,0
20210728,64589,1889,62663,37,136,110,26,0
20210729,64722,2006,62679,37,133,117,16,0
20210730,64861,2091,62733,37,139,85,54,0
20210731,64981,2081,62863,37,120,-10,130,0
20210801,65102,2108,62957,37,121,27,94,0
20210802,65213,2142,63033,38,111,34,76,1
20210803,65315,2025,63252,38,102,-117,219,0
20210804,65410,2014,63357,39,95,-11,105,1
20210805,65508,0,0,40,98,-2014,-63357,1
20210806,65605,0,0,41,97,0,0,1
20210807,65686,0,0,42,81,0,0,1
20210808,65764,0,0,42,78,0,0,0
20210809,65836,0,0,42,72,0,0,0
20210810,65836,0,0,42,0,0,0,0
20210811,65953,0,0,43,117,0,0,1
20210812,66012,0,0,43,59,0,0,0
20210813,66061,0,0,44,49,0,0,1
20210814,66119,0,0,44,58,0,0,0
20210815,66172,0,0,44,53,0,0,0
20210816,66225,0,0,44,53,0,0,0
20210817,66281,0,0,45,56,0,0,1
20210818,66334,0,0,46,53,0,0,1
20210819,66366,0,0,46,32,0,0,0
20210820,66406,0,0,47,40,0,0,1
20210821,66443,0,0,47,37,0,0,0
20210822,66478,0,0,49,35,0,0,2
20210823,66576,0,0,50,98,0,0,1
20210824,66692,0,0,50,116,0,0,0
20210825,66812,0,0,52,120,0,0,2
20210826,66928,0,0,52,116,0,0,0
20210827,66928,0,0,52,0,0,0,0
20210828,67171,0,0,55,243,0,0,3
20210829,67171,0,0,55,0,0,0,0
20210830,67459,0,0,55,288,0,0,0
20210831,67620,0,0,55,161,0,0,0
20210901,67800,0,0,55,180,0,0,0
20210902,67991,0,0,55,191,0,0,0
20210903,68210,0,0,55,219,0,0,0
20210904,68469,0,0,55,259,0,0,0
