date,infected,active,recovered,dead,deltaInfected,deltaActive,deltaRecovered,deltaDead
20200305,2,2,0,0,2,2,0,0
20200306,7,7,0,0,5,5,0,0
20200307,7,7,0,0,0,0,0,0
20200308,16,16,0,0,9,9,0,0
20200309,16,16,0,0,0,0,0,0
20200310,31,31,0,0,15,15,0,0
20200311,57,57,0,0,26,26,0,0
20200312,89,89,0,0,32,32,0,0
20200313,141,141,0,0,52,52,0,0
20200314,181,180,0,1,40,39,0,1
20200315,219,218,0,1,38,38,0,0
20200316,253,252,0,1,34,34,0,0
20200317,275,274,0,1,22,22,0,0
20200318,275,274,0,1,0,0,0,0
20200319,286,285,0,1,11,11,0,0
20200320,341,340,0,1,55,55,0,0
20200321,383,382,0,1,42,42,0,0
20200322,414,412,0,2,31,30,0,1
20200323,442,439,0,3,28,27,0,1
20200324,480,473,3,4,38,34,3,1
20200325,528,513,10,5,48,40,7,1
20200326,562,546,10,6,34,33,0,1
20200327,632,613,10,9,70,67,0,3
20200328,684,665,10,9,52,52,0,0
20200329,730,709,10,11,46,44,0,2
20200330,756,735,10,11,26,26,0,0
20200331,802,777,10,15,46,42,0,4
20200401,841,816,10,15,39,39,0,0
20200402,897,810,70,17,56,-6,60,2
20200403,934,844,70,20,37,34,0,3
20200404,977,876,79,22,43,32,9,2
20200405,997,890,79,28,20,14,0,6
20200406,1021,889,102,30,24,-1,23,2
20200407,1059,921,102,36,38,32,0,6
20200408,1091,931,120,40,32,10,18,4
20200409,1124,953,128,43,33,22,8,3
20200410,1160,978,137,45,36,25,9,2
20200411,1188,990,148,50,28,12,11,5
20200412,1205,1002,150,53,17,12,2,3
20200413,1212,1005,152,55,7,3,2,2
20200414,1220,1012,152,56,8,7,0,1
20200415,1248,1022,165,61,28,10,13,5
20200416,1268,1033,174,61,20,11,9,0
20200417,1304,1064,174,66,36,31,0,5
20200418,1317,1057,190,70,13,-7,16,4
20200419,1330,1064,192,74,13,7,2,4
20200420,1335,1065,193,77,5,1,1,3
20200421,1344,1070,197,77,9,5,4,0
20200422,1353,1069,205,79,9,-1,8,2
20200423,1366,1076,211,79,13,7,6,0
20200424,1373,1082,211,80,7,6,0,1
20200425,1388,1088,219,81,15,6,8,1
20200426,1396,1093,221,82,8,5,2,1
20200427,1402,1098,221,83,6,5,0,1
20200428,1408,1099,223,86,6,1,2,3
20200429,1418,1099,230,89,10,0,7,3
20200430,1429,1105,233,91,11,6,3,2
20200501,1434,1109,233,92,5,4,0,1
20200502,1439,1106,239,94,5,-3,6,2
20200503,1439,1102,241,96,0,-4,2,2
20200504,1439,1101,241,97,0,-1,0,1
20200505,1445,1103,244,98,6,2,3,1
20200506,1448,1103,246,99,3,0,2,1
20200507,1449,1103,247,99,1,0,1,0
20200508,1450,1098,252,100,1,-5,5,1
20200509,1454,1098,255,101,4,0,3,1
20200510,1457,1099,256,102,3,1,1,1
20200511,1460,1102,256,102,3,3,0,0
20200512,1461,1100,259,102,1,-2,3,0
20200513,1463,1100,260,103,2,0,1,1
20200514,1464,1094,267,103,1,-6,7,0
20200515,1465,1092,270,103,1,-2,3,0
20200516,1465,1090,272,103,0,-2,2,0
20200517,1466,1089,273,104,1,-1,1,1
20200518,1466,27,1335,104,0,-1062,1062,0
20200519,1467,25,1338,104,1,-2,3,0
20200520,1468,23,1340,105,1,-2,2,1
20200521,1468,22,1340,106,0,-1,0,1
20200522,1468,22,1340,106,0,0,0,0
20200523,1468,22,1340,106,0,0,0,0
20200524,1468,21,1340,107,0,-1,0,1
20200525,1469,16,1346,107,1,-5,6,0
20200526,1469,15,1346,108,0,-1,0,1
20200527,1471,9,1354,108,2,-6,8,0
20200528,1473,9,1356,108,2,0,2,0
20200529,1473,8,1357,108,0,-1,1,0
20200530,1473,8,1357,108,0,0,0,0
20200531,1473,7,1358,108,0,-1,1,0
20200601,1473,6,1358,109,0,-1,0,1
20200602,1475,8,1358,109,2,2,0,0
20200603,1477,10,1358,109,2,2,0,0
20200604,1477,9,1359,109,0,-1,1,0
20200605,1479,11,1359,109,2,2,0,0
20200606,1484,16,1359,109,5,5,0,0
20200607,1485,17,1359,109,1,1,0,0
20200608,1485,17,1359,109,0,0,0,0
20200609,1486,18,1359,109,1,1,0,0
20200610,1488,20,1359,109,2,2,0,0
20200611,1488,20,1359,109,0,0,0,0
20200612,1490,22,1359,109,2,2,0,0
20200613,1492,24,1359,109,2,2,0,0
20200614,1495,27,1359,109,3,3,0,0
20200615,1496,28,1359,109,1,1,0,0
20200616,1499,31,1359,109,3,3,0,0
20200617,1503,35,1359,109,4,4,0,0
20200618,1511,43,1359,109,8,8,0,0
20200619,1513,45,1359,109,2,2,0,0
20200620,1519,51,1359,109,6,6,0,0
20200621,1520,35,1376,109,1,-16,17,0
20200622,1521,36,1376,109,1,1,0,0
20200623,1534,49,1376,109,13,13,0,0
20200624,1541,56,1376,109,7,7,0,0
20200625,1547,62,1376,109,6,6,0,0
20200626,1558,73,1376,109,11,11,0,0
20200627,1572,87,1376,109,14,14,0,0
20200628,1581,86,1384,111,9,-1,8,2
20200629,1585,90,1384,111,4,4,0,0
20200630,1600,105,1384,111,15,15,0,0
20200701,1613,118,1384,111,13,13,0,0
20200702,1634,139,1384,111,21,21,0,0
20200703,1650,155,1384,111,16,16,0,0
20200704,1679,184,1384,111,29,29,0,0
20200705,1700,205,1384,111,21,21,0,0
20200706,1716,221,1384,111,16,16,0,0
20200707,1739,205,1423,111,23,-16,39,0
20200708,1763,223,1429,111,24,18,6,0
20200709,1776,236,1429,111,13,13,0,0
20200710,1793,253,1429,111,17,17,0,0
20200711,1827,287,1429,111,34,34,0,0
20200712,1841,261,1469,111,14,-26,40,0
20200713,1849,265,1473,111,8,4,4,0
20200714,1859,260,1488,111,10,-5,15,0
20200715,1878,266,1501,111,19,6,13,0
20200716,1897,264,1522,111,19,-2,21,0
20200717,1916,283,1522,111,19,19,0,0
20200718,1940,261,1568,111,24,-22,46,0
20200719,1946,266,1568,112,6,5,0,1
20200720,1953,237,1603,113,7,-29,35,1
20200721,1977,238,1625,114,24,1,22,1
20200722,2006,243,1648,115,29,5,23,1
20200723,2033,257,1661,115,27,14,13,0
20200724,2052,259,1678,115,19,2,17,0
20200725,2066,272,1678,116,14,13,0,1
20200726,2082,288,1678,116,16,16,0,0
20200727,2087,238,1733,116,5,-50,55,0
20200728,2101,242,1742,117,14,4,9,1
20200729,2115,237,1761,117,14,-5,19,0
20200730,2139,242,1780,117,24,5,19,0
20200731,2156,240,1797,119,17,-2,17,2
20200801,2171,231,1821,119,15,-9,24,0
20200802,2180,234,1826,120,9,3,5,1
20200803,2181,228,1831,122,1,-6,5,2
20200804,2190,213,1854,123,9,-15,23,1
20200805,2208,200,1884,124,18,-13,30,1
20200806,2223,189,1909,125,15,-11,25,1
20200807,2233,181,1927,125,10,-8,18,0
20200808,2247,194,1927,126,14,13,0,1
20200809,2249,195,1927,127,2,1,0,1
20200810,2255,167,1960,128,6,-28,33,1
20200811,2272,183,1960,129,17,16,0,1
20200812,2303,214,1960,129,31,31,0,0
20200813,2332,243,1960,129,29,29,0,0
20200814,2369,213,2027,129,37,-30,67,0
20200815,2401,230,2042,129,32,17,15,0
20200816,2416,236,2051,129,15,6,9,0
20200817,2429,248,2052,129,13,12,1,0
20200818,2456,275,2052,129,27,27,0,0
20200819,2493,285,2079,129,37,10,27,0
20200820,2536,328,2079,129,43,43,0,0
20200821,2574,365,2079,130,38,37,0,1
20200822,2617,407,2079,131,43,42,0,1
20200823,2651,441,2079,131,34,34,0,0
20200824,2665,410,2122,133,14,-31,43,2
20200825,2686,414,2139,133,21,4,17,0
20200826,2722,419,2170,133,36,5,31,0
20200827,2755,423,2199,133,33,4,29,0
20200828,2797,428,2236,133,42,5,37,0
20200829,2834,433,2268,133,37,5,32,0
20200830,2865,449,2283,133,31,16,15,0
20200831,2883,454,2296,133,18,5,13,0
20200901,2924,468,2323,133,41,14,27,0
20200902,2979,486,2359,134,55,18,36,1
20200903,3032,496,2402,134,53,10,43,0
20200904,3079,505,2440,134,47,9,38,0
20200905,3122,504,2483,135,43,-1,43,1
20200906,3165,547,2483,135,43,43,0,0
20200907,3190,525,2530,135,25,-22,47,0
20200908,3232,564,2533,135,42,39,3,0
20200909,3312,590,2587,135,80,26,54,0
20200910,3389,634,2620,135,77,44,33,0
20200911,3497,700,2662,135,108,66,42,0
20200912,3603,769,2699,135,106,69,37,0
20200913,3702,837,2730,135,99,68,31,0
20200914,3749,884,2730,135,47,47,0,0
20200915,3831,907,2789,135,82,23,59,0
20200916,3954,975,2844,135,123,68,55,0
20200917,4058,1025,2897,136,104,50,53,1
20200918,4195,1116,2939,140,137,91,42,4
20200919,4309,1187,2981,141,114,71,42,1
20200920,4420,1255,3023,142,111,68,42,1
20200921,4470,1280,3048,142,50,25,25,0
20200922,4558,1368,3048,142,88,88,0,0
20200923,4694,1383,3168,143,136,15,120,1
20200924,4816,1426,3245,145,122,43,77,2
20200925,5007,1509,3353,145,191,83,108,0
20200926,5191,1588,3457,146,184,79,104,1
20200927,5350,1648,3555,147,159,60,98,1
20200928,5388,1639,3600,149,38,-9,45,2
20200929,5487,1656,3682,149,99,17,82,0
20200930,5690,1736,3804,150,203,80,122,1
20201001,5865,1807,3906,152,175,71,102,2
20201002,6103,1908,4041,154,238,101,135,2
20201003,6330,2134,4041,155,227,226,0,1
20201004,6498,2078,4265,155,168,-56,224,0
20201005,6673,2103,4265,156,175,25,0,1
20201006,6764,2206,4399,159,91,103,134,3
20201007,7120,2426,4535,159,356,220,136,0
20201008,7507,2692,4655,160,387,266,120,1
20201009,7872,2865,4842,165,365,173,187,5
20201010,8252,3061,5024,167,380,196,182,2
20201011,8663,3314,5182,167,411,253,158,0
20201012,8832,3444,5219,169,169,130,37,2
20201013,9231,3744,5314,173,399,300,95,4
20201014,9938,4248,5515,175,707,504,201,2
20201015,10683,4818,5689,176,745,570,174,1
20201016,11517,5413,5924,180,834,595,235,4
20201017,12416,6084,6148,184,899,671,224,4
20201018,13142,6641,6313,188,726,557,165,4
20201019,13679,7104,6385,190,537,463,72,2
20201020,14473,7709,6572,192,794,605,187,2
20201021,15982,8860,6922,200,1509,1151,350,8
20201022,17646,10136,7299,211,1664,1276,377,11
20201023,19307,11434,7659,214,1661,1298,360,3
20201024,21274,13021,8018,235,1967,1587,359,21
20201025,22950,14286,8424,240,1676,1265,406,5
20201026,24080,15247,8582,251,1130,961,158,11
20201027,25603,16371,8968,264,1523,1124,386,13
20201028,28215,18270,9667,278,2612,1899,699,14
20201029,30705,20012,10401,292,2490,1742,734,14
20201030,32503,20980,11208,315,1798,968,807,23
20201031,34307,21878,12091,338,1804,898,883,23
20201101,35649,22501,12785,363,1342,623,694,25
20201102,36206,22521,13297,388,557,20,512,25
20201103,37382,22896,14074,412,1176,375,777,24
20201104,39408,23417,15550,441,2026,521,1476,29
20201105,41094,23433,17190,471,1686,16,1640,30
20201106,42658,23336,18825,497,1564,-97,1635,26
20201107,44270,22972,20767,531,1612,-364,1942,34
20201108,45161,22164,22443,554,891,-808,1676,23
20201109,45625,21514,23533,578,464,-650,1090,24
20201110,46717,21105,25007,605,1092,-409,1474,27
20201111,48939,20717,27577,645,2222,-388,2570,40
20201112,50870,20157,30027,686,1931,-560,2450,41
20201113,52385,19869,31792,724,1515,-288,1765,38
20201114,54122,19809,33548,765,1737,-60,1756,41
20201115,55042,19381,34864,797,920,-428,1316,32
20201116,55544,19326,35387,831,502,-55,523,34
20201117,56937,19542,36519,876,1393,216,1132,45
20201118,58964,19538,38507,919,2027,-4,1988,43
20201119,61034,19917,40153,964,2070,379,1646,45
20201120,62580,19894,41691,995,1546,-23,1538,31
20201121,64284,19986,43272,1026,1704,92,1581,31
20201122,65308,20119,44137,1052,1024,133,865,26
20201123,65778,20123,44558,1097,470,4,421,45
20201124,67080,20337,45587,1156,1302,214,1029,59
20201125,69306,20337,47770,1199,2226,0,2183,43
20201126,71073,20174,49654,1245,1767,-163,1884,46
20201127,72674,20260,51121,1293,1601,86,1467,48
20201128,74257,20107,52814,1336,1583,-153,1693,43
20201129,75381,20310,53687,1384,1124,203,873,48
20201130,75814,20241,54138,1435,433,-69,451,51
20201201,77135,20169,55476,1490,1321,-72,1338,55
20201202,79566,20572,57447,1547,2431,403,1971,57
20201203,81349,20288,59469,1592,1783,-284,2022,45
20201204,83133,20523,60957,1653,1784,235,1488,61
20201205,84775,20475,62600,1700,1642,-48,1643,47
20201206,85805,20481,63580,1744,1030,6,980,44
20201207,86288,20493,63999,1796,483,12,419,52
20201208,87936,20834,65240,1862,1648,341,1241,66
20201209,90075,20738,67437,1900,2139,-96,2197,38
20201210,91922,20803,69170,1949,1847,65,1733,49
20201211,93737,21006,70733,1998,1815,203,1563,49
20201212,95481,21150,72290,2041,1744,144,1557,43
20201213,96314,20874,73377,2063,833,-276,1087,22
20201214,96745,20878,73760,2107,431,4,383,44
20201215,98281,21115,75017,2149,1536,237,1257,42
20201216,100401,20758,77453,2190,2120,-357,2436,41
20201217,102043,20617,79193,2233,1642,-141,1740,43
20201218,103555,20346,80935,2274,1512,-271,1742,41
20201219,105013,20158,82541,2314,1458,-188,1606,40
20201220,105899,20010,83536,2353,886,-148,995,39
20201221,106294,19938,83977,2379,395,-72,441,26
20201222,107805,17427,87960,2418,1511,-2511,3983,39
20201223,109934,17380,90100,2454,2129,-47,2140,36
20201224,112021,17590,91952,2479,2087,210,1852,25
20201225,113815,19356,91952,2507,1794,1766,0,28
20201226,114184,18666,92986,2532,369,-690,1034,25
20201227,114806,18454,93787,2565,622,-212,801,33
20201228,115327,18541,94191,2595,521,87,404,30
20201229,117305,18986,95688,2631,1978,445,1497,36
20201230,119740,19309,97766,2665,2435,323,2078,34
20201231,122152,20073,99382,2697,2412,764,1616,32
20210101,123950,20354,100868,2728,1798,281,1486,31
20210102,124343,19317,102252,2774,393,-1037,1384,46
20210103,125086,19176,103107,2803,743,-141,855,29
20210104,125858,19553,103467,2838,772,377,360,35
20210105,128370,20514,104988,2868,2512,961,1521,30
20210106,131724,21722,107103,2899,3354,1208,2115,31
20210107,134545,22475,109148,2922,2821,753,2045,23
20210108,136629,22757,110925,2947,2084,282,1777,25
20210109,138518,24276,111269,2973,1889,1519,344,26
20210110,139281,24419,111864,2998,763,143,595,25
20210111,139713,24320,112371,3022,432,-99,507,24
20210112,141587,24204,114330,3053,1874,-116,1959,31
20210113,143679,23864,116745,3070,2092,-340,2415,17
20210114,145472,23230,119149,3093,1793,-634,2404,23
20210115,147016,23001,120894,3121,1544,-229,1745,28
20210116,148556,24128,121288,3140,1540,1127,394,19
20210117,149125,23937,122008,3180,569,-191,720,40
20210118,149424,23473,122745,3206,299,-464,737,26
20210119,151137,22591,125315,3231,1713,-882,2570,25
20210120,152851,20885,128709,3257,1714,-1706,3394,26
20210121,154306,19645,131377,3284,1455,-1240,2668,27
20210122,155752,19015,133428,3309,1446,-630,2051,25
20210123,157293,18702,135262,3329,1541,-313,1834,20
20210124,157830,18477,135993,3360,537,-225,731,31
20210125,158131,18350,136402,3379,301,-127,409,19
20210126,159812,18134,138272,3406,1681,-216,1870,27
20210127,161662,17884,140353,3425,1850,-250,2081,19
20210128,163235,17653,142134,3448,1573,-231,1781,23
20210129,164529,17451,143610,3468,1294,-202,1476,20
20210130,165887,17241,145156,3490,1358,-210,1546,22
20210131,166473,17248,145722,3503,586,7,566,13
20210201,166836,17311,146003,3522,363,63,281,19
20210202,168486,17258,147687,3541,1650,-53,1684,19
20210203,170101,17152,149385,3564,1615,-106,1698,23
20210204,171340,16900,150860,3580,1239,-252,1475,16
20210205,172299,16414,152290,3595,959,-486,1430,15
20210206,173201,15798,153791,3612,902,-616,1501,17
20210207,173702,15758,154321,3623,501,-40,530,11
20210208,174000,15758,154607,3635,298,0,286,12
20210209,174364,14444,156266,3654,364,-1314,1659,19
20210210,175795,14000,158128,3667,1431,-444,1862,13
20210211,177140,13806,159657,3677,1345,-194,1529,10
20210212,178133,13488,160953,3692,993,-318,1296,15
20210213,179148,13195,162248,3705,1015,-293,1295,13
20210214,179477,12936,162824,3717,329,-259,576,12
20210215,179780,12890,163162,3728,303,-46,338,11
20210216,180520,12111,164676,3733,740,-779,1514,5
20210217,181606,11641,166220,3745,1086,-470,1544,12
20210218,182484,11252,167477,3755,878,-389,1257,10
20210219,183396,11202,168432,3762,912,-50,955,7
20210220,184352,11177,169406,3769,956,-25,974,7
20210221,184767,11095,169896,3776,415,-82,490,7
20210222,185014,11032,170198,3784,247,-63,302,8
20210223,185916,11597,170527,3792,902,565,329,8
20210224,187005,11298,171905,3802,1089,-299,1378,10
20210225,187762,12048,171905,3809,757,750,0,7
20210226,188676,12948,171905,3823,914,900,0,14
20210227,189627,10581,175210,3836,951,-2367,3305,13
20210228,190081,11035,175210,3836,454,454,0,0
20210301,190324,11260,175210,3854,243,225,0,18
20210302,191056,11983,175210,3863,732,723,0,9
20210303,192266,10751,177641,3874,1210,-1232,2431,11
20210304,193285,10897,178510,3878,1019,146,869,4
20210305,194165,10869,179414,3882,880,-28,904,4
20210306,195086,10832,180366,3888,921,-37,952,6
20210307,195468,11211,180366,3891,382,379,0,3
20210308,195678,10758,181023,3897,210,-453,657,6
20210309,196421,10602,181915,3904,743,-156,892,7
20210310,197374,10464,183002,3908,953,-138,1087,4
20210311,198234,10468,183848,3918,860,4,846,10
20210312,199004,10325,184753,3926,770,-143,905,8
20210313,199854,10227,185698,3929,850,-98,945,3
20210314,200374,10293,186147,3934,520,66,449,5
20210315,200579,10255,186386,3938,205,-38,239,4
20210316,201497,10444,187112,3941,918,189,726,3
20210317,202573,10310,188315,3948,1076,-134,1203,7
20210318,203544,10260,189333,3951,971,-50,1018,3
20210319,204482,10315,190206,3961,938,55,873,10
20210320,205509,10420,191122,3967,1027,105,916,6
20210321,206026,10554,191500,3972,517,134,378,5
20210322,206317,10635,191706,3976,291,81,206,4
20210323,207298,10874,192439,3985,981,239,733,9
20210324,208588,11211,193383,3994,1290,337,944,9
20210325,209753,11517,194238,3998,1165,306,855,4
20210326,210785,11777,195000,4008,1032,260,762,10
20210327,212040,12184,195845,4011,1255,407,845,3
20210328,212678,12341,196319,4018,638,157,474,7
20210329,212966,12424,196518,4024,288,83,199,6
20210330,214045,12585,197420,4040,1079,161,902,16
20210331,215602,13031,198524,4047,1557,446,1104,7
20210401,216939,13395,199490,4054,1337,364,966,7
20210402,218114,13629,200422,4063,1175,234,932,9
20210403,219420,13906,201446,4068,1306,277,1024,5
20210404,220141,14110,201956,4075,721,204,510,7
20210405,220425,14104,202239,4082,284,-6,283,7
20210406,220698,13395,203214,4089,273,-709,975,7
20210407,221890,13301,204497,4092,1192,-94,1283,3
20210408,223416,13664,205655,4097,1526,363,1158,5
20210409,224699,13911,206688,4100,1283,247,1033,3
20210410,225950,13911,207927,4112,1251,0,1239,12
20210411,226499,13819,208561,4119,549,-92,634,7
20210412,226786,13818,208842,4126,287,-1,281,7
20210413,227836,13786,209920,4130,1050,-32,1078,4
20210414,229076,13456,211485,4135,1240,-330,1565,5
20210415,229967,13010,212815,4142,891,-446,1330,7
20210416,230826,12699,213980,4147,859,-311,1165,5
20210417,231593,12168,215272,4153,767,-531,1292,6
20210418,232071,11926,215986,4159,478,-242,714,6
20210419,232311,11883,216261,4167,240,-43,275,8
20210420,233031,12331,216528,4172,720,448,267,5
20210421,234067,12176,217715,4176,1036,-155,1187,4
20210422,234811,11392,219232,4187,744,-784,1517,11
20210423,235711,11011,220505,4195,900,-381,1273,8
20210424,236613,10596,221814,4203,902,-415,1309,8
20210425,237028,10462,222358,4208,415,-134,544,5
20210426,237219,10362,222643,4214,191,-100,285,6
20210427,238023,10116,223686,4221,804,-246,1043,7
20210428,238421,9278,224907,4236,398,-838,1221,15
20210429,239339,9304,225792,4243,918,26,885,7
20210430,240292,9395,226647,4250,953,91,855,7
20210501,241309,9640,227411,4258,1017,245,764,8
20210502,241672,9526,227883,4263,363,-114,472,5
20210503,241883,9504,228110,4269,211,-22,227,6
20210504,242777,9675,228829,4273,894,171,719,4
20210505,243719,9579,229861,4279,942,-96,1032,6
20210506,244556,9672,230602,4282,837,93,741,3
20210507,245159,9315,231559,4285,603,-357,957,3
20210508,245793,9118,232389,4286,634,-197,830,1
20210509,246082,8991,232798,4293,289,-127,409,7
20210510,246231,8949,232983,4299,149,-42,185,6
20210511,246725,8635,233788,4302,494,-314,805,3
20210512,247449,8956,234189,4304,724,321,401,2
20210513,248046,8632,235106,4308,597,-324,917,4
20210514,248520,8157,236049,4314,474,-475,943,6
20210515,249014,7633,237061,4320,494,-524,1012,6
20210516,249310,7562,237424,4324,296,-71,363,4
20210517,249424,7467,237630,4327,114,-95,206,3
20210518,249921,7071,238517,4333,497,-396,887,6
20210519,250453,6673,239442,4338,532,-398,925,5
20210520,250811,6255,240211,4345,358,-418,769,7
20210521,251148,5984,240816,4348,337,-271,605,3
20210522,251531,5734,241448,4349,383,-250,632,1
20210523,251690,5602,241735,4353,159,-132,287,4
20210524,251773,5539,241879,4355,83,-63,144,2
20210525,252098,5374,242366,4358,325,-165,487,3
20210526,252486,5033,243090,4363,388,-341,724,5
20210527,252848,4797,243685,4366,362,-236,595,3
20210528,253140,4617,244153,4370,292,-180,468,4
20210529,253493,4475,244646,4372,353,-142,493,2
20210530,253631,4320,244937,4374,138,-155,291,2
20210531,253722,4298,245049,4375,91,-22,112,1
20210601,254045,4124,245545,4376,323,-174,496,1
20210602,254419,3960,246079,4380,374,-164,534,4
20210603,254692,3876,246433,4383,273,-84,354,3
20210604,254973,3824,246764,4385,281,-52,331,2
20210605,255218,3688,247143,4387,245,-136,379,2
20210606,255375,3688,247299,4388,157,0,156,1
20210607,255432,3661,247381,4390,57,-27,82,2
20210608,255652,3558,247703,4391,220,-103,322,1
20210609,255907,3422,248093,4392,255,-136,390,1
20210610,256103,3251,248459,4393,196,-171,366,1
20210611,256224,3083,248743,4398,121,-168,284,5
20210612,256352,2853,249098,4401,128,-230,355,3
20210613,256443,2807,249232,4404,91,-46,134,3
20210614,256467,2740,249321,4406,24,-67,89,2
20210615,256581,2531,249642,4408,114,-209,321,2
20210616,256701,2276,250016,4409,120,-255,374,1
20210617,256784,2087,250288,4409,83,-189,272,0
20210618,256871,1894,250566,4411,87,-193,278,2
20210619,256956,1731,250813,4412,85,-163,247,1
20210620,256982,1600,250970,4412,26,-131,157,0
20210621,257001,1562,251024,4415,19,-38,54,3
20210622,257066,1407,251243,4416,65,-155,219,1
20210623,257116,1203,251496,4417,50,-204,253,1
20210624,257164,1055,251692,4417,48,-148,196,0
20210625,257210,978,251815,4417,46,-77,123,0
20210626,257221,863,251939,4419,11,-115,124,2
20210627,257240,791,252030,4419,19,-72,91,0
20210628,257252,779,252054,4419,12,-12,24,0
20210629,257287,701,252167,4419,35,-78,113,0
20210630,257335,631,252285,4419,48,-70,118,0
20210701,257358,571,252368,4419,23,-60,83,0
20210702,257383,508,252456,4419,25,-63,88,0
20210703,257413,454,252540,4419,30,-54,84,0
20210704,257421,436,252566,4419,8,-18,26,0
20210705,257429,425,252584,4420,8,-11,18,1
20210706,257477,407,252649,4421,48,-18,65,1
20210707,257550,427,252701,4422,73,20,52,1
20210708,257619,452,252744,4423,69,25,43,1
20210709,257703,488,252792,4423,84,36,48,0
20210710,257838,559,252856,4423,135,71,64,0
20210711,257863,565,252875,4423,25,6,19,0
20210712,257875,566,252884,4425,12,1,9,2
20210713,257959,615,252919,4425,84,49,35,0
20210714,257989,650,252914,4425,30,35,-5,0
20210715,258045,683,252937,4425,56,33,23,0
20210716,258108,722,252961,4425,63,39,24,0
20210717,258169,750,252994,4425,61,28,33,0
20210718,258190,762,253003,4425,21,12,9,0
20210719,258199,763,253011,4425,9,1,8,0
20210720,258287,803,253059,4425,88,40,48,0
20210721,258397,840,253132,4425,110,37,73,0
20210722,258468,842,253200,4426,71,2,68,1
20210723,258525,818,253281,4426,57,-24,81,0
20210724,258619,830,253362,4427,94,12,81,1
20210725,258651,838,253385,4428,32,8,23,1
20210726,258674,850,253396,4428,23,12,11,0
20210727,258780,872,253480,4428,106,22,84,0
20210728,258864,873,253563,4428,84,1,83,0
20210729,258963,916,253619,4428,99,43,56,0
20210730,259079,970,253681,4428,116,54,62,0
20210731,259215,1044,253742,4429,136,74,61,1
20210801,259273,1081,253763,4429,58,37,21,0
20210802,259304,1103,253772,4429,31,22,9,0
20210803,259486,1196,253861,4429,182,93,89,0
20210804,259625,1224,253972,4429,139,28,111,0
20210805,259764,0,0,4429,139,-1224,-253972,0
20210806,259909,0,0,4430,145,0,0,1
20210807,260041,0,0,4431,132,0,0,1
20210808,260109,0,0,4433,68,0,0,2
20210809,260156,0,0,4433,47,0,0,0
20210810,260372,0,0,4433,216,0,0,0
20210811,260619,0,0,4433,247,0,0,0
20210812,260867,0,0,4433,248,0,0,0
20210813,261068,0,0,4433,201,0,0,0
20210814,261333,0,0,4433,265,0,0,0
20210815,261428,0,0,4433,95,0,0,0
20210816,261484,0,0,4433,56,0,0,0
20210817,261804,0,0,4433,320,0,0,0
20210818,262189,0,0,4436,385,0,0,3
20210819,262571,0,0,4438,382,0,0,2
20210820,262904,0,0,4438,333,0,0,0
20210821,263303,0,0,4438,399,0,0,0
20210822,263547,0,0,4440,244,0,0,2
20210823,263664,0,0,4441,117,0,0,1
20210824,264141,0,0,4442,477,0,0,1
20210825,264649,0,0,4443,508,0,0,1
20210826,265159,0,0,4444,510,0,0,1
20210827,265703,0,0,4446,544,0,0,2
20210828,266241,0,0,4448,538,0,0,2
20210829,266514,0,0,4448,273,0,0,0
20210830,266657,0,0,4449,143,0,0,1
20210831,267198,0,0,4450,541,0,0,1
20210901,267962,0,0,4450,764,0,0,0
20210902,268636,0,0,4453,674,0,0,3
20210903,269248,0,0,4453,612,0,0,0
20210904,269990,0,0,4455,742,0,0,2
