date,infected,active,recovered,dead,deltaInfected,deltaActive,deltaRecovered,deltaDead
20200227,0,0,0,0,0,0,0,0
20200228,0,0,0,0,0,0,0,0
20200229,1,0,0,1,1,0,0,1
20200301,1,0,0,1,0,0,0,0
20200302,1,0,0,1,0,0,0,0
20200303,9,8,0,1,8,8,0,0
20200304,9,8,0,1,0,0,0,0
20200305,16,15,0,1,7,7,0,0
20200306,22,21,0,1,6,6,0,0
20200307,24,23,0,1,2,2,0,0
20200308,27,26,0,1,3,3,0,0
20200309,37,36,0,1,10,10,0,0
20200310,49,47,0,2,12,11,0,1
20200311,60,58,0,2,11,11,0,0
20200312,60,58,0,2,0,0,0,0
20200313,64,59,0,5,4,1,0,3
20200314,77,68,4,5,13,9,4,0
20200315,77,68,4,5,0,0,0,0
20200316,77,68,4,5,0,0,0,0
20200317,102,89,4,9,25,21,0,4
20200318,104,89,4,11,2,0,0,2
20200319,109,91,4,14,5,2,0,3
20200320,126,108,4,14,17,17,0,0
20200321,151,127,4,20,25,19,0,6
20200322,175,151,4,20,24,24,0,0
20200323,187,163,4,20,12,12,0,0
20200324,187,162,4,21,0,-1,0,1
20200325,208,183,4,21,21,21,0,0
20200326,218,183,4,21,10,0,0,0
20200327,223,198,4,21,5,15,0,0
20200328,228,196,6,22,5,-2,2,1
20200329,228,196,6,22,0,0,0,0
20200330,230,192,13,25,2,-4,7,3
20200331,236,197,13,26,6,5,0,1
20200401,236,197,13,28,0,0,0,2
20200402,236,194,21,28,0,-3,8,0
20200403,245,194,21,30,9,0,0,2
20200404,252,200,27,32,7,6,6,2
20200405,259,199,35,32,7,-1,8,0
20200406,266,199,35,32,7,0,0,0
20200407,277,205,40,32,11,6,5,0
20200408,279,205,40,34,2,0,0,2
20200409,308,250,49,34,29,45,9,0
20200410,344,260,50,34,36,10,1,0
20200411,344,268,53,34,0,8,3,0
20200412,356,268,53,35,12,0,0,1
20200413,356,268,53,35,0,0,0,0
20200414,371,282,53,36,15,14,0,1
20200415,372,283,53,36,1,1,0,0
20200416,393,333,55,36,21,50,2,0
20200417,426,339,57,38,33,6,2,2
20200418,426,356,60,38,0,17,3,0
20200419,455,362,60,39,29,6,0,1
20200420,461,362,61,39,6,0,1,0
20200421,462,374,62,39,1,12,1,0
20200422,476,386,62,40,14,12,0,1
20200423,488,398,63,40,12,12,1,0
20200424,501,409,64,40,13,11,1,0
20200425,513,409,64,40,12,0,0,0
20200426,513,433,64,40,0,24,0,0
20200427,538,433,64,41,25,0,0,1
20200428,538,448,64,41,0,15,0,0
20200429,553,453,69,41,15,5,5,0
20200430,563,450,78,41,10,-3,9,0
20200501,569,457,82,41,6,7,4,0
20200502,580,456,83,41,11,-1,1,0
20200503,580,455,86,41,0,-1,3,0
20200504,582,455,86,41,2,0,0,0
20200505,582,456,92,41,0,1,6,0
20200506,589,470,97,41,7,14,5,0
20200507,608,475,106,41,19,5,9,0
20200508,632,468,114,41,24,-7,8,0
20200509,632,470,126,41,0,2,12,0
20200510,632,461,126,41,0,-9,0,0
20200511,637,457,130,41,5,-4,4,0
20200512,647,436,161,41,10,-21,31,0
20200513,647,441,161,41,0,5,0,0
20200514,647,435,172,41,0,-6,11,0
20200515,647,422,189,41,0,-13,17,0
20200516,652,414,198,41,5,-8,9,0
20200517,652,412,201,41,0,-2,3,0
20200518,668,410,203,41,16,-2,2,0
20200519,668,403,211,41,0,-7,8,0
20200520,668,395,220,41,0,-8,9,0
20200521,670,382,235,41,2,-13,15,0
20200522,672,366,254,41,2,-16,19,0
20200523,672,357,266,41,0,-9,12,0
20200524,672,357,266,42,0,0,0,1
20200525,672,354,270,42,0,-3,4,0
20200526,672,349,275,42,0,-5,5,0
20200527,672,331,294,42,0,-18,19,0
20200528,672,306,322,42,0,-25,28,0
20200529,687,285,344,42,15,-21,22,0
20200530,687,272,357,42,0,-13,13,0
20200531,687,272,357,42,0,0,0,0
20200601,687,270,359,42,0,-2,2,0
20200602,687,246,384,42,0,-24,25,0
20200603,687,241,391,42,0,-5,7,0
20200604,687,228,408,42,0,-13,17,0
20200605,695,210,428,42,8,-18,20,0
20200606,695,210,428,42,0,0,0,0
20200607,695,210,428,42,0,0,0,0
20200608,695,167,478,42,0,-43,50,0
20200609,695,163,483,42,0,-4,5,0
20200610,695,153,496,42,0,-10,13,0
20200611,695,153,496,42,0,0,0,0
20200612,695,132,520,42,0,-21,24,0
20200613,695,132,520,42,0,0,0,0
20200614,695,132,520,42,0,0,0,0
20200615,695,77,575,42,0,-55,55,0
20200616,695,62,590,42,0,-15,15,0
20200617,695,63,591,42,0,1,1,0
20200618,709,45,609,42,14,-18,18,0
20200619,709,44,610,42,0,-1,1,0
20200620,713,44,610,42,4,0,0,0
20200621,713,44,610,42,0,0,0,0
20200622,713,28,627,42,0,-16,17,0
20200623,713,24,632,42,0,-4,5,0
20200624,713,9,647,42,0,-15,15,0
20200625,713,3,653,42,0,-6,6,0
20200626,713,0,656,42,0,-3,3,0
20200627,713,0,656,42,0,0,0,0
20200628,713,0,656,42,0,0,0,0
20200629,713,0,656,42,0,0,0,0
20200630,713,0,656,42,0,0,0,0
20200701,713,0,656,42,0,0,0,0
20200702,713,0,656,42,0,0,0,0
20200703,713,0,656,42,0,0,0,0
20200704,713,0,656,42,0,0,0,0
20200705,713,0,656,42,0,0,0,0
20200706,713,0,656,42,0,0,0,0
20200707,713,0,656,42,0,0,0,0
20200708,713,0,656,42,0,0,0,0
20200709,713,1,656,42,0,1,0,0
20200710,716,1,656,42,3,0,0,0
20200711,716,1,656,42,0,0,0,0
20200712,716,1,656,42,0,0,0,0
20200713,716,1,656,42,0,0,0,0
20200714,716,1,656,42,0,0,0,0
20200715,716,1,656,42,0,0,0,0
20200716,716,1,656,42,0,0,0,0
20200717,716,1,656,42,0,0,0,0
20200718,716,1,656,42,0,0,0,0
20200719,716,1,656,42,0,0,0,0
20200720,716,1,656,42,0,0,0,0
20200721,716,1,656,42,0,0,0,0
20200722,716,1,656,42,0,0,0,0
20200723,716,1,656,42,0,0,0,0
20200724,716,0,657,42,0,-1,1,0
20200725,716,0,657,42,0,0,0,0
20200726,716,0,657,42,0,0,0,0
20200727,716,0,657,42,0,0,0,0
20200728,716,0,657,42,0,0,0,0
20200729,716,0,657,42,0,0,0,0
20200730,716,0,657,42,0,0,0,0
20200731,716,0,657,42,0,0,0,0
20200801,716,0,657,42,0,0,0,0
20200802,716,0,657,42,0,0,0,0
20200803,716,0,657,42,0,0,0,0
20200804,716,0,657,42,0,0,0,0
20200805,716,0,657,42,0,0,0,0
20200806,716,0,657,42,0,0,0,0
20200807,717,0,657,42,1,0,0,0
20200808,717,0,657,42,0,0,0,0
20200809,717,0,657,42,0,0,0,0
20200810,717,0,657,42,0,0,0,0
20200811,717,0,657,42,0,0,0,0
20200812,719,0,657,42,2,0,0,0
20200813,719,0,657,42,0,0,0,0
20200814,719,0,657,42,0,0,0,0
20200815,719,0,657,42,0,0,0,0
20200816,719,0,657,42,0,0,0,0
20200817,719,0,657,42,0,0,0,0
20200818,719,3,657,42,0,3,0,0
20200819,719,5,657,42,0,2,0,0
20200820,719,5,657,42,0,0,0,0
20200821,726,5,657,42,7,0,0,0
20200822,726,5,657,42,0,0,0,0
20200823,726,5,657,42,0,0,0,0
20200824,726,5,657,42,0,0,0,0
20200825,726,10,658,42,0,5,1,0
20200826,730,10,658,42,4,0,0,0
20200827,730,10,658,42,0,0,0,0
20200828,732,10,658,42,2,0,0,0
20200829,733,10,658,42,1,0,0,0
20200830,733,10,658,42,0,0,0,0
20200831,735,13,660,42,2,3,2,0
20200901,735,13,660,42,0,0,0,0
20200902,735,33,660,42,0,20,0,0
20200903,735,33,660,42,0,0,0,0
20200904,735,33,660,42,0,0,0,0
20200905,735,14,660,42,0,-19,0,0
20200906,735,14,660,42,0,0,0,0
20200907,735,14,660,42,0,0,0,0
20200908,735,14,660,42,0,0,0,0
20200909,735,18,662,42,0,4,2,0
20200910,735,18,662,42,0,0,0,0
20200911,741,18,662,42,6,0,0,0
20200912,741,18,662,42,0,0,0,0
20200913,741,18,662,42,0,0,0,0
20200914,741,18,662,42,0,0,0,0
20200915,741,18,663,42,0,0,1,0
20200916,741,18,663,42,0,0,0,0
20200917,742,18,663,42,1,0,0,0
20200918,742,12,669,42,0,-6,6,0
20200919,742,12,669,42,0,0,0,0
20200920,742,12,669,42,0,0,0,0
20200921,742,12,669,42,0,0,0,0
20200922,742,12,669,42,0,0,0,0
20200923,742,12,669,42,0,0,0,0
20200924,746,9,676,42,4,-3,7,0
20200925,746,9,676,42,0,0,0,0
20200926,746,9,676,42,0,0,0,0
20200927,746,9,676,42,0,0,0,0
20200928,746,9,676,42,0,0,0,0
20200929,749,9,676,42,3,0,0,0
20200930,749,10,680,42,0,1,4,0
20201001,750,10,680,42,1,0,0,0
20201002,750,10,680,42,0,0,0,0
20201003,750,10,680,42,0,0,0,0
20201004,750,10,680,42,0,0,0,0
20201005,750,10,680,42,0,0,0,0
20201006,751,10,680,42,1,0,0,0
20201007,751,10,680,42,0,0,0,0
20201008,752,17,682,42,1,7,2,0
20201009,752,17,682,42,0,0,0,0
20201010,766,17,682,42,14,0,0,0
20201011,766,17,682,42,0,0,0,0
20201012,766,17,682,42,0,0,0,0
20201013,766,17,682,42,0,0,0,0
20201014,772,17,682,42,6,0,0,0
20201015,772,32,685,42,0,15,3,0
20201016,781,32,685,42,9,0,0,0
20201017,784,32,685,42,3,0,0,0
20201018,784,32,685,42,0,0,0,0
20201019,784,36,688,42,0,4,3,0
20201020,789,36,688,42,5,0,0,0
20201021,794,42,690,42,5,6,2,0
20201022,796,49,711,42,2,7,21,0
20201023,802,61,716,42,6,12,5,0
20201024,819,61,716,42,17,0,0,0
20201025,844,61,716,42,25,0,0,0
20201026,844,94,716,42,0,33,0,0
20201027,852,94,716,42,8,0,0,0
20201028,883,94,716,42,31,0,0,0
20201029,903,165,721,42,20,71,5,0
20201030,929,165,721,42,26,0,0,0
20201031,958,165,721,42,29,0,0,0
20201101,958,165,721,42,0,0,0,0
20201102,958,165,721,42,0,0,0,0
20201103,958,222,730,42,0,57,9,0
20201104,994,222,730,42,36,0,0,0
20201105,1002,247,754,42,8,25,24,0
20201106,1043,247,754,42,41,0,0,0
20201107,1101,247,754,42,58,0,0,0
20201108,1101,247,754,42,0,0,0,0
20201109,1101,283,789,42,0,36,35,0
20201110,1114,283,789,42,13,0,0,0
20201111,1155,291,857,42,41,8,68,0
20201112,1190,291,857,42,35,0,0,0
20201113,1234,323,888,42,44,32,31,0
20201114,1253,323,888,42,19,0,0,0
20201115,1253,323,888,42,0,0,0,0
20201116,1290,328,920,42,37,5,32,0
20201117,1290,328,920,42,0,0,0,0
20201118,1321,296,1019,43,31,-32,99,1
20201119,1358,296,1019,43,37,0,0,0
20201120,1373,270,1082,43,15,-26,63,0
20201121,1395,270,1082,43,22,0,0,0
20201122,1427,270,1082,43,32,0,0,0
20201123,1428,235,1149,44,1,-35,67,1
20201124,1428,235,1149,44,0,0,0,0
20201125,1454,227,1221,44,26,-8,72,0
20201126,1492,239,1231,44,38,12,10,0
20201127,1514,258,1252,44,22,19,21,0
20201128,1554,256,1285,44,40,-2,33,0
20201129,1586,256,1285,45,32,0,0,1
20201130,1609,267,1299,45,23,11,14,0
20201201,1612,270,1334,46,3,3,35,1
20201202,1650,301,1340,46,38,31,6,0
20201203,1687,312,1356,46,37,11,16,0
20201204,1714,328,1381,46,27,16,25,0
20201205,1756,329,1412,47,42,1,31,1
20201206,1789,329,1412,48,33,0,0,1
20201207,1789,314,1438,48,0,-15,26,0
20201208,1800,314,1438,48,11,0,0,0
20201209,1832,293,1492,48,32,-21,54,0
20201210,1834,295,1524,49,2,2,32,1
20201211,1868,303,1555,49,34,8,31,0
20201212,1908,306,1575,50,40,3,20,1
20201213,1932,306,1575,51,24,0,0,1
20201214,1947,275,1608,51,15,-31,33,0
20201215,1982,245,1685,52,35,-30,77,1
20201216,2025,277,1694,54,43,32,9,2
20201217,2025,292,1703,54,0,15,9,0
20201218,2049,284,1733,54,24,-8,30,0
20201219,2049,316,1736,55,0,32,3,1
20201220,2107,316,1736,55,58,0,0,0
20201221,2107,313,1767,55,0,-3,31,0
20201222,2135,295,1825,55,28,-18,58,0
20201223,2176,303,1846,56,41,8,21,1
20201224,2206,312,1863,56,30,9,17,0
20201225,2231,312,1863,56,25,0,0,0
20201226,2264,312,1863,57,33,0,0,1
20201227,2264,312,1863,57,0,0,0,0
20201228,2276,263,1955,57,12,-49,92,0
20201229,2276,264,2010,57,0,1,55,0
20201230,2333,290,2035,59,57,26,25,2
20201231,2333,327,2042,59,0,37,7,0
20210101,2384,327,2042,59,51,0,0,0
20210102,2428,327,2042,59,44,0,0,0
20210103,2463,327,2042,61,35,0,0,2
20210104,2463,304,2127,61,0,-23,85,0
20210105,2493,329,2158,62,30,25,31,1
20210106,2549,329,2158,62,56,0,0,0
20210107,2549,340,2179,62,0,11,21,0
20210108,2583,344,2220,64,34,4,41,2
20210109,2628,344,2220,64,45,0,0,0
20210110,2650,344,2220,64,22,0,0,0
20210111,2650,306,2297,64,0,-38,77,0
20210112,2650,308,2333,64,0,2,36,0
20210113,2706,285,2373,65,56,-23,40,1
20210114,2723,291,2381,65,17,6,8,0
20210115,2738,272,2430,65,15,-19,49,0
20210116,2767,258,2455,65,29,-14,25,0
20210117,2778,258,2455,65,11,0,0,0
20210118,2778,258,2464,65,0,0,9,0
20210119,2787,208,2530,65,9,-50,66,0
20210120,2787,202,2548,65,0,-6,18,0
20210121,2815,212,2556,65,28,10,8,0
20210122,2833,199,2597,65,18,-13,41,0
20210123,2861,194,2615,65,28,-5,18,0
20210124,2874,194,2615,65,13,0,0,0
20210125,2874,196,2628,65,0,2,13,0
20210126,2889,190,2660,65,15,-6,32,0
20210127,2915,201,2675,65,26,11,15,0
20210128,2941,220,2684,65,26,19,9,0
20210129,2969,236,2695,65,28,16,11,0
20210130,2996,236,2695,65,27,0,0,0
20210131,3025,235,2723,67,29,-1,28,2
20210201,3025,235,2723,67,0,0,0,0
20210202,3066,247,2752,67,41,12,29,0
20210203,3094,253,2773,68,28,6,21,1
20210204,3111,269,2774,68,17,16,1,0
20210205,3125,269,2774,68,14,0,0,0
20210206,3127,263,2795,69,2,-6,21,1
20210207,3136,263,2795,69,9,0,0,0
20210208,3137,233,2835,69,1,-30,40,0
20210209,3137,230,2886,69,0,-3,51,0
20210210,3187,245,2897,71,50,15,11,2
20210211,3213,257,2918,71,26,12,21,0
20210212,3247,250,2956,72,34,-7,38,1
20210213,3278,250,2956,72,31,0,0,0
20210214,3304,250,2956,72,26,0,0,0
20210215,3314,252,2993,72,10,2,37,0
20210216,3317,271,3009,72,3,19,16,0
20210217,3352,294,3028,72,35,23,19,0
20210218,3394,313,3035,72,42,19,7,0
20210219,3420,298,3070,72,26,-15,35,0
20210220,3440,308,3092,72,20,10,22,0
20210221,3472,308,3092,72,32,0,0,0
20210222,3492,307,3115,72,20,-1,23,0
20210223,3494,298,3167,72,2,-9,52,0
20210224,3538,317,3195,73,44,19,28,1
20210225,3585,347,3201,73,47,30,6,0
20210226,3621,374,3224,73,36,27,23,0
20210227,3671,385,3257,73,50,11,33,0
20210228,3716,385,3257,74,45,0,0,1
20210301,3716,396,3276,74,0,11,19,0
20210302,3746,392,3325,74,30,-4,49,0
20210303,3791,409,3345,74,45,17,20,0
20210304,3829,431,3361,75,38,22,16,1
20210305,3867,434,3386,75,38,3,25,0
20210306,3896,420,3426,76,29,-14,40,1
20210307,3922,420,3426,76,26,0,0,0
20210308,3935,425,3434,76,13,5,8,0
20210309,3984,450,3457,77,49,25,23,1
20210310,4030,476,3477,77,46,26,20,0
20210311,4062,474,3511,77,32,-2,34,0
20210312,4096,469,3550,77,34,-5,39,0
20210313,4126,455,3594,77,30,-14,44,0
20210314,4126,455,3594,77,0,0,0,0
20210315,4126,450,3624,77,0,-5,30,0
20210316,4151,436,3691,77,25,-14,67,0
20210317,4204,443,3729,77,53,7,38,0
20210318,4249,456,3758,77,45,13,29,0
20210319,4292,463,3786,78,43,7,28,1
20210320,4328,472,3805,79,36,9,19,1
20210321,4356,472,3805,79,28,0,0,0
20210322,4356,490,3819,79,0,18,14,0
20210323,4388,478,3874,79,32,-12,55,0
20210324,4433,488,3914,80,45,10,40,1
20210325,4484,488,3914,82,51,0,0,2
20210326,4547,516,3947,84,63,28,33,2
20210327,4603,519,4000,84,56,3,53,0
20210328,4626,519,4000,84,23,0,0,0
20210329,4631,518,4029,84,5,-1,29,0
20210330,4686,505,4089,84,55,-13,60,0
20210331,4732,518,4128,84,46,13,39,0
20210401,4738,518,4128,84,6,0,0,0
20210402,4786,521,4170,84,48,3,42,0
20210403,4802,521,4170,84,16,0,0,0
20210404,4805,521,4170,84,3,0,0,0
20210405,4864,521,4170,85,59,0,0,1
20210406,4864,511,4268,85,0,-10,98,0
20210407,4864,472,4347,85,0,-39,79,0
20210408,4904,436,4411,85,40,-36,64,0
20210409,4932,440,4419,85,28,4,8,0
20210410,4944,394,4477,85,12,-46,58,0
20210411,4956,394,4477,85,12,0,0,0
20210412,4956,366,4510,85,0,-28,33,0
20210413,4962,331,4568,86,6,-35,58,1
20210414,4985,293,4625,86,23,-38,57,0
20210415,5004,253,4671,86,19,-40,46,0
20210416,5010,247,4682,86,6,-6,11,0
20210417,5010,215,4724,86,0,-32,42,0
20210418,5010,215,4724,86,0,0,0,0
20210419,5030,196,4746,88,20,-19,22,2
20210420,5040,197,4755,88,10,1,9,0
20210421,5044,162,4794,88,4,-35,39,0
20210422,5046,135,4822,88,2,-27,28,0
20210423,5047,119,4839,89,1,-16,17,1
20210424,5047,119,4839,89,0,0,0,0
20210425,5047,119,4839,89,0,0,0,0
20210426,5055,105,4860,90,8,-14,21,1
20210427,5058,88,4880,90,3,-17,20,0
20210428,5058,72,4897,90,0,-16,17,0
20210429,5060,61,4909,90,2,-11,12,0
20210430,5060,59,4917,90,0,-2,8,0
20210501,5066,59,4917,90,6,0,0,0
20210502,5066,59,4917,90,0,0,0,0
20210503,5067,42,4935,90,1,-17,18,0
20210504,5071,42,4935,90,4,0,0,0
20210505,5076,42,4935,90,5,0,0,0
20210506,5079,42,4935,90,3,0,0,0
20210507,5079,42,4935,90,0,0,0,0
20210508,5079,42,4935,90,0,0,0,0
20210509,5079,42,4935,90,0,0,0,0
20210510,5083,25,4968,90,4,-17,33,0
20210511,5083,25,4968,90,0,0,0,0
20210512,5086,25,4968,90,3,0,0,0
20210513,5087,25,4968,90,1,0,0,0
20210514,5087,25,4968,90,0,0,0,0
20210515,5087,25,4968,90,0,0,0,0
20210516,5087,25,4968,90,0,0,0,0
20210517,5087,23,4974,90,0,-2,6,0
20210518,5089,23,4974,90,2,0,0,0
20210519,5089,23,4974,90,0,0,0,0
20210520,5089,23,4974,90,0,0,0,0
20210521,5089,23,4974,90,0,0,0,0
20210522,5089,23,4974,90,0,0,0,0
20210523,5089,23,4974,90,0,0,0,0
20210524,5089,4,4995,90,0,-19,21,0
20210525,5089,4,4995,90,0,0,0,0
20210526,5089,4,4995,90,0,0,0,0
20210527,5090,4,4995,90,1,0,0,0
20210528,5090,4,4995,90,0,0,0,0
20210529,5090,4,4995,90,0,0,0,0
20210530,5090,4,4995,90,0,0,0,0
20210531,5090,2,4998,90,0,-2,3,0
20210601,5090,2,4998,90,0,0,0,0
20210602,5090,2,4998,90,0,0,0,0
20210603,5090,2,4998,90,0,0,0,0
20210604,5090,2,4998,90,0,0,0,0
20210605,5090,2,4998,90,0,0,0,0
20210606,5090,2,4998,90,0,0,0,0
20210607,5090,2,4998,90,0,0,0,0
20210608,5090,2,4998,90,0,0,0,0
20210609,5090,2,4998,90,0,0,0,0
20210610,5090,2,4998,90,0,0,0,0
20210611,5090,2,4998,90,0,0,0,0
20210612,5090,2,4998,90,0,0,0,0
20210613,5090,2,4998,90,0,0,0,0
20210614,5090,1,4999,90,0,-1,1,0
20210615,5091,1,4999,90,1,0,0,0
20210616,5091,1,4999,90,0,0,0,0
20210617,5091,1,4999,90,0,0,0,0
20210618,5091,1,4999,90,0,0,0,0
20210619,5091,1,4999,90,0,0,0,0
20210620,5091,1,4999,90,0,0,0,0
20210621,5091,1,4999,90,0,0,0,0
20210622,5091,1,4999,90,0,0,0,0
20210623,5091,0,5000,90,0,-1,1,0
20210624,5091,0,5000,90,0,0,0,0
20210625,5091,0,5000,90,0,0,0,0
20210626,5091,0,5000,90,0,0,0,0
20210627,5091,0,5000,90,0,0,0,0
20210628,5092,1,5000,90,1,1,0,0
20210629,5092,1,5000,90,0,0,0,0
20210630,5092,1,5000,90,0,0,0,0
20210701,5092,1,5000,90,0,0,0,0
20210702,5092,1,5000,90,0,0,0,0
20210703,5092,1,5000,90,0,0,0,0
20210704,5092,1,5000,90,0,0,0,0
20210705,5092,0,5002,90,0,-1,2,0
20210706,5092,0,5002,90,0,0,0,0
20210707,5092,0,5002,90,0,0,0,0
20210708,5092,0,5002,90,0,0,0,0
20210709,5092,0,5002,90,0,0,0,0
20210710,5092,0,5002,90,0,0,0,0
20210711,5092,0,5002,90,0,0,0,0
20210712,5092,0,5002,90,0,0,0,0
20210713,5092,2,5002,90,0,2,0,0
20210714,5094,2,5002,90,2,0,0,0
20210715,5094,2,5002,90,0,0,0,0
20210716,5094,2,5002,90,0,0,0,0
20210717,5094,2,5002,90,0,0,0,0
20210718,5094,2,5002,90,0,0,0,0
20210719,5096,7,5002,90,2,5,0,0
20210720,5102,7,5002,90,6,0,0,0
20210721,5102,7,5002,90,0,0,0,0
20210722,5107,7,5002,90,5,0,0,0
20210723,5107,7,5002,90,0,0,0,0
20210724,5107,7,5002,90,0,0,0,0
20210725,5108,7,5002,90,1,0,0,0
20210726,5116,35,5005,90,8,28,3,0
20210727,5131,35,5005,90,15,0,0,0
20210728,5133,35,5005,90,2,0,0,0
20210729,5133,35,5005,90,0,0,0,0
20210730,5143,35,5005,90,10,0,0,0
20210731,5143,35,5005,90,0,0,0,0
20210801,5143,35,5005,90,0,0,0,0
20210802,5147,48,5009,90,4,13,4,0
20210803,5167,48,5009,90,20,0,0,0
20210804,5178,48,5009,90,11,0,0,0
20210805,5179,0,0,90,1,-48,-5009,0
20210806,5183,0,0,90,4,0,0,0
20210807,5183,0,0,90,0,0,0,0
20210808,5183,0,0,90,0,0,0,0
20210809,5194,0,0,90,11,0,0,0
20210810,5207,0,0,90,13,0,0,0
20210811,5210,0,0,90,3,0,0,0
20210812,5217,0,0,90,7,0,0,0
20210813,5222,0,0,90,5,0,0,0
20210814,5222,0,0,90,0,0,0,0
20210815,5222,0,0,90,0,0,0,0
20210816,5231,0,0,90,9,0,0,0
20210817,5238,0,0,90,7,0,0,0
20210818,5244,0,0,90,6,0,0,0
20210819,5250,0,0,90,6,0,0,0
20210820,5255,0,0,90,5,0,0,0
20210821,5255,0,0,90,0,0,0,0
20210822,5255,0,0,90,0,0,0,0
20210823,5261,0,0,90,6,0,0,0
20210824,5279,0,0,90,18,0,0,0
20210825,5292,0,0,90,13,0,0,0
20210826,5305,0,0,90,13,0,0,0
20210827,5314,0,0,90,9,0,0,0
20210828,5314,0,0,90,0,0,0,0
20210829,5314,0,0,90,0,0,0,0
20210830,5321,0,0,90,7,0,0,0
20210831,5331,0,0,90,10,0,0,0
20210901,5331,0,0,90,0,0,0,0
20210902,5345,0,0,90,14,0,0,0
20210903,5345,0,0,90,0,0,0,0
20210904,5345,0,0,90,0,0,0,0
