date,infected,active,recovered,dead,deltaInfected,deltaActive,deltaRecovered,deltaDead
20200302,1,1,0,0,1,1,0,0
20200303,2,2,0,0,1,1,0,0
20200304,4,4,0,0,2,2,0,0
20200305,4,4,0,0,0,0,0,0
20200306,4,4,0,0,0,0,0,0
20200307,4,4,0,0,0,0,0,0
20200308,4,3,1,0,0,-1,1,0
20200309,4,3,1,0,0,0,0,0
20200310,4,3,1,0,0,0,0,0
20200311,4,3,1,0,0,0,0,0
20200312,4,3,1,0,0,0,0,0
20200313,10,9,1,0,6,6,0,0
20200314,10,9,1,0,0,0,0,0
20200315,24,23,1,0,14,14,0,0
20200316,24,22,2,0,0,-1,1,0
20200317,26,24,2,0,2,2,0,0
20200318,31,29,2,0,5,5,0,0
20200319,31,29,2,0,0,0,0,0
20200320,38,36,2,0,7,7,0,0
20200321,47,42,5,0,9,6,3,0
20200322,67,62,5,0,20,20,0,0
20200323,79,71,8,0,12,9,3,0
20200324,86,78,8,0,7,7,0,0
20200325,99,90,9,0,13,12,1,0
20200326,105,96,9,0,6,6,0,0
20200327,119,108,11,0,14,12,2,0
20200328,130,112,18,0,11,4,7,0
20200329,142,115,27,0,12,3,9,0
20200330,162,135,27,0,20,20,0,0
20200331,175,135,40,0,13,0,13,0
20200401,190,144,45,1,15,9,5,1
20200402,195,139,55,1,5,-5,10,0
20200403,207,140,66,1,12,1,11,0
20200404,219,145,72,2,12,5,6,1
20200405,222,138,82,2,3,-7,10,0
20200406,226,132,92,2,4,-6,10,0
20200407,237,130,105,2,11,-2,13,0
20200408,244,129,113,2,7,-1,8,0
20200409,250,125,123,2,6,-4,10,0
20200410,265,126,137,2,15,1,14,0
20200411,278,124,152,2,13,-2,15,0
20200412,280,107,171,2,2,-17,19,0
20200413,291,111,178,2,11,4,7,0
20200414,299,114,183,2,8,3,5,0
20200415,314,122,190,2,15,8,7,0
20200416,335,139,194,2,21,17,4,0
20200417,342,142,198,2,7,3,4,0
20200418,350,136,211,3,8,-6,13,1
20200419,367,144,220,3,17,8,9,0
20200420,377,137,235,5,10,-7,15,2
20200421,412,165,242,5,35,28,7,0
20200422,442,183,253,6,30,18,11,1
20200423,479,216,257,6,37,33,4,0
20200424,545,276,262,7,66,60,5,1
20200425,614,331,276,7,69,55,14,0
20200426,671,379,283,9,57,48,7,2
20200427,736,443,284,9,65,64,1,0
20200428,823,518,296,9,87,75,12,0
20200429,882,558,315,9,59,40,19,0
20200430,933,590,334,9,51,32,19,0
20200501,1024,659,356,9,91,69,22,0
20200502,1115,738,368,9,91,79,12,0
20200503,1182,801,372,9,67,63,4,0
20200504,1271,846,415,10,89,45,43,1
20200505,1329,848,470,11,58,2,55,1
20200506,1433,928,493,12,104,80,23,1
20200507,1492,917,562,13,59,-11,69,1
20200508,1551,927,611,13,59,10,49,0
20200509,1634,974,643,17,83,47,32,4
20200510,1709,1040,650,19,75,66,7,2
20200511,1886,1152,715,19,177,112,65,0
20200512,1995,1234,742,19,109,82,27,0
20200513,2105,1302,782,21,110,68,40,2
20200514,2189,1324,842,23,84,22,60,2
20200515,2310,1395,890,25,121,71,48,2
20200516,2429,1455,949,25,119,60,59,0
20200517,2480,1482,973,25,51,27,24,0
20200518,2544,1442,1076,26,64,-40,103,1
20200519,2617,1454,1133,30,73,12,57,4
20200520,2714,1498,1186,30,97,44,53,0
20200521,2812,1528,1251,33,98,30,65,3
20200522,2909,1565,1311,33,97,37,60,0
20200523,2976,1526,1416,34,67,-39,105,1
20200524,3047,1556,1456,35,71,30,40,1
20200525,3130,1580,1515,35,83,24,59,0
20200526,3161,1560,1565,36,31,-20,50,1
20200527,3253,1629,1586,38,92,69,21,2
20200528,3348,1623,1686,39,95,-6,100,1
20200529,3429,1650,1738,41,81,27,52,2
20200530,3535,1732,1761,42,106,82,23,1
20200531,3645,1802,1801,42,110,70,40,0
20200601,3739,1839,1858,42,94,37,57,0
20200602,3836,1839,1954,43,97,0,96,1
20200603,3932,1824,2063,45,96,-15,109,2
20200604,4021,1814,2162,45,89,-10,99,0
20200605,4155,1834,2276,45,134,20,114,0
20200606,4249,1690,2512,47,94,-144,236,2
20200607,4328,1691,2588,49,79,1,76,2
20200608,4427,1679,2699,49,99,-12,111,0
20200609,4516,1655,2809,52,89,-24,110,3
20200610,4640,1703,2885,52,124,48,76,0
20200611,4759,1710,2994,55,119,7,109,3
20200612,4851,1695,3100,56,92,-15,106,1
20200613,4996,1708,3228,60,145,13,128,4
20200614,5090,1686,3344,60,94,-22,116,0
20200615,5173,1685,3424,64,83,-1,80,4
20200616,5247,1652,3525,70,74,-33,101,6
20200617,5369,1690,3606,73,122,38,81,3
20200618,5475,1683,3716,76,106,-7,110,3
20200619,5639,1772,3788,79,164,89,72,3
20200620,5783,1842,3859,82,144,70,71,3
20200621,5888,1885,3919,84,105,43,60,2
20200622,5970,1931,3953,86,82,46,34,2
20200623,6034,1899,4046,89,64,-32,93,3
20200624,6129,1964,4072,93,95,65,26,4
20200625,6233,1977,4162,94,104,13,90,1
20200626,6354,2063,4193,98,121,86,31,4
20200627,6459,2102,4255,102,105,39,62,4
20200628,6586,2190,4291,105,127,88,36,3
20200629,6698,2249,4341,108,112,59,50,3
20200630,6793,2250,4431,112,95,1,90,4
20200701,6925,2264,4545,116,132,14,114,4
20200702,7054,2334,4599,121,129,70,54,5
20200703,7164,2373,4666,125,110,39,67,4
20200704,7272,2430,4713,129,108,57,47,4
20200705,7400,2397,4870,133,128,-33,157,4
20200706,7478,2472,4870,136,78,75,0,3
20200707,7547,2387,5023,137,69,-85,153,1
20200708,7657,2419,5097,141,110,32,74,4
20200709,7784,2472,5169,143,127,53,72,2
20200710,7882,2426,5311,145,98,-46,142,2
20200711,8014,2488,5381,145,132,62,70,0
20200712,8135,2541,5446,148,121,53,65,3
20200713,8198,2534,5514,150,63,-7,68,2
20200714,8243,2513,5580,150,45,-21,66,0
20200715,8369,2611,5605,153,126,98,25,3
20200716,8481,2590,5735,156,112,-21,130,3
20200717,8544,2575,5809,160,63,-15,74,4
20200718,8669,2647,5859,163,125,72,50,3
20200719,8810,2695,5948,167,141,48,89,4
20200720,8948,2776,6002,170,138,81,54,3
20200721,8985,2767,6044,174,37,-9,42,4
20200722,9121,2836,6108,177,136,69,64,3
20200723,9266,2918,6170,178,145,82,62,1
20200724,9422,2949,6291,182,156,31,121,4
20200725,9552,3001,6364,187,130,52,73,5
20200726,9681,3081,6409,191,129,80,45,4
20200727,9764,3093,6477,194,83,12,68,3
20200728,9805,3016,6591,198,41,-77,114,4
20200729,9961,3106,6655,200,156,90,64,2
20200730,10106,3177,6725,204,145,71,70,4
20200731,10232,3251,6776,205,126,74,51,1
20200801,10284,3253,6822,209,52,2,46,4
20200802,10344,3297,6838,209,60,44,16,0
20200803,10386,3274,6901,211,42,-23,63,2
20200804,10432,3298,6920,214,46,24,19,3
20200805,10538,3332,6988,218,106,34,68,4
20200806,10715,3391,7101,223,177,59,113,5
20200807,10887,3476,7186,225,172,85,85,2
20200808,11003,3445,7329,229,116,-31,143,4
20200809,11175,3591,7352,232,172,146,23,3
20200810,11312,3686,7390,236,137,95,38,4
20200811,11380,3693,7449,238,68,7,59,2
20200812,11587,3822,7523,242,207,129,74,4
20200813,11740,3924,7572,244,153,102,49,2
20200814,11872,4008,7615,249,132,84,43,5
20200815,12032,4144,7637,251,160,136,22,2
20200816,12162,4232,7677,253,130,88,40,2
20200817,12237,4253,7728,256,75,21,51,3
20200818,12305,4282,7767,256,68,29,39,0
20200819,12446,4311,7877,258,141,29,110,2
20200820,12559,4248,8050,261,113,-63,173,3
20200821,12689,4262,8165,262,130,14,115,1
20200822,12850,4419,8165,266,161,157,0,4
20200823,12949,4225,8455,269,99,-194,290,3
20200824,13013,4146,8595,272,64,-79,140,3
20200825,13056,4067,8715,274,43,-79,120,2
20200826,13186,4059,8852,275,130,-8,137,1
20200827,13294,4043,8974,277,108,-16,122,2
20200828,13384,4014,9091,279,90,-29,117,2
20200829,13456,3941,9233,282,72,-73,142,3
20200830,13556,3884,9388,284,100,-57,155,2
20200831,13611,3888,9439,284,55,4,51,0
20200901,13655,3887,9484,284,44,-1,45,0
20200902,13743,3950,9506,287,88,63,22,3
20200903,13826,3986,9553,287,83,36,47,0
20200904,13881,3869,9723,289,55,-117,170,2
20200905,13948,3807,9851,290,67,-62,128,1
20200906,13987,3775,9922,290,39,-32,71,0
20200907,14014,3686,10037,291,27,-89,115,1
20200908,14044,3715,10037,292,30,29,0,1
20200909,14102,3633,10176,293,58,-82,139,1
20200910,14150,3650,10207,293,48,17,31,0
20200911,14193,3550,10350,293,43,-100,143,0
20200912,14237,3569,10373,295,44,19,23,2
20200913,14280,3463,10520,297,43,-106,147,2
20200914,14306,3446,10563,297,26,-17,43,0
20200915,14529,3539,10692,298,223,93,129,1
20200916,14568,3513,10756,299,39,-26,64,1
20200917,14618,3395,10923,300,50,-118,167,1
20200918,14645,3293,11051,301,27,-102,128,1
20200919,14688,3233,11153,302,43,-60,102,1
20200920,14714,3152,11260,302,26,-81,107,0
20200921,14738,2978,11458,302,24,-174,198,0
20200922,14759,2836,11621,302,21,-142,163,0
20200923,14795,2774,11718,303,36,-62,97,1
20200924,14816,2694,11818,304,21,-80,100,1
20200925,14839,2625,11910,304,23,-69,92,0
20200926,14869,2535,12028,306,30,-90,118,2
20200927,14909,2488,12113,308,40,-47,85,2
20200928,14919,2379,12231,309,10,-109,118,1
20200929,14945,2300,12335,310,26,-79,104,1
20200930,14982,2234,12437,311,37,-66,102,1
20201001,15019,2170,12538,311,37,-64,101,0
20201002,15051,2045,12694,312,32,-125,156,1
20201003,15068,2005,12751,312,17,-40,57,0
20201004,15094,1977,12805,312,26,-28,54,0
20201005,15122,1940,12870,312,28,-37,65,0
20201006,15141,1893,12936,312,19,-47,66,0
20201007,15174,1863,12998,313,33,-30,62,1
20201008,15190,1809,13068,313,16,-54,70,0
20201009,15213,1764,13136,313,23,-45,68,0
20201010,15244,1732,13198,314,31,-32,62,1
20201011,15268,1657,13297,314,24,-75,99,0
20201012,15292,1587,13390,315,24,-70,93,1
20201013,15307,1484,13508,315,15,-103,118,0
20201014,15331,1444,13571,316,24,-40,63,1
20201015,15348,1395,13637,316,17,-49,66,0
20201016,15368,1347,13704,317,20,-48,67,1
20201017,15392,1319,13756,317,24,-28,52,0
20201018,15418,1287,13814,317,26,-32,58,0
20201019,15432,1248,13865,319,14,-39,51,2
20201020,15459,1217,13922,320,27,-31,57,1
20201021,15484,1188,13975,321,25,-29,53,1
20201022,15508,1161,14026,321,24,-27,51,0
20201023,15525,1122,14082,321,17,-39,56,0
20201024,15543,1061,14161,321,18,-61,79,0
20201025,15551,976,14254,321,8,-85,93,0
20201026,15565,927,14316,322,14,-49,62,1
20201027,15571,812,14437,322,6,-115,121,0
20201028,15582,695,14565,322,11,-117,128,0
20201029,15593,610,14660,323,11,-85,95,1
20201030,15605,550,14732,323,12,-60,72,0
20201031,15616,439,14853,324,11,-111,121,1
20201101,15630,347,14958,325,14,-92,105,1
20201102,15637,253,15059,325,7,-94,101,0
20201103,15640,165,15149,326,3,-88,90,1
20201104,15650,79,15245,326,10,-86,96,0
20201105,15668,69,15273,326,18,-10,28,0
20201106,15676,56,15294,326,8,-13,21,0
20201107,15693,50,15317,326,17,-6,23,0
20201108,15708,46,15336,326,15,-4,19,0
20201109,15711,36,15349,326,3,-10,13,0
20201110,15720,28,15366,326,9,-8,17,0
20201111,15735,23,15386,326,15,-5,20,0
20201112,15744,32,15386,326,9,9,0,0
20201113,15755,29,15400,326,11,-3,14,0
20201114,15779,45,15407,327,24,16,7,1
20201115,15793,49,15416,328,14,4,9,1
20201116,15801,51,15421,329,8,2,5,1
20201117,15806,52,15425,329,5,1,4,0
20201118,15823,61,15433,329,17,9,8,0
20201119,15835,66,15440,329,12,5,7,0
20201120,15848,66,15452,330,13,0,12,1
20201121,15865,70,15465,330,17,4,13,0
20201122,15882,64,15488,330,17,-6,23,0
20201123,15897,51,15516,330,15,-13,28,0
20201124,15908,50,15527,331,11,-1,11,1
20201125,15927,56,15540,331,19,6,13,0
20201126,15960,71,15558,331,33,15,18,0
20201127,15981,80,15569,332,21,9,11,1
20201128,16027,113,15582,332,46,33,13,0
20201129,16075,145,15597,333,48,32,15,1
20201130,16089,149,15607,333,14,4,10,0
20201201,16107,147,15627,333,18,-2,20,0
20201202,16173,182,15657,334,66,35,30,1
20201203,16217,185,15697,335,44,3,40,1
20201204,16297,254,15707,336,80,69,10,1
20201205,16397,329,15731,337,100,75,24,1
20201206,16477,363,15776,338,80,34,45,1
20201207,16553,407,15806,340,76,44,30,2
20201208,16596,392,15864,340,43,-15,58,0
20201209,16665,420,15904,341,69,28,40,1
20201210,16766,473,15950,343,101,53,46,2
20201211,16893,533,16015,345,127,60,65,2
20201212,17061,653,16059,349,168,120,44,4
20201213,17075,632,16094,349,14,-21,35,0
20201214,17146,637,16159,350,71,5,65,1
20201215,17216,623,16243,350,70,-14,84,0
20201216,17336,635,16349,352,120,12,106,2
20201217,17451,712,16384,355,115,77,35,3
20201218,17559,753,16449,357,108,41,65,2
20201219,17670,816,16493,361,111,63,44,4
20201220,17758,871,16522,365,88,55,29,4
20201221,17879,946,16562,371,121,75,40,6
20201222,17945,981,16592,372,66,35,30,1
20201223,18043,1008,16657,378,98,27,65,6
20201224,18200,1077,16742,381,157,69,85,3
20201225,18369,1198,16785,386,169,121,43,5
20201226,18523,1255,16881,387,154,57,96,1
20201227,18609,1285,16936,388,86,30,55,1
20201228,18728,1307,17031,390,119,22,95,2
20201229,18806,1315,17096,395,78,8,65,5
20201230,18945,1342,17201,402,139,27,105,7
20201231,19140,1476,17254,410,195,134,53,8
20210101,19364,1579,17375,410,224,103,121,0
20210102,19511,1662,17433,416,147,83,58,6
20210103,19697,1761,17515,421,186,99,82,5
20210104,19803,1764,17615,424,106,3,100,3
20210105,19964,1846,17690,428,161,82,75,4
20210106,20156,1941,17782,433,192,95,92,5
20210107,20376,2053,17885,438,220,112,103,5
20210108,20672,2210,18016,446,296,157,131,8
20210109,21000,2413,18128,459,328,203,112,13
20210110,21245,2562,18218,465,245,149,90,6
20210111,21533,2707,18357,469,288,145,139,4
20210112,21685,2703,18502,480,152,-4,145,11
20210113,21883,2773,18621,489,198,70,119,9
20210114,22178,2926,18756,496,295,153,135,7
20210115,22396,2982,18908,506,218,56,152,10
20210116,22738,3177,19052,509,342,195,144,3
20210117,23028,3289,19224,515,290,112,172,6
20210118,23224,3284,19414,526,196,-5,190,11
20210119,23392,3325,19531,536,168,41,117,10
20210120,23642,3366,19730,546,250,41,199,10
20210121,23909,3441,19916,552,267,75,186,6
20210122,24209,3559,20089,561,300,118,173,9
20210123,24459,3606,20284,569,250,47,195,8
20210124,24727,3676,20476,575,268,70,192,6
20210125,24993,3730,20681,582,266,54,205,7
20210126,25127,3665,20870,592,134,-65,189,10
20210127,25407,3681,21125,601,280,16,255,9
20210128,25711,3702,21395,614,304,21,270,13
20210129,25895,3717,21561,617,184,15,166,3
20210130,26213,3834,21758,621,318,117,197,4
20210131,26523,3925,21970,628,310,91,212,7
20210201,26927,4144,22145,638,404,219,175,10
20210202,27080,4076,22363,641,153,-68,218,3
20210203,27365,4118,22599,648,285,42,236,7
20210204,27733,4266,22808,659,368,148,209,11
20210205,28106,4367,23073,666,373,101,265,7
20210206,28489,4522,23292,675,383,155,219,9
20210207,28760,4519,23559,682,271,-3,267,7
20210208,29057,4514,23854,689,297,-5,295,7
20210209,29245,4479,24066,700,188,-35,212,11
20210210,29521,4458,24351,712,276,-21,285,12
20210211,29914,4593,24597,724,393,135,246,12
20210212,30376,4751,24890,735,462,158,293,11
20210213,30641,4738,25162,741,265,-13,272,6
20210214,31007,4876,25383,748,366,138,221,7
20210215,31275,4886,25635,754,268,10,252,6
20210216,31476,5031,25685,760,201,145,50,6
20210217,31771,4907,26095,769,295,-124,410,9
20210218,32099,4955,26363,781,328,48,268,12
20210219,32378,4967,26624,787,279,12,261,6
20210220,32630,4928,26907,795,252,-39,283,8
20210221,32927,4988,27131,808,297,60,224,13
20210222,33099,4857,27428,814,172,-131,297,6
20210223,33242,4716,27694,832,143,-141,266,18
20210224,33453,4720,27893,840,211,4,199,8
20210225,33741,4777,28112,852,288,57,219,12
20210226,34031,4797,28377,857,290,20,265,5
20210227,34255,4778,28611,866,224,-19,234,9
20210228,34520,4754,28894,872,265,-24,283,6
20210301,34732,4691,29161,880,212,-63,267,8
20210302,34832,4542,29402,888,100,-149,241,8
20210303,35037,4521,29620,896,205,-21,218,8
20210304,35247,4460,29889,898,210,-61,269,2
20210305,35468,4384,30181,903,221,-76,292,5
20210306,35632,4356,30369,907,164,-28,188,4
20210307,35857,4333,30605,919,225,-23,236,12
20210308,35959,4119,30915,925,102,-214,310,6
20210309,36039,3925,31184,930,80,-194,269,5
20210310,36195,3793,31467,935,156,-132,283,5
20210311,36371,3755,31675,941,176,-38,208,6
20210312,36569,3641,31977,951,198,-114,302,10
20210313,36726,3538,32233,955,157,-103,256,4
20210314,36892,3404,32525,963,166,-134,292,8
20210315,36996,3253,32765,978,104,-151,240,15
20210316,37062,3034,33047,981,66,-219,282,3
20210317,37254,2938,33326,990,192,-96,279,9
20210318,37428,2790,33643,995,174,-148,317,5
20210319,37541,2607,33931,1003,113,-183,288,8
20210320,37693,2448,34238,1007,152,-159,307,4
20210321,37833,2253,34567,1013,140,-195,329,6
20210322,37920,2012,34892,1016,87,-241,325,3
20210323,37958,1759,35179,1020,38,-253,287,4
20210324,38134,1603,35508,1023,176,-156,329,3
20210325,38255,1416,35811,1028,121,-187,303,5
20210326,38354,1216,36107,1031,99,-200,296,3
20210327,38456,1100,36322,1034,102,-116,215,3
20210328,38520,730,36753,1037,64,-370,431,3
20210329,38566,482,37040,1044,46,-248,287,7
20210330,38618,341,37228,1049,52,-141,188,5
20210331,38705,333,37321,1051,87,-8,93,2
20210401,38782,294,37434,1054,77,-39,113,3
20210402,38889,301,37532,1056,107,7,98,2
20210403,38953,276,37614,1063,64,-25,82,7
20210404,39024,277,37684,1063,71,1,70,0
20210405,39093,263,37767,1063,69,-14,83,0
20210406,39127,240,37822,1065,34,-23,55,2
20210407,39164,206,37888,1070,37,-34,66,5
20210408,39237,194,37970,1073,73,-12,82,3
20210409,39307,202,38031,1074,70,8,61,1
20210410,39364,186,38101,1077,57,-16,70,3
20210411,39431,179,38174,1078,67,-7,73,1
20210412,39465,171,38215,1079,34,-8,41,1
20210413,39495,173,38241,1081,30,2,26,2
20210414,39560,186,38290,1084,65,13,49,3
20210415,39606,178,38343,1085,46,-8,53,1
20210416,39664,167,38410,1087,58,-11,67,2
20210417,39731,200,38441,1090,67,33,31,3
20210418,39782,180,38511,1091,51,-20,70,1
20210419,39821,191,38539,1091,39,11,28,0
20210420,39836,141,38600,1095,15,-50,61,4
20210421,39910,146,38668,1096,74,5,68,1
20210422,39975,159,38719,1097,65,13,51,1
20210423,40022,139,38786,1097,47,-20,67,0
20210424,40082,168,38815,1099,60,29,29,2
20210425,40135,172,38861,1102,53,4,46,3
20210426,40166,158,38904,1104,31,-14,43,2
20210427,40193,134,38953,1106,27,-24,49,2
20210428,40249,151,38991,1107,56,17,38,1
20210429,40295,167,39021,1107,46,16,30,0
20210430,40344,154,39083,1107,49,-13,62,0
20210501,40388,169,39110,1109,44,15,27,2
20210502,40433,165,39158,1110,45,-4,48,1
20210503,40464,161,39192,1111,31,-4,34,1
20210504,40492,167,39214,1111,28,6,22,0
20210505,40544,188,39242,1114,52,21,28,3
20210506,40578,177,39285,1116,34,-11,43,2
20210507,40621,189,39316,1116,43,12,31,0
20210508,40665,213,39335,1117,44,24,19,1
20210509,40692,189,39384,1119,27,-24,49,2
20210510,40714,184,39410,1120,22,-5,26,1
20210511,40729,181,39428,1120,15,-3,18,0
20210512,40762,181,39460,1121,33,0,32,1
20210513,40790,167,39501,1122,28,-14,41,1
20210514,40806,155,39529,1122,16,-12,28,0
20210515,40828,146,39558,1124,22,-9,29,2
20210516,40850,152,39573,1125,22,6,15,1
20210517,40872,148,39597,1127,22,-4,24,2
20210518,40896,154,39614,1128,24,6,17,1
20210519,40925,148,39649,1128,29,-6,35,0
20210520,40961,161,39672,1128,36,13,23,0
20210521,41023,184,39710,1129,62,23,38,1
20210522,41062,194,39738,1130,39,10,28,1
20210523,41090,200,39758,1132,28,6,20,2
20210524,41142,211,39799,1132,52,11,41,0
20210525,41158,190,39834,1134,16,-21,35,2
20210526,41181,192,39854,1135,23,2,20,1
20210527,41248,209,39903,1136,67,17,49,1
20210528,41296,226,39932,1138,48,17,29,2
20210529,41331,221,39972,1138,35,-5,40,0
20210530,41387,222,40027,1138,56,1,55,0
20210531,41416,207,40070,1139,29,-15,43,1
20210601,41433,198,40095,1140,17,-9,25,1
20210602,41494,206,40146,1142,61,8,51,2
20210603,41539,230,40165,1144,45,24,19,2
20210604,41581,236,40201,1144,42,6,36,0
20210605,41631,258,40228,1145,50,22,27,1
20210606,41680,253,40281,1146,49,-5,53,1
20210607,41713,267,40298,1148,33,14,17,2
20210608,41725,252,40323,1150,12,-15,25,2
20210609,41796,281,40365,1150,71,29,42,0
20210610,41850,296,40404,1150,54,15,39,0
20210611,41900,301,40449,1150,50,5,45,0
20210612,41952,313,40489,1150,52,12,40,0
20210613,41998,308,40536,1154,46,-5,47,4
20210614,42023,277,40591,1155,25,-31,55,1
20210615,42050,257,40637,1156,27,-20,46,1
20210616,42118,295,40667,1156,68,38,30,0
20210617,42206,341,40707,1158,88,46,40,2
20210618,42259,334,40767,1158,53,-7,60,0
20210619,42333,358,40817,1158,74,24,50,0
20210620,42404,371,40875,1158,71,13,58,0
20210621,42437,365,40914,1158,33,-6,39,0
20210622,42472,350,40963,1159,35,-15,49,1
20210623,42590,409,41022,1159,118,59,59,0
20210624,42677,460,41058,1159,87,51,36,0
20210625,42747,468,41118,1161,70,8,60,2
20210626,42851,503,41185,1163,104,35,67,2
20210627,42904,504,41236,1164,53,1,51,1
20210628,42929,475,41290,1164,25,-29,54,0
20210629,42957,437,41354,1166,28,-38,64,2
20210630,43128,533,41429,1166,171,96,75,0
20210701,43268,613,41487,1168,140,80,58,2
20210702,43427,703,41554,1170,159,90,67,2
20210703,43627,823,41633,1171,200,120,79,1
20210704,43768,911,41683,1174,141,88,50,3
20210705,43959,1011,41773,1175,191,100,90,1
20210706,44080,1069,41833,1178,121,58,60,3
20210707,44436,1347,41906,1183,356,278,73,5
20210708,44790,1618,41988,1184,354,271,82,1
20210709,45266,1989,42090,1187,476,371,102,3
20210710,45646,2254,42202,1190,380,265,112,3
20210711,46175,2673,42308,1194,529,419,106,4
20210712,46509,2877,42436,1196,334,204,128,2
20210713,46863,3115,42547,1201,354,238,111,5
20210714,47596,3708,42685,1203,733,593,138,2
20210715,48270,4218,42843,1209,674,510,158,6
20210716,49008,4826,42973,1209,738,608,130,0
20210717,50374,6033,43127,1214,1366,1207,154,5
20210718,52096,7565,43311,1220,1722,1532,184,6
20210719,52671,7922,43522,1227,575,357,211,7
20210720,53573,8535,43802,1236,902,613,280,9
20210721,54297,8996,44055,1246,724,461,253,10
20210722,54820,9210,44354,1256,523,214,299,10
20210723,55861,9986,44611,1264,1041,776,257,8
20210724,56573,10408,44896,1269,712,422,285,5
20210725,57263,10812,45170,1281,690,404,274,12
20210726,57881,11116,45479,1286,618,304,309,5
20210727,58523,11455,45768,1300,642,339,289,14
20210728,59286,11941,46038,1307,763,486,270,7
20210729,60170,12431,46421,1318,884,490,383,11
20210730,61245,13158,46754,1333,1075,727,333,15
20210731,62290,13801,47136,1353,1045,643,382,20
20210801,63002,14056,47579,1367,712,255,443,14
20210802,63520,14143,47992,1385,518,87,413,18
20210803,64024,14252,48378,1394,504,109,386,9
20210804,64522,14287,48812,1423,498,35,434,29
20210805,65333,0,0,1441,811,-14287,-48812,18
20210806,66250,0,0,1457,917,0,0,16
20210807,66898,0,0,1467,648,0,0,10
20210808,67579,0,0,1482,681,0,0,15
20210809,68012,0,0,1495,433,0,0,13
20210810,68348,0,0,1526,336,0,0,31
20210811,68920,0,0,1545,572,0,0,19
20210812,69576,0,0,1554,656,0,0,9
20210813,70125,0,0,1570,549,0,0,16
20210814,70413,0,0,1587,288,0,0,17
20210815,70679,0,0,1600,266,0,0,13
20210816,70854,0,0,1614,175,0,0,14
20210817,71002,0,0,1625,148,0,0,11
20210818,71266,0,0,1636,264,0,0,11
20210819,71441,0,0,1641,175,0,0,5
20210820,71628,0,0,1648,187,0,0,7
20210821,71772,0,0,1659,144,0,0,11
20210822,71927,0,0,1671,155,0,0,12
20210823,72015,0,0,1680,88,0,0,9
20210824,72086,0,0,1697,71,0,0,17
20210825,72215,0,0,1706,129,0,0,9
20210826,72315,0,0,1717,100,0,0,11
20210827,72533,0,0,1729,218,0,0,12
20210828,72618,0,0,1742,85,0,0,13
20210829,72709,0,0,1749,91,0,0,7
20210830,72753,0,0,1760,44,0,0,11
20210831,72805,0,0,1765,52,0,0,5
20210901,72920,0,0,1774,115,0,0,9
20210902,72977,0,0,1780,57,0,0,6
20210903,73047,0,0,1785,70,0,0,5
20210904,73104,0,0,1794,57,0,0,9
