date,infected,active,recovered,dead,deltaInfected,deltaActive,deltaRecovered,deltaDead
20200314,1,1,0,0,1,1,0,0
20200315,1,1,0,0,0,0,0,0
20200316,1,1,0,0,0,0,0,0
20200317,1,1,0,0,0,0,0,0
20200318,1,1,0,0,0,0,0,0
20200319,1,1,0,0,0,0,0,0
20200320,4,4,0,0,3,3,0,0
20200321,4,4,0,0,0,0,0,0
20200322,5,5,0,0,1,1,0,0
20200323,5,5,0,0,0,0,0,0
20200324,7,7,0,0,2,2,0,0
20200325,8,8,0,0,1,1,0,0
20200326,8,8,0,0,0,0,0,0
20200327,8,8,0,0,0,0,0,0
20200328,8,8,0,0,0,0,0,0
20200329,8,8,0,0,0,0,0,0
20200330,8,8,0,0,0,0,0,0
20200331,9,9,0,0,1,1,0,0
20200401,10,10,0,0,1,1,0,0
20200402,10,10,0,0,0,0,0,0
20200403,10,9,0,1,0,-1,0,1
20200404,10,9,0,1,0,0,0,0
20200405,10,9,0,1,0,0,0,0
20200406,10,9,0,1,0,0,0,0
20200407,10,9,0,1,0,0,0,0
20200408,10,6,3,1,0,-3,3,0
20200409,10,5,4,1,0,-1,1,0
20200410,10,5,4,1,0,0,0,0
20200411,10,5,4,1,0,0,0,0
20200412,10,5,4,1,0,0,0,0
20200413,10,3,6,1,0,-2,2,0
20200414,10,3,6,1,0,0,0,0
20200415,10,3,6,1,0,0,0,0
20200416,10,3,6,1,0,0,0,0
20200417,10,3,6,1,0,0,0,0
20200418,10,3,6,1,0,0,0,0
20200419,10,3,6,1,0,0,0,0
20200420,10,3,6,1,0,0,0,0
20200421,10,3,6,1,0,0,0,0
20200422,10,3,6,1,0,0,0,0
20200423,10,3,6,1,0,0,0,0
20200424,10,2,7,1,0,-1,1,0
20200425,10,2,7,1,0,0,0,0
20200426,10,2,7,1,0,0,0,0
20200427,10,2,7,1,0,0,0,0
20200428,10,2,7,1,0,0,0,0
20200429,10,1,8,1,0,-1,1,0
20200430,10,1,8,1,0,0,0,0
20200501,10,1,8,1,0,0,0,0
20200502,10,1,8,1,0,0,0,0
20200503,10,0,9,1,0,-1,1,0
20200504,10,0,9,1,0,0,0,0
20200505,10,0,9,1,0,0,0,0
20200506,10,0,9,1,0,0,0,0
20200507,10,0,9,1,0,0,0,0
20200508,10,0,9,1,0,0,0,0
20200509,10,0,9,1,0,0,0,0
20200510,10,0,9,1,0,0,0,0
20200511,10,0,9,1,0,0,0,0
20200512,10,0,9,1,0,0,0,0
20200513,10,0,9,1,0,0,0,0
20200514,10,0,9,1,0,0,0,0
20200515,10,0,9,1,0,0,0,0
20200516,10,0,9,1,0,0,0,0
20200517,10,0,9,1,0,0,0,0
20200518,11,1,9,1,1,1,0,0
20200519,11,1,9,1,0,0,0,0
20200520,11,1,9,1,0,0,0,0
20200521,11,1,9,1,0,0,0,0
20200522,11,1,9,1,0,0,0,0
20200523,11,1,9,1,0,0,0,0
20200524,11,1,9,1,0,0,0,0
20200525,11,1,9,1,0,0,0,0
20200526,11,1,9,1,0,0,0,0
20200527,12,2,9,1,1,1,0,0
20200528,12,2,9,1,0,0,0,0
20200529,12,2,9,1,0,0,0,0
20200530,14,4,9,1,2,2,0,0
20200531,23,13,9,1,9,9,0,0
20200601,44,34,9,1,21,21,0,0
20200602,54,44,9,1,10,10,0,0
20200603,74,64,9,1,20,20,0,0
20200604,82,72,9,1,8,8,0,0
20200605,90,80,9,1,8,8,0,0
20200606,100,90,9,1,10,10,0,0
20200607,122,112,9,1,22,22,0,0
20200608,128,117,9,2,6,5,0,1
20200609,137,126,9,2,9,9,0,0
20200610,144,133,9,2,7,7,0,0
20200611,168,157,9,2,24,24,0,0
20200612,187,175,9,3,19,18,0,1
20200613,196,184,9,3,9,9,0,0
20200614,208,196,9,3,12,12,0,0
20200615,229,176,48,5,21,-20,39,2
20200616,236,182,48,6,7,6,0,1
20200617,261,207,48,6,25,25,0,0
20200618,277,196,74,7,16,-11,26,1
20200619,293,211,74,8,16,15,0,1
20200620,303,221,74,8,10,10,0,0
20200621,314,200,106,8,11,-21,32,0
20200622,319,179,132,8,5,-21,26,0
20200623,319,178,132,9,0,-1,0,1
20200624,357,193,154,10,38,15,22,1
20200625,373,187,176,10,16,-6,22,0
20200626,389,198,181,10,16,11,5,0
20200627,467,265,191,11,78,67,10,1
20200628,490,280,199,11,23,15,8,0
20200629,501,271,217,13,11,-9,18,2
20200630,515,275,227,13,14,4,10,0
20200701,535,280,242,13,20,5,15,0
20200702,547,282,252,13,12,2,10,0
20200703,561,281,267,13,14,-1,15,0
20200704,565,275,276,14,4,-6,9,1
20200705,594,288,292,14,29,13,16,0
20200706,614,285,315,14,20,-3,23,0
20200707,634,214,405,15,20,-71,90,1
20200708,665,214,434,17,31,0,29,2
20200709,694,221,456,17,29,7,22,0
20200710,726,227,481,18,32,6,25,1
20200711,741,228,495,18,15,1,14,0
20200712,741,228,495,18,0,0,0,0
20200713,780,236,526,18,39,8,31,0
20200714,801,240,543,18,21,4,17,0
20200715,837,246,573,18,36,6,30,0
20200716,904,305,581,18,67,59,8,0
20200717,943,324,600,19,39,19,19,1
20200718,1001,371,610,20,58,47,10,1
20200719,1029,381,627,21,28,10,17,1
20200720,1079,402,656,21,50,21,29,0
20200721,1131,405,705,21,52,3,49,0
20200722,1176,416,739,21,45,11,34,0
20200723,1234,437,774,23,58,21,35,2
20200724,1305,478,804,23,71,41,30,0
20200725,1381,505,853,23,76,27,49,0
20200726,1439,526,890,23,58,21,37,0
20200727,1483,534,925,24,44,8,35,1
20200728,1510,521,965,24,27,-13,40,0
20200729,1607,578,1003,26,97,57,38,2
20200730,1607,578,1003,26,0,0,0,0
20200731,1650,544,1080,26,43,-34,77,0
20200801,1760,573,1161,26,110,29,81,0
20200802,1849,628,1194,27,89,55,33,1
20200803,1893,639,1227,27,44,11,33,0
20200804,1981,676,1278,27,88,37,51,0
20200805,2050,696,1327,27,69,20,49,0
20200806,2096,621,1446,29,46,-75,119,2
20200807,2203,669,1505,29,107,48,59,0
20200808,2306,719,1558,29,103,50,53,0
20200809,2391,727,1635,29,85,8,77,0
20200810,2489,785,1674,30,98,58,39,1
20200811,2559,808,1712,39,70,23,38,9
20200812,2653,825,1789,39,94,17,77,0
20200813,2761,891,1830,40,108,66,41,1
20200814,2838,903,1894,41,77,12,64,1
20200815,2961,929,1990,42,123,26,96,1
20200816,3016,933,2036,47,55,4,46,5
20200817,3077,891,2138,48,61,-42,102,1
20200818,3216,966,2196,54,139,75,58,6
20200819,3295,1014,2227,54,79,48,31,0
20200820,3366,928,2383,55,71,-86,156,1
20200821,3460,906,2498,56,94,-22,115,1
20200822,3569,953,2559,57,109,47,61,1
20200823,3607,861,2688,58,38,-92,129,1
20200824,3632,814,2758,60,25,-47,70,2
20200825,3698,819,2818,61,66,5,60,1
20200826,3724,799,2863,62,26,-20,45,1
20200827,3793,834,2893,66,69,35,30,4
20200828,3848,811,2971,66,55,-23,78,0
20200829,3954,896,2991,67,106,85,20,1
20200830,4009,869,3073,67,55,-27,82,0
20200831,4034,823,3140,71,25,-46,67,4
20200901,4089,846,3171,72,55,23,31,1
20200902,4149,805,3272,72,60,-41,101,0
20200903,4215,824,3318,73,66,19,46,1
20200904,4252,811,3366,75,37,-13,48,2
20200905,4320,818,3426,76,68,7,60,1
20200906,4346,767,3494,85,26,-51,68,9
20200907,4360,725,3544,91,14,-42,50,6
20200908,4419,733,3595,91,59,8,51,0
20200909,4447,733,3622,92,28,0,27,1
20200910,4477,678,3706,93,30,-55,84,1
20200911,4529,689,3747,93,52,11,41,0
20200912,4579,698,3788,93,50,9,41,0
20200913,4582,639,3850,93,3,-59,62,0
20200914,4611,581,3935,95,29,-58,85,2
20200915,4625,534,3996,95,14,-47,61,0
20200916,4645,461,4089,95,20,-73,93,0
20200917,4671,416,4160,95,26,-45,71,0
20200918,4691,315,4280,96,20,-101,120,1
20200919,4709,229,4383,97,18,-86,103,1
20200920,4723,138,4488,97,14,-91,105,0
20200921,4740,118,4525,97,17,-20,37,0
20200922,4759,118,4541,100,19,0,16,3
20200923,4779,118,4560,101,20,0,19,1
20200924,4789,109,4578,102,10,-9,18,1
20200925,4817,119,4596,102,28,10,18,0
20200926,4831,109,4620,102,14,-10,24,0
20200927,4835,72,4661,102,4,-37,41,0
20200928,4836,67,4667,102,1,-5,6,0
20200929,4863,83,4676,104,27,16,9,2
20200930,4877,78,4695,104,14,-5,19,0
20201001,4891,84,4702,105,14,6,7,1
20201002,4899,79,4715,105,8,-5,13,0
20201003,4924,95,4723,106,25,16,8,1
20201004,4941,94,4741,106,17,-1,18,0
20201005,4954,93,4755,106,13,-1,14,0
20201006,4965,93,4766,106,11,0,11,0
20201007,4979,92,4781,106,14,-1,15,0
20201008,5004,104,4794,106,25,12,13,0
20201009,5018,96,4816,106,14,-8,22,0
20201010,5035,98,4830,107,17,2,14,1
20201011,5051,99,4845,107,16,1,15,0
20201012,5058,89,4862,107,7,-10,17,0
20201013,5072,95,4870,107,14,6,8,0
20201014,5083,89,4886,108,11,-6,16,1
20201015,5094,78,4907,109,11,-11,21,1
20201016,5113,83,4921,109,19,5,14,0
20201017,5123,78,4936,109,10,-5,15,0
20201018,5130,77,4944,109,7,-1,8,0
20201019,5133,65,4959,109,3,-12,15,0
20201020,5144,56,4979,109,11,-9,20,0
20201021,5150,50,4991,109,6,-6,12,0
20201022,5154,50,4995,109,4,0,4,0
20201023,5155,36,5010,109,1,-14,15,0
20201024,5166,41,5016,109,11,5,6,0
20201025,5170,29,5032,109,4,-12,16,0
20201026,5180,33,5037,110,10,4,5,1
20201027,5187,37,5039,111,7,4,2,1
20201028,5192,35,5046,111,5,-2,7,0
20201029,5197,33,5053,111,5,-2,7,0
20201030,5201,33,5057,111,4,0,4,0
20201031,5203,32,5060,111,2,-1,3,0
20201101,5210,33,5066,111,7,1,6,0
20201102,5212,19,5082,111,2,-14,16,0
20201103,5218,20,5087,111,6,1,5,0
20201104,5220,18,5090,112,2,-2,3,1
20201105,5225,16,5097,112,5,-2,7,0
20201106,5227,13,5102,112,2,-3,5,0
20201107,5234,16,5105,113,7,3,3,1
20201108,5239,19,5107,113,5,3,2,0
20201109,5241,18,5110,113,2,-1,3,0
20201110,5245,17,5115,113,4,-1,5,0
20201111,5254,23,5118,113,9,6,3,0
20201112,5261,21,5126,114,7,-2,8,1
20201113,5268,23,5131,114,7,2,5,0
20201114,5274,17,5143,114,6,-6,12,0
20201115,5274,12,5148,114,0,-5,5,0
20201116,5275,12,5148,115,1,0,0,1
20201117,5278,5,5157,116,3,-7,9,1
20201118,5282,8,5158,116,4,3,1,0
20201119,5284,7,5161,116,2,-1,3,0
20201120,5289,9,5164,116,5,2,3,0
20201121,5295,13,5166,116,6,4,2,0
20201122,5296,12,5168,116,1,-1,2,0
20201123,5297,8,5173,116,1,-4,5,0
20201124,5300,6,5177,117,3,-2,4,1
20201125,5305,4,5184,117,5,-2,7,0
20201126,5307,5,5185,117,2,1,1,0
20201127,5311,7,5187,117,4,2,2,0
20201128,5312,3,5192,117,1,-4,5,0
20201129,5312,3,5192,117,0,0,0,0
20201130,5312,1,5194,117,0,-2,2,0
20201201,5319,5,5197,117,7,4,3,0
20201202,5320,3,5200,117,1,-2,3,0
20201203,5322,2,5203,117,2,-1,3,0
20201204,5322,0,5205,117,0,-2,2,0
20201205,5324,0,5207,117,2,0,2,0
20201206,5324,-3,5210,117,0,-3,3,0
20201207,5325,-6,5214,117,1,-3,4,0
20201208,5326,-8,5217,117,1,-2,3,0
20201209,5333,0,5217,117,7,8,0,0
20201210,5337,2,5218,117,4,2,1,0
20201211,5339,2,5220,117,2,0,2,0
20201212,5340,2,5221,117,1,0,1,0
20201213,5353,12,5224,117,13,10,3,0
20201214,5359,15,5227,117,6,3,3,0
20201215,5381,33,5231,117,22,18,4,0
20201216,5401,45,5239,117,20,12,8,0
20201217,5428,71,5240,117,27,26,1,0
20201218,5459,93,5249,117,31,22,9,0
20201219,5511,130,5263,118,52,37,14,1
20201220,5552,143,5291,118,41,13,28,0
20201221,5583,169,5296,118,31,26,5,0
20201222,5669,228,5323,118,86,59,27,0
20201223,5734,271,5345,118,65,43,22,0
20201224,5810,304,5388,118,76,33,43,0
20201225,5880,344,5417,119,70,40,29,1
20201226,5938,363,5456,119,58,19,39,0
20201227,5978,380,5479,119,40,17,23,0
20201228,6013,351,5542,120,35,-29,63,1
20201229,6098,345,5633,120,85,-6,91,0
20201230,6181,366,5694,121,83,21,61,1
20201231,6210,357,5731,122,29,-9,37,1
20210101,6277,383,5771,123,67,26,40,1
20210102,6343,379,5841,123,66,-4,70,0
20210103,6393,387,5883,123,50,8,42,0
20210104,6493,456,5913,124,100,69,30,1
20210105,6586,494,5967,125,93,38,54,1
20210106,6666,519,6021,126,80,25,54,1
20210107,6750,540,6080,130,84,21,59,4
20210108,6854,576,6147,131,104,36,67,1
20210109,6948,601,6215,132,94,25,68,1
20210110,7008,599,6276,133,60,-2,61,1
20210111,7064,605,6321,138,56,6,45,5
20210112,7178,642,6398,138,114,37,77,0
20210113,7247,631,6477,139,69,-11,79,1
20210114,7300,618,6543,139,53,-13,66,0
20210115,7409,649,6621,139,109,31,78,0
20210116,7469,639,6689,141,60,-10,68,2
20210117,7527,628,6758,141,58,-11,69,0
20210118,7624,645,6834,145,97,17,76,4
20210119,7709,653,6910,146,85,8,76,1
20210120,7783,669,6968,146,74,16,58,0
20210121,7880,707,7027,146,97,38,59,0
20210122,7945,685,7112,148,65,-22,85,2
20210123,8000,713,7139,148,55,28,27,0
20210124,8057,662,7246,149,57,-51,107,1
20210125,8112,659,7304,149,55,-3,58,0
20210126,8174,647,7377,150,62,-12,73,1
20210127,8243,658,7433,152,69,11,56,2
20210128,8293,634,7505,154,50,-24,72,2
20210129,8364,642,7568,154,71,8,63,0
20210130,8403,628,7621,154,39,-14,53,0
20210131,8438,613,7671,154,35,-15,50,0
20210201,8449,559,7734,156,11,-54,63,2
20210202,8497,539,7802,156,48,-20,68,0
20210203,8556,548,7852,156,59,9,50,0
20210204,8595,531,7906,158,39,-17,54,2
20210205,8619,522,7939,158,24,-9,33,0
20210206,8650,516,7974,160,31,-6,35,2
20210207,8671,490,8020,161,21,-26,46,1
20210208,8690,475,8053,162,19,-15,33,1
20210209,8710,457,8090,163,20,-18,37,1
20210210,8739,452,8123,164,29,-5,33,1
20210211,8765,444,8155,166,26,-8,32,2
20210212,8778,433,8179,166,13,-11,24,0
20210213,8794,434,8194,166,16,1,15,0
20210214,8803,423,8214,166,9,-11,20,0
20210215,8811,402,8242,167,8,-21,28,1
20210216,8820,389,8264,167,9,-13,22,0
20210217,8832,379,8285,168,12,-10,21,1
20210218,8838,363,8307,168,6,-16,22,0
20210219,8854,365,8321,168,16,2,14,0
20210220,8856,357,8331,168,2,-8,10,0
20210221,8868,362,8338,168,12,5,7,0
20210222,8869,351,8349,169,1,-11,11,1
20210223,8880,351,8359,170,11,0,10,1
20210224,8892,351,8371,170,12,0,12,0
20210225,8901,346,8385,170,9,-5,14,0
20210226,8913,352,8391,170,12,6,6,0
20210227,8919,350,8399,170,6,-2,8,0
20210228,8929,351,8406,172,10,1,7,2
20210301,8933,347,8413,173,4,-4,7,1
20210302,8939,340,8426,173,6,-7,13,0
20210303,8953,341,8439,173,14,1,13,0
20210304,8959,334,8450,175,6,-7,11,2
20210305,8966,335,8456,175,7,1,6,0
20210306,8971,332,8464,175,5,-3,8,0
20210307,8977,333,8469,175,6,1,5,0
20210308,8980,332,8473,175,3,-1,4,0
20210309,8985,323,8487,175,5,-9,14,0
20210310,8990,317,8498,175,5,-6,11,0
20210311,8997,316,8505,176,7,-1,7,1
20210312,9012,330,8506,176,15,14,1,0
20210313,9022,337,8509,176,10,7,3,0
20210314,9024,334,8514,176,2,-3,5,0
20210315,9028,333,8519,176,4,-1,5,0
20210316,9034,330,8528,176,6,-3,9,0
20210317,9042,334,8532,176,8,4,4,0
20210318,9049,339,8534,176,7,5,2,0
20210319,9055,342,8537,176,6,3,3,0
20210320,9061,337,8548,176,6,-5,11,0
20210321,9066,340,8550,176,5,3,2,0
20210322,9067,330,8560,177,1,-10,10,1
20210323,9074,333,8564,177,7,3,4,0
20210324,9077,332,8568,177,3,-1,4,0
20210325,9085,335,8573,177,8,3,5,0
20210326,9088,336,8575,177,3,1,2,0
20210327,9095,341,8577,177,7,5,2,0
20210328,9097,341,8579,177,2,0,2,0
20210329,9104,342,8585,177,7,1,6,0
20210330,9109,338,8594,177,5,-4,9,0
20210331,9122,347,8598,177,13,9,4,0
20210401,9122,347,8598,177,0,0,0,0
20210402,9130,353,8600,177,8,6,2,0
20210403,9153,364,8612,177,23,11,12,0
20210404,9163,366,8620,177,10,2,8,0
20210405,9174,364,8633,177,11,-2,13,0
20210406,9184,372,8634,178,10,8,1,1
20210407,9200,385,8637,178,16,13,3,0
20210408,9254,433,8643,178,54,48,6,0
20210409,9265,440,8647,178,11,7,4,0
20210410,9278,445,8654,179,13,5,7,1
20210411,9302,451,8669,182,24,6,15,3
20210412,9316,434,8700,182,14,-17,31,0
20210413,9363,468,8711,184,47,34,11,2
20210414,9417,508,8725,184,54,40,14,0
20210415,9458,522,8751,185,41,14,26,1
20210416,9496,530,8779,187,38,8,28,2
20210417,9545,553,8805,187,49,23,26,0
20210418,9581,565,8829,187,36,12,24,0
20210419,9581,565,8829,187,0,0,0,0
20210420,9687,599,8900,188,106,34,71,1
20210421,9791,665,8937,189,104,66,37,1
20210422,9865,709,8965,191,74,44,28,2
20210423,9932,737,9002,193,67,28,37,2
20210424,9996,749,9052,195,64,12,50,2
20210425,10045,759,9088,198,49,10,36,3
20210426,10081,741,9139,201,36,-18,51,3
20210427,10157,763,9193,201,76,22,54,0
20210428,10218,768,9249,201,61,5,56,0
20210429,10286,796,9289,201,68,28,40,0
20210430,10363,823,9336,204,77,27,47,3
20210501,10428,865,9359,204,65,42,23,0
20210502,10489,868,9414,207,61,3,55,3
20210503,10543,854,9482,207,54,-14,68,0
20210504,10623,869,9542,212,80,15,60,5
20210505,10696,882,9602,212,73,13,60,0
20210506,10816,947,9656,213,120,65,54,1
20210507,10933,1025,9694,214,117,78,38,1
20210508,11020,1078,9728,214,87,53,34,0
20210509,11112,1119,9778,215,92,41,50,1
20210510,11213,1164,9831,218,101,45,53,3
20210511,11306,1179,9907,220,93,15,76,2
20210512,11427,1222,9985,220,121,43,78,0
20210513,11572,1317,10034,221,145,95,49,1
20210514,11707,1372,10112,223,135,55,78,2
20210515,11828,1420,10184,224,121,48,72,1
20210516,11950,1485,10237,228,122,65,53,4
20210517,12107,1552,10325,230,157,67,88,2
20210518,12251,1581,10432,238,144,29,107,8
20210519,12409,1663,10507,239,158,82,75,1
20210520,12571,1727,10604,240,162,64,97,1
20210521,12742,1813,10686,243,171,86,82,3
20210522,12928,1954,10729,245,186,141,43,2
20210523,13111,2077,10785,249,183,123,56,4
20210524,13302,2137,10909,256,191,60,124,7
20210525,13495,2204,11030,261,193,67,121,5
20210526,13720,2321,11131,268,225,117,101,7
20210527,14012,2515,11222,275,292,194,91,7
20210528,14305,2690,11333,282,293,175,111,7
20210529,14515,2768,11459,288,210,78,126,6
20210530,14764,2887,11585,292,249,119,126,4
20210531,14954,2918,11734,302,190,31,149,10
20210601,15128,2938,11877,313,174,20,143,11
20210602,15428,3107,12005,316,300,169,128,3
20210603,15676,3214,12137,325,248,107,132,9
20210604,16009,3417,12260,332,333,203,123,7
20210605,16292,3588,12365,339,283,171,105,7
20210606,16541,3673,12518,350,249,85,153,11
20210607,16786,3706,12725,355,245,33,207,5
20210608,17041,3790,12888,363,255,84,163,8
20210609,17313,3838,13102,373,272,48,214,10
20210610,17546,3667,13495,384,233,-171,393,11
20210611,17799,3745,13664,390,253,78,169,6
20210612,18110,3906,13811,393,311,161,147,3
20210613,18372,4041,13927,404,262,135,116,11
20210614,18599,4015,14172,412,227,-26,245,8
20210615,18825,3984,14423,418,226,-31,251,6
20210616,19108,4109,14572,427,283,125,149,9
20210617,19361,4075,14850,436,253,-34,278,9
20210618,19576,4166,14967,443,215,91,117,7
20210619,19748,4130,15164,454,172,-36,197,11
20210620,20025,4242,15323,460,277,112,159,6
20210621,20141,4250,15424,467,116,8,101,7
20210622,20298,4303,15518,477,157,53,94,10
20210623,20549,4336,15731,482,251,33,213,5
20210624,20723,4290,15943,490,174,-46,212,8
20210625,20911,4192,16225,494,188,-98,282,4
20210626,21060,4077,16484,499,149,-115,259,5
20210627,21249,4032,16710,507,189,-45,226,8
20210628,21360,3892,16956,512,111,-140,246,5
20210629,21519,3687,17316,516,159,-205,360,4
20210630,21732,3553,17657,522,213,-134,341,6
20210701,21936,3573,17832,531,204,20,175,9
20210702,22063,3524,18000,539,127,-49,168,8
20210703,22203,3430,18232,541,140,-94,232,2
20210704,22380,3490,18345,545,177,60,113,4
20210705,22465,3458,18459,548,85,-32,114,3
20210706,22581,3322,18707,552,116,-136,248,4
20210707,22788,3375,18854,559,207,53,147,7
20210708,22997,3414,19020,563,209,39,166,4
20210709,23169,3433,19168,568,172,19,148,5
20210710,23293,3438,19280,575,124,5,112,7
20210711,23383,3457,19344,582,90,19,64,7
20210712,23463,3426,19450,587,80,-31,106,5
20210713,23594,3416,19584,594,131,-10,134,7
20210714,23716,3416,19703,597,122,0,119,3
20210715,23861,3434,19825,602,145,18,122,5
20210716,24055,3435,20013,607,194,1,188,5
20210717,24176,3443,20126,607,121,8,113,0
20210718,24272,3362,20299,611,96,-81,173,4
20210719,24312,3297,20401,614,40,-65,102,3
20210720,24435,3234,20581,620,123,-63,180,6
20210721,24490,3184,20681,625,55,-50,100,5
20210722,24573,3101,20846,626,83,-83,165,1
20210723,24689,3101,20919,627,116,0,73,1
20210724,24797,3147,21022,628,108,46,103,1
20210725,24875,3095,21149,631,78,-52,127,3
20210726,24903,3078,21191,634,28,-17,42,3
20210727,25028,3105,21285,638,125,27,94,4
20210728,25118,3020,21458,640,90,-85,173,2
20210729,25218,3048,21527,643,100,28,69,3
20210730,25287,3032,21610,645,69,-16,83,2
20210731,25351,3002,21700,649,64,-30,90,4
20210801,25402,2981,21770,651,51,-21,70,2
20210802,25439,2958,21829,652,37,-23,59,1
20210803,25549,2982,21913,654,110,24,84,2
20210804,25614,2979,21978,657,65,-3,65,3
20210805,25716,0,0,658,102,-2979,-21978,1
20210806,25853,0,0,659,137,0,0,1
20210807,25917,0,0,662,64,0,0,3
20210808,26002,0,0,665,85,0,0,3
20210809,26046,0,0,667,44,0,0,2
20210810,26103,0,0,669,57,0,0,2
20210811,26222,0,0,671,119,0,0,2
20210812,26318,0,0,672,96,0,0,1
20210813,26433,0,0,676,115,0,0,4
20210814,26539,0,0,680,106,0,0,4
20210815,26593,0,0,683,54,0,0,3
20210816,26641,0,0,685,48,0,0,2
20210817,26802,0,0,689,161,0,0,4
20210818,26916,0,0,692,114,0,0,3
20210819,27070,0,0,696,154,0,0,4
20210820,27210,0,0,696,140,0,0,0
20210821,27371,0,0,697,161,0,0,1
20210822,27503,0,0,699,132,0,0,2
20210823,27574,0,0,700,71,0,0,1
20210824,27776,0,0,704,202,0,0,4
20210825,27998,0,0,705,222,0,0,1
20210826,28228,0,0,707,230,0,0,2
20210827,28462,0,0,709,234,0,0,2
20210828,28684,0,0,714,222,0,0,5
20210829,28840,0,0,715,156,0,0,1
20210830,28967,0,0,718,127,0,0,3
20210831,29293,0,0,721,326,0,0,3
20210901,29599,0,0,725,306,0,0,4
20210902,29921,0,0,730,322,0,0,5
20210903,30120,0,0,733,199,0,0,3
20210904,30535,0,0,735,415,0,0,2
