date,infected,active,recovered,dead,deltaInfected,deltaActive,deltaRecovered,deltaDead
20200319,1,1,0,0,1,1,0,0
20200320,1,1,0,0,0,0,0,0
20200321,3,3,0,0,2,2,0,0
20200322,3,3,0,0,0,0,0,0
20200323,3,3,0,0,0,0,0,0
20200324,5,5,0,0,2,2,0,0
20200325,9,9,0,0,4,4,0,0
20200326,13,13,0,0,4,4,0,0
20200327,13,13,0,0,0,0,0,0
20200328,19,19,0,0,6,6,0,0
20200329,24,24,0,0,5,5,0,0
20200330,30,30,0,0,6,6,0,0
20200331,32,31,0,1,2,1,0,1
20200401,32,31,0,1,0,0,0,0
20200402,41,39,0,2,9,8,0,1
20200403,46,44,0,2,5,5,0,0
20200404,56,51,2,3,10,7,2,1
20200405,62,57,2,3,6,6,0,0
20200406,69,60,5,4,7,3,3,1
20200407,78,69,5,4,9,9,0,0
20200408,93,79,9,5,15,10,4,1
20200409,103,83,14,6,10,4,5,1
20200410,117,96,15,6,14,13,1,0
20200411,118,93,19,6,1,-3,4,0
20200412,125,98,21,6,7,5,2,0
20200413,137,109,22,6,12,11,1,0
20200414,149,118,25,6,12,9,3,0
20200415,159,123,30,6,10,5,5,0
20200416,164,125,33,6,5,2,3,0
20200417,177,132,38,7,13,7,5,1
20200418,190,140,43,7,13,8,5,0
20200419,201,150,44,7,11,10,1,0
20200420,218,165,46,7,17,15,2,0
20200421,225,170,48,7,7,5,2,0
20200422,237,167,63,7,12,-3,15,0
20200423,250,175,67,8,13,8,4,1
20200424,274,191,75,8,24,16,8,0
20200425,274,191,75,8,0,0,0,0
20200426,298,207,83,8,24,16,8,0
20200427,323,226,89,8,25,19,6,0
20200428,345,240,97,8,22,14,8,0
20200429,377,262,106,9,32,22,9,1
20200430,395,266,119,10,18,4,13,1
20200501,424,290,124,10,29,24,5,0
20200502,446,294,141,11,22,4,17,1
20200503,490,325,154,11,44,31,13,0
20200504,555,362,180,13,65,37,26,2
20200505,587,368,205,14,32,6,25,1
20200506,633,399,219,15,46,31,14,1
20200507,695,428,252,15,62,29,33,0
20200508,742,469,257,16,47,41,5,1
20200509,784,491,276,17,42,22,19,1
20200510,889,579,293,17,105,88,17,0
20200511,958,615,325,18,69,36,32,1
20200512,998,629,349,20,40,14,24,2
20200513,1037,643,374,20,39,14,25,0
20200514,1112,684,405,23,75,41,31,3
20200515,1210,768,417,25,98,84,12,2
20200516,1265,798,441,26,55,30,24,1
20200517,1338,844,464,30,73,46,23,4
20200518,1413,909,474,30,75,65,10,0
20200519,1498,966,502,30,85,57,28,0
20200520,1571,1003,537,31,73,37,35,1
20200521,1640,1063,544,33,69,60,7,2
20200522,1725,1122,570,33,85,59,26,0
20200523,1819,1216,570,33,94,94,0,0
20200524,1915,1247,633,35,96,31,63,2
20200525,1983,1176,772,35,68,-71,139,0
20200526,2042,1219,787,36,59,43,15,1
20200527,2109,1179,891,39,67,-40,104,3
20200528,2194,1153,1002,39,85,-26,111,0
20200529,2278,1221,1015,42,84,68,13,3
20200530,2395,1318,1031,46,117,97,16,4
20200531,2517,1431,1040,46,122,113,9,0
20200601,2582,1473,1063,46,65,42,23,0
20200602,2653,1444,1160,49,71,-29,97,3
20200603,2705,1468,1186,51,52,24,26,2
20200604,2781,1515,1214,52,76,47,28,1
20200605,2849,1547,1249,53,68,32,35,1
20200606,2934,1600,1281,53,85,53,32,0
20200607,3015,1657,1305,53,81,57,24,0
20200608,3104,1669,1379,56,89,12,74,3
20200609,3191,1712,1419,60,87,43,40,4
20200610,3274,1772,1438,64,83,60,19,4
20200611,3373,1801,1504,68,99,29,66,4
20200612,3481,1826,1587,68,108,25,83,0
20200613,3603,1793,1738,72,122,-33,151,4
20200614,3720,1800,1846,74,117,7,108,2
20200615,3826,1826,1926,74,106,26,80,0
20200616,3941,1824,2041,76,115,-2,115,2
20200617,4066,1850,2137,79,125,26,96,3
20200618,4200,1883,2235,82,134,33,98,3
20200619,4329,1933,2310,86,129,50,75,4
20200620,4475,1933,2449,93,146,0,139,7
20200621,4626,1993,2535,98,151,60,86,5
20200622,4808,2046,2655,107,182,53,120,9
20200623,4973,2046,2814,113,165,0,159,6
20200624,5150,2107,2924,119,177,61,110,6
20200625,5336,2094,3116,126,186,-13,192,7
20200626,5517,2093,3291,133,181,-1,175,7
20200627,5727,2137,3447,143,210,44,156,10
20200628,5934,2225,3557,152,207,88,110,9
20200629,6173,2361,3648,164,239,136,91,12
20200630,6438,2494,3770,174,265,133,122,10
20200701,6736,2590,3964,182,298,96,194,8
20200702,7000,2694,4115,191,264,104,151,9
20200703,7267,2797,4268,202,267,103,153,11
20200704,7507,2863,4434,210,240,66,166,8
20200705,7777,2987,4573,217,270,124,139,7
20200706,8027,3074,4730,223,250,87,157,6
20200707,8307,3149,4929,229,280,75,199,6
20200708,8566,3198,5133,235,259,49,204,6
20200709,8844,3312,5289,243,278,114,156,8
20200710,9142,3465,5428,249,298,153,139,6
20200711,9391,3621,5516,254,249,156,88,5
20200712,9674,3780,5634,260,283,159,118,6
20200713,9978,3979,5732,267,304,199,98,7
20200714,10303,4106,5919,278,325,127,187,11
20200715,10645,4239,6120,286,342,133,201,8
20200716,10957,4402,6257,298,312,163,137,12
20200717,11207,4476,6422,309,250,74,165,11
20200718,11508,4624,6560,324,301,148,138,15
20200719,11846,4806,6705,335,338,182,145,11
20200720,12207,5032,6831,344,361,226,126,9
20200721,12582,5265,6965,352,375,233,134,8
20200722,12975,5493,7119,363,393,228,154,11
20200723,13377,5729,7276,372,402,236,157,9
20200724,13792,5998,7415,379,415,269,139,7
20200725,14221,6282,7549,390,429,284,134,11
20200726,14630,6582,7648,400,409,300,99,10
20200727,15035,6849,7778,408,405,267,130,8
20200728,15446,7126,7903,417,411,277,125,9
20200729,15841,7340,8071,430,395,214,168,13
20200730,16230,7585,8206,439,389,245,135,9
20200731,16632,7822,8362,448,402,237,156,9
20200801,17050,8096,8495,459,418,274,133,11
20200802,17448,8347,8634,467,398,251,139,8
20200803,17843,8557,8809,477,395,210,175,10
20200804,18262,8822,8954,486,419,265,145,9
20200805,18701,9092,9111,498,439,270,157,12
20200806,19126,9377,9236,513,425,285,125,15
20200807,19544,9645,9379,520,418,268,143,7
20200808,19978,9927,9515,536,434,282,136,16
20200809,20423,10248,9626,549,445,321,111,13
20200810,20872,10589,9720,563,449,341,94,14
20200811,21269,10824,9875,570,397,235,155,7
20200812,21644,11011,10056,577,375,187,181,7
20200813,21993,11155,10254,584,349,144,198,7
20200814,22314,11264,10455,595,321,109,201,11
20200815,22619,11398,10618,603,305,134,163,8
20200816,22912,11493,10807,612,293,95,189,9
20200817,23193,11598,10977,618,281,105,170,6
20200818,23462,11658,11179,625,269,60,202,7
20200819,23717,11696,11388,633,255,38,209,8
20200820,23964,11766,11558,640,247,70,170,7
20200821,24200,11773,11781,646,236,7,223,6
20200822,24420,11745,12021,654,220,-28,240,8
20200823,24622,11715,12246,661,202,-30,225,7
20200824,24811,11650,12492,669,189,-65,246,8
20200825,24986,11591,12717,678,175,-59,225,9
20200826,25140,11407,13046,687,154,-184,329,9
20200827,25284,11299,13291,694,144,-108,245,7
20200828,25415,11143,13570,702,131,-156,279,8
20200829,25537,11030,13799,708,122,-113,229,6
20200830,25635,10909,14013,713,98,-121,214,5
20200831,25729,10720,14292,717,94,-189,279,4
20200901,25820,10526,14570,724,91,-194,278,7
20200902,25904,10294,14879,731,84,-232,309,7
20200903,26000,10142,15119,739,96,-152,240,8
20200904,26099,10008,15347,744,99,-134,228,5
20200905,26206,9867,15587,752,107,-141,240,8
20200906,26308,9734,15815,759,102,-133,228,7
20200907,26413,9512,16137,764,105,-222,322,5
20200908,26511,9284,16462,765,98,-228,325,1
20200909,26602,9046,16786,770,91,-238,324,5
20200910,26688,8808,17106,774,86,-238,320,4
20200911,26773,8563,17433,777,85,-245,327,3
20200912,26851,8195,17874,782,78,-368,441,5
20200913,26928,7746,18397,785,77,-449,523,3
20200914,27009,7297,18924,788,81,-449,527,3
20200915,27088,6846,19450,792,79,-451,526,4
20200916,27163,6407,19960,796,75,-439,510,4
20200917,27249,6056,20392,801,86,-351,432,5
20200918,27346,5717,20825,804,97,-339,433,3
20200919,27428,5373,21247,808,82,-344,422,4
20200920,27553,5181,21561,811,125,-192,314,3
20200921,27798,5204,21782,812,245,23,221,1
20200922,27954,5027,22113,814,156,-177,331,2
20200923,28201,5022,22113,819,247,-5,0,5
20200924,28415,5052,22326,823,214,30,213,4
20200925,28630,4946,22643,826,215,-106,317,3
20200926,28722,4946,22643,826,92,0,0,0
20200927,28630,4925,22879,826,-92,-21,236,0
20200928,28809,4661,23317,831,179,-264,438,5
20200929,28981,4457,23685,839,172,-204,368,8
20200930,29077,4421,23813,843,96,-36,128,4
20201001,29175,4397,23930,848,98,-24,117,5
20201002,29269,4392,23930,853,94,-5,0,5
20201003,29358,4326,24175,857,89,-66,245,4
20201004,29450,4291,24296,863,92,-35,121,6
20201005,29539,4268,24406,865,89,-23,110,2
20201006,29634,4240,24525,869,95,-28,119,4
20201007,29737,4221,24643,873,103,-19,118,4
20201008,29842,4195,24770,877,105,-26,127,4
20201009,29951,4075,24995,881,109,-120,225,4
20201010,30070,4069,24995,887,119,-6,0,6
20201011,30196,3868,25438,890,126,-201,443,3
20201012,30335,3864,25438,894,139,-4,0,4
20201013,30480,3724,25857,899,145,-140,419,5
20201014,30766,3775,26087,904,286,51,230,5
20201015,31061,3842,26311,908,295,67,224,4
20201016,31265,3811,26542,912,204,-31,231,4
20201017,31456,3770,26769,917,191,-41,227,5
20201018,31666,3744,27000,922,210,-26,231,5
20201019,31826,3740,27000,926,160,-4,0,4
20201020,31975,3593,27453,929,149,-147,453,3
20201021,32120,3517,27670,933,145,-76,217,4
20201022,32262,3422,27904,936,142,-95,234,3
20201023,32421,3354,28127,940,159,-68,223,4
20201024,32585,3383,28258,944,164,29,131,4
20201025,32752,3378,28258,949,167,-5,0,5
20201026,32925,3390,28582,953,173,12,324,4
20201027,33090,3386,28582,957,165,-4,0,4
20201028,33264,3381,28582,962,174,-5,0,5
20201029,33445,3292,29186,967,181,-89,604,5
20201030,33631,3288,29186,971,186,-4,0,4
20201031,33826,3284,29186,975,195,-4,0,4
20201101,34015,3248,29788,979,189,-36,602,4
20201102,34214,3244,29788,983,199,-4,0,4
20201103,34404,3240,29788,987,190,-4,0,4
20201104,34577,3235,29788,992,173,-5,0,5
20201105,34782,3078,30707,997,205,-157,919,5
20201106,34966,3023,30941,1002,184,-55,234,5
20201107,35145,2967,31172,1006,179,-56,231,4
20201108,35326,2963,31172,1010,181,-4,0,4
20201109,35509,2959,31172,1014,183,-4,0,4
20201110,35684,2953,31172,1020,175,-6,0,6
20201111,35862,2949,31172,1024,178,-4,0,4
20201112,36030,2756,32246,1028,168,-193,1074,4
20201113,36195,2675,32487,1033,165,-81,241,5
20201114,36358,2598,32721,1039,163,-77,234,6
20201115,36516,2593,32721,1044,158,-5,0,5
20201116,36669,2558,33064,1047,153,-35,343,3
20201117,36819,2553,33064,1052,150,-5,0,5
20201118,36965,2392,33517,1056,146,-161,453,4
20201119,37109,2291,33757,1061,144,-101,240,5
20201120,37250,2202,33984,1064,141,-89,227,3
20201121,37404,2196,33984,1070,154,-6,0,6
20201122,37562,2190,34297,1075,158,-6,313,5
20201123,37719,2184,34297,1081,157,-6,0,6
20201124,37884,2203,34595,1086,165,19,298,5
20201125,38058,2203,34595,1086,174,0,0,0
20201126,38228,2191,34595,1098,170,-12,0,12
20201127,38405,2225,35078,1102,177,34,483,4
20201128,38586,2220,35078,1107,181,-5,0,5
20201129,38758,2216,35078,1111,172,-4,0,4
20201130,38941,2213,35078,1114,183,-3,0,3
20201201,39130,2171,35839,1120,189,-42,761,6
20201202,39327,2162,35839,1129,197,-9,0,9
20201203,39515,2157,35839,1134,188,-5,0,5
20201204,39718,2290,36286,1142,203,133,447,8
20201205,39930,2279,36286,1153,212,-11,0,11
20201206,40131,2447,36525,1159,201,168,239,6
20201207,40345,2446,36735,1164,214,-1,210,5
20201208,40551,2432,36951,1168,206,-14,216,4
20201209,40741,2395,37172,1174,190,-37,221,6
20201210,40946,2389,37172,1180,205,-6,0,6
20201211,41163,2383,37172,1186,217,-6,0,6
20201212,41394,2534,37667,1193,231,151,495,7
20201213,41631,2527,37667,1200,237,-7,0,7
20201214,41880,2588,38087,1205,249,61,420,5
20201215,42132,2660,38260,1212,252,72,173,7
20201216,42397,2697,38481,1219,265,37,221,7
20201217,42641,2689,38481,1227,244,-8,0,8
20201218,42914,2682,38481,1234,273,-7,0,7
20201219,43195,2937,39016,1242,281,255,535,8
20201220,43477,3085,39142,1250,282,148,126,8
20201221,43772,3153,39362,1257,295,68,220,7
20201222,44058,3145,39362,1265,286,-8,0,8
20201223,44328,3136,39362,1274,270,-9,0,9
20201224,44619,3347,39989,1283,291,211,627,9
20201225,44892,3341,39989,1289,273,-6,0,6
20201226,44892,3333,39989,1297,0,-8,0,8
20201227,45157,3325,39989,1305,265,-8,0,8
20201228,45415,3440,40662,1313,258,115,673,8
20201229,45684,3440,40662,1313,269,0,0,0
20201230,45960,3521,45960,1327,276,81,5298,14
20201231,46242,3512,45960,1327,282,-9,0,0
20210101,46515,3505,45960,1327,273,-7,0,0
20210102,46803,3553,45960,1327,288,48,0,0
20210103,46803,3658,41787,1358,0,105,-4173,31
20210104,47087,3719,42004,1364,284,61,217,6
20210105,47355,3757,42225,1373,268,38,221,9
20210106,47645,3748,42225,1382,290,-9,0,9
20210107,47948,3890,42668,1390,303,142,443,8
20210108,48255,3955,42902,1398,307,65,234,8
20210109,48574,4032,43134,1408,319,77,232,10
20210110,48905,4130,43356,1419,331,98,222,11
20210111,49224,4121,43356,1428,319,-9,0,9
20210112,49539,4292,43810,1437,315,171,454,9
20210113,49859,4282,43810,1447,320,-10,0,10
20210114,50157,4394,44304,1459,298,112,494,12
20210115,50467,4384,44304,1469,310,-10,0,10
20210116,50784,4528,44777,1479,317,144,473,10
20210117,51107,4520,44777,1487,323,-8,0,8
20210118,51437,4716,45223,1498,330,196,446,11
20210119,51772,4705,45223,1509,335,-11,0,11
20210120,52094,4693,45223,1521,322,-12,0,12
20210121,52388,4845,46013,1530,294,152,790,9
20210122,52672,4762,46370,1540,284,-83,357,10
20210123,52949,4751,46370,1551,277,-11,0,11
20210124,53218,4812,46845,1561,269,61,475,10
20210125,53479,4834,47073,1572,261,22,228,11
20210126,53738,4823,47073,1583,259,-11,0,11
20210127,53989,4757,47643,1589,251,-66,570,6
20210128,54241,4747,47643,1599,252,-10,0,10
20210129,54488,4742,47643,1604,247,-5,0,5
20210130,54723,4732,47643,1614,235,-10,0,10
20210131,54966,4632,48711,1623,243,-100,1068,9
20210201,55195,4526,49037,1632,229,-106,326,9
20210202,55416,4520,49037,1638,221,-6,0,6
20210203,55623,4379,49598,1646,207,-141,561,8
20210204,55821,4224,49944,1653,198,-155,346,7
20210205,56025,4174,50189,1662,204,-50,245,9
20210206,56237,4133,50431,1673,212,-41,242,11
20210207,56442,4125,50431,1681,205,-8,0,8
20210208,56653,3962,50999,1692,211,-163,568,11
20210209,56859,3953,50999,1701,206,-9,0,9
20210210,57046,3945,50999,1709,187,-8,0,8
20210211,57229,3935,50999,1719,183,-10,0,10
20210212,57428,3718,51983,1727,199,-217,984,8
20210213,57638,3711,51983,1734,210,-7,0,7
20210214,57839,3703,51983,1742,201,-8,0,8
20210215,58023,3585,52688,1750,184,-118,705,8
20210216,58200,3577,52688,1758,177,-8,0,8
20210217,58374,3568,52688,1767,174,-9,0,9
20210218,58546,3385,53385,1776,172,-183,697,9
20210219,58728,3376,53385,1785,182,-9,0,9
20210220,58903,3369,53385,1792,175,-7,0,7
20210221,59071,3362,53385,1799,168,-7,0,7
20210222,59235,3104,54324,1807,164,-258,939,8
20210223,59396,3096,54324,1815,161,-8,0,8
20210224,59555,3088,54324,1823,159,-8,0,8
20210225,59712,3079,54324,1832,157,-9,0,9
20210226,59866,2713,55312,1841,154,-366,988,9
20210227,60021,2707,55312,1847,155,-6,0,6
20210228,60181,2700,55312,1854,160,-7,0,7
20210301,60337,2693,55312,1861,156,-7,0,7
20210302,60491,2283,56339,1869,154,-410,1027,8
20210303,60640,2274,56339,1878,149,-9,0,9
20210304,60800,2106,56807,1887,160,-168,468,9
20210305,60952,2099,56807,1894,152,-7,0,7
20210306,61101,2099,56807,1894,149,0,0,0
20210307,61251,2086,56807,1907,150,-13,0,13
20210308,61398,2078,56807,1915,147,-8,0,8
20210309,61539,1658,57958,1923,141,-420,1151,8
20210310,61677,1540,58208,1929,138,-118,250,6
20210311,61814,1439,58440,1935,137,-101,232,6
20210312,61947,1341,58666,1940,133,-98,226,5
20210313,62086,1246,58895,1945,139,-95,229,5
20210314,62229,1241,58895,1950,143,-5,0,5
20210315,62377,1084,59339,1954,148,-157,444,4
20210316,62531,997,59576,1958,154,-87,237,4
20210317,62691,993,59576,1962,160,-4,0,4
20210318,62853,993,59576,1962,162,0,0,0
20210319,63017,984,59576,1971,164,-9,0,9
20210320,63188,980,59576,1975,171,-4,0,4
20210321,63344,684,60681,1979,156,-296,1105,4
20210322,63490,680,60681,1983,146,-4,0,4
20210323,63631,677,60681,1986,141,-3,0,3
20210324,63766,767,61009,1990,135,90,328,4
20210325,63900,767,61009,1990,134,0,0,0
20210326,64039,761,61009,1996,139,-6,0,6
20210327,64168,759,61009,1998,129,-2,0,2
20210328,64298,757,61009,2000,130,-2,0,2
20210329,64431,788,61640,2003,133,31,631,3
20210330,64573,785,61640,2006,142,-3,0,3
20210331,64726,785,61640,2006,153,0,0,0
20210401,64875,785,61640,2006,149,0,0,0
20210402,65030,774,61640,2017,155,-11,0,11
20210403,65180,770,61640,2021,150,-4,0,4
20210404,65337,766,61640,2025,157,-4,0,4
20210405,65491,1121,62340,2030,154,355,700,5
20210406,65491,1121,62340,2030,0,0,0,0
20210407,65491,1114,62340,2037,0,-7,0,7
20210408,65491,1111,62340,2040,0,-3,0,3
20210409,65491,1107,62340,2044,0,-4,0,4
20210410,65491,1103,62340,2048,0,-4,0,4
20210411,66489,1480,62958,2051,998,377,618,3
20210412,66489,1477,62958,2054,0,-3,0,3
20210413,66816,1563,63196,2057,327,86,238,3
20210414,66956,1551,63345,2060,140,-12,149,3
20210415,67099,1564,63471,2064,143,13,126,4
20210416,67249,1621,63560,2068,150,57,89,4
20210417,67404,1647,63685,2072,155,26,125,4
20210418,67557,1695,63787,2075,153,48,102,3
20210419,67557,1692,63787,2078,0,-3,0,3
20210420,67851,1787,63982,2082,294,95,195,4
20210421,68007,1847,64074,2086,156,60,92,4
20210422,68161,1864,64208,2089,154,17,134,3
20210423,68318,1885,64340,2093,157,21,132,4
20210424,68468,1965,64405,2098,150,80,65,5
20210425,68468,1960,64405,2103,0,-5,0,5
20210426,68468,1957,64405,2106,0,-3,0,3
20210427,68922,2144,64667,2111,454,187,262,5
20210428,68922,2138,64667,2117,0,-6,0,6
20210429,69198,2202,64876,2120,276,64,209,3
20210430,69198,2198,64876,2124,0,-4,0,4
20210501,69198,2198,64876,2124,0,0,0,0
20210502,69198,2190,64876,2132,0,-8,0,8
20210503,69727,2329,65264,2134,529,139,388,2
20210504,69727,2326,65264,2137,0,-3,0,3
20210505,69997,2325,65531,2141,270,-1,267,4
20210506,69997,2323,65531,2143,0,-2,0,2
20210507,70255,2331,65778,2146,258,8,247,3
20210508,70255,2327,65778,2150,0,-4,0,4
20210509,70380,2305,65921,2154,125,-22,143,4
20210510,70380,2301,65921,2158,0,-4,0,4
20210511,70380,2295,65921,2164,0,-6,0,6
20210512,70915,2329,66418,2168,535,34,497,4
20210513,70915,2324,66418,2173,0,-5,0,5
20210514,70915,2319,66418,2178,0,-5,0,5
20210515,71330,2372,66776,2182,415,53,358,4
20210516,71479,2389,66903,2187,149,17,127,5
20210517,71479,2385,66903,2191,0,-4,0,4
20210518,71479,2381,66903,2195,0,-4,0,4
20210519,71479,2377,66903,2199,0,-4,0,4
20210520,71479,2374,66903,2202,0,-3,0,3
20210521,72220,2504,67510,2206,741,130,607,4
20210522,72220,2499,67510,2211,0,-5,0,5
20210523,72220,2494,67510,2216,0,-5,0,5
20210524,72220,2490,67510,2220,0,-4,0,4
20210525,72821,2579,68018,2224,601,89,508,4
20210526,72821,2574,68018,2229,0,-5,0,5
20210527,72821,2570,68018,2233,0,-4,0,4
20210528,73246,2601,68408,2237,425,31,390,4
20210529,73246,2597,68408,2241,0,-4,0,4
20210530,73246,2593,68408,2245,0,-4,0,4
20210531,73702,2650,68803,2249,456,57,395,4
20210601,73702,2647,68803,2252,0,-3,0,3
20210602,73702,2644,68803,2255,0,-3,0,3
20210603,74141,2666,69215,2260,439,22,412,5
20210604,74141,2666,69215,2260,0,0,0,0
20210605,74141,2660,69215,2266,0,-6,0,6
20210606,74141,2656,69215,2270,0,-4,0,4
20210607,74141,2652,69215,2274,0,-4,0,4
20210608,74983,2837,69867,2279,842,185,652,5
20210609,74983,2837,69867,2279,0,0,0,0
20210610,75351,2917,70150,2284,368,80,283,5
20210611,75351,2913,70150,2288,0,-4,0,4
20210612,75351,2909,70150,2292,0,-4,0,4
20210613,75351,2906,70150,2295,0,-3,0,3
20210614,75351,2902,70150,2299,0,-4,0,4
20210615,76297,3201,70791,2305,946,299,641,6
20210616,76495,3254,70931,2310,198,53,140,5
20210617,76495,3249,70931,2315,0,-5,0,5
20210618,76697,3314,71062,2321,202,65,131,6
20210619,76697,3308,71062,2327,0,-6,0,6
20210620,77100,3421,71347,2332,403,113,285,5
20210621,77484,3545,71603,2336,384,124,256,4
20210622,77484,3540,71603,2341,0,-5,0,5
20210623,77484,3535,71603,2346,0,-5,0,5
20210624,77484,3530,71603,2351,0,-5,0,5
20210625,77484,3525,71603,2356,0,-5,0,5
20210626,77484,3520,71603,2361,0,-5,0,5
20210627,78572,3767,72438,2367,1088,247,835,6
20210628,78766,3823,72572,2371,194,56,134,4
20210629,78766,3818,72572,2376,0,-5,0,5
20210630,78766,3813,72572,2381,0,-5,0,5
20210701,78766,3807,72572,2387,0,-6,0,6
20210702,78766,3801,72572,2393,0,-6,0,6
20210703,79790,4100,73293,2397,1024,299,721,4
20210704,79790,4094,73293,2403,0,-6,0,6
20210705,80235,4236,73590,2409,445,142,297,6
20210706,80235,4231,73590,2414,0,-5,0,5
20210707,80235,4225,73590,2420,0,-6,0,6
20210708,80932,4543,73961,2428,697,318,371,8
20210709,80932,4538,73961,2433,0,-5,0,5
20210710,80932,4532,73961,2439,0,-6,0,6
20210711,81644,4811,74388,2445,712,279,427,6
20210712,81644,4805,74388,2451,0,-6,0,6
20210713,82130,4965,74708,2457,486,160,320,6
20210714,82363,5048,74851,2464,233,83,143,7
20210715,82605,5140,74995,2470,242,92,144,6
20210716,82852,5239,75136,2477,247,99,141,7
20210717,82852,5232,75136,2484,0,-7,0,7
20210718,82852,5224,75136,2492,0,-8,0,8
20210719,82852,5217,75136,2499,0,-7,0,7
20210720,82852,5208,75136,2508,0,-9,0,9
20210721,84144,6017,75608,2519,1292,809,472,11
20210722,84144,6007,75608,2529,0,-10,0,10
20210723,84691,5998,75724,2538,547,-9,116,9
20210724,84691,6420,75724,2547,0,422,0,9
20210725,84691,6409,75724,2558,0,-11,0,11
20210726,84691,6400,75724,2567,0,-9,0,9
20210727,85779,7245,75957,2577,1088,845,233,10
20210728,86059,7416,76056,2587,280,171,99,10
20210729,86059,7404,76056,2599,0,-12,0,12
20210730,86620,7742,76265,2613,561,338,209,14
20210731,86620,7726,76265,2629,0,-16,0,16
20210801,86620,7714,76265,2641,0,-12,0,12
20210802,87498,8177,76670,2651,878,463,405,10
20210803,87498,8165,76670,2663,0,-12,0,12
20210804,87498,8156,76670,2672,0,-9,0,9
20210805,88371,0,0,2681,873,-8156,-76670,9
20210806,88371,0,0,2691,0,0,0,10
20210807,88371,0,0,2703,0,0,0,12
20210808,88371,0,0,2717,0,0,0,14
20210809,88371,0,0,2730,0,0,0,13
20210810,88371,0,0,2742,0,0,0,12
20210811,90129,0,0,2749,1758,0,0,7
20210812,90129,0,0,2759,0,0,0,10
20210813,90129,0,0,2769,0,0,0,10
20210814,90129,0,0,2781,0,0,0,12
20210815,90129,0,0,2789,0,0,0,8
20210816,90129,0,0,2794,0,0,0,5
20210817,90129,0,0,2804,0,0,0,10
20210818,92135,0,0,2812,2006,0,0,8
20210819,92416,0,0,2817,281,0,0,5
20210820,92686,0,0,2824,270,0,0,7
20210821,92686,0,0,2831,0,0,0,7
20210822,92686,0,0,2840,0,0,0,9
20210823,92686,0,0,2846,0,0,0,6
20210824,92686,0,0,2855,0,0,0,9
20210825,94060,0,0,2863,1374,0,0,8
20210826,94060,0,0,2872,0,0,0,9
20210827,94060,0,0,2880,0,0,0,8
20210828,94060,0,0,2890,0,0,0,10
20210829,94060,0,0,2898,0,0,0,8
20210830,94060,0,0,2909,0,0,0,11
20210831,94060,0,0,2918,0,0,0,9
20210901,96067,0,0,2926,2007,0,0,8
20210902,96067,0,0,2934,0,0,0,8
20210903,96067,0,0,2944,0,0,0,10
20210904,96067,0,0,2952,0,0,0,8
