date,infected,active,recovered,dead,deltaInfected,deltaActive,deltaRecovered,deltaDead
20200319,1,1,0,0,1,1,0,0
20200320,1,1,0,0,0,0,0,0
20200321,1,1,0,0,0,0,0,0
20200322,1,1,0,0,0,0,0,0
20200323,1,1,0,0,0,0,0,0
20200324,3,3,0,0,2,2,0,0
20200325,3,3,0,0,0,0,0,0
20200326,3,3,0,0,0,0,0,0
20200327,3,3,0,0,0,0,0,0
20200328,3,3,0,0,0,0,0,0
20200329,3,3,0,0,0,0,0,0
20200330,5,5,0,0,2,2,0,0
20200331,7,7,0,0,2,2,0,0
20200401,7,7,0,0,0,0,0,0
20200402,8,8,0,0,1,1,0,0
20200403,8,8,0,0,0,0,0,0
20200404,9,9,0,0,1,1,0,0
20200405,9,9,0,0,0,0,0,0
20200406,9,9,0,0,0,0,0,0
20200407,10,8,2,0,1,-1,2,0
20200408,10,8,2,0,0,0,0,0
20200409,11,9,2,0,1,1,0,0
20200410,11,9,2,0,0,0,0,0
20200411,11,9,2,0,0,0,0,0
20200412,18,16,2,0,7,7,0,0
20200413,23,21,2,0,5,5,0,0
20200414,23,21,2,0,0,0,0,0
20200415,23,21,2,0,0,0,0,0
20200416,27,22,5,0,4,1,3,0
20200417,27,22,5,0,0,0,0,0
20200418,33,25,8,0,6,3,3,0
20200419,33,25,8,0,0,0,0,0
20200420,33,25,8,0,0,0,0,0
20200421,33,25,8,0,0,0,0,0
20200422,33,25,8,0,0,0,0,0
20200423,33,25,8,0,0,0,0,0
20200424,40,32,8,0,7,7,0,0
20200425,46,31,15,0,6,-1,7,0
20200426,46,31,15,0,0,0,0,0
20200427,46,31,15,0,0,0,0,0
20200428,52,31,19,2,6,0,4,2
20200429,52,31,19,2,0,0,0,0
20200430,73,35,33,5,21,4,14,3
20200501,73,35,33,5,0,0,0,0
20200502,117,68,39,10,44,33,6,5
20200503,117,68,39,10,0,0,0,0
20200504,117,68,39,10,0,0,0,0
20200505,170,110,43,17,53,42,4,7
20200506,170,110,43,17,0,0,0,0
20200507,253,176,50,27,83,66,7,10
20200508,260,182,50,28,7,6,0,1
20200509,322,238,53,31,62,56,3,3
20200510,322,238,53,31,0,0,0,0
20200511,322,238,53,31,0,0,0,0
20200512,357,241,76,40,35,3,23,9
20200513,372,252,78,42,15,11,2,2
20200514,399,270,83,46,27,18,5,4
20200515,428,292,88,48,29,22,5,2
20200516,474,313,111,50,46,21,23,2
20200517,503,333,117,53,29,20,6,3
20200518,519,349,117,53,16,16,0,0
20200519,545,350,139,56,26,1,22,3
20200520,565,331,177,57,20,-19,38,1
20200521,588,344,186,58,23,13,9,1
20200522,611,357,196,58,23,13,10,0
20200523,648,384,204,60,37,27,8,2
20200524,675,400,215,60,27,16,11,0
20200525,687,382,244,61,12,-18,29,1
20200526,700,335,303,62,13,-47,59,1
20200527,715,292,359,64,15,-43,56,2
20200528,726,248,413,65,11,-44,54,1
20200529,759,250,444,65,33,2,31,0
20200530,759,224,470,65,0,-26,26,0
20200531,778,222,491,65,19,-2,21,0
20200601,790,185,539,66,12,-37,48,1
20200602,803,175,562,66,13,-10,23,0
20200603,820,164,590,66,17,-11,28,0
20200604,828,129,633,66,8,-35,43,0
20200605,836,111,657,68,8,-18,24,2
20200606,836,95,672,69,0,-16,15,1
20200607,837,96,672,69,1,1,0,0
20200608,839,84,685,70,2,-12,13,1
20200609,844,67,706,71,5,-17,21,1
20200610,846,68,706,72,2,1,0,1
20200611,848,70,706,72,2,2,0,0
20200612,848,65,711,72,0,-5,5,0
20200613,848,58,718,72,0,-7,7,0
20200614,850,57,720,73,2,-1,2,1
20200615,850,57,720,73,0,0,0,0
20200616,853,59,720,74,3,2,0,1
20200617,854,59,721,74,1,0,1,0
20200618,854,47,733,74,0,-12,12,0
20200619,858,42,742,74,4,-5,9,0
20200620,858,38,746,74,0,-4,4,0
20200621,858,32,752,74,0,-6,6,0
20200622,858,29,755,74,0,-3,3,0
20200623,860,29,757,74,2,0,2,0
20200624,860,16,770,74,0,-13,13,0
20200625,863,15,774,74,3,-1,4,0
20200626,865,13,778,74,2,-2,4,0
20200627,865,13,778,74,0,0,0,0
20200628,866,12,780,74,1,-1,2,0
20200629,866,11,781,74,0,-1,1,0
20200630,866,11,781,74,0,0,0,0
20200701,866,7,785,74,0,-4,4,0
20200702,868,9,785,74,2,2,0,0
20200703,871,11,786,74,3,2,1,0
20200704,871,10,787,74,0,-1,1,0
20200705,872,11,787,74,1,1,0,0
20200706,872,11,787,74,0,0,0,0
20200707,873,11,788,74,1,0,1,0
20200708,873,11,788,74,0,0,0,0
20200709,873,11,788,74,0,0,0,0
20200710,874,11,789,74,1,0,1,0
20200711,874,10,790,74,0,-1,1,0
20200712,880,15,790,75,6,5,0,1
20200713,880,13,792,75,0,-2,2,0
20200714,884,11,798,75,4,-2,6,0
20200715,885,11,799,75,1,0,1,0
20200716,886,12,799,75,1,1,0,0
20200717,887,12,800,75,1,0,1,0
20200718,889,14,800,75,2,2,0,0
20200719,889,13,801,75,0,-1,1,0
20200720,889,13,801,75,0,0,0,0
20200721,889,11,803,75,0,-2,2,0
20200722,889,9,805,75,0,-2,2,0
20200723,915,35,805,75,26,26,0,0
20200724,915,35,805,75,0,0,0,0
20200725,915,30,810,75,0,-5,5,0
20200726,915,30,810,75,0,0,0,0
20200727,922,37,810,75,7,7,0,0
20200728,926,41,810,75,4,4,0,0
20200729,926,38,813,75,0,-3,3,0
20200730,935,47,813,75,9,9,0,0
20200731,936,48,813,75,1,1,0,0
20200801,936,48,813,75,0,0,0,0
20200802,936,48,813,75,0,0,0,0
20200803,936,47,814,75,0,-1,1,0
20200804,938,49,814,75,2,2,0,0
20200805,939,29,835,75,1,-20,21,0
20200806,942,28,838,76,3,-1,3,1
20200807,942,28,838,76,0,0,0,0
20200808,942,27,839,76,0,-1,1,0
20200809,944,29,839,76,2,2,0,0
20200810,945,26,843,76,1,-3,4,0
20200811,946,11,859,76,1,-15,16,0
20200812,949,14,859,76,3,3,0,0
20200813,949,13,860,76,0,-1,1,0
20200814,951,13,862,76,2,0,2,0
20200815,952,12,864,76,1,-1,2,0
20200816,956,15,865,76,4,3,1,0
20200817,959,18,865,76,3,3,0,0
20200818,970,29,865,76,11,11,0,0
20200819,971,27,868,76,1,-2,3,0
20200820,972,27,869,76,1,0,1,0
20200821,981,36,869,76,9,9,0,0
20200822,982,37,869,76,1,1,0,0
20200823,986,40,870,76,4,3,1,0
20200824,987,41,870,76,1,1,0,0
20200825,995,47,871,77,8,6,1,1
20200826,998,48,873,77,3,1,2,0
20200827,1004,52,875,77,6,4,2,0
20200828,1008,53,878,77,4,1,3,0
20200829,1008,53,878,77,0,0,0,0
20200830,1012,57,878,77,4,4,0,0
20200831,1013,56,880,77,1,-1,2,0
20200901,1017,56,884,77,4,0,4,0
20200902,1017,36,904,77,0,-20,20,0
20200903,1018,33,908,77,1,-3,4,0
20200904,1023,32,914,77,5,-1,6,0
20200905,1034,43,914,77,11,11,0,0
20200906,1039,42,918,79,5,-1,4,2
20200907,1040,42,919,79,1,0,1,0
20200908,1045,39,927,79,5,-3,8,0
20200909,1048,38,931,79,3,-1,4,0
20200910,1051,40,932,79,3,2,1,0
20200911,1081,68,934,79,30,28,2,0
20200912,1083,65,938,80,2,-3,4,1
20200913,1084,66,938,80,1,1,0,0
20200914,1085,64,940,81,1,-2,2,1
20200915,1087,62,944,81,2,-2,4,0
20200916,1090,49,960,81,3,-13,16,0
20200917,1115,72,962,81,25,23,2,0
20200918,1147,100,966,81,32,28,4,0
20200919,1149,102,966,81,2,2,0,0
20200920,1151,103,967,81,2,1,1,0
20200921,1153,105,967,81,2,2,0,0
20200922,1155,107,967,81,2,2,0,0
20200923,1164,85,997,82,9,-22,30,1
20200924,1171,86,1003,82,7,1,6,0
20200925,1175,88,1004,83,4,2,1,1
20200926,1177,89,1005,83,2,1,1,0
20200927,1178,89,1005,84,1,0,0,1
20200928,1185,94,1006,85,7,5,1,1
20200929,1193,101,1007,85,8,7,1,0
20200930,1200,108,1007,85,7,7,0,0
20201001,1203,51,1067,85,3,-57,60,0
20201002,1211,56,1070,85,8,5,3,0
20201003,1214,54,1075,85,3,-2,5,0
20201004,1217,56,1075,86,3,2,0,1
20201005,1223,62,1075,86,6,6,0,0
20201006,1238,73,1077,88,15,11,2,2
20201007,1251,72,1090,89,13,-1,13,1
20201008,1262,75,1098,89,11,3,8,0
20201009,1274,82,1102,90,12,7,4,1
20201010,1291,96,1103,92,17,14,1,2
20201011,1304,97,1115,92,13,1,12,0
20201012,1308,99,1117,92,4,2,2,0
20201013,1321,109,1120,92,13,10,3,0
20201014,1329,117,1120,92,8,8,0,0
20201015,1350,138,1120,92,21,21,0,0
20201016,1361,130,1138,93,11,-8,18,1
20201017,1365,93,1179,93,4,-37,41,0
20201018,1379,105,1181,93,14,12,2,0
20201019,1390,103,1194,93,11,-2,13,0
20201020,1399,107,1199,93,9,4,5,0
20201021,1404,87,1221,96,5,-20,22,3
20201022,1410,91,1223,96,6,4,2,0
20201023,1423,93,1234,96,13,2,11,0
20201024,1434,84,1254,96,11,-9,20,0
20201025,1437,73,1268,96,3,-11,14,0
20201026,1441,68,1277,96,4,-5,9,0
20201027,1460,74,1290,96,19,6,13,0
20201028,1468,65,1306,97,8,-9,16,1
20201029,1473,69,1307,97,5,4,1,0
20201030,1483,71,1314,98,10,2,7,1
20201031,1483,71,1314,98,0,0,0,0
20201101,1498,76,1324,98,15,5,10,0
20201102,1499,72,1329,98,1,-4,5,0
20201103,1513,84,1331,98,14,12,2,0
20201104,1517,67,1351,99,4,-17,20,1
20201105,1529,76,1354,99,12,9,3,0
20201106,1538,77,1362,99,9,1,8,0
20201107,1543,79,1365,99,5,2,3,0
20201108,1547,66,1382,99,4,-13,17,0
20201109,1551,58,1394,99,4,-8,12,0
20201110,1561,49,1413,99,10,-9,19,0
20201111,1565,46,1420,99,4,-3,7,0
20201112,1578,50,1428,100,13,4,8,1
20201113,1589,54,1435,100,11,4,7,0
20201114,1591,52,1439,100,2,-2,4,0
20201115,1597,53,1443,101,6,1,4,1
20201116,1603,54,1448,101,6,1,5,0
20201117,1608,57,1450,101,5,3,2,0
20201118,1616,58,1457,101,8,1,7,0
20201119,1620,56,1463,101,4,-2,6,0
20201120,1626,60,1465,101,6,4,2,0
20201121,1633,63,1469,101,7,3,4,0
20201122,1642,72,1469,101,9,9,0,0
20201123,1648,71,1476,101,6,-1,7,0
20201124,1649,55,1493,101,1,-16,17,0
20201125,1655,60,1494,101,6,5,1,0
20201126,1661,64,1496,101,6,4,2,0
20201127,1663,63,1499,101,2,-1,3,0
20201128,1663,58,1504,101,0,-5,5,0
20201129,1682,66,1515,101,19,8,11,0
20201130,1688,62,1525,101,6,-4,10,0
20201201,1700,66,1532,102,12,4,7,1
20201202,1705,64,1539,102,5,-2,7,0
20201203,1708,67,1539,102,3,3,0,0
20201204,1719,62,1555,102,11,-5,16,0
20201205,1722,59,1561,102,3,-3,6,0
20201206,1725,59,1564,102,3,0,3,0
20201207,1728,55,1571,102,3,-4,7,0
20201208,1729,54,1573,102,1,-1,2,0
20201209,1732,49,1581,102,3,-5,8,0
20201210,1739,50,1587,102,7,1,6,0
20201211,1745,48,1595,102,6,-2,8,0
20201212,1751,46,1603,102,6,-2,8,0
20201213,1770,61,1607,102,19,15,4,0
20201214,1771,61,1608,102,1,0,1,0
20201215,1784,71,1611,102,13,10,3,0
20201216,1800,78,1620,102,16,7,9,0
20201217,1818,90,1626,102,18,12,6,0
20201218,1839,107,1630,102,21,17,4,0
20201219,1867,133,1632,102,28,26,2,0
20201220,1890,156,1632,102,23,23,0,0
20201221,1902,167,1633,102,12,11,1,0
20201222,1916,180,1634,102,14,13,1,0
20201223,1938,198,1638,102,22,18,4,0
20201224,1958,205,1651,102,20,7,13,0
20201225,1971,215,1654,102,13,10,3,0
20201226,1986,229,1654,103,15,14,0,1
20201227,2005,239,1662,104,19,10,8,1
20201228,2015,225,1686,104,10,-14,24,0
20201229,2048,258,1686,104,33,33,0,0
20201230,2077,270,1703,104,29,12,17,0
20201231,2113,305,1704,104,36,35,1,0
20210101,2141,333,1704,104,28,28,0,0
20210102,2169,355,1710,104,28,22,6,0
20210103,2213,389,1720,104,44,34,10,0
20210104,2229,401,1724,104,16,12,4,0
20210105,2289,308,1876,105,60,-93,152,1
20210106,2328,335,1888,105,39,27,12,0
20210107,2358,335,1918,105,30,0,30,0
20210108,2419,375,1938,106,61,40,20,1
20210109,2510,441,1962,107,91,66,24,1
20210110,2537,465,1965,107,27,24,3,0
20210111,2589,488,1994,107,52,23,29,0
20210112,2668,544,2016,108,79,56,22,1
20210113,2709,567,2033,109,41,23,17,1
20210114,2773,590,2073,110,64,23,40,1
20210115,2807,616,2080,111,34,26,7,1
20210116,2855,637,2107,111,48,21,27,0
20210117,2895,654,2130,111,40,17,23,0
20210118,2919,658,2148,113,24,4,18,2
20210119,2977,693,2170,114,58,35,22,1
20210120,3012,720,2178,114,35,27,8,0
20210121,3065,758,2193,114,53,38,15,0
20210122,3104,767,2222,115,39,9,29,1
20210123,3137,782,2240,115,33,15,18,0
20210124,3161,790,2255,116,24,8,15,1
20210125,3182,806,2260,116,21,16,5,0
20210126,3225,793,2316,116,43,-13,56,0
20210127,3269,817,2335,117,44,24,19,1
20210128,3296,814,2364,118,27,-3,29,1
20210129,3321,829,2374,118,25,15,10,0
20210130,3347,787,2442,118,26,-42,68,0
20210131,3376,794,2464,118,29,7,22,0
20210201,3385,794,2470,121,9,0,6,3
20210202,3404,776,2507,121,19,-18,37,0
20210203,3419,754,2544,121,15,-22,37,0
20210204,3433,744,2568,121,14,-10,24,0
20210205,3450,516,2810,124,17,-228,242,3
20210206,3473,499,2849,125,23,-17,39,1
20210207,3497,477,2895,125,24,-22,46,0
20210208,3508,470,2913,125,11,-7,18,0
20210209,3539,370,3044,125,31,-100,131,0
20210210,3568,380,3062,126,29,10,18,1
20210211,3581,367,3088,126,13,-13,26,0
20210212,3597,338,3131,128,16,-29,43,2
20210213,3622,336,3158,128,25,-2,27,0
20210214,3645,341,3175,129,23,5,17,1
20210215,3664,351,3182,131,19,10,7,2
20210216,3689,349,3209,131,25,-2,27,0
20210217,3724,369,3223,132,35,20,14,1
20210218,3751,386,3233,132,27,17,10,0
20210219,3776,398,3246,132,25,12,13,0
20210220,3794,402,3259,133,18,4,13,1
20210221,3849,400,3315,134,55,-2,56,1
20210222,3868,397,3336,135,19,-3,21,1
20210223,3882,378,3368,136,14,-19,32,1
20210224,3904,370,3398,136,22,-8,30,0
20210225,3934,377,3420,137,30,7,22,1
20210226,3957,369,3450,138,23,-8,30,1
20210227,3973,358,3475,140,16,-11,25,2
20210228,3973,358,3475,140,0,0,0,0
20210301,3986,366,3480,140,13,8,5,0
20210302,3999,375,3484,140,13,9,4,0
20210303,4056,374,3542,140,57,-1,58,0
20210304,4089,377,3572,140,33,3,30,0
20210305,4089,377,3572,140,0,0,0,0
20210306,4161,414,3607,140,72,37,35,0
20210307,4177,369,3668,140,16,-45,61,0
20210308,4193,357,3690,146,16,-12,22,6
20210309,4214,342,3724,148,21,-15,34,2
20210310,4231,353,3729,149,17,11,5,1
20210311,4246,335,3760,151,15,-18,31,2
20210312,4274,351,3771,152,28,16,11,1
20210313,4288,354,3781,153,14,3,10,1
20210314,4309,368,3787,154,21,14,6,1
20210315,4328,370,3803,155,19,2,16,1
20210316,4344,371,3818,155,16,1,15,0
20210317,4357,365,3836,156,13,-6,18,1
20210318,4380,359,3864,157,23,-6,28,1
20210319,4395,350,3888,157,15,-9,24,0
20210320,4410,308,3945,157,15,-42,57,0
20210321,4420,246,4017,157,10,-62,72,0
20210322,4427,225,4045,157,7,-21,28,0
20210323,4440,223,4059,158,13,-2,14,1
20210324,4453,223,4072,158,13,0,13,0
20210325,4465,227,4080,158,12,4,8,0
20210326,4480,228,4094,158,15,1,14,0
20210327,4501,242,4099,160,21,14,5,2
20210328,4506,235,4109,162,5,-7,10,2
20210329,4510,236,4110,164,4,1,1,2
20210330,4523,222,4137,164,13,-14,27,0
20210331,4533,229,4140,164,10,7,3,0
20210401,4552,239,4149,164,19,10,9,0
20210402,4573,244,4165,164,21,5,16,0
20210403,4589,235,4190,164,16,-9,25,0
20210404,4595,231,4199,165,6,-4,9,1
20210405,4595,214,4215,166,0,-17,16,1
20210406,4603,204,4233,166,8,-10,18,0
20210407,4606,204,4236,166,3,0,3,0
20210408,4616,195,4254,167,10,-9,18,1
20210409,4619,173,4279,167,3,-22,25,0
20210410,4625,172,4286,167,6,-1,7,0
20210411,4636,183,4286,167,11,11,0,0
20210412,4641,176,4298,167,5,-7,12,0
20210413,4652,179,4306,167,11,3,8,0
20210414,4662,183,4312,167,10,4,6,0
20210415,4673,185,4320,168,11,2,8,1
20210416,4686,189,4329,168,13,4,9,0
20210417,4691,188,4335,168,5,-1,6,0
20210418,4706,195,4342,169,15,7,7,1
20210419,4708,186,4353,169,2,-9,11,0
20210420,4723,201,4353,169,15,15,0,0
20210421,4731,194,4368,169,8,-7,15,0
20210422,4735,190,4376,169,4,-4,8,0
20210423,4747,196,4382,169,12,6,6,0
20210424,4752,199,4384,169,5,3,2,0
20210425,4770,212,4389,169,18,13,5,0
20210426,4772,204,4399,169,2,-8,10,0
20210427,4779,203,4406,170,7,-1,7,1
20210428,4789,211,4408,170,10,8,2,0
20210429,4810,224,4416,170,21,13,8,0
20210430,4817,224,4423,170,7,0,7,0
20210501,4824,224,4430,170,7,0,7,0
20210502,4828,228,4430,170,4,4,0,0
20210503,4828,130,4528,170,0,-98,98,0
20210504,4835,100,4565,170,7,-30,37,0
20210505,4847,107,4570,170,12,7,5,0
20210506,4854,72,4612,170,7,-35,42,0
20210507,4862,70,4622,170,8,-2,10,0
20210508,4874,56,4647,171,12,-14,25,1
20210509,4877,57,4649,171,3,1,2,0
20210510,4882,54,4657,171,5,-3,8,0
20210511,4888,55,4661,172,6,1,4,1
20210512,4891,51,4668,172,3,-4,7,0
20210513,4895,51,4672,172,4,0,4,0
20210514,4897,47,4677,173,2,-4,5,1
20210515,4901,50,4678,173,4,3,1,0
20210516,4904,43,4688,173,3,-7,10,0
20210517,4904,40,4691,173,0,-3,3,0
20210518,4905,28,4704,173,1,-12,13,0
20210519,4914,30,4711,173,9,2,7,0
20210520,4918,28,4717,173,4,-2,6,0
20210521,4919,27,4719,173,1,-1,2,0
20210522,4923,29,4721,173,4,2,2,0
20210523,4924,22,4729,173,1,-7,8,0
20210524,4924,16,4735,173,0,-6,6,0
20210525,4924,15,4736,173,0,-1,1,0
20210526,4925,14,4738,173,1,-1,2,0
20210527,4926,11,4742,173,1,-3,4,0
20210528,4927,12,4742,173,1,1,0,0
20210529,4928,13,4742,173,1,1,0,0
20210530,4929,10,4746,173,1,-3,4,0
20210531,4931,12,4746,173,2,2,0,0
20210601,4934,14,4747,173,3,2,1,0
20210602,4935,15,4747,173,1,1,0,0
20210603,4935,15,4747,173,0,0,0,0
20210604,4938,13,4751,174,3,-2,4,1
20210605,4939,11,4754,174,1,-2,3,0
20210606,4939,8,4757,174,0,-3,3,0
20210607,4940,6,4760,174,1,-2,3,0
20210608,4942,6,4762,174,2,0,2,0
20210609,4942,3,4765,174,0,-3,3,0
20210610,4942,3,4765,174,0,0,0,0
20210611,4942,3,4765,174,0,0,0,0
20210612,4942,3,4765,174,0,0,0,0
20210613,4942,1,4767,174,0,-2,2,0
20210614,4943,2,4767,174,1,1,0,0
20210615,4943,2,4767,174,0,0,0,0
20210616,4943,2,4767,174,0,0,0,0
20210617,4944,2,4768,174,1,0,1,0
20210618,4945,3,4768,174,1,1,0,0
20210619,4946,4,4768,174,1,1,0,0
20210620,4946,4,4768,174,0,0,0,0
20210621,4947,5,4768,174,1,1,0,0
20210622,4948,6,4768,174,1,1,0,0
20210623,4951,8,4769,174,3,2,1,0
20210624,4951,8,4769,174,0,0,0,0
20210625,4951,8,4769,174,0,0,0,0
20210626,4951,8,4769,174,0,0,0,0
20210627,4951,8,4769,174,0,0,0,0
20210628,4951,8,4769,174,0,0,0,0
20210629,4951,8,4769,174,0,0,0,0
20210630,4951,8,4769,174,0,0,0,0
20210701,4951,8,4769,174,0,0,0,0
20210702,4951,2,4775,174,0,-6,6,0
20210703,4951,2,4775,174,0,0,0,0
20210704,4951,2,4775,174,0,0,0,0
20210705,4952,2,4776,174,1,0,1,0
20210706,4952,1,4777,174,0,-1,1,0
20210707,4952,1,4777,174,0,0,0,0
20210708,4953,2,4777,174,1,1,0,0
20210709,4953,2,4777,174,0,0,0,0
20210710,4954,3,4777,174,1,1,0,0
20210711,4954,3,4777,174,0,0,0,0
20210712,4954,3,4777,174,0,0,0,0
20210713,4954,3,4777,174,0,0,0,0
20210714,4955,4,4777,174,1,1,0,0
20210715,4959,8,4777,174,4,4,0,0
20210716,4964,13,4777,174,5,5,0,0
20210717,4964,13,4777,174,0,0,0,0
20210718,4964,13,4777,174,0,0,0,0
20210719,4964,13,4777,174,0,0,0,0
20210720,4965,14,4777,174,1,1,0,0
20210721,4965,14,4777,174,0,0,0,0
20210722,4965,14,4777,174,0,0,0,0
20210723,4967,13,4780,174,2,-1,3,0
20210724,4969,13,4782,174,2,0,2,0
20210725,4969,13,4782,174,0,0,0,0
20210726,4969,13,4782,174,0,0,0,0
20210727,4971,15,4782,174,2,2,0,0
20210728,4972,9,4789,174,1,-6,7,0
20210729,4972,9,4789,174,0,0,0,0
20210730,4973,7,4792,174,1,-2,3,0
20210731,4973,7,4792,174,0,0,0,0
20210801,4973,6,4793,174,0,-1,1,0
20210802,4973,6,4793,174,0,0,0,0
20210803,4973,5,4794,174,0,-1,1,0
20210804,4974,4,4796,174,1,-1,2,0
20210805,4976,0,0,174,2,-4,-4796,0
20210806,4977,0,0,174,1,0,0,0
20210807,4977,0,0,174,0,0,0,0
20210808,4978,0,0,174,1,0,0,0
20210809,4980,0,0,174,2,0,0,0
20210810,4981,0,0,174,1,0,0,0
20210811,4981,0,0,174,0,0,0,0
20210812,4981,0,0,174,0,0,0,0
20210813,4981,0,0,174,0,0,0,0
20210814,4982,0,0,174,1,0,0,0
20210815,4982,0,0,174,0,0,0,0
20210816,4984,0,0,174,2,0,0,0
20210817,4984,0,0,174,0,0,0,0
20210818,4984,0,0,174,0,0,0,0
20210819,4984,0,0,174,0,0,0,0
20210820,4985,0,0,174,1,0,0,0
20210821,4985,0,0,174,0,0,0,0
20210822,4985,0,0,174,0,0,0,0
20210823,4987,0,0,174,2,0,0,0
20210824,4987,0,0,174,0,0,0,0
20210825,4987,0,0,174,0,0,0,0
20210826,4989,0,0,174,2,0,0,0
20210827,4989,0,0,174,0,0,0,0
20210828,4990,0,0,174,1,0,0,0
20210829,4991,0,0,174,1,0,0,0
20210830,4991,0,0,174,0,0,0,0
20210831,4992,0,0,174,1,0,0,0
20210901,4994,0,0,174,2,0,0,0
20210902,4994,0,0,174,0,0,0,0
20210903,4995,0,0,174,1,0,0,0
20210904,4995,0,0,174,0,0,0,0
