date,infected,active,recovered,dead,deltaInfected,deltaActive,deltaRecovered,deltaDead
20200122,4,2,2,0,4,2,2,0
20200123,4,2,2,0,0,0,0,0
20200124,5,2,3,0,1,0,1,0
20200125,6,3,3,0,1,1,0,0
20200126,8,2,6,0,2,-1,3,0
20200127,8,2,6,0,0,0,0,0
20200128,14,8,6,0,6,6,0,0
20200129,14,8,6,0,0,0,0,0
20200130,14,14,0,0,0,6,-6,0
20200131,19,11,8,0,5,-3,8,0
20200201,19,11,8,0,0,0,0,0
20200202,19,10,9,0,0,-1,1,0
20200203,19,10,9,0,0,0,0,0
20200204,25,15,10,0,6,5,1,0
20200205,25,15,10,0,0,0,0,0
20200206,25,15,10,0,0,0,0,0
20200207,25,15,10,0,0,0,0,0
20200208,32,22,10,0,7,7,0,0
20200209,32,21,11,0,0,-1,1,0
20200210,32,21,11,0,0,0,0,0
20200211,33,22,11,0,1,1,0,0
20200212,33,22,11,0,0,0,0,0
20200213,33,22,11,0,0,0,0,0
20200214,33,22,11,0,0,0,0,0
20200215,34,21,13,0,1,-1,2,0
20200216,34,19,15,0,0,-2,2,0
20200217,35,20,15,0,1,1,0,0
20200218,35,20,15,0,0,0,0,0
20200219,35,20,15,0,0,0,0,0
20200220,35,18,17,0,0,-2,2,0
20200221,35,16,19,0,0,-2,2,0
20200222,35,15,20,0,0,-1,1,0
20200223,35,14,21,0,0,-1,1,0
20200224,35,14,21,0,0,0,0,0
20200225,37,15,22,0,2,1,1,0
20200226,40,16,24,0,3,1,2,0
20200227,40,16,24,0,0,0,0,0
20200228,41,13,28,0,1,-3,4,0
20200229,42,14,28,0,1,1,0,0
20200301,42,11,30,1,0,-3,2,1
20200302,43,11,31,1,1,0,1,0
20200303,43,11,31,1,0,0,0,0
20200304,43,11,31,1,0,0,0,0
20200305,47,15,31,1,4,4,0,0
20200306,48,16,31,1,1,1,0,0
20200307,50,18,31,1,2,2,0,0
20200308,50,16,33,1,0,-2,2,0
20200309,50,16,33,1,0,0,0,0
20200310,53,19,33,1,3,3,0,0
20200311,59,24,34,1,6,5,1,0
20200312,70,34,35,1,11,10,1,0
20200313,75,39,35,1,5,5,0,0
20200314,82,46,35,1,7,7,0,0
20200315,114,76,37,1,32,30,2,0
20200316,147,108,38,1,33,32,1,0
20200317,177,135,41,1,30,27,3,0
20200318,212,169,42,1,35,34,1,0
20200319,272,229,42,1,60,60,0,0
20200320,322,278,43,1,50,49,1,0
20200321,411,366,44,1,89,88,1,0
20200322,599,554,45,1,188,188,1,0
20200323,721,668,52,1,122,114,7,0
20200324,827,771,57,4,106,103,5,3
20200325,934,860,70,4,107,89,13,0
20200326,1045,953,88,4,111,93,18,0
20200327,1136,1034,97,5,91,81,9,1
20200328,1245,1142,100,6,109,108,3,1
20200329,1388,1284,111,7,143,142,11,1
20200330,1524,1286,127,9,136,2,16,2
20200331,1651,1299,342,10,127,13,215,1
20200401,1771,1254,416,12,120,-45,74,2
20200402,1875,1355,505,15,104,101,89,3
20200403,1978,1347,581,19,103,-8,76,4
20200404,2067,1373,612,20,89,26,31,1
20200405,2169,1353,674,23,102,-20,62,3
20200406,2220,1401,793,26,51,48,119,3
20200407,2258,1343,824,27,38,-58,31,1
20200408,2369,1451,888,30,111,108,64,3
20200409,2423,1451,940,32,54,0,52,2
20200410,2473,1427,1013,33,50,-24,73,1
20200411,2518,1348,1135,35,45,-79,122,2
20200412,2551,1295,1218,38,33,-53,83,3
20200413,2579,1251,1288,40,28,-44,70,2
20200414,2613,1167,1405,41,34,-84,117,1
20200415,2643,1103,1497,43,30,-64,92,2
20200416,2672,1033,1593,46,29,-70,96,3
20200417,2700,964,1689,47,28,-69,96,1
20200418,2733,899,1787,47,33,-65,98,0
20200419,2765,790,1928,47,32,-109,141,0
20200420,2792,746,1999,47,27,-44,71,0
20200421,2811,655,2108,48,19,-91,109,1
20200422,2826,425,2352,49,15,-230,244,1
20200423,2839,359,2430,50,13,-66,78,1
20200424,2854,309,2490,50,15,-50,60,0
20200425,2907,309,2547,51,53,0,57,1
20200426,2922,277,2594,51,15,-32,47,0
20200427,2931,270,2609,52,9,-7,15,1
20200428,2938,232,2652,54,7,-38,43,2
20200429,2947,228,2665,54,9,-4,13,0
20200430,2954,216,2687,54,7,-12,22,0
20200501,2960,187,2719,54,6,-29,32,0
20200502,2966,180,2732,54,6,-7,13,0
20200503,2969,176,2739,54,3,-4,7,0
20200504,2987,193,2740,54,18,17,1,0
20200505,2988,187,2747,54,1,-6,7,0
20200506,2989,173,2761,55,1,-14,14,1
20200507,2992,165,2772,55,3,-8,11,0
20200508,3000,161,2784,55,8,-4,12,0
20200509,3004,161,2787,56,4,0,3,1
20200510,3009,159,2794,56,5,-2,7,0
20200511,3015,163,2796,56,6,4,2,0
20200512,3017,163,2798,56,2,0,2,0
20200513,3017,117,2844,56,0,-46,46,0
20200514,3018,112,2850,56,1,-5,6,0
20200515,3025,115,2854,56,7,3,4,0
20200516,3025,114,2855,56,0,-1,1,0
20200517,3028,116,2856,56,3,2,1,0
20200518,3031,118,2857,56,3,2,1,0
20200519,3033,120,2857,56,2,2,0,0
20200520,3034,90,2888,56,1,-30,31,0
20200521,3037,84,2897,56,3,-6,9,0
20200522,3037,71,2910,56,0,-13,13,0
20200523,3040,68,2916,56,3,-3,6,0
20200524,3040,63,2921,56,0,-5,5,0
20200525,3042,57,2928,57,2,-6,7,1
20200526,3045,59,2929,57,3,2,1,0
20200527,3054,66,2931,57,9,7,2,0
20200528,3065,63,2945,57,11,-3,14,0
20200529,3076,74,2945,57,11,11,0,0
20200530,3077,59,2961,57,1,-15,16,0
20200531,3081,61,2963,57,4,2,2,0
20200601,3082,60,2965,57,1,-1,2,0
20200602,3083,59,2966,58,1,-1,1,1
20200603,3084,58,2968,58,1,-1,2,0
20200604,3101,75,2968,58,17,17,0,0
20200605,3102,73,2971,58,1,-2,3,0
20200606,3104,75,2971,58,2,2,0,0
20200607,3112,82,2972,58,8,7,1,0
20200608,3119,88,2973,58,7,6,1,0
20200609,3121,90,2973,58,2,2,0,0
20200610,3125,86,2981,58,4,-4,8,0
20200611,3125,80,2987,58,0,-6,6,0
20200612,3129,84,2987,58,4,4,0,0
20200613,3134,89,2987,58,5,5,0,0
20200614,3135,90,2987,58,1,1,0,0
20200615,3135,90,2987,58,0,0,0,0
20200616,3135,84,2993,58,0,-6,6,0
20200617,3135,81,2996,58,0,-3,3,0
20200618,3141,86,2997,58,6,5,1,0
20200619,3146,80,3008,58,5,-6,11,0
20200620,3147,71,3018,58,1,-9,10,0
20200621,3148,72,3018,58,1,1,0,0
20200622,3151,71,3022,58,3,-1,4,0
20200623,3156,75,3023,58,5,4,1,0
20200624,3157,62,3026,58,1,-13,3,0
20200625,3158,62,3038,58,1,0,12,0
20200626,3162,64,3040,58,4,2,2,0
20200627,3162,51,3053,58,0,-13,13,0
20200628,3162,51,3053,58,0,0,0,0
20200629,3169,58,3053,58,7,7,0,0
20200630,3171,57,3056,58,2,-1,3,0
20200701,3173,56,3059,58,2,-1,3,0
20200702,3179,62,3059,58,6,6,0,0
20200703,3180,56,3066,58,1,-6,7,0
20200704,3185,61,3066,58,5,5,0,0
20200705,3190,61,3071,58,5,0,5,0
20200706,3195,65,3072,58,5,4,1,0
20200707,3195,65,3072,58,0,0,0,0
20200708,3197,65,3074,58,2,0,2,0
20200709,3202,59,3085,58,5,-6,11,0
20200710,3202,57,3087,58,0,-2,2,0
20200711,3216,70,3088,58,14,13,1,0
20200712,3217,71,3088,58,1,1,0,0
20200713,3220,72,3090,58,3,1,2,0
20200714,3227,78,3091,58,7,6,1,0
20200715,3232,82,3092,58,5,4,1,0
20200716,3236,83,3095,58,4,1,3,0
20200717,3239,85,3096,58,3,2,1,0
20200718,3246,92,3096,58,7,7,0,0
20200719,3249,96,3096,58,3,4,0,0
20200720,3250,96,3096,58,1,0,0,0
20200721,3255,92,3105,58,5,-4,9,0
20200722,3261,106,3105,58,6,14,0,0
20200723,3269,114,3105,58,8,8,0,0
20200724,3279,114,3107,58,10,0,2,0
20200725,3282,115,3109,58,3,1,2,0
20200726,3291,124,3109,58,9,9,0,0
20200727,3295,128,3111,58,4,4,2,0
20200728,3297,128,3111,58,2,0,0,0
20200729,3298,129,3111,58,1,1,0,0
20200730,3304,135,3111,58,6,6,0,0
20200731,3310,127,3125,58,6,-8,14,0
20200801,3312,119,3135,58,2,-8,10,0
20200802,3317,117,3142,58,5,-2,7,0
20200803,3320,120,3142,58,3,3,0,0
20200804,3321,121,3142,58,1,1,0,0
20200805,3328,126,3144,58,7,5,2,0
20200806,3330,124,3148,58,2,-2,4,0
20200807,3345,139,3148,58,15,15,0,0
20200808,3348,140,3150,58,3,1,2,0
20200809,3351,142,3151,58,3,2,1,0
20200810,3351,133,3160,58,0,-9,9,0
20200811,3351,130,3163,58,0,-3,3,0
20200812,3356,129,3169,58,5,-1,6,0
20200813,3359,132,3169,58,3,3,0,0
20200814,3376,145,3173,58,17,13,4,0
20200815,3376,125,3193,58,0,-20,20,0
20200816,3377,126,3194,58,1,1,1,0
20200817,3378,126,3194,58,1,0,0,0
20200818,3381,125,3198,58,3,-1,4,0
20200819,3382,125,3199,58,1,0,1,0
20200820,3389,113,3218,58,7,-12,19,0
20200821,3390,113,3219,58,1,0,1,0
20200822,3390,112,3220,58,0,-1,1,0
20200823,3395,116,3221,58,5,4,1,0
20200824,3397,115,3222,58,2,-1,1,0
20200825,3402,115,3229,58,5,0,7,0
20200826,3403,109,3237,58,1,-6,8,0
20200827,3404,115,3237,58,1,6,0,0
20200828,3410,111,3237,58,6,-4,0,0
20200829,3411,111,3242,58,1,0,5,0
20200830,3411,101,3252,58,0,-10,10,0
20200831,3412,85,3252,58,1,-16,0,0
20200901,3417,93,3274,58,5,8,22,0
20200902,3425,92,3274,58,8,-1,0,0
20200903,3427,96,3277,58,2,4,3,0
20200904,3431,96,3277,58,4,0,0,0
20200905,3438,105,3279,58,7,9,2,0
20200906,3444,106,3281,58,6,1,2,0
20200907,3445,104,3281,58,1,-2,0,0
20200908,3446,103,3284,58,1,-1,3,0
20200909,3447,86,3286,58,1,-17,2,0
20200910,3454,91,3310,58,7,5,24,0
20200911,3461,91,3312,58,7,0,2,0
20200912,3466,103,3312,58,5,12,0,0
20200913,3473,105,3312,58,7,2,0,0
20200914,3475,105,3312,58,2,0,0,0
20200915,3480,116,3315,58,5,11,3,0
20200916,3490,107,3316,58,10,-9,1,0
20200917,3490,111,3325,58,0,4,9,0
20200918,3497,111,3328,58,7,0,3,0
20200919,3500,107,3338,59,3,-4,10,1
20200920,3506,107,3342,59,6,0,4,0
20200921,3511,109,3343,59,5,2,1,0
20200922,3514,110,3345,59,3,1,2,0
20200923,3516,104,3353,59,2,-6,8,0
20200924,3519,100,3360,59,3,-4,7,0
20200925,3522,101,3362,59,3,1,2,0
20200926,3523,97,3367,59,1,-4,5,0
20200927,3545,97,3369,59,22,0,2,0
20200928,3559,130,3370,59,14,33,1,0
20200929,3564,131,3374,59,5,1,4,0
20200930,3569,131,3379,59,5,0,5,0
20201001,3575,132,3384,59,6,1,5,0
20201002,3583,138,3386,59,8,6,2,0
20201003,3585,138,3388,59,2,0,2,0
20201004,3590,141,3390,59,5,3,2,0
20201005,3600,151,3390,59,10,10,0,0
20201006,3615,165,3391,59,15,14,1,0
20201007,3622,124,3439,59,7,-41,48,0
20201008,3628,128,3441,59,6,4,2,0
20201009,3634,130,3445,59,6,2,4,0
20201010,3636,126,3445,59,2,-4,0,0
20201011,3641,128,3454,59,5,2,9,0
20201012,3643,127,3457,59,2,-1,3,0
20201013,3652,136,3457,59,9,9,0,0
20201014,3665,136,3463,59,13,0,6,0
20201015,3675,143,3474,59,10,7,11,0
20201016,3686,142,3481,59,11,-1,7,0
20201017,3679,146,3478,59,-7,4,-3,0
20201018,3691,144,3488,59,12,-2,10,0
20201019,3700,150,3491,59,9,6,3,0
20201020,3709,155,3495,59,9,5,4,0
20201021,3719,146,3514,59,10,-9,19,0
20201022,3727,150,3518,59,8,4,4,0
20201023,3731,143,3529,59,4,-7,11,0
20201024,3736,147,3530,59,5,4,1,0
20201025,3743,147,3543,59,7,0,13,0
20201026,3746,136,3551,59,3,-11,8,0
20201027,3759,139,3561,59,13,3,10,0
20201028,3763,134,3570,59,4,-5,9,0
20201029,3775,131,3585,59,12,-3,15,0
20201030,3780,131,3590,59,5,0,5,0
20201031,3784,133,3592,59,4,2,2,0
20201101,3787,133,3595,59,3,0,3,0
20201102,3797,133,3605,59,10,0,10,0
20201103,3804,133,3612,59,7,0,7,0
20201104,3810,128,3623,59,6,-5,11,0
20201105,3818,119,3639,60,8,-9,16,1
20201106,3830,126,3644,60,12,7,5,0
20201107,3837,123,3654,60,7,-3,10,0
20201108,3840,119,3661,60,3,-4,7,0
20201109,3844,114,3670,60,4,-5,9,0
20201110,3847,102,3685,60,3,-12,15,0
20201111,3852,99,3693,60,5,-3,8,0
20201112,3861,104,3697,60,9,5,4,0
20201113,3866,99,3707,60,5,-5,10,0
20201114,3874,99,3715,60,8,0,8,0
20201115,3875,94,3721,60,1,-5,6,0
20201116,3878,94,3724,60,3,0,3,0
20201117,3880,91,3729,60,2,-3,5,0
20201118,3888,86,3742,60,8,-5,13,0
20201119,3892,87,3745,60,4,1,3,0
20201120,3899,86,3750,60,7,-1,5,0
20201121,3922,92,3772,60,23,6,22,0
20201122,3920,94,3766,60,-2,2,-6,0
20201123,3910,90,3755,60,-10,-4,-11,0
20201124,3926,86,3780,60,16,-4,25,0
20201125,3942,94,3788,60,16,8,8,0
20201126,3961,111,3790,60,19,17,2,0
20201127,3966,108,3798,60,5,-3,8,0
20201128,3977,117,3800,60,11,9,2,0
20201129,3998,135,3803,60,21,18,3,0
20201130,4008,137,3811,60,10,2,8,0
20201201,4026,144,3822,60,18,7,11,0
20201202,4039,144,3832,60,13,0,10,0
20201203,4053,154,3839,60,14,10,7,0
20201204,4072,164,3848,60,19,10,9,0
20201205,4086,173,3853,60,14,9,5,0
20201206,4107,179,3868,60,21,6,15,0
20201207,4126,192,3874,60,19,13,6,0
20201208,4151,211,3880,60,25,19,6,0
20201209,4169,221,3888,60,18,10,8,0
20201210,4180,217,3903,60,11,-4,15,0
20201211,4192,217,3915,60,12,0,12,0
20201212,4209,226,3923,60,17,9,8,0
20201213,4237,237,3940,60,28,11,17,0
20201214,4246,237,3949,60,9,0,9,0
20201215,4261,224,3977,60,15,-13,28,0
20201216,4281,232,3989,60,20,8,12,0
20201217,4297,232,4005,60,16,0,16,0
20201218,4331,247,4024,60,34,15,19,0
20201219,4907,806,4041,60,576,559,17,0
20201220,5289,794,4053,60,382,-12,12,0
20201221,5716,1578,4078,60,427,784,25,0
20201222,5762,1578,4095,60,46,0,17,0
20201223,5829,1607,4116,60,67,29,21,0
20201224,5910,1720,4137,60,81,113,21,0
20201225,6020,1808,4152,60,110,88,15,0
20201226,6141,1902,4161,60,121,94,9,0
20201227,6285,1920,4180,60,144,18,19,0
20201228,6440,2200,4184,61,155,280,4,1
20201229,6690,2417,4212,61,250,217,28,0
20201230,6884,2417,4240,61,194,0,28,0
20201231,7163,2827,4273,63,279,410,33,2
20210101,7379,3016,4299,64,216,189,26,1
20210102,7694,3293,4337,64,315,277,38,0
20210103,8439,4022,4352,65,745,729,15,1
20210104,8966,4504,4397,65,527,482,45,0
20210105,9331,4847,4418,66,365,343,21,1
20210106,9636,5048,4521,67,305,201,103,1
20210107,9841,4519,5255,67,205,-529,734,0
20210108,10053,4519,5546,67,212,0,291,0
20210109,10298,4440,6428,67,245,-79,882,0
20210110,10547,3665,6566,67,249,-775,138,0
20210111,10834,4035,6732,67,287,370,166,0
20210112,10991,3981,6943,67,157,-54,211,0
20210113,10991,3981,6943,67,0,0,0,0
20210114,11450,3093,8288,69,459,-888,1345,2
20210115,11680,2704,8906,70,230,-389,618,1
20210116,12054,2969,9015,70,374,265,109,0
20210117,12423,3147,9206,70,369,178,191,0
20210118,12594,3168,9356,70,171,21,150,0
20210119,12653,2961,9621,71,59,-207,265,1
20210120,12795,2882,9842,71,142,-79,221,0
20210121,12795,2500,10224,71,0,-382,382,0
20210122,13104,2809,10224,71,309,309,0,0
20210123,13302,2782,10448,72,198,-27,224,1
20210124,13500,2860,10567,73,198,78,119,1
20210125,14646,3679,10892,75,1146,819,325,2
20210126,14646,3679,10892,75,0,0,0,0
20210127,15465,4335,11054,76,819,656,162,1
20210128,16221,4858,11287,76,756,523,233,0
20210129,17953,6371,11505,77,1732,1513,218,1
20210130,18782,7090,11615,77,829,719,110,0
20210131,19618,7027,12514,77,836,-63,899,0
20210201,20454,7158,13217,79,836,131,703,2
20210202,21249,7169,14001,79,795,11,784,0
20210203,21249,7169,14001,79,0,0,0,0
20210204,22058,7181,14798,79,809,12,797,0
20210205,23134,6781,16274,79,1076,-400,1476,0
20210206,23371,6350,16942,79,237,-431,668,0
20210207,23557,6068,17410,79,186,-282,468,0
20210208,23557,6068,17410,79,0,0,0,0
20210209,23746,5301,18366,79,189,-767,956,0
20210210,24104,4225,19799,80,358,-1076,1433,1
20210211,24279,3989,20210,80,175,-236,411,0
20210212,24279,3989,20210,80,0,0,0,0
20210213,24405,3145,21180,80,126,-844,970,0
20210214,24571,2380,22111,80,166,-765,931,0
20210215,24714,1749,22883,82,143,-631,772,2
20210216,24786,1141,23563,82,72,-608,680,0
20210217,24961,933,23946,82,175,-208,383,0
20210218,25111,958,24070,83,150,25,124,1
20210219,25241,1029,24129,83,130,71,59,0
20210220,25323,1111,24129,83,82,82,0,0
20210221,25504,1060,24361,83,181,-51,232,0
20210222,25504,1060,24361,83,0,0,0,0
20210223,25692,1067,24542,83,188,7,181,0
20210224,25692,1067,24542,83,0,0,0,0
20210225,25764,947,24734,83,72,-120,192,0
20210226,25809,774,24952,83,45,-173,218,0
20210227,25951,740,25128,83,142,-34,176,0
20210228,26031,624,25324,83,80,-116,196,0
20210301,26031,624,25324,83,0,0,0,0
20210302,26073,569,25420,84,42,-55,96,1
20210303,26108,461,25562,85,35,-108,142,1
20210304,26162,515,25562,85,54,54,0,0
20210305,26241,515,25641,85,79,0,79,0
20210306,26305,534,25686,85,64,19,45,0
20210307,26441,579,25777,85,136,45,91,0
20210308,26441,579,25777,85,0,0,0,0
20210309,26501,565,25851,85,60,-14,74,0
20210310,26540,509,25946,85,39,-56,95,0
20210311,26598,513,26000,85,58,4,54,0
20210312,26679,538,26056,85,81,25,56,0
20210313,26757,585,26086,86,78,47,30,1
20210314,26927,686,26154,87,170,101,68,1
20210315,27005,684,26234,87,78,-2,80,0
20210316,27154,767,26299,88,149,83,65,1
20210317,27402,974,26339,89,248,207,40,1
20210318,27494,1028,26377,89,92,54,38,0
20210319,27594,1054,26450,90,100,26,73,1
20210320,27713,1111,26512,90,119,57,62,0
20210321,27803,1115,26598,90,90,4,86,0
20210322,27876,1122,26663,91,73,7,65,1
20210323,28346,1381,26873,92,470,259,210,1
20210324,28443,1381,26873,92,97,0,0,0
20210325,28443,1478,26873,92,0,97,0,0
20210326,28577,1612,26873,92,134,134,0,0
20210327,28657,1691,26873,93,80,79,0,1
20210328,28734,1767,26873,94,77,76,0,1
20210329,28773,1806,26873,94,39,39,0,0
20210330,28821,1854,26873,94,48,48,0,0
20210331,28863,1896,26873,94,42,42,0,0
20210401,28889,1922,26873,94,26,26,0,0
20210402,28947,1980,26873,94,58,58,0,0
20210403,29031,2063,26873,95,84,83,0,1
20210404,29127,2159,26873,95,96,96,0,0
20210405,29321,2353,26873,95,194,194,0,0
20210406,29571,2603,26873,95,250,250,0,0
20210407,29905,2937,26873,95,334,334,0,0
20210408,30310,3342,26873,95,405,405,0,0
20210409,30869,3900,26873,96,559,558,0,1
20210410,31658,4688,26873,97,789,788,0,1
20210411,32625,5655,26873,97,967,967,0,0
20210412,33610,6640,26873,97,985,985,0,0
20210413,34575,7605,26873,97,965,965,0,0
20210414,35910,8940,26873,97,1335,1335,0,0
20210415,37453,10483,26873,97,1543,1543,0,0
20210416,39038,12068,26873,97,1585,1585,0,0
20210417,40585,13613,26873,99,1547,1545,0,2
20210418,42352,15378,26873,101,1767,1765,0,2
20210419,43742,16765,26873,104,1390,1387,0,3
20210420,45185,18204,26873,108,1443,1439,0,4
20210421,46643,19660,26873,110,1458,1456,0,2
20210422,48113,21123,26873,117,1470,1463,0,7
20210423,50183,23189,26873,121,2070,2066,0,4
20210424,53022,26020,26873,129,2839,2831,0,8
20210425,55460,28447,26873,140,2438,2427,0,11
20210426,57508,30487,26873,148,2048,2040,0,8
20210427,59688,32652,26873,163,2180,2165,0,15
20210428,61699,34648,26873,178,2011,1996,0,15
20210429,63570,36509,26873,188,1871,1861,0,10
20210430,65153,38077,26873,203,1583,1568,0,15
20210501,67044,39947,26873,224,1891,1870,0,21
20210502,68984,41866,26873,245,1940,1919,0,21
20210503,71025,43876,26873,276,2041,2010,0,31
20210504,72788,45612,26873,303,1763,1736,0,27
20210505,74900,47709,26873,318,2112,2097,0,15
20210506,76811,49602,26873,336,1911,1893,0,18
20210507,78855,51619,26873,363,2044,2017,0,27
20210508,81274,54019,26873,382,2419,2400,0,19
20210509,83375,56103,26873,399,2101,2084,0,17
20210510,85005,57711,26873,421,1630,1608,0,22
20210511,86924,59599,26873,452,1919,1888,0,31
20210512,88907,61548,26873,486,1983,1949,0,34
20210513,93794,66403,26873,518,4887,4855,0,32
20210514,96050,68629,26873,548,2256,2226,0,30
20210515,99145,71707,26873,565,3095,3078,0,17
20210516,101447,73985,26873,589,2302,2278,0,24
20210517,111082,83595,26873,614,9635,9610,0,25
20210518,113555,86033,26873,649,2473,2438,0,35
20210519,116949,89398,26873,678,3394,3365,0,29
20210520,119585,92009,26873,703,2636,2611,0,25
20210521,123066,95458,26873,735,3481,3449,0,32
20210522,126118,98486,26873,759,3052,3028,0,24
20210523,129500,101851,26873,776,3382,3365,0,17
20210524,132213,104534,26873,806,2713,2683,0,30
20210525,135439,107734,26873,832,3226,3200,0,26
20210526,137894,110148,26873,873,2455,2414,0,41
20210527,143280,115487,26873,920,5386,5339,0,47
20210528,147039,119212,26873,954,3759,3725,0,34
20210529,151842,123981,26873,988,4803,4769,0,34
20210530,156370,128485,26873,1012,4528,4504,0,24
20210531,159792,131888,26873,1031,3422,3403,0,19
20210601,162022,134080,26873,1069,2230,2192,0,38
20210602,165462,137482,26873,1107,3440,3402,0,38
20210603,169348,141329,26873,1146,3886,3847,0,39
20210604,171978,143928,26873,1177,2630,2599,0,31
20210605,174796,146710,26873,1213,2818,2782,0,36
20210606,177467,149358,26873,1236,2671,2648,0,23
20210607,179886,151744,26873,1269,2419,2386,0,33
20210608,182548,154378,26873,1297,2662,2634,0,28
20210609,185228,157023,26873,1332,2680,2645,0,35
20210610,187538,159290,26873,1375,2310,2267,0,43
20210611,189828,161553,26873,1402,2290,2263,0,27
20210612,193105,164801,26873,1431,3277,3248,0,29
20210613,195909,167587,26873,1449,2804,2786,0,18
20210614,199264,170925,26873,1466,3355,3338,0,17
20210615,202264,173906,26873,1485,3000,2981,0,19
20210616,204595,176197,26873,1525,2331,2291,0,40
20210617,207724,179296,26873,1555,3129,3099,0,30
20210618,210782,182332,26873,1577,3058,3036,0,22
20210619,214449,185967,26873,1609,3667,3635,0,32
20210620,218131,189629,26873,1629,3682,3662,0,20
20210621,221306,192775,26873,1658,3175,3146,0,29
20210622,225365,196799,26873,1693,4059,4024,0,35
20210623,228539,199922,26873,1744,3174,3123,0,51
20210624,232647,203999,26873,1775,4108,4077,0,31
20210625,236291,207599,26873,1819,3644,3600,0,44
20210626,240452,211709,26873,1870,4161,4110,0,51
20210627,244447,215662,26873,1912,3995,3953,0,42
20210628,249853,221046,26873,1934,5406,5384,0,22
20210629,254515,225672,26873,1970,4662,4626,0,36
20210630,259301,230405,26873,2023,4786,4733,0,53
20210701,264834,235881,26873,2080,5533,5476,0,57
20210702,270921,241907,26873,2141,6087,6026,0,61
20210703,277151,248096,26873,2182,6230,6189,0,41
20210704,283067,253968,26873,2226,5916,5872,0,44
20210705,289233,260084,26873,2276,6166,6116,0,50
20210706,294653,265447,26873,2333,5420,5363,0,57
20210707,301172,271912,26873,2387,6519,6465,0,54
20210708,308230,278895,26873,2462,7058,6983,0,75
20210709,317506,288099,26873,2534,9276,9204,0,72
20210710,326832,297334,26873,2625,9326,9235,0,91
20210711,336371,306787,26873,2711,9539,9453,0,86
20210712,345027,315363,26873,2791,8656,8576,0,80
20210713,353712,323992,26873,2847,8685,8629,0,56
20210714,363029,333222,26873,2934,9317,9230,0,87
20210715,372215,342310,26873,3032,9186,9088,0,98
20210716,381907,351935,26873,3099,9692,9625,0,67
20210717,391989,361876,26873,3240,10082,9941,0,141
20210718,403386,373172,26873,3341,11397,11296,0,101
20210719,415170,384875,26873,3422,11784,11703,0,81
20210720,426475,396100,26873,3502,11305,11225,0,80
20210721,439477,408994,26873,3610,13002,12894,0,108
20210722,453132,422562,26873,3697,13655,13568,0,87
20210723,467707,437023,26873,3811,14575,14461,0,114
20210724,481967,451164,26873,3930,14260,14141,0,119
20210725,497302,466370,26873,4059,15335,15206,0,129
20210726,512678,481659,26873,4146,15376,15289,0,87
20210727,526828,495691,26873,4264,14150,14032,0,118
20210728,543361,512091,26873,4397,16533,16400,0,133
20210729,561030,529595,26873,4562,17669,17504,0,165
20210730,578375,546823,26873,4679,17345,17228,0,117
20210731,597287,565557,26873,4857,18912,18734,0,178
20210801,615314,583451,26873,4990,18027,17894,0,133
20210802,633284,601243,26873,5168,17970,17792,0,178
20210803,652185,619997,26873,5315,18901,18754,0,147
20210804,672385,640009,26873,5503,20200,20012,0,188
20210805,693305,0,0,5663,20920,-640009,-26873,160
20210806,714684,0,0,5854,21379,0,0,191
20210807,736522,0,0,6066,21838,0,0,212
20210808,756505,0,0,6204,19983,0,0,138
20210809,776108,0,0,6353,19603,0,0,149
20210810,795951,0,0,6588,19843,0,0,235
20210811,816989,0,0,6795,21038,0,0,207
20210812,839771,0,0,6942,22782,0,0,147
20210813,863189,0,0,7126,23418,0,0,184
20210814,885275,0,0,7343,22086,0,0,217
20210815,907157,0,0,7552,21882,0,0,209
20210816,928314,0,0,7734,21157,0,0,182
20210817,948442,0,0,7973,20128,0,0,239
20210818,968957,0,0,8285,20515,0,0,312
20210819,989859,0,0,8586,20902,0,0,301
20210820,1009710,0,0,8826,19851,0,0,240
20210821,1030281,0,0,9087,20571,0,0,261
20210822,1049295,0,0,9320,19014,0,0,233
20210823,1066786,0,0,9562,17491,0,0,242
20210824,1083951,0,0,9788,17165,0,0,226
20210825,1102368,0,0,10085,18417,0,0,297
20210826,1120869,0,0,10314,18501,0,0,229
20210827,1139571,0,0,10587,18702,0,0,273
20210828,1157555,0,0,10879,17984,0,0,292
20210829,1174091,0,0,11143,16536,0,0,264
20210830,1190063,0,0,11399,15972,0,0,256
20210831,1204729,0,0,11589,14666,0,0,190
20210901,1213954,0,0,11841,9225,0,0,252
20210902,1234487,0,0,12103,20533,0,0,262
20210903,1249140,0,0,12374,14653,0,0,271
20210904,1265082,0,0,12631,15942,0,0,257
