date,infected,active,recovered,dead,deltaInfected,deltaActive,deltaRecovered,deltaDead
20200311,1,1,0,0,1,1,0,0
20200312,1,1,0,0,0,0,0,0
20200313,5,5,0,0,4,4,0,0
20200314,5,5,0,0,0,0,0,0
20200315,6,6,0,0,1,1,0,0
20200316,18,18,0,0,12,12,0,0
20200317,47,46,0,1,29,28,0,1
20200318,98,97,0,1,51,51,0,0
20200319,192,189,0,3,94,92,0,2
20200320,359,355,0,4,167,166,0,1
20200321,670,661,0,9,311,306,0,5
20200322,1236,1206,0,30,566,545,0,21
20200323,1529,1492,0,37,293,286,0,7
20200324,1872,1828,0,44,343,336,0,7
20200325,2433,2348,26,59,561,520,26,15
20200326,3629,3528,26,75,1196,1180,0,16
20200327,5698,5564,42,92,2069,2036,16,17
20200328,7402,7224,70,108,1704,1660,28,16
20200329,9217,8981,105,131,1815,1757,35,23
20200330,10827,10497,162,168,1610,1516,57,37
20200331,13531,13074,243,214,2704,2577,81,46
20200401,15679,15069,333,277,2148,1995,90,63
20200402,18135,17364,415,356,2456,2295,82,79
20200403,20921,20012,484,425,2786,2648,69,69
20200404,23934,22647,786,501,3013,2635,302,76
20200405,27069,25453,1042,574,3135,2806,256,73
20200406,30217,28242,1326,649,3148,2789,284,75
20200407,34109,31802,1582,725,3892,3560,256,76
20200408,38226,35568,1846,812,4117,3766,264,87
20200409,42282,39232,2142,908,4056,3664,296,96
20200410,47029,43600,2423,1006,4747,4368,281,98
20200411,52167,48101,2965,1101,5138,4501,542,95
20200412,56956,52312,3446,1198,4789,4211,481,97
20200413,61049,55796,3957,1296,4093,3484,511,98
20200414,65111,58909,4799,1403,4062,3113,842,107
20200415,69392,62200,5674,1518,4281,3291,875,115
20200416,74193,65461,7089,1643,4801,3261,1415,125
20200417,78546,68146,8631,1769,4353,2685,1542,126
20200418,82329,69986,10453,1890,3783,1840,1822,121
20200419,86306,72313,11976,2017,3977,2327,1523,127
20200420,90980,75410,13430,2140,4674,3097,1454,123
20200421,95591,78414,14918,2259,4611,3004,1488,119
20200422,98674,79821,16477,2376,3083,1407,1559,117
20200423,101790,80808,18491,2491,3116,987,2014,115
20200424,104912,80575,21737,2600,3122,-233,3246,109
20200425,107773,79485,25582,2706,2861,-1090,3845,106
20200426,110130,78185,29140,2805,2357,-1300,3558,99
20200427,112261,75570,33791,2900,2131,-2615,4651,95
20200428,114653,72852,38809,2992,2392,-2718,5018,92
20200429,117589,70468,44040,3081,2936,-2384,5231,89
20200430,120204,68144,48886,3174,2615,-2324,4846,93
20200501,122392,65326,53808,3258,2188,-2818,4922,84
20200502,124375,62780,58259,3336,1983,-2546,4451,78
20200503,126045,59497,63151,3397,1670,-3283,4892,61
20200504,127659,56032,68166,3461,1614,-3465,5015,64
20200505,129491,52686,73285,3520,1832,-3346,5119,59
20200506,131744,49958,78202,3584,2253,-2728,4917,64
20200507,133721,47096,82984,3641,1977,-2862,4782,57
20200508,135569,45484,86396,3689,1848,-1612,3412,48
20200509,137115,43896,89480,3739,1546,-1588,3084,50
20200510,138657,42180,92691,3786,1542,-1716,3211,47
20200511,139771,40150,95780,3841,1114,-2030,3089,55
20200512,141475,38692,98889,3894,1704,-1458,3109,53
20200513,143114,37447,101715,3952,1639,-1245,2826,58
20200514,144749,36712,104030,4007,1635,-735,2315,55
20200515,146457,36269,106133,4055,1708,-443,2103,48
20200516,148067,35834,108137,4096,1610,-435,2004,41
20200517,149435,35333,109962,4140,1368,-501,1825,44
20200518,150593,34845,111577,4171,1158,-488,1615,31
20200519,151615,34521,112895,4199,1022,-324,1318,28
20200520,152587,34378,113987,4222,972,-143,1092,23
20200521,153548,34309,114990,4249,961,-69,1003,27
20200522,154500,34113,116111,4276,952,-196,1121,27
20200523,155686,33776,117602,4308,1186,-337,1491,32
20200524,156827,33793,118694,4340,1141,17,1092,32
20200525,157814,33430,120015,4369,987,-363,1321,29
20200526,158762,32858,121507,4397,948,-572,1492,28
20200527,159797,32573,122793,4431,1035,-285,1286,34
20200528,160979,32149,124369,4461,1182,-424,1576,30
20200529,162120,31668,125963,4489,1141,-481,1594,28
20200530,163103,31604,126984,4515,983,-64,1021,26
20200531,163942,31429,127973,4540,839,-175,989,25
20200601,164769,31259,128947,4563,827,-170,974,23
20200602,165555,31049,129921,4585,786,-210,974,22
20200603,166422,30961,130852,4609,867,-88,931,24
20200604,167410,31002,131778,4630,988,41,926,21
20200605,168340,30292,133400,4648,930,-710,1622,18
20200606,169218,29227,135322,4669,878,-1065,1922,21
20200607,170132,27471,137969,4692,914,-1756,2647,23
20200608,171121,25030,141380,4711,989,-2441,3411,19
20200609,172114,22787,144598,4729,993,-2243,3218,18
20200610,173036,21451,146839,4746,922,-1336,2241,17
20200611,174023,21400,147860,4763,987,-51,1021,17
20200612,175218,21338,149102,4778,1195,-62,1242,15
20200613,176677,21798,150087,4792,1459,460,985,14
20200614,178239,22015,151417,4807,1562,217,1330,15
20200615,179831,22642,152364,4825,1592,627,947,18
20200616,181298,23077,153379,4842,1467,435,1015,17
20200617,182727,23226,154640,4861,1429,149,1261,19
20200618,184031,23127,156022,4882,1304,-99,1382,21
20200619,185245,22824,157516,4905,1214,-303,1494,23
20200620,186493,22738,158828,4927,1248,-86,1312,22
20200621,187685,22495,160240,4950,1192,-243,1412,23
20200622,188897,22390,161533,4974,1212,-105,1293,24
20200623,190165,22316,162848,5001,1268,-74,1315,27
20200624,191657,22398,164234,5025,1492,82,1386,24
20200625,193115,22363,165706,5046,1458,-35,1472,21
20200626,194511,22248,167198,5065,1396,-115,1492,19
20200627,195883,21619,169182,5082,1372,-629,1984,17
20200628,197239,21547,170595,5097,1356,-72,1413,15
20200629,198613,21689,171809,5115,1374,142,1214,18
20200630,199906,21664,173111,5131,1293,-25,1302,16
20200701,201098,20526,175422,5150,1192,-1138,2311,19
20200702,202284,20152,176965,5167,1186,-374,1543,17
20200703,203456,19992,178278,5186,1172,-160,1313,19
20200704,204610,19912,179492,5206,1154,-80,1214,20
20200705,205758,19853,180680,5225,1148,-59,1188,19
20200706,206844,18608,182995,5241,1086,-1245,2315,16
20200707,207897,17345,185292,5260,1053,-1263,2297,19
20200708,208938,16145,187511,5282,1041,-1200,2219,22
20200709,209962,14272,190390,5300,1024,-1873,2879,18
20200710,210965,13759,191883,5323,1003,-513,1493,23
20200711,211981,13420,193217,5344,1016,-339,1334,21
20200712,212993,13115,194515,5363,1012,-305,1298,19
20200713,214001,12948,195671,5382,1008,-167,1156,19
20200714,214993,12871,196720,5402,992,-77,1049,20
20200715,215940,12788,197733,5419,947,-83,1013,17
20200716,216873,12613,198820,5440,933,-175,1087,21
20200717,217799,12507,199834,5458,926,-106,1014,18
20200718,218717,12229,201013,5475,918,-278,1179,17
20200719,219641,12140,202010,5491,924,-89,997,16
20200720,220572,12062,203002,5508,931,-78,992,17
20200721,221500,11963,204011,5526,928,-99,1009,18
20200722,222402,11643,205214,5545,902,-320,1203,19
20200723,223315,11387,206365,5563,913,-256,1151,18
20200724,224252,11298,207374,5580,937,-89,1009,17
20200725,225173,11100,208477,5596,921,-198,1103,16
20200726,226100,11000,209487,5613,927,-100,1010,17
20200727,227019,10920,210469,5630,919,-80,982,17
20200728,227982,10776,211561,5645,963,-144,1092,15
20200729,228924,10708,212557,5659,942,-68,996,14
20200730,229891,10678,213539,5674,967,-30,982,15
20200731,230873,10647,214535,5691,982,-31,996,17
20200801,231869,10643,215516,5710,996,-4,981,19
20200802,232856,10634,216494,5728,987,-9,978,18
20200803,233851,10607,217497,5747,995,-27,1003,19
20200804,234934,10678,218491,5765,1083,71,994,18
20200805,236112,10822,219506,5784,1178,144,1015,19
20200806,237265,10921,220546,5798,1153,99,1040,14
20200807,238450,11063,221574,5813,1185,142,1028,15
20200808,239622,11137,222656,5829,1172,74,1082,16
20200809,240804,11201,223759,5844,1182,64,1103,15
20200810,241997,11169,224970,5858,1193,-32,1211,14
20200811,243180,11152,226155,5873,1183,-17,1185,15
20200812,244392,11412,227089,5891,1212,260,934,18
20200813,245635,11666,228057,5912,1243,254,968,21
20200814,246861,11947,228980,5934,1226,281,923,22
20200815,248117,12190,229972,5955,1256,243,992,21
20200816,249309,12366,230969,5974,1192,176,997,19
20200817,250542,12575,231971,5996,1233,209,1002,22
20200818,251805,12876,232913,6016,1263,301,942,20
20200819,253108,13154,233915,6039,1303,278,1002,23
20200820,254520,13665,234797,6058,1412,511,882,19
20200821,255723,14074,235569,6080,1203,409,772,22
20200822,257032,14560,236370,6102,1309,486,801,22
20200823,258249,14963,237165,6121,1217,403,795,19
20200824,259692,15645,237908,6139,1443,682,743,18
20200825,261194,16236,238795,6163,1502,591,887,24
20200826,262507,16527,239797,6183,1313,291,1002,20
20200827,263998,16997,240792,6209,1491,470,995,26
20200828,265515,17461,241809,6245,1517,464,1017,36
20200829,267064,17968,242812,6284,1549,507,1003,39
20200830,268546,18381,243839,6326,1482,413,1027,42
20200831,270133,18837,244926,6370,1587,456,1087,44
20200901,271705,19359,245929,6417,1572,522,1003,47
20200902,273301,19963,246876,6462,1596,604,947,45
20200903,274943,20345,248087,6511,1642,382,1211,49
20200904,276555,20883,249108,6564,1612,538,1021,53
20200905,278228,21516,250092,6620,1673,633,984,56
20200906,279806,22028,251105,6673,1578,512,1013,53
20200907,281509,22627,252152,6730,1703,599,1047,57
20200908,283270,23243,253245,6782,1761,616,1093,52
20200909,284943,23918,254188,6837,1673,675,943,55
20200910,286455,24153,255407,6895,1512,235,1219,58
20200911,288126,24651,256524,6951,1671,498,1117,56
20200912,289635,24905,257731,6999,1509,254,1207,48
20200913,291162,25273,258833,7056,1527,368,1102,57
20200914,292878,25701,260058,7119,1716,428,1225,63
20200915,294620,26174,261260,7186,1742,473,1202,67
20200916,296391,26540,262602,7249,1771,366,1342,63
20200917,298039,26979,263745,7315,1648,439,1143,66
20200918,299810,27628,264805,7377,1771,649,1060,62
20200919,301348,27786,266117,7445,1538,158,1312,68
20200920,302867,28128,267233,7506,1519,342,1116,61
20200921,304610,28601,268435,7574,1743,473,1202,68
20200922,306302,28967,269696,7639,1692,366,1261,65
20200923,308069,29635,270723,7711,1767,668,1027,72
20200924,309790,30041,271964,7785,1721,406,1241,74
20200925,311455,30315,273282,7858,1665,274,1318,73
20200926,312966,30523,274514,7929,1511,208,1232,71
20200927,314433,30806,275630,7997,1467,283,1116,68
20200928,315845,30731,277052,8062,1412,-75,1422,65
20200929,317272,30638,278504,8130,1427,-93,1452,68
20200930,318663,30719,279749,8195,1391,81,1245,65
20201001,320070,30657,281151,8262,1407,-62,1402,67
20201002,321512,30530,282657,8325,1442,-127,1506,63
20201003,323014,30762,283868,8384,1502,232,1211,59
20201004,324443,30952,285050,8441,1429,190,1182,57
20201005,326046,31178,286370,8498,1603,226,1320,57
20201006,327557,31405,287599,8553,1511,227,1229,55
20201007,329138,31575,288954,8609,1581,170,1355,56
20201008,330753,31734,290352,8667,1615,159,1398,58
20201009,332382,31906,291754,8722,1629,172,1402,55
20201010,334031,32108,293145,8778,1649,202,1391,56
20201011,335533,32339,294357,8837,1502,231,1212,59
20201012,337147,32594,295658,8895,1614,255,1301,58
20201013,338779,32850,296972,8957,1632,256,1314,62
20201014,340450,33068,298368,9014,1671,218,1396,57
20201015,342143,33384,299679,9080,1693,316,1311,66
20201016,343955,33704,301098,9153,1812,320,1419,73
20201017,345678,33955,302499,9224,1723,251,1401,71
20201018,347493,34194,304003,9296,1815,239,1504,72
20201019,349519,34721,305427,9371,2026,527,1424,75
20201020,351413,35029,306939,9445,1894,308,1512,74
20201021,353426,35467,308446,9513,2013,438,1507,68
20201022,355528,35917,310027,9584,2102,450,1581,71
20201023,357693,36515,311520,9658,2165,598,1493,74
20201024,359784,36964,313093,9727,2091,449,1573,69
20201025,361801,37612,314390,9799,2017,648,1297,72
20201026,363999,38117,316008,9874,2198,505,1618,75
20201027,366208,38739,317519,9950,2209,622,1511,76
20201028,368513,39305,319181,10027,2305,566,1662,77
20201029,370832,39971,320762,10099,2319,666,1581,72
20201030,373154,40512,322465,10177,2322,541,1703,78
20201031,375367,41144,323971,10252,2213,632,1506,75
20201101,377473,41661,325486,10326,2106,517,1515,74
20201102,379775,42366,327007,10402,2302,705,1521,76
20201103,382118,42813,328824,10481,2343,447,1817,79
20201104,384509,43286,330665,10558,2391,473,1841,77
20201105,386820,43802,332379,10639,2311,516,1714,81
20201106,389256,44241,334293,10722,2436,439,1914,83
20201107,391739,44715,336221,10803,2483,474,1928,81
20201108,394255,45129,338239,10887,2516,414,2018,84
20201109,396831,45573,340286,10972,2576,444,2047,85
20201110,399360,45800,342501,11059,2529,227,2215,87
20201111,402053,46295,344613,11145,2693,495,2112,86
20201112,404894,46867,346794,11233,2841,572,2181,88
20201113,407939,47809,348804,11326,3045,942,2010,93
20201114,411055,48535,351102,11418,3116,726,2298,92
20201115,414278,49108,353663,11507,3223,573,2561,89
20201116,417594,49618,356375,11601,3316,510,2712,94
20201117,421413,50646,359063,11704,3819,1028,2688,103
20201118,425628,52153,361655,11820,4215,1507,2592,116
20201119,430170,53654,364573,11943,4542,1501,2918,123
20201120,435273,55597,367592,12084,5103,1943,3019,141
20201121,440805,57761,370825,12219,5532,2164,3233,135
20201122,446822,59827,374637,12358,6017,2066,3812,139
20201123,453535,63133,377891,12511,6713,3306,3254,153
20201124,460916,66675,381569,12672,7381,3542,3678,161
20201125,467730,69410,385480,12840,6814,2735,3911,168
20201126,503738,101953,388771,13014,36008,32543,3291,174
20201127,548244,142437,392616,13191,44506,40484,3845,177
20201128,578347,168747,396227,13373,30103,26310,3611,182
20201129,607628,193828,400242,13558,29281,25081,4015,185
20201130,638847,220374,404727,13746,31219,26546,4485,188
20201201,668957,245701,409320,13936,30110,25327,4593,190
20201202,700880,272610,414141,14129,31923,26909,4821,193
20201203,733261,300614,418331,14316,32381,28004,4190,187
20201204,765997,328346,423142,14509,32736,27732,4811,193
20201205,797893,355946,427242,14705,31896,27600,4100,196
20201206,828295,382142,431253,14900,30402,26196,4011,195
20201207,860432,409059,436270,15103,32137,26917,5017,203
20201208,893630,436801,441515,15314,33198,27742,5245,211
20201209,925342,462450,447361,15531,31712,25649,5846,217
20201210,1748567,1280223,452593,15751,823225,817773,5232,220
20201211,1780673,1306587,458109,15977,32106,26364,5516,226
20201212,1809809,212045,1581565,16199,29136,-1094542,1123456,222
20201213,1836728,216531,1603780,16417,26919,4486,22215,218
20201214,1866345,217755,1631944,16646,29617,1224,28164,229
20201215,1898447,220375,1661191,16881,32102,2620,29247,235
20201216,1928165,219931,1691113,17121,29718,-444,29922,240
20201217,1955680,216709,1721607,17364,27515,-3222,30494,243
20201218,1982090,210928,1753552,17610,26410,-5781,31945,246
20201219,2004285,207366,1779068,17851,22195,-3562,25516,241
20201220,2024601,206218,1800286,18097,20316,-1148,21218,246
20201221,2043704,190648,1834705,18351,19103,-15570,34419,254
20201222,2062960,177543,1866815,18602,19256,-13105,32110,251
20201223,2082610,162442,1901307,18861,19650,-15101,34492,259
20201224,2100712,146305,1935292,19115,18102,-16137,33985,254
20201225,2118255,128081,1970803,19371,17543,-18224,35511,256
20201226,2133373,119715,1994034,19624,15118,-8366,23231,253
20201227,2147578,112470,2015230,19878,14205,-7245,21196,254
20201228,2162775,105207,2037433,20135,15197,-7263,22203,257
20201229,2178580,99755,2058437,20388,15805,-5452,21004,253
20201230,2194272,95001,2078629,20642,15692,-4754,20192,254
20201231,2208652,87121,2100650,20881,14380,-7880,22021,239
20210101,2220855,85002,2114760,21093,12203,-2119,14110,212
20210102,2232035,84308,2126432,21295,11180,-694,11672,202
20210103,2241912,83890,2136534,21488,9877,-418,10102,193
20210104,2255607,87492,2146430,21685,13695,3602,9896,197
20210105,2270101,92884,2155338,21879,14494,5392,8908,194
20210106,2283931,97821,2164040,22070,13830,4937,8702,191
20210107,2296102,101587,2172251,22264,12171,3766,8211,194
20210108,2307581,102986,2182145,22450,11479,1399,9894,186
20210109,2317118,104440,2190047,22631,9537,1454,7902,181
20210110,2326256,105299,2198150,22807,9138,859,8103,176
20210111,2336476,105044,2208451,22981,10220,-255,10301,174
20210112,2346285,104669,2218464,23152,9809,-375,10013,171
20210113,2355839,104587,2227927,23325,9554,-82,9463,173
20210114,2364801,104368,2236938,23495,8962,-219,9011,170
20210115,2373115,103404,2246047,23664,8314,-964,9109,169
20210116,2380665,102781,2254052,23832,7550,-623,8005,168
20210117,2387101,100240,2262864,23997,6436,-2541,8812,165
20210118,2392963,98033,2270769,24161,5862,-2207,7905,164
20210119,2399781,97466,2277987,24328,6818,-567,7218,167
20210120,2406216,97810,2283919,24487,6435,344,5932,159
20210121,2412505,97833,2290032,24640,6289,23,6113,153
20210122,2418472,97633,2296050,24789,5967,-200,6018,149
20210123,2424328,97534,2301861,24933,5856,-99,5811,144
20210124,2429605,96811,2307721,25073,5277,-723,5860,140
20210125,2435247,95634,2314403,25210,5642,-1177,6682,137
20210126,2442350,94495,2322511,25344,7103,-1139,8108,134
20210127,2449839,93049,2331314,25476,7489,-1446,8803,132
20210128,2457118,91297,2340216,25605,7279,-1752,8902,129
20210129,2464030,89985,2348309,25736,6912,-1312,8093,131
20210130,2470901,89627,2355409,25865,6871,-358,7100,129
20210131,2477463,89055,2362415,25993,6562,-572,7006,128
20210201,2485182,88634,2370431,26117,7719,-421,8016,124
20210202,2492977,87670,2379070,26237,7795,-964,8639,120
20210203,2501079,87341,2387384,26354,8102,-329,8314,117
20210204,2508988,86322,2396199,26467,7909,-1019,8815,113
20210205,2516889,85896,2404416,26577,7901,-426,8217,110
20210206,2524786,85596,2412505,26685,7897,-300,8089,108
20210207,2531456,83953,2420706,26797,6670,-1643,8201,112
20210208,2539559,83386,2429273,26900,8103,-567,8567,103
20210209,2548195,83815,2437382,26998,8636,429,8109,98
20210210,2556837,84459,2445285,27093,8642,644,7903,95
20210211,2564427,84144,2453096,27187,7590,-315,7811,94
20210212,2572190,83702,2461204,27284,7763,-442,8108,97
20210213,2579896,84100,2468419,27377,7706,398,7215,93
20210214,2586183,83383,2475329,27471,6287,-717,6910,94
20210215,2594128,84131,2482435,27562,7945,748,7106,91
20210216,2602034,84758,2489624,27652,7906,627,7189,90
20210217,2609359,84788,2496833,27738,7325,30,7209,86
20210218,2616600,84729,2504050,27821,7241,-59,7217,83
20210219,2624019,84568,2511548,27903,7419,-161,7498,82
20210220,2631876,85135,2518758,27983,7857,567,7210,80
20210221,2638422,86602,2523760,28060,6546,1467,5002,77
20210222,2646526,88938,2529450,28138,8104,2336,5690,78
20210223,2655633,92424,2534996,28213,9107,3486,5546,75
20210224,2665194,96616,2540293,28285,9561,4192,5297,72
20210225,2674766,99905,2546503,28358,9572,3289,6210,73
20210226,2683971,98754,2556785,28432,9205,-1151,10282,74
20210227,2693164,98938,2565723,28503,9193,184,8938,71
20210228,2701588,100785,2572234,28569,8424,1847,6511,66
20210301,2711479,104660,2578181,28638,9891,3875,5947,69
20210302,2723316,108537,2586073,28706,11837,3877,7892,68
20210303,2734836,112801,2593264,28771,11520,4264,7191,65
20210304,2746158,116182,2601137,28839,11322,3381,7873,68
20210305,2757460,119711,2608848,28901,11302,3529,7711,62
20210306,2769230,124126,2616139,28965,11770,4415,7291,64
20210307,2780417,127463,2623924,29030,11187,3337,7785,65
20210308,2793632,132508,2632030,29094,13215,5045,8106,64
20210309,2807387,137558,2640669,29160,13755,5050,8639,66
20210310,2821943,142854,2649862,29227,14556,5296,9193,67
20210311,2835989,147606,2659093,29290,14046,4752,9231,63
20210312,2850930,151301,2670273,29356,14941,3695,11180,66
20210313,2866012,151031,2685560,29421,15082,-270,15287,65
20210314,2879390,148825,2701076,29489,13378,-2206,15516,68
20210315,2894893,148372,2716969,29552,15503,-453,15893,63
20210316,2911642,147157,2734862,29623,16749,-1215,17893,71
20210317,2930554,148835,2752023,29696,18912,1678,17161,73
20210318,2950603,150188,2770638,29777,20049,1353,18615,81
20210319,2971633,153012,2788757,29864,21030,2824,18119,87
20210320,2992694,155163,2807572,29959,21061,2151,18815,95
20210321,3013122,157874,2825187,30061,20428,2711,17615,102
20210322,3035338,160479,2844681,30178,22216,2605,19494,117
20210323,3061520,167322,2863882,30316,26182,6843,19201,138
20210324,3091282,179177,2881643,30462,29762,11855,17761,146
20210325,3120013,188565,2900829,30619,28731,9388,19186,157
20210326,3149094,197285,2921037,30772,29081,8720,20208,153
20210327,3179115,208263,2939929,30923,30021,10978,18892,151
20210328,3208173,220004,2957093,31076,29058,11741,17164,153
20210329,3240577,234239,2975108,31230,32404,14235,18015,154
20210330,3277880,251462,2995033,31385,37303,17223,19925,155
20210331,3317182,271419,3014226,31537,39302,19957,19193,152
20210401,3357988,291232,3035043,31713,40806,19813,20817,176
20210402,3400296,308942,3059462,31892,42308,17710,24419,179
20210403,3445052,330298,3082676,32078,44756,21356,23214,186
20210404,3487050,349437,3105350,32263,41998,19139,22674,185
20210405,3529601,366168,3130977,32456,42551,16731,25627,193
20210406,3579185,387043,3159475,32667,49584,20875,28498,211
20210407,3633925,406004,3194978,32943,54740,18961,35503,276
20210408,3689866,423773,3232892,33201,55941,17769,37914,258
20210409,3745657,443525,3268678,33454,55791,19752,35786,253
20210410,3798333,463414,3301217,33702,52676,19889,32539,248
20210411,3849011,483661,3331411,33939,50678,20247,30194,237
20210412,3903573,496762,3372629,34182,54562,13101,41218,243
20210413,3962760,503572,3424733,34455,59187,6810,52104,273
20210414,4025557,510677,3480146,34734,62797,7105,55413,279
20210415,4086957,516886,3535040,35031,61400,6209,54894,297
20210416,4150039,523169,3591550,35320,63082,6283,56510,289
20210417,4212645,533303,3643734,35608,62606,10134,52184,288
20210418,4268447,544931,3687590,35926,55802,11628,43856,318
20210419,4323596,550792,3736537,36267,55149,5861,48947,341
20210420,4384624,555882,3792129,36613,61028,5090,55592,346
20210421,4446591,565274,3844342,36975,61967,9392,52213,362
20210422,4501382,554118,3909935,37329,54791,-11156,65593,354
20210423,4550820,543037,3970111,37672,49438,-11081,60176,343
20210424,4591416,530997,4022408,38011,40596,-12040,52297,339
20210425,4629969,517967,4073644,38358,38553,-13030,51236,347
20210426,4667281,506899,4121671,38711,37312,-11068,48027,353
20210427,4710582,504262,4167263,39057,43301,-2637,45592,346
20210428,4751026,499167,4212461,39398,40444,-5095,45198,341
20210429,4788700,493249,4255714,39737,37674,-5918,43253,339
20210430,4820591,456563,4323897,40131,31891,-36686,68183,394
20210501,4849408,403705,4405199,40504,28817,-52858,81302,373
20210502,4875388,354163,4480381,40844,25980,-49542,75182,340
20210503,4900121,343111,4515819,41191,24733,-11052,35438,347
20210504,4929118,333554,4554037,41527,28997,-9557,38218,336
20210505,4955594,324210,4589501,41883,26476,-9344,35464,356
20210506,4977982,308996,4626799,42187,22388,-15214,37298,304
20210507,4998089,293296,4662328,42465,20107,-15700,35529,278
20210508,5016141,282171,4691224,42746,18052,-11125,28896,281
20210509,5031332,271385,4716918,43029,15191,-10786,25694,283
20210510,5044936,257754,4743871,43311,13604,-13631,26953,282
20210511,5059433,249720,4766124,43589,14497,-8034,22253,278
20210512,5072462,227350,4801291,43821,13029,-22370,35167,232
20210513,5083996,183174,4856763,44059,11534,-44176,55472,238
20210514,5095390,157065,4894024,44301,11394,-26109,37261,242
20210515,5106862,129487,4932838,44537,11472,-27578,38814,236
20210516,5117374,125358,4947256,44760,10512,-4129,14418,223
20210517,5127548,121445,4961120,44983,10174,-3913,13864,223
20210518,5139485,123054,4971245,45186,11937,1609,10125,203
20210519,5151038,125103,4980516,45419,11553,2049,9271,233
20210520,5160423,125010,4989787,45626,9385,-93,9271,207
20210521,5169951,125472,4998639,45840,9528,462,8852,214
20210522,5178648,119466,5013111,46071,8697,-6006,14472,231
20210523,5186487,115906,5024313,46268,7839,-3560,11202,197
20210524,5194010,113248,5034316,46446,7523,-2658,10003,178
20210525,5203385,111256,5045508,46621,9375,-1992,11192,175
20210526,5212123,107623,5057713,46787,8738,-3633,12205,166
20210527,5220549,102764,5070815,46970,8426,-4859,13102,183
20210528,5228322,98089,5083099,47134,7773,-4675,12284,164
20210529,5235978,94428,5094279,47271,7656,-3661,11180,137
20210530,5242911,90464,5105042,47405,6933,-3964,10763,134
20210531,5249404,87253,5114624,47527,6493,-3211,9582,122
20210601,5256516,84779,5124081,47656,7112,-2474,9457,129
20210602,5263697,84476,5131453,47768,7181,-303,7372,112
20210603,5270299,82424,5139993,47882,6602,-2052,8540,114
20210604,5276468,80882,5147610,47976,6169,-1542,7617,94
20210605,5282594,79755,5154771,48068,6126,-1127,7161,92
20210606,5287980,79042,5160774,48164,5386,-713,6003,96
20210607,5293627,78022,5167350,48255,5647,-1020,6576,91
20210608,5300236,78709,5173186,48341,6609,687,5836,86
20210609,5306690,78429,5179833,48428,6454,-280,6647,87
20210610,5313098,77846,5186728,48524,6408,-583,6895,96
20210611,5319359,77821,5192945,48593,6261,-25,6217,69
20210612,5325435,78710,5198057,48668,6076,889,5112,75
20210613,5330447,79475,5202251,48721,5012,765,4194,53
20210614,5336073,80442,5206836,48795,5626,967,4585,74
20210615,5342028,82127,5211022,48879,5955,1685,4186,84
20210616,5348249,83645,5215654,48950,6221,1518,4632,71
20210617,5354153,85344,5219797,49012,5904,1699,4143,62
20210618,5359728,86433,5224224,49071,5575,1089,4427,59
20210619,5365208,87667,5228419,49122,5480,1234,4195,51
20210620,5370299,88476,5232638,49185,5091,809,4219,63
20210621,5375593,88626,5237731,49236,5294,150,5093,51
20210622,5381736,89498,5242945,49293,6143,872,5214,57
20210623,5387545,89325,5248862,49358,5809,-173,5917,65
20210624,5393248,89123,5254708,49417,5703,-202,5846,59
20210625,5398878,87513,5261892,49473,5630,-1610,7184,56
20210626,5404144,85326,5269294,49524,5266,-2187,7402,51
20210627,5409027,84220,5275231,49576,4883,-1106,5937,52
20210628,5414310,84118,5280558,49634,5283,-102,5327,58
20210629,5420156,83375,5287094,49687,5846,-743,6536,53
20210630,5425652,81635,5294285,49732,5496,-1740,7191,45
20210701,5430940,80662,5300504,49774,5288,-973,6219,42
20210702,5435831,80146,5305856,49829,4891,-516,5352,55
20210703,5440368,79725,5310769,49874,4537,-421,4913,45
20210704,5444786,79725,5314930,49924,4418,0,4161,50
20210705,5449464,79725,5319665,49959,4678,0,4735,35
20210706,5454763,79840,5324111,49996,5299,115,4446,37
20210707,5459923,81128,5328747,50048,5160,1288,4636,52
20210708,5465094,81239,5333759,50096,5171,111,5012,48
20210709,5470764,81239,5338885,50155,5670,0,5126,59
20210710,5476294,81239,5344102,50192,5530,0,5217,37
20210711,5481555,81239,5349344,50229,5261,0,5242,37
20210712,5486959,81239,5354850,50278,5404,0,5506,49
20210713,5493244,82908,5360012,50324,6285,1669,5162,46
20210714,5500151,84709,5365075,50367,6907,1801,5063,43
20210715,5507455,86862,5370178,50415,7304,2153,5103,48
20210716,5514373,88661,5375262,50450,6918,1799,5084,35
20210717,5522039,90799,5380752,50488,7666,2138,5490,38
20210718,5522039,90799,5380752,50488,0,0,0,0
20210719,5537386,96043,5390739,50604,15347,5244,9987,116
20210720,5546166,100216,5395300,50650,8780,4173,4561,46
20210721,5554317,103362,5400246,50709,8151,3146,4946,59
20210722,5563903,107803,5405339,50761,9586,4441,5093,52
20210723,5574997,113622,5410554,50821,11094,5819,5215,60
20210724,5587378,113622,5415937,50879,12381,0,5383,58
20210725,5601608,129526,5421148,50934,14230,15904,5211,55
20210726,5618417,140687,5426733,50997,16809,11161,5585,63
20210727,5638178,153289,5433841,51048,19761,12602,7108,51
20210728,5660469,171307,5438038,51124,22291,18018,4197,76
20210729,5682630,187945,5443501,51184,22161,16638,5463,60
20210730,5704713,204207,5449253,51253,22083,16262,5752,69
20210731,5727045,221353,5454360,51332,22332,17146,5107,79
20210801,5747935,236608,5459899,51428,20890,15255,5539,96
20210802,5770833,253468,5465846,51519,22898,16860,5947,91
20210803,5795665,271931,5472089,51645,24832,18463,6243,126
20210804,5822487,292535,5478185,51767,26822,20604,6096,122
20210805,5846784,0,0,51875,24297,-292535,-5478185,108
20210806,5870741,0,0,51976,23957,0,0,101
20210807,5895841,0,0,52088,25100,0,0,112
20210808,5895841,0,0,52088,0,0,0,0
20210809,5942241,0,0,52313,46400,0,0,225
20210810,5968838,0,0,52437,26597,0,0,124
20210811,5996194,0,0,52565,27356,0,0,128
20210812,6018455,0,0,52703,22261,0,0,138
20210813,6039827,0,0,52860,21372,0,0,157
20210814,6059776,0,0,53005,19949,0,0,145
20210815,6078623,0,0,53159,18847,0,0,154
20210816,6096786,0,0,53324,18163,0,0,165
20210817,6118478,0,0,53507,21692,0,0,183
20210818,6138422,0,0,53675,19944,0,0,168
20210819,6157742,0,0,53891,19320,0,0,216
20210820,6177660,0,0,54095,19918,0,0,204
20210821,6197011,0,0,54327,19351,0,0,232
20210822,6215633,0,0,54533,18622,0,0,206
20210823,6234490,0,0,54765,18857,0,0,232
20210824,6253681,0,0,54995,19191,0,0,230
20210825,6273651,0,0,55212,19970,0,0,217
20210826,6293267,0,0,55469,19616,0,0,257
20210827,6311607,0,0,55713,18340,0,0,244
20210828,6329519,0,0,55958,17912,0,0,245
20210829,6346851,0,0,56213,17332,0,0,255
20210830,6366408,0,0,56458,19557,0,0,245
20210831,6388301,0,0,56710,21893,0,0,252
20210901,6412247,0,0,57000,23946,0,0,290
20210902,6412247,0,0,57000,0,0,0,0
20210903,6412247,0,0,57000,0,0,0,0
20210904,6412247,0,0,57000,0,0,0,0
