date,infected,active,recovered,dead,deltaInfected,deltaActive,deltaRecovered,deltaDead
20200314,2,2,0,0,2,2,0,0
20200315,2,2,0,0,0,0,0,0
20200316,4,4,0,0,2,2,0,0
20200317,5,5,0,0,1,1,0,0
20200318,7,7,0,0,2,2,0,0
20200319,9,9,0,0,2,2,0,0
20200320,9,9,0,0,0,0,0,0
20200321,49,48,1,0,40,39,1,0
20200322,50,50,0,0,1,2,-1,0
20200323,51,51,0,0,1,1,0,0
20200324,57,57,0,0,6,6,0,0
20200325,60,59,0,1,3,2,0,1
20200326,65,64,0,1,5,5,0,0
20200327,66,63,1,2,1,-1,1,1
20200328,74,70,1,3,8,7,0,1
20200329,78,74,1,3,4,4,0,0
20200330,82,78,1,3,4,4,0,0
20200331,87,83,1,3,5,5,0,0
20200401,90,84,1,5,3,1,0,2
20200402,94,88,1,5,4,4,0,0
20200403,98,91,1,6,4,3,0,1
20200404,103,96,1,6,5,5,0,0
20200405,104,96,1,7,1,0,0,1
20200406,105,96,1,8,1,0,0,1
20200407,107,98,1,8,2,2,0,0
20200408,107,98,1,8,0,0,0,0
20200409,109,100,1,8,2,2,0,0
20200410,109,100,1,8,0,0,0,0
20200411,112,92,12,8,3,-8,11,0
20200412,113,89,16,8,1,-3,4,0
20200413,113,89,16,8,0,0,0,0
20200414,113,88,17,8,0,-1,1,0
20200415,114,87,19,8,1,-1,2,0
20200416,114,86,20,8,0,-1,1,0
20200417,114,86,20,8,0,0,0,0
20200418,114,85,21,8,0,-1,1,0
20200419,114,85,21,8,0,0,0,0
20200420,114,84,22,8,0,-1,1,0
20200421,115,79,28,8,1,-5,6,0
20200422,115,70,37,8,0,-9,9,0
20200423,115,59,48,8,0,-11,11,0
20200424,115,59,48,8,0,0,0,0
20200425,115,54,53,8,0,-5,5,0
20200426,115,53,54,8,0,-1,1,0
20200427,116,49,59,8,1,-4,5,0
20200428,116,49,59,8,0,0,0,0
20200429,116,37,71,8,0,-12,12,0
20200430,116,36,72,8,0,-1,1,0
20200501,116,25,83,8,0,-11,11,0
20200502,116,20,88,8,0,-5,5,0
20200503,116,15,93,8,0,-5,5,0
20200504,116,9,99,8,0,-6,6,0
20200505,116,5,103,8,0,-4,4,0
20200506,116,5,103,8,0,0,0,0
20200507,116,5,103,8,0,0,0,0
20200508,116,5,103,8,0,0,0,0
20200509,116,4,104,8,0,-1,1,0
20200510,116,1,107,8,0,-3,3,0
20200511,116,1,107,8,0,0,0,0
20200512,116,1,107,8,0,0,0,0
20200513,116,1,107,8,0,0,0,0
20200514,116,1,107,8,0,0,0,0
20200515,116,1,107,8,0,0,0,0
20200516,116,1,107,8,0,0,0,0
20200517,116,1,107,8,0,0,0,0
20200518,116,1,107,8,0,0,0,0
20200519,116,1,107,8,0,0,0,0
20200520,116,1,107,8,0,0,0,0
20200521,116,0,108,8,0,-1,1,0
20200522,116,0,108,8,0,0,0,0
20200523,116,0,108,8,0,0,0,0
20200524,116,0,108,8,0,0,0,0
20200525,116,0,108,8,0,0,0,0
20200526,116,0,108,8,0,0,0,0
20200527,116,0,108,8,0,0,0,0
20200528,116,0,108,8,0,0,0,0
20200529,116,0,108,8,0,0,0,0
20200530,117,1,108,8,1,1,0,0
20200531,117,1,108,8,0,0,0,0
20200601,117,1,108,8,0,0,0,0
20200602,117,1,108,8,0,0,0,0
20200603,117,1,108,8,0,0,0,0
20200604,117,1,108,8,0,0,0,0
20200605,117,1,108,8,0,0,0,0
20200606,117,1,108,8,0,0,0,0
20200607,117,1,108,8,0,0,0,0
20200608,117,0,109,8,0,-1,1,0
20200609,117,0,109,8,0,0,0,0
20200610,117,0,109,8,0,0,0,0
20200611,117,0,109,8,0,0,0,0
20200612,117,0,109,8,0,0,0,0
20200613,117,0,109,8,0,0,0,0
20200614,123,6,109,8,6,6,0,0
20200615,123,6,109,8,0,0,0,0
20200616,123,6,109,8,0,0,0,0
20200617,123,6,109,8,0,0,0,0
20200618,123,6,109,8,0,0,0,0
20200619,123,6,109,8,0,0,0,0
20200620,123,6,109,8,0,0,0,0
20200621,123,6,109,8,0,0,0,0
20200622,123,6,109,8,0,0,0,0
20200623,123,6,109,8,0,0,0,0
20200624,123,6,109,8,0,0,0,0
20200625,123,6,109,8,0,0,0,0
20200626,124,7,109,8,1,1,0,0
20200627,126,9,109,8,2,2,0,0
20200628,126,9,109,8,0,0,0,0
20200629,126,9,109,8,0,0,0,0
20200630,130,9,113,8,4,0,4,0
20200701,130,7,115,8,0,-2,2,0
20200702,130,7,115,8,0,0,0,0
20200703,130,7,115,8,0,0,0,0
20200704,130,7,115,8,0,0,0,0
20200705,133,10,115,8,3,3,0,0
20200706,133,8,117,8,0,-2,2,0
20200707,133,8,117,8,0,0,0,0
20200708,133,8,117,8,0,0,0,0
20200709,133,5,120,8,0,-3,3,0
20200710,133,5,120,8,0,0,0,0
20200711,133,5,120,8,0,0,0,0
20200712,133,5,120,8,0,0,0,0
20200713,133,1,124,8,0,-4,4,0
20200714,133,1,124,8,0,0,0,0
20200715,133,1,124,8,0,0,0,0
20200716,133,1,124,8,0,0,0,0
20200717,136,4,124,8,3,3,0,0
20200718,137,5,124,8,1,1,0,0
20200719,137,5,124,8,0,0,0,0
20200720,137,5,124,8,0,0,0,0
20200721,139,7,124,8,2,2,0,0
20200722,141,6,127,8,2,-1,3,0
20200723,141,5,128,8,0,-1,1,0
20200724,142,6,128,8,1,1,0,0
20200725,147,11,128,8,5,5,0,0
20200726,147,11,128,8,0,0,0,0
20200727,148,12,128,8,1,1,0,0
20200728,153,17,128,8,5,5,0,0
20200729,156,20,128,8,3,3,0,0
20200730,164,26,130,8,8,6,2,0
20200731,169,29,132,8,5,3,2,0
20200801,173,33,132,8,4,4,0,0
20200802,182,42,132,8,9,9,0,0
20200803,182,39,135,8,0,-3,3,0
20200804,194,51,135,8,12,12,0,0
20200805,199,56,135,8,5,5,0,0
20200806,210,67,135,8,11,11,0,0
20200807,225,82,135,8,15,15,0,0
20200808,275,132,135,8,50,50,0,0
20200809,279,136,135,8,4,4,0,0
20200810,281,135,138,8,2,-1,3,0
20200811,300,153,139,8,19,18,1,0
20200812,326,179,139,8,26,26,0,0
20200813,404,257,139,8,78,78,0,0
20200814,426,277,139,10,22,20,0,2
20200815,497,348,139,10,71,71,0,0
20200816,552,401,140,11,55,53,1,1
20200817,588,436,140,12,36,35,0,1
20200818,629,477,140,12,41,41,0,0
20200819,686,534,140,12,57,57,0,0
20200820,767,615,140,12,81,81,0,0
20200821,864,690,162,12,97,75,22,0
20200822,930,752,165,13,66,62,3,1
20200823,1007,828,165,14,77,76,0,1
20200824,1099,919,165,15,92,91,0,1
20200825,1252,1059,178,15,153,140,13,0
20200826,1411,1204,192,15,159,145,14,0
20200827,1429,867,192,15,18,-337,0,0
20200828,1554,907,628,19,125,40,436,4
20200829,1645,732,894,19,91,-175,266,0
20200830,1683,990,672,21,38,258,-222,2
20200831,1759,1061,676,22,76,71,4,1
20200901,1797,1085,685,27,38,24,9,5
20200902,1920,1201,691,28,123,116,6,1
20200903,1984,1255,700,29,64,54,9,1
20200904,2040,1302,707,31,56,47,7,2
20200905,2230,1480,717,33,190,178,10,2
20200906,2250,1492,724,34,20,12,7,1
20200907,2277,1506,734,37,27,14,10,3
20200908,2391,1609,743,39,114,103,9,2
20200909,2588,1800,749,39,197,191,6,0
20200910,2698,1900,755,43,110,100,6,4
20200911,2825,2013,762,50,127,113,7,7
20200912,2993,2176,766,51,168,163,4,1
20200913,3042,2217,772,53,49,41,6,2
20200914,3141,2299,787,55,99,82,15,2
20200915,3223,2369,798,56,82,70,11,1
20200916,3327,2459,810,58,104,90,12,2
20200917,3434,1905,1469,60,107,-554,659,2
20200918,3651,2005,1586,60,217,100,117,0
20200919,3853,2097,1695,61,202,92,109,1
20200920,3901,2083,1753,65,48,-14,58,4
20200921,3945,2078,1802,65,44,-5,49,0
20200922,4026,2090,1871,65,81,12,69,0
20200923,4136,2109,1960,67,110,19,89,2
20200924,4235,2121,2047,67,99,12,87,0
20200925,4277,2085,2122,70,42,-36,75,3
20200926,4312,2057,2185,70,35,-28,63,0
20200927,4362,2057,2234,71,50,0,49,1
20200928,4386,2039,2275,72,24,-18,41,1
20200929,4463,1935,2454,74,77,-104,179,2
20200930,4531,1895,2560,76,68,-40,106,2
20201001,4570,1865,2629,76,39,-30,69,0
20201002,4629,1824,2729,76,59,-41,100,0
20201003,4715,1834,2802,79,86,10,73,3
20201004,4763,1839,2843,81,48,5,41,2
20201005,4767,1801,2884,82,4,-38,41,1
20201006,4846,1812,2951,83,79,11,67,1
20201007,4887,1793,3010,84,41,-19,59,1
20201008,4963,1801,3076,86,76,8,66,2
20201009,5021,1782,3150,89,58,-19,74,3
20201010,5043,1732,3221,90,22,-50,71,1
20201011,5043,1732,3221,90,0,0,0,0
20201012,5116,1721,3303,92,73,-11,82,2
20201013,5127,1667,3367,93,11,-54,64,1
20201014,5154,1609,3452,93,27,-58,85,0
20201015,5194,1599,3502,93,40,-10,50,0
20201016,5241,1601,3545,95,47,2,43,2
20201017,5281,1602,3584,95,40,1,39,0
20201018,5297,1549,3652,96,16,-53,68,1
20201019,5298,1505,3696,97,1,-44,44,1
20201020,5333,1477,3758,98,35,-28,62,1
20201021,5392,1469,3822,101,59,-8,64,3
20201022,5446,1467,3876,103,54,-2,54,2
20201023,5487,1438,3945,104,41,-29,69,1
20201024,5503,1380,4018,105,16,-58,73,1
20201025,5511,1321,4085,105,8,-59,67,0
20201026,5535,1303,4126,106,24,-18,41,1
20201027,5568,1276,4186,106,33,-27,60,0
20201028,5594,1241,4246,107,26,-35,60,1
20201029,5636,1236,4293,107,42,-5,47,0
20201030,5668,1106,4455,107,32,-130,162,0
20201031,5692,974,4610,108,24,-132,155,1
20201101,5704,832,4763,109,12,-142,153,1
20201102,5704,708,4887,109,0,-124,124,0
20201103,5754,715,4929,110,50,7,42,1
20201104,5764,661,4993,110,10,-54,64,0
20201105,5774,639,5024,111,10,-22,31,1
20201106,5798,603,5084,111,24,-36,60,0
20201107,5838,600,5127,111,40,-3,43,0
20201108,5849,606,5132,111,11,6,5,0
20201109,5849,535,5203,111,0,-71,71,0
20201110,5880,531,5238,111,31,-4,35,0
20201111,5904,509,5284,111,24,-22,46,0
20201112,5930,502,5317,111,26,-7,33,0
20201113,5980,526,5343,111,50,24,26,0
20201114,6077,592,5373,112,97,66,30,1
20201115,6080,566,5402,112,3,-26,29,0
20201116,6096,544,5440,112,16,-22,38,0
20201117,6135,562,5460,113,39,18,20,1
20201118,6180,562,5505,113,45,0,45,0
20201119,6233,589,5531,113,53,27,26,0
20201120,6261,589,5559,113,28,0,28,0
20201121,6324,650,5559,115,63,61,0,2
20201122,6450,725,5610,115,126,75,51,0
20201123,6475,738,5622,115,25,13,12,0
20201124,6488,734,5639,115,13,-4,17,0
20201125,6503,732,5655,116,15,-2,16,1
20201126,6570,774,5680,116,67,42,25,0
20201127,6586,758,5710,118,16,-16,30,2
20201128,6630,780,5732,118,44,22,22,0
20201129,6660,795,5745,120,30,15,13,2
20201130,6669,778,5771,120,9,-17,26,0
20201201,6685,758,5807,120,16,-20,36,0
20201202,6704,740,5843,121,19,-18,36,1
20201203,6725,743,5861,121,21,3,18,0
20201204,6735,730,5884,121,10,-13,23,0
20201205,6751,722,5907,122,16,-8,23,1
20201206,6767,708,5937,122,16,-14,30,0
20201207,6775,691,5962,122,8,-17,25,0
20201208,6782,664,5996,122,7,-27,34,0
20201209,6808,650,6036,122,26,-14,40,0
20201210,6833,651,6060,122,25,1,24,0
20201211,6852,627,6103,122,19,-24,43,0
20201212,6864,616,6126,122,12,-11,23,0
20201213,6879,612,6145,122,15,-4,19,0
20201214,6885,582,6180,123,6,-30,35,1
20201215,6900,573,6204,123,15,-9,24,0
20201216,6917,564,6230,123,17,-9,26,0
20201217,6940,432,6385,123,23,-132,155,0
20201218,6955,427,6405,123,15,-5,20,0
20201219,6974,425,6426,123,19,-2,21,0
20201220,7000,420,6457,123,26,-5,31,0
20201221,7012,416,6471,125,12,-4,14,2
20201222,7024,411,6488,125,12,-5,17,0
20201223,7071,451,6495,125,47,40,7,0
20201224,7089,461,6503,125,18,10,8,0
20201225,7097,445,6527,125,8,-16,24,0
20201226,7104,434,6545,125,7,-11,18,0
20201227,7112,436,6551,125,8,2,6,0
20201228,7115,420,6570,125,3,-16,19,0
20201229,7127,407,6595,125,12,-13,25,0
20201230,7132,378,6628,126,5,-29,33,1
20201231,7150,373,6650,127,18,-5,22,1
20210101,7158,360,6671,127,8,-13,21,0
20210102,7162,355,6680,127,4,-5,9,0
20210103,7168,351,6690,127,6,-4,10,0
20210104,7178,333,6718,127,10,-18,28,0
20210105,7186,324,6735,127,8,-9,17,0
20210106,7196,325,6744,127,10,1,9,0
20210107,7210,309,6774,127,14,-16,30,0
20210108,7219,260,6832,127,9,-49,58,0
20210109,7244,272,6844,128,25,12,12,1
20210110,7265,280,6857,128,21,8,13,0
20210111,7273,282,6863,128,8,2,6,0
20210112,7286,275,6883,128,13,-7,20,0
20210113,7305,285,6891,129,19,10,8,1
20210114,7320,294,6896,130,15,9,5,1
20210115,7343,300,6913,130,23,6,17,0
20210116,7370,316,6923,131,27,16,10,1
20210117,7393,331,6930,132,23,15,7,1
20210118,7399,329,6938,132,6,-2,8,0
20210119,7415,338,6945,132,16,9,7,0
20210120,7430,332,6965,133,15,-6,20,1
20210121,7450,343,6974,133,20,11,9,0
20210122,7456,332,6991,133,6,-11,17,0
20210123,7462,326,7002,134,6,-6,11,1
20210124,7473,324,7015,134,11,-2,13,0
20210125,7490,323,7033,134,17,-1,18,0
20210126,7496,304,7058,134,6,-19,25,0
20210127,7509,298,7077,134,13,-6,19,0
20210128,7520,287,7099,134,11,-11,22,0
20210129,7533,275,7124,134,13,-12,25,0
20210130,7542,261,7147,134,9,-14,23,0
20210131,7564,262,7168,134,22,1,21,0
20210201,7566,254,7178,134,2,-8,10,0
20210202,7578,254,7190,134,12,0,12,0
20210203,7586,246,7205,135,8,-8,15,1
20210204,7607,250,7222,135,21,4,17,0
20210205,7607,230,7242,135,0,-20,20,0
20210206,7612,222,7255,135,5,-8,13,0
20210207,7616,215,7266,135,4,-7,11,0
20210208,7616,194,7287,135,0,-21,21,0
20210209,7617,179,7302,136,1,-15,15,1
20210210,7631,181,7314,136,14,2,12,0
20210211,7632,178,7318,136,1,-3,4,0
20210212,7637,177,7323,137,5,-1,5,1
20210213,7642,170,7334,138,5,-7,11,1
20210214,7642,158,7346,138,0,-12,12,0
20210215,7646,157,7351,138,4,-1,5,0
20210216,7656,156,7362,138,10,-1,11,0
20210217,7663,159,7366,138,7,3,4,0
20210218,7666,154,7374,138,3,-5,8,0
20210219,7666,154,7374,138,0,0,0,0
20210220,7676,145,7392,139,10,-9,18,1
20210221,7680,138,7403,139,4,-7,11,0
20210222,7682,132,7411,139,2,-6,8,0
20210223,7686,124,7423,139,4,-8,12,0
20210224,7690,120,7431,139,4,-4,8,0
20210225,7697,122,7436,139,7,2,5,0
20210226,7704,120,7445,139,7,-2,9,0
20210227,7705,108,7458,139,1,-12,13,0
20210228,7713,108,7466,139,8,0,8,0
20210301,7716,103,7474,139,3,-5,8,0
20210302,7717,97,7481,139,1,-6,7,0
20210303,7723,99,7485,139,6,2,4,0
20210304,7727,101,7487,139,4,2,2,0
20210305,7729,100,7490,139,2,-1,3,0
20210306,7732,96,7497,139,3,-4,7,0
20210307,7736,98,7499,139,4,2,2,0
20210308,7736,93,7503,140,0,-5,4,1
20210309,7736,93,7503,140,0,0,0,0
20210310,7743,94,7509,140,7,1,6,0
20210311,7753,90,7523,140,10,-4,14,0
20210312,7759,93,7526,140,6,3,3,0
20210313,7769,102,7527,140,10,9,1,0
20210314,7783,112,7531,140,14,10,4,0
20210315,7788,106,7542,140,5,-6,11,0
20210316,7790,106,7544,140,2,0,2,0
20210317,7807,121,7546,140,17,15,2,0
20210318,7812,123,7549,140,5,2,3,0
20210319,7821,129,7552,140,9,6,3,0
20210320,7839,146,7553,140,18,17,1,0
20210321,7855,154,7561,140,16,8,8,0
20210322,7861,150,7571,140,6,-4,10,0
20210323,7865,151,7573,141,4,1,2,1
20210324,7903,187,7575,141,38,36,2,0
20210325,7924,207,7576,141,21,20,1,0
20210326,7939,217,7581,141,15,10,5,0
20210327,7954,222,7590,142,15,5,9,1
20210328,7977,240,7595,142,23,18,5,0
20210329,7986,245,7599,142,9,5,4,0
20210330,8004,254,7608,142,18,9,9,0
20210331,8026,269,7615,142,22,15,7,0
20210401,8072,309,7618,145,46,40,3,3
20210402,8116,347,7624,145,44,38,6,0
20210403,8136,351,7640,145,20,4,16,0
20210404,8178,385,7648,145,42,34,8,0
20210405,8192,382,7665,145,14,-3,17,0
20210406,8214,392,7677,145,22,10,12,0
20210407,8235,407,7683,145,21,15,6,0
20210408,8276,432,7699,145,41,25,16,0
20210409,8323,466,7712,145,47,34,13,0
20210410,8382,514,7723,145,59,48,11,0
20210411,8404,518,7740,146,22,4,17,1
20210412,8441,520,7775,146,37,2,35,0
20210413,8511,566,7799,146,70,46,24,0
20210414,8596,630,7818,148,85,64,19,2
20210415,8678,685,7843,150,82,55,25,2
20210416,8678,685,7843,150,0,0,0,0
20210417,8806,748,7908,150,128,63,65,0
20210418,8940,847,7940,153,134,99,32,3
20210419,8964,834,7976,154,24,-13,36,1
20210420,9135,982,7996,157,171,148,20,3
20210421,9216,1023,8036,157,81,41,40,0
20210422,9383,1161,8065,157,167,138,29,0
20210423,9383,1161,8065,157,0,0,0,0
20210424,9487,1238,8092,157,104,77,27,0
20210425,9676,1344,8173,159,189,106,81,2
20210426,9796,1409,8228,159,120,65,55,0
20210427,9947,1505,8281,161,151,96,53,2
20210428,10170,1656,8351,163,223,151,70,2
20210429,10498,1913,8420,165,328,257,69,2
20210430,10824,2174,8481,169,326,261,61,4
20210501,11072,2355,8546,171,248,181,65,2
20210502,11313,2506,8633,174,241,151,87,3
20210503,11471,2559,8733,179,158,53,100,5
20210504,11706,2689,8832,185,235,130,99,6
20210505,12105,3024,8892,189,399,335,60,4
20210506,12396,3236,8969,191,291,212,77,2
20210507,12720,3480,9044,196,324,244,75,5
20210508,13122,3793,9126,203,402,313,82,7
20210509,13355,3907,9237,211,233,114,111,8
20210510,13454,3858,9381,215,99,-49,144,4
20210511,13802,4078,9500,224,348,220,119,9
20210512,14417,4588,9594,235,615,510,94,11
20210513,14814,4814,9744,256,397,226,150,21
20210514,15379,5214,9900,265,565,400,156,9
20210515,15899,5558,10065,276,520,344,165,11
20210516,16255,5762,10208,285,356,204,143,9
20210517,16549,5885,10370,294,294,123,162,9
20210518,17150,6318,10515,317,601,433,145,23
20210519,17669,6649,10689,331,519,331,174,14
20210520,18227,6998,10888,341,558,349,199,10
20210521,18935,7488,11099,348,708,490,211,7
20210522,19444,7765,11314,365,509,277,215,17
20210523,20017,8162,11480,375,573,397,166,10
20210524,20267,8150,11727,390,250,-12,247,15
20210525,20879,8444,12027,408,612,294,300,18
20210526,21461,8710,12326,425,582,266,299,17
20210527,21987,8922,12625,440,526,212,299,15
20210528,22620,9192,12970,458,633,270,345,18
20210529,23001,9250,13281,470,381,58,311,12
20210530,23638,9607,13552,479,637,357,271,9
20210531,23909,9487,13927,495,271,-120,375,16
20210601,24314,9558,14249,507,405,71,322,12
20210602,24726,9579,14624,523,412,21,375,16
20210603,25272,9817,14918,537,546,238,294,14
20210604,25801,10049,15196,556,529,232,278,19
20210605,26192,10064,15564,564,391,15,368,8
20210606,26410,9922,15911,577,218,-142,347,13
20210607,26799,9995,16215,589,389,73,304,12
20210608,27079,9833,16647,599,280,-162,432,10
20210609,27533,9869,17048,616,454,36,401,17
20210610,27806,9610,17566,630,273,-259,518,14
20210611,28106,9453,18009,644,300,-157,443,14
20210612,28422,9335,18431,656,316,-118,422,12
20210613,28723,9249,18804,670,301,-86,373,14
20210614,28982,9164,19141,677,259,-85,337,7
20210615,29309,8956,19667,686,327,-208,526,9
20210616,29606,8869,20042,695,297,-87,375,9
20210617,29956,8803,20454,699,350,-66,412,4
20210618,30183,8578,20892,713,227,-225,438,14
20210619,30513,8496,21285,732,330,-82,393,19
20210620,30619,8274,21608,737,106,-222,323,5
20210621,30767,8148,21872,747,148,-126,264,10
20210622,30982,7954,22267,761,215,-194,395,14
20210623,31207,7809,22630,768,225,-145,363,7
20210624,31429,7640,23014,775,222,-169,384,7
20210625,31775,7613,23371,791,346,-27,357,16
20210626,32069,7594,23675,800,294,-19,304,9
20210627,32198,7508,23873,817,129,-86,198,17
20210628,32343,7351,24170,822,145,-157,297,5
20210629,32528,7177,24518,833,185,-174,348,11
20210630,32793,7125,24821,847,265,-52,303,14
20210701,33029,6943,25229,857,236,-182,408,10
20210702,33153,6733,25554,866,124,-210,325,9
20210703,33313,6622,25812,879,160,-111,258,13
20210704,33428,6533,26003,892,115,-89,191,13
20210705,33555,6417,26239,899,127,-116,236,7
20210706,33805,6378,26524,903,250,-39,285,4
20210707,33920,6244,26758,918,115,-134,234,15
20210708,34241,6305,27013,923,321,61,255,5
20210709,34402,6217,27255,930,161,-88,242,7
20210710,34577,6093,27549,935,175,-124,294,5
20210711,34765,6040,27788,937,188,-53,239,2
20210712,34822,5919,27962,941,57,-121,174,4
20210713,35046,5881,28213,952,224,-38,251,11
20210714,35236,5822,28451,963,190,-59,238,11
20210715,35428,5753,28706,969,192,-69,255,6
20210716,35679,5780,28917,982,251,27,211,13
20210717,35914,5838,29086,990,235,58,169,8
20210718,36017,5780,29245,992,103,-58,159,2
20210719,36198,5742,29458,998,181,-38,213,6
20210720,36354,5691,29663,1000,156,-51,205,2
20210721,36626,5782,29841,1003,272,91,178,3
20210722,36884,5823,30043,1018,258,41,202,15
20210723,37065,5823,30256,1026,181,0,213,8
20210724,37365,5893,30440,1032,300,70,184,6
20210725,37554,5913,30602,1039,189,20,162,7
20210726,37663,5894,30726,1043,109,-19,124,4
20210727,37771,5789,30934,1048,108,-105,208,5
20210728,38014,5852,31106,1056,243,63,172,8
20210729,38247,5849,31341,1057,233,-3,235,1
20210730,38557,5922,31565,1070,310,73,224,13
20210731,38811,5958,31783,1070,254,36,218,0
20210801,38930,5905,31941,1084,119,-53,158,14
20210802,39039,5818,32129,1092,109,-87,188,8
20210803,39162,5756,32305,1101,123,-62,176,9
20210804,39345,5781,32454,1110,183,25,149,9
20210805,39577,0,0,1117,232,-5781,-32454,7
20210806,39577,0,0,1117,0,0,0,0
20210807,40104,0,0,1129,527,0,0,12
20210808,40233,0,0,1137,129,0,0,8
20210809,40361,0,0,1139,128,0,0,2
20210810,40574,0,0,1144,213,0,0,5
20210811,40889,0,0,1151,315,0,0,7
20210812,41207,0,0,1159,318,0,0,8
20210813,41528,0,0,1167,321,0,0,8
20210814,41676,0,0,1173,148,0,0,6
20210815,41866,0,0,1180,190,0,0,7
20210816,41955,0,0,1188,89,0,0,8
20210817,42233,0,0,1196,278,0,0,8
20210818,42427,0,0,1200,194,0,0,4
20210819,42582,0,0,1208,155,0,0,8
20210820,42839,0,0,1215,257,0,0,7
20210821,42962,0,0,1219,123,0,0,4
20210822,43033,0,0,1225,71,0,0,6
20210823,43145,0,0,1237,112,0,0,12
20210824,43344,0,0,1244,199,0,0,7
20210825,43538,0,0,1252,194,0,0,8
20210826,43750,0,0,1258,212,0,0,6
20210827,43999,0,0,1267,249,0,0,9
20210828,44296,0,0,1274,297,0,0,7
20210829,44481,0,0,1278,185,0,0,4
20210830,44606,0,0,1285,125,0,0,7
20210831,44847,0,0,1291,241,0,0,6
20210901,44957,0,0,1302,110,0,0,11
20210902,45061,0,0,1311,104,0,0,9
20210903,45300,0,0,1318,239,0,0,7
20210904,45487,0,0,1325,187,0,0,7
