date,infected,active,recovered,dead,deltaInfected,deltaActive,deltaRecovered,deltaDead
20200321,1,1,0,0,1,1,0,0
20200322,1,1,0,0,0,0,0,0
20200323,9,9,0,0,8,8,0,0
20200324,9,9,0,0,0,0,0,0
20200325,14,14,0,0,5,5,0,0
20200326,14,14,0,0,0,0,0,0
20200327,23,23,0,0,9,9,0,0
20200328,30,30,0,0,7,7,0,0
20200329,33,33,0,0,3,3,0,0
20200330,33,33,0,0,0,0,0,0
20200331,44,44,0,0,11,11,0,0
20200401,44,44,0,0,0,0,0,0
20200402,45,45,0,0,1,1,0,0
20200403,48,48,0,0,3,3,0,0
20200404,48,48,0,0,0,0,0,0
20200405,52,52,0,0,4,4,0,0
20200406,52,52,0,0,0,0,0,0
20200407,52,52,0,0,0,0,0,0
20200408,53,53,0,0,1,1,0,0
20200409,53,53,0,0,0,0,0,0
20200410,53,53,0,0,0,0,0,0
20200411,53,49,4,0,0,-4,4,0
20200412,54,50,4,0,1,1,0,0
20200413,54,47,7,0,0,-3,3,0
20200414,55,47,8,0,1,0,1,0
20200415,55,43,12,0,0,-4,4,0
20200416,55,35,20,0,0,-8,8,0
20200417,56,36,20,0,1,1,0,0
20200418,55,33,22,0,-1,-3,2,0
20200419,55,27,28,0,0,-6,6,0
20200420,56,18,38,0,1,-9,10,0
20200421,61,23,38,0,5,5,0,0
20200422,63,18,45,0,2,-5,7,0
20200423,74,28,46,0,11,10,1,0
20200424,75,29,46,0,1,1,0,0
20200425,75,29,46,0,0,0,0,0
20200426,79,33,46,0,4,4,0,0
20200427,79,32,47,0,0,-1,1,0
20200428,79,27,52,0,0,-5,5,0
20200429,81,29,52,0,2,2,0,0
20200430,83,31,52,0,2,2,0,0
20200501,85,33,52,0,2,2,0,0
20200502,88,36,52,0,3,3,0,0
20200503,89,37,52,0,1,1,0,0
20200504,97,42,55,0,8,5,3,0
20200505,98,43,55,0,1,1,0,0
20200506,100,45,55,0,2,2,0,0
20200507,101,46,55,0,1,1,0,0
20200508,101,46,55,0,0,0,0,0
20200509,116,61,55,0,15,15,0,0
20200510,121,66,55,0,5,5,0,0
20200511,121,66,55,0,0,0,0,0
20200512,129,74,55,0,8,8,0,0
20200513,139,84,55,0,10,10,0,0
20200514,160,97,63,0,21,13,8,0
20200515,203,140,63,0,43,43,0,0
20200516,227,164,63,0,24,24,0,0
20200517,227,164,63,0,0,0,0,0
20200518,248,185,63,0,21,21,0,0
20200519,260,197,63,0,12,12,0,0
20200520,264,199,65,0,4,2,2,0
20200521,160,94,66,0,-104,-105,1,0
20200522,175,107,68,0,15,13,2,0
20200523,198,130,68,0,23,23,0,0
20200524,198,130,68,0,0,0,0,0
20200525,222,153,69,0,24,23,1,0
20200526,253,184,69,0,31,31,0,0
20200527,281,212,69,0,28,28,0,0
20200528,317,248,69,0,36,36,0,0
20200529,329,257,72,0,12,9,3,0
20200530,413,341,72,0,84,84,0,0
20200531,417,345,72,0,4,4,0,0
20200601,457,385,72,0,40,40,0,0
20200602,489,407,82,0,32,22,10,0
20200603,507,425,82,0,18,18,0,0
20200604,522,440,82,0,15,15,0,0
20200605,557,475,82,0,35,35,0,0
20200606,593,511,82,0,36,36,0,0
20200607,616,520,96,0,23,9,14,0
20200608,646,543,103,0,30,23,7,0
20200609,657,539,118,0,11,-4,15,0
20200610,665,546,119,0,8,7,1,0
20200611,679,518,161,0,14,-28,42,0
20200612,686,525,161,0,7,7,0,0
20200613,694,475,219,0,8,-50,58,0
20200614,696,456,240,0,2,-19,21,0
20200615,705,406,299,0,9,-50,59,0
20200616,724,373,351,0,19,-33,52,0
20200617,732,312,420,0,8,-61,69,0
20200618,741,255,486,0,9,-57,66,0
20200619,755,263,492,0,14,8,6,0
20200620,763,271,492,0,8,8,0,0
20200621,770,192,578,0,7,-79,86,0
20200622,774,143,631,0,4,-49,53,0
20200623,797,98,699,0,23,-45,68,0
20200624,805,88,717,0,8,-10,18,0
20200625,821,90,731,0,16,2,14,0
20200626,833,72,761,0,12,-18,30,0
20200627,848,87,761,0,15,15,0,0
20200628,859,65,794,0,11,-22,33,0
20200629,870,62,808,0,11,-3,14,0
20200630,889,70,819,0,19,8,11,0
20200701,893,56,837,0,4,-14,18,0
20200702,902,55,847,0,9,-1,10,0
20200703,911,62,849,0,9,7,2,0
20200704,927,59,868,0,16,-3,19,0
20200705,939,48,891,0,12,-11,23,0
20200706,953,61,892,0,14,13,1,0
20200707,971,75,896,0,18,14,4,0
20200708,977,73,904,0,6,-2,8,0
20200709,1000,92,908,0,23,19,4,0
20200710,1006,68,938,0,6,-24,30,0
20200711,1013,61,952,0,7,-7,14,0
20200712,1025,53,972,0,12,-8,20,0
20200713,1029,52,977,0,4,-1,5,0
20200714,1040,56,984,0,11,4,7,0
20200715,1043,39,1004,0,3,-17,20,0
20200716,1051,37,1014,0,8,-2,10,0
20200717,1056,33,1023,0,5,-4,9,0
20200718,1062,39,1023,0,6,6,0,0
20200719,1065,42,1023,0,3,3,0,0
20200720,1069,-2,1071,0,4,-44,48,0
20200721,1072,114,958,0,3,116,-113,0
20200722,1075,117,958,0,3,3,0,0
20200723,1079,108,971,0,4,-9,13,0
20200724,1089,113,975,1,10,5,4,1
20200725,1103,120,982,1,14,7,7,0
20200726,1115,131,982,2,12,11,0,1
20200727,1128,140,986,2,13,9,4,0
20200728,1135,144,989,2,7,4,3,0
20200729,1140,110,1028,2,5,-34,39,0
20200730,1147,117,1028,2,7,7,0,0
20200731,1154,123,1028,3,7,6,0,1
20200801,1176,127,1045,4,22,4,17,1
20200802,1182,133,1045,4,6,6,0,0
20200803,1195,120,1070,5,13,-13,25,1
20200804,1203,125,1073,5,8,5,3,0
20200805,1213,106,1102,5,10,-19,29,0
20200806,1223,116,1102,5,10,10,0,0
20200807,1254,135,1113,6,31,19,11,1
20200808,1267,146,1115,6,13,11,2,0
20200809,1283,161,1115,7,16,15,0,1
20200810,1297,151,1137,9,14,-10,22,2
20200811,1313,166,1138,9,16,15,1,0
20200812,1332,184,1139,9,19,18,1,0
20200813,1353,201,1141,11,21,17,2,2
20200814,1385,231,1142,12,32,30,1,1
20200815,1434,279,1142,13,49,48,0,1
20200816,1500,345,1142,13,66,66,0,0
20200817,1560,380,1165,15,60,35,23,2
20200818,1603,423,1165,15,43,43,0,0
20200819,1656,452,1188,16,53,29,23,1
20200820,1750,537,1194,19,94,85,6,3
20200821,1848,630,1199,19,98,93,5,0
20200822,2166,947,1199,20,318,317,0,1
20200823,2263,1044,1199,20,97,97,0,0
20200824,2362,1092,1248,22,99,48,49,2
20200825,2426,1134,1267,25,64,42,19,3
20200826,2524,1230,1268,26,98,96,1,1
20200827,2679,1383,1268,28,155,153,0,2
20200828,2756,1440,1288,28,77,57,20,0
20200829,2847,1530,1288,29,91,90,0,1
20200830,2928,1610,1288,30,81,80,0,1
20200831,2972,1652,1288,32,44,42,0,2
20200901,3037,1516,1489,32,65,-136,201,0
20200902,3112,1552,1528,32,75,36,39,0
20200903,3288,1723,1532,33,176,171,4,1
20200904,3353,1754,1564,35,65,31,32,2
20200905,3539,1936,1564,39,186,182,0,4
20200906,3667,2062,1564,41,128,126,0,2
20200907,3776,1991,1741,44,109,-71,177,3
20200908,3900,2037,1817,46,124,46,76,2
20200909,4101,2179,1876,46,201,142,59,0
20200910,4291,2245,1998,48,190,66,122,2
20200911,4377,2330,1998,49,86,85,0,1
20200912,4703,2653,1998,52,326,323,0,3
20200913,4799,2488,2256,55,96,-165,258,3
20200914,4978,2605,2317,56,179,117,61,1
20200915,5123,2732,2333,58,145,127,16,2
20200916,5266,2802,2404,60,143,70,71,2
20200917,5380,2831,2489,60,114,29,85,0
20200918,5594,2989,2544,61,214,158,55,1
20200919,6017,3373,2581,63,423,384,37,2
20200920,6287,3608,2616,63,270,235,35,0
20200921,6468,3674,2731,63,181,66,115,0
20200922,6712,3870,2778,64,244,196,47,1
20200923,6879,3849,2961,69,167,-21,183,5
20200924,7064,3768,3226,70,185,-81,265,1
20200925,7218,3536,3611,71,154,-232,385,1
20200926,7364,3646,3647,71,146,110,36,0
20200927,7530,3810,3647,73,166,164,0,2
20200928,7777,3669,4033,75,247,-141,386,2
20200929,8017,3909,4033,75,240,240,0,0
20200930,8129,3794,4260,75,112,-115,227,0
20201001,8287,3782,4430,75,158,-12,170,0
20201002,8491,3942,4470,79,204,160,40,4
20201003,8662,4037,4546,79,171,95,76,0
20201004,8808,3991,4736,81,146,-46,190,2
20201005,8965,3805,5078,82,157,-186,342,1
20201006,9082,3541,5457,84,117,-264,379,2
20201007,9260,3587,5588,85,178,46,131,1
20201008,9442,3576,5781,85,182,-11,193,0
20201009,9538,3595,5857,86,96,19,76,1
20201010,9701,3586,6022,93,163,-9,165,7
20201011,9801,3599,6109,93,100,13,87,0
20201012,9864,3661,6109,94,63,62,0,1
20201013,9945,3503,6347,95,81,-158,238,1
20201014,10069,3443,6531,95,124,-60,184,0
20201015,10117,3296,6725,96,48,-147,194,1
20201016,10334,3337,6901,96,217,41,176,0
20201017,10455,3458,6901,96,121,121,0,0
20201018,10590,3501,6992,97,135,43,91,1
20201019,10691,3602,6992,97,101,101,0,0
20201020,10788,3625,7066,97,97,23,74,0
20201021,10933,3681,7154,98,145,56,88,1
20201022,11041,3733,7210,98,108,52,56,0
20201023,11163,3795,7269,99,122,62,59,1
20201024,11297,3917,7281,99,134,122,12,0
20201025,11443,3991,7351,101,146,74,70,2
20201026,11557,4105,7351,101,114,114,0,0
20201027,11621,4118,7400,103,64,13,49,2
20201028,11767,4200,7461,106,146,82,61,3
20201029,12201,4632,7461,108,434,432,0,2
20201030,12410,4797,7503,110,209,165,42,2
20201031,12495,4881,7503,111,85,84,0,1
20201101,12743,5075,7556,112,248,194,53,1
20201102,12971,5301,7556,114,228,226,0,2
20201103,13099,5372,7612,115,128,71,56,1
20201104,13351,5611,7623,117,252,239,11,2
20201105,13568,5806,7645,117,217,195,22,0
20201106,13852,5994,7727,131,284,188,82,14
20201107,14066,6182,7753,131,214,188,26,0
20201108,14403,6500,7771,132,337,318,18,1
20201109,14574,6670,7771,133,171,170,0,1
20201110,14704,6735,7836,133,130,65,65,0
20201111,14993,6915,7939,139,289,180,103,6
20201112,15217,7089,7985,143,224,174,46,4
20201113,15402,7220,8038,144,185,131,53,1
20201114,15789,7607,8038,144,387,387,0,0
20201115,16020,7837,8038,145,231,230,0,1
20201116,16257,7937,8170,150,237,100,132,5
20201117,16563,8136,8277,150,306,199,107,0
20201118,16905,8354,8394,157,342,218,117,7
20201119,17148,8564,8426,158,243,210,32,1
20201120,17431,8716,8547,168,283,152,121,10
20201121,17667,8888,8611,168,236,172,64,0
20201122,17968,9185,8611,172,301,297,0,4
20201123,18165,9309,8675,181,197,124,64,9
20201124,18406,9456,8764,186,241,147,89,5
20201125,18890,9867,8832,191,484,411,68,5
20201126,19115,10084,8840,191,225,217,8,0
20201127,19588,10551,8840,197,473,467,0,6
20201128,19944,10799,8944,201,356,248,104,4
20201129,20145,10955,8989,201,201,156,45,0
20201130,20459,11265,8989,205,314,310,0,4
20201201,21035,11786,9044,205,576,521,55,0
20201202,21409,12159,9044,206,374,373,0,1
20201203,21612,12296,9110,206,203,137,66,0
20201204,21898,12575,9117,206,286,279,7,0
20201205,22188,12865,9117,206,290,290,0,0
20201206,22499,13118,9175,206,311,253,58,0
20201207,23200,13619,9374,207,701,501,199,1
20201208,23200,13619,9374,207,0,0,0,0
20201209,25059,15330,9510,219,1859,1711,136,12
20201210,25730,15905,9605,220,671,575,95,1
20201211,26369,16503,9646,220,639,598,41,0
20201212,27071,17107,9744,220,702,604,98,0
20201213,27532,17485,9826,221,461,378,82,1
20201214,27766,17621,9921,224,234,136,95,3
20201215,28168,17938,10005,225,402,317,84,1
20201216,28733,18438,10070,225,565,500,65,0
20201217,29361,18961,10172,228,628,523,102,3
20201218,30071,19590,10251,230,710,629,79,2
20201219,30702,20112,10360,230,631,522,109,0
20201220,31187,20487,10469,231,485,375,109,1
20201221,31384,20597,10549,238,197,110,80,7
20201222,31910,21026,10646,238,526,429,97,0
20201223,32399,21423,10731,245,489,397,85,7
20201224,32914,21848,10821,245,515,425,90,0
20201225,33360,22210,10905,245,446,362,84,0
20201226,33563,22263,11055,245,203,53,150,0
20201227,33811,22383,11180,248,248,120,125,3
20201228,33973,22428,11297,248,162,45,117,0
20201229,34281,22581,11450,250,308,153,153,2
20201230,34677,22847,11579,251,396,266,129,1
20201231,35216,23232,11733,251,539,385,154,0
20210101,35511,23368,11878,265,295,136,145,14
20210102,35712,23401,12037,274,201,33,159,9
20210103,35922,23611,12037,274,210,210,0,0
20210104,36050,23509,12267,274,128,-102,230,0
20210105,36407,23730,12387,290,357,221,120,16
20210106,36702,23914,12494,294,295,184,107,4
20210107,37074,24233,12544,297,372,319,50,3
20210108,37296,24377,12619,300,222,144,75,3
20210109,37554,24533,12720,301,258,156,101,1
20210110,37742,24589,12852,301,188,56,132,0
20210111,37808,24564,12942,302,66,-25,90,1
20210112,37948,24627,13018,303,140,63,76,1
20210113,38085,24698,13083,304,137,71,65,1
20210114,38085,24698,13083,304,0,0,0,0
20210115,38085,24698,13083,304,0,0,0,0
20210116,38085,24698,13083,304,0,0,0,0
20210117,38085,24698,13083,304,0,0,0,0
20210118,38085,24698,13083,304,0,0,0,0
20210119,38534,24824,13405,305,449,126,322,1
20210120,38628,24910,13413,305,94,86,8,0
20210121,38806,24791,13699,316,178,-119,286,11
20210122,38935,24919,13699,317,129,128,0,1
20210123,39044,24866,13861,317,109,-53,162,0
20210124,39149,24971,13861,317,105,105,0,0
20210125,39188,24819,14051,318,39,-152,190,1
20210126,39261,24892,14051,318,73,73,0,0
20210127,39314,24882,14114,318,53,-10,63,0
20210128,39424,24992,14114,318,110,110,0,0
20210129,39490,24987,14179,324,66,-5,65,6
20210130,39533,25030,14179,324,43,43,0,0
20210131,39579,25076,14179,324,46,46,0,0
20210201,39606,25052,14229,325,27,-24,50,1
20210202,39651,25097,14229,325,45,45,0,0
20210203,39685,25048,14310,327,34,-49,81,2
20210204,39735,25098,14310,327,50,50,0,0
20210205,39789,25113,14349,327,54,15,39,0
20210206,39821,25145,14349,327,32,32,0,0
20210207,39848,25172,14349,327,27,27,0,0
20210208,39860,25093,14440,327,12,-79,91,0
20210209,39883,25116,14440,327,23,23,0,0
20210210,39911,25113,14470,328,28,-3,30,1
20210211,39942,25144,14470,328,31,31,0,0
20210212,39979,25131,14520,328,37,-13,50,0
20210213,40019,25171,14520,328,40,40,0,0
20210214,40019,25171,14520,328,0,0,0,0
20210215,40055,25207,14520,328,36,36,0,0
20210216,40063,25187,14545,331,8,-20,25,3
20210217,40102,25202,14569,331,39,15,24,0
20210218,40154,25254,14569,331,52,52,0,0
20210219,40168,25259,14578,331,14,5,9,0
20210220,40199,25288,14578,333,31,29,0,2
20210221,40213,25302,14578,333,14,14,0,0
20210222,40221,25280,14608,333,8,-22,30,0
20210223,40243,25295,14615,333,22,15,7,0
20210224,40261,25311,14616,334,18,16,1,1
20210225,40300,25350,14616,334,39,39,0,0
20210226,40322,25372,14616,334,22,22,0,0
20210227,40335,25385,14616,334,13,13,0,0
20210228,40357,25357,14666,334,22,-28,50,0
20210301,40367,25044,14989,334,10,-313,323,0
20210302,40395,25053,15008,334,28,9,19,0
20210303,40408,25025,15049,334,13,-28,41,0
20210304,40426,25040,15052,334,18,15,3,0
20210305,40452,25053,15065,334,26,13,13,0
20210306,40452,25053,15065,334,0,0,0,0
20210307,40464,25065,15065,334,12,12,0,0
20210308,40479,25080,15065,334,15,15,0,0
20210309,40490,25081,15075,334,11,1,10,0
20210310,40520,25091,15095,334,30,10,20,0
20210311,40535,25106,15095,334,15,15,0,0
20210312,40544,25115,15095,334,9,9,0,0
20210313,40544,25115,15095,334,0,0,0,0
20210314,40581,25152,15095,334,37,37,0,0
20210315,40591,25158,15099,334,10,6,4,0
20210316,40593,25160,15099,334,2,2,0,0
20210317,40607,25174,15099,334,14,14,0,0
20210318,40625,25181,15110,334,18,7,11,0
20210319,40651,25184,15133,334,26,3,23,0
20210320,40651,25184,15133,334,0,0,0,0
20210321,40671,25204,15133,334,20,20,0,0
20210322,40687,25220,15133,334,16,16,0,0
20210323,40719,25246,15139,334,32,26,6,0
20210324,40719,25246,15139,334,0,0,0,0
20210325,40734,25253,15147,334,15,7,8,0
20210326,40751,37,40379,335,17,-25216,25232,1
20210327,40767,53,40379,335,16,16,0,0
20210328,40794,37,40422,335,27,-16,43,0
20210329,40820,37,40448,335,26,0,26,0
20210330,40839,56,40448,335,19,19,0,0
20210331,40867,83,40449,335,28,27,1,0
20210401,40889,102,40452,335,22,19,3,0
20210402,40924,137,40452,335,35,35,0,0
20210403,40962,175,40452,335,38,38,0,0
20210404,40962,175,40452,335,0,0,0,0
20210405,41016,229,40452,335,54,54,0,0
20210406,41023,236,40452,335,7,7,0,0
20210407,41046,24,40685,337,23,-212,233,2
20210408,41062,40,40685,337,16,16,0,0
20210409,41086,64,40685,337,24,24,0,0
20210410,41113,91,40685,337,27,27,0,0
20210411,41140,118,40685,337,27,27,0,0
20210412,41174,58,40779,337,34,-60,94,0
20210413,41204,88,40779,337,30,30,0,0
20210414,41237,120,40779,338,33,32,0,1
20210415,41263,27,40898,338,26,-93,119,0
20210416,41310,74,40898,338,47,47,0,0
20210417,41340,104,40898,338,30,30,0,0
20210418,41378,142,40898,338,38,38,0,0
20210419,41396,159,40898,339,18,17,0,1
20210420,41422,183,40898,341,26,24,0,2
20210421,41475,236,40898,341,53,53,0,0
20210422,41529,290,40898,341,54,54,0,0
20210423,41575,336,40898,341,46,46,0,0
20210424,41575,336,40898,341,0,0,0,0
20210425,41655,416,40898,341,80,80,0,0
20210426,41715,476,40898,341,60,60,0,0
20210427,41737,498,40898,341,22,22,0,0
20210428,41766,527,40898,341,29,29,0,0
20210429,41797,33,41422,342,31,-494,524,1
20210430,41866,102,41422,342,69,69,0,0
20210501,41905,141,41422,342,39,39,0,0
20210502,41905,141,41422,342,0,0,0,0
20210503,41973,33,41598,342,68,-108,176,0
20210504,42032,38,41652,342,59,5,54,0
20210505,42102,107,41652,343,70,69,0,1
20210506,42152,155,41652,345,50,48,0,2
20210507,42224,226,41652,346,72,71,0,1
20210508,42308,38,41924,346,84,-188,272,0
20210509,42355,85,41924,346,47,47,0,0
20210510,42384,67,41971,346,29,-18,47,0
20210511,42427,110,41971,346,43,43,0,0
20210512,42487,170,41971,346,60,60,0,0
20210513,42578,261,41971,346,91,91,0,0
20210514,42674,356,41971,347,96,95,0,1
20210515,42674,356,41971,347,0,0,0,0
20210516,42779,461,41971,347,105,105,0,0
20210517,42859,83,42429,347,80,-378,458,0
20210518,42930,152,42429,349,71,69,0,2
20210519,43094,315,42429,350,164,163,0,1
20210520,43223,444,42429,350,129,129,0,0
20210521,43370,591,42429,350,147,147,0,0
20210522,43507,277,42880,350,137,-314,451,0
20210523,43734,498,42880,356,227,221,0,6
20210524,43919,161,43401,357,185,-337,521,1
20210525,44074,315,43401,358,155,154,0,1
20210526,44281,521,43401,359,207,206,0,1
20210527,44594,832,43401,361,313,311,0,2
20210528,45231,1469,43401,361,637,637,0,0
20210529,45931,2168,43401,362,700,699,0,1
20210530,46623,2860,43401,362,692,692,0,0
20210531,47147,3384,43401,362,524,524,0,0
20210601,47761,1249,46150,362,614,-2135,2749,0
20210602,48676,2162,46150,364,915,913,0,2
20210603,49759,3244,46150,365,1083,1082,0,1
20210604,51006,2872,47760,374,1247,-372,1610,9
20210605,51676,3542,47760,374,670,670,0,0
20210606,52935,4792,47760,383,1259,1250,0,9
20210607,53961,5818,47760,383,1026,1026,0,0
20210608,54669,6521,47760,388,708,703,0,5
20210609,55511,7359,47760,392,842,838,0,4
20210610,56949,8787,47760,402,1438,1428,0,10
20210611,58515,10347,47760,408,1566,1560,0,6
20210612,60250,11667,48160,423,1735,1320,400,15
20210613,61977,13389,48160,428,1727,1722,0,5
20210614,63099,14185,48480,434,1122,796,320,6
20210615,64521,15582,48480,459,1422,1397,0,25
20210616,65631,16474,48649,508,1110,892,169,49
20210617,67215,17850,48823,542,1584,1376,174,34
20210618,68779,19169,49026,584,1564,1319,203,42
20210619,70176,20223,49327,626,1397,1054,301,42
20210620,71543,21351,49532,660,1367,1128,205,34
20210621,72679,22205,49794,680,1136,854,262,20
20210622,73401,22602,50085,714,722,397,291,34
20210623,74260,23423,50085,752,859,821,0,38
20210624,75537,24406,50350,781,1277,983,265,29
20210625,76562,25030,50702,830,1025,624,352,49
20210626,77505,25633,51004,868,943,603,302,38
20210627,78394,26143,51348,903,889,510,344,35
20210628,79089,26273,51860,956,695,130,512,53
20210629,79434,26063,52382,989,345,-210,522,33
20210630,79977,25993,52961,1023,543,-70,579,34
20210701,81034,26422,53551,1061,1057,429,590,38
20210702,82082,26813,54158,1111,1048,391,607,50
20210703,82852,26896,54845,1111,770,83,687,0
20210704,83636,26974,55551,1111,784,78,706,0
20210705,84116,25812,56338,1966,480,-1162,787,855
20210706,84554,25412,57147,1995,438,-400,809,29
20210707,84979,25003,57964,2012,425,-409,817,17
20210708,85581,24862,58686,2033,602,-141,722,21
20210709,86140,24583,59495,2062,559,-279,809,29
20210710,86755,24273,60392,2090,615,-310,897,28
20210711,87277,23869,61304,2104,522,-404,912,14
20210712,87756,24323,61304,2129,479,454,0,25
20210713,88194,23817,62213,2164,438,-506,909,35
20210714,88674,23331,63140,2203,480,-486,927,39
20210715,89080,22735,64096,2249,406,-596,956,46
20210716,89514,22145,65083,2286,434,-590,987,37
20210717,89974,21570,66080,2324,460,-575,997,38
20210718,90391,20924,67114,2353,417,-646,1034,29
20210719,90656,20023,68241,2392,265,-901,1127,39
20210720,90910,19121,69377,2412,254,-902,1136,20
20210721,91162,18218,70519,2425,252,-903,1142,13
20210722,91355,17122,71750,2483,193,-1096,1231,58
20210723,91710,17122,73062,2496,355,0,1312,13
20210724,92115,15171,74418,2526,405,-1951,1356,30
20210725,92490,14143,75790,2557,375,-1028,1372,31
20210726,92724,12974,77171,2579,234,-1169,1381,22
20210727,92795,11790,78415,2590,71,-1184,1244,11
20210728,93122,10713,79804,2605,327,-1077,1389,15
20210729,93282,9636,81014,2632,160,-1077,1210,27
20210730,93675,9022,81992,2661,393,-614,978,29
20210731,93927,8122,83115,2690,252,-900,1123,29
20210801,94195,7447,84052,2696,268,-675,937,6
20210802,94425,6756,84959,2710,230,-691,907,14
20210803,94537,5875,85937,2725,112,-881,978,15
20210804,94739,5179,86826,2734,202,-696,889,9
20210805,94904,0,0,2752,165,-5179,-86826,18
20210806,95226,0,0,2771,322,0,0,19
20210807,95474,0,0,2785,248,0,0,14
20210808,95723,0,0,2793,249,0,0,8
20210809,95875,0,0,2808,152,0,0,15
20210810,95955,0,0,2812,80,0,0,4
20210811,96067,0,0,2821,112,0,0,9
20210812,96224,0,0,2832,157,0,0,11
20210813,96497,0,0,2856,273,0,0,24
20210814,96678,0,0,2863,181,0,0,7
20210815,96987,0,0,2882,309,0,0,19
20210816,97124,0,0,2893,137,0,0,11
20210817,97186,0,0,2905,62,0,0,12
20210818,97294,0,0,2917,108,0,0,12
20210819,97453,0,0,2931,159,0,0,14
20210820,97453,0,0,2931,0,0,0,0
20210821,97453,0,0,2931,0,0,0,0
20210822,97453,0,0,2931,0,0,0,0
20210823,118777,0,0,2960,21324,0,0,29
20210824,118900,0,0,2962,123,0,0,2
20210825,119037,0,0,2968,137,0,0,6
20210826,119141,0,0,2973,104,0,0,5
20210827,119327,0,0,2981,186,0,0,8
20210828,119544,0,0,2985,217,0,0,4
20210829,119732,0,0,2991,188,0,0,6
20210830,119825,0,0,3006,93,0,0,15
20210831,119915,0,0,3012,90,0,0,6
20210901,120075,0,0,3023,160,0,0,11
20210902,120208,0,0,3031,133,0,0,8
20210903,120377,0,0,3038,169,0,0,7
20210904,120466,0,0,3041,89,0,0,3
