date,infected,active,recovered,dead,deltaInfected,deltaActive,deltaRecovered,deltaDead
20200122,1,1,0,0,1,1,0,0
20200123,1,1,0,0,0,0,0,0
20200124,2,2,0,0,1,1,0,0
20200125,2,2,0,0,0,0,0,0
20200126,5,5,0,0,3,3,0,0
20200127,5,5,0,0,0,0,0,0
20200128,5,5,0,0,0,0,0,0
20200129,5,5,0,0,0,0,0,0
20200130,5,5,0,0,0,0,0,0
20200131,6,6,0,0,1,1,0,0
20200201,8,8,0,0,2,2,0,0
20200202,8,8,0,0,0,0,0,0
20200203,11,11,0,0,3,3,0,0
20200204,11,11,0,0,0,0,0,0
20200205,12,12,0,0,1,1,0,0
20200206,12,12,0,0,0,0,0,0
20200207,12,12,0,0,0,0,0,0
20200208,12,12,0,0,0,0,0,0
20200209,12,9,3,0,0,-3,3,0
20200210,12,9,3,0,0,0,0,0
20200211,13,10,3,0,1,1,0,0
20200212,13,10,3,0,0,0,0,0
20200213,15,12,3,0,2,2,0,0
20200214,15,12,3,0,0,0,0,0
20200215,15,12,3,0,0,0,0,0
20200216,15,12,3,0,0,0,0,0
20200217,15,12,3,0,0,0,0,0
20200218,15,12,3,0,0,0,0,0
20200219,15,12,3,0,0,0,0,0
20200220,15,12,3,0,0,0,0,0
20200221,35,30,5,0,20,18,2,0
20200222,35,30,5,0,0,0,0,0
20200223,35,30,5,0,0,0,0,0
20200224,53,48,5,0,18,18,0,0
20200225,53,47,6,0,0,-1,1,0
20200226,59,53,6,0,6,6,0,0
20200227,60,54,6,0,1,1,0,0
20200228,62,55,7,0,2,1,1,0
20200229,70,62,7,1,8,7,0,1
20200301,76,68,7,1,6,6,0,0
20200302,101,88,7,6,25,20,0,5
20200303,122,107,8,7,21,19,1,1
20200304,153,134,8,11,31,27,0,4
20200305,221,201,8,12,68,67,0,1
20200306,278,256,8,14,57,55,0,2
20200307,417,392,8,17,139,136,0,3
20200308,537,508,8,21,120,116,0,4
20200309,605,575,8,22,68,67,0,1
20200310,959,923,8,28,354,348,0,6
20200311,1281,1237,8,36,322,314,0,8
20200312,1663,1611,12,40,382,374,4,4
20200313,2179,2120,12,47,516,509,0,7
20200314,2726,2660,12,54,547,540,0,7
20200315,3499,3424,12,63,773,764,0,9
20200316,4632,4530,17,85,1133,1106,5,22
20200317,6421,6296,17,108,1789,1766,0,23
20200318,7786,7562,106,118,1365,1266,89,10
20200319,13680,13372,108,200,5894,5810,2,82
20200320,19101,18710,147,244,5421,5338,39,44
20200321,25514,25036,171,307,6413,6326,24,63
20200322,33918,0,0,443,8404,-25036,-171,136
20200323,43754,0,0,582,9836,0,0,139
20200324,53876,0,348,720,10122,0,348,138
20200325,65961,0,361,962,12085,0,13,242
20200326,83973,0,681,1227,18012,0,320,265
20200327,101867,0,869,1602,17894,0,188,375
20200328,121692,0,1072,2078,19825,0,203,476
20200329,141098,0,2665,2503,19406,0,1593,425
20200330,162135,0,5644,3016,21037,0,2979,513
20200331,188417,0,7024,3899,26282,0,1380,883
20200401,213646,0,8474,4863,25229,0,1450,964
20200402,243856,0,9001,6045,30210,0,527,1182
20200403,275986,0,9707,7212,32130,0,706,1167
20200404,309209,0,14652,8591,33223,0,4945,1379
20200405,337470,0,17448,9839,28261,0,2796,1248
20200406,367115,0,19581,11088,29645,0,2133,1249
20200407,396653,0,21763,13029,29538,0,2182,1941
20200408,429675,0,23559,14999,33022,0,1796,1970
20200409,462016,0,25410,16762,32341,0,1851,1763
20200410,497055,0,28790,18855,35039,0,3380,2093
20200411,526808,0,31270,20742,29753,0,2480,1887
20200412,555658,500306,32988,22381,28850,500306,1718,1639
20200413,580930,615609,43482,23927,25272,115303,10494,1546
20200414,608017,534076,47763,26232,27087,-81533,4281,2305
20200415,636876,555929,52096,28710,28859,21853,4333,2478
20200416,668157,580182,54703,33326,31281,24253,2607,4616
20200417,700241,604388,58545,37205,32084,24206,3842,3879
20200418,732697,628693,64840,39064,32456,24305,6295,1859
20200419,759495,648088,70337,41118,26798,19395,5497,2054
20200420,784824,669903,72329,42625,25329,21815,1992,1507
20200421,812576,692217,75204,44889,27752,22314,2875,2264
20200422,841117,716232,77366,47099,28541,24015,2162,2210
20200423,869954,739013,80203,50400,28837,22781,2837,3301
20200424,906154,754305,99079,52413,36200,15292,18876,2013
20200425,939099,784027,100372,54239,32945,29722,1293,1826
20200426,966392,803914,106988,55444,27293,19887,6616,1205
20200427,988984,820407,111424,56854,22592,16493,4436,1410
20200428,1013496,838291,115936,58936,24512,17884,4512,2082
20200429,1041025,858222,120720,61424,27529,19931,4784,2488
20200430,1070488,878169,153947,63310,29463,19947,33227,1886
20200501,1104691,903178,164015,65278,34203,25009,10068,1968
20200502,1133576,917894,175382,66861,28885,14716,11367,1583
20200503,1158859,939851,180152,68247,25283,21957,4770,1386
20200504,1181277,954281,187180,69524,22418,14430,7028,1277
20200505,1205428,972526,189791,71561,24151,18245,2611,2037
20200506,1229808,987827,189910,73775,24380,15301,119,2214
20200507,1258204,1011058,195036,75995,28396,23231,5126,2220
20200508,1285206,1027704,198993,77520,27002,16646,3957,1525
20200509,1311125,1033324,212534,79123,25919,5620,13541,1603
20200510,1330677,1043141,216169,79940,19552,9817,3635,817
20200511,1349024,1051488,232733,81125,18347,8347,16564,1185
20200512,1371262,1057473,230287,82791,22238,5985,-2446,1666
20200513,1392010,1067859,243430,84487,20748,10386,13143,1696
20200514,1419022,1085191,246414,86261,27012,17332,2984,1774
20200515,1444125,1102212,250747,87883,25103,17021,4333,1622
20200516,1469158,1111939,268376,89095,25033,9727,17629,1212
20200517,1488256,1122366,272265,89966,19098,10427,3889,871
20200518,1509949,1135016,283178,90806,21693,12650,10913,840
20200519,1530327,1144851,289392,92280,20378,9835,6214,1474
20200520,1553435,1162407,294312,93778,23108,17556,4920,1498
20200521,1578908,1180548,298418,95002,25473,18141,4106,1224
20200522,1602815,1195014,350135,96259,23907,14466,51717,1257
20200523,1624155,1197128,361239,97336,21340,2114,11104,1077
20200524,1644622,1210704,366736,97982,20467,13576,5497,646
20200525,1663640,1218472,379157,98522,19018,7768,12421,540
20200526,1682562,1228728,384902,99218,18922,10256,5745,696
20200527,1701037,1234641,391508,100669,18475,5913,6606,1451
20200528,1723667,1249340,399991,101777,22630,14699,8483,1108
20200529,1748095,1267758,406446,102941,24428,18418,6455,1164
20200530,1772316,1284150,416461,103913,24221,16392,10015,972
20200531,1791873,1295795,444758,104549,19557,11645,28297,636
20200601,1812667,1302082,458231,105306,20794,6287,13473,757
20200602,1833917,1313401,463868,106257,21250,11319,5637,951
20200603,1853831,1321425,479258,107241,19914,8024,15390,984
20200604,1875211,1334501,485002,108256,21380,13076,5744,1015
20200605,1905475,1348583,491706,109386,30264,14082,6704,1130
20200606,1928230,1367012,500849,110088,22755,18429,9143,702
20200607,1946475,1310502,506367,110549,18245,-56510,5518,461
20200608,1964166,1328272,518522,111034,17691,17770,12155,485
20200609,1982411,1288265,524860,111979,18245,-40007,6338,945
20200610,2004015,1303721,533504,112888,21604,15456,8644,909
20200611,2026805,1310986,540292,113745,22790,7265,6788,857
20200612,2052539,1312426,547386,114592,25734,1440,7094,847
20200613,2078319,1332813,556606,115336,25780,20387,9220,744
20200614,2097526,1347993,561816,115663,19207,15180,5210,327
20200615,2117422,1348589,576334,116056,19896,596,14518,393
20200616,2141178,1365229,583503,116867,23756,16640,7169,811
20200617,2168101,1382229,592191,117617,26923,17000,8688,750
20200618,2196226,1398671,599115,118313,28125,16442,6924,696
20200619,2228258,1424197,606715,118968,32032,25526,7600,655
20200620,2260846,1443988,617460,119525,32588,19791,10745,557
20200621,2286116,1464775,622133,119810,25270,20787,4673,285
20200622,2318725,1483742,640198,120249,32609,18967,18065,439
20200623,2354931,1510931,647548,120978,36206,27189,7350,729
20200624,2391037,1537768,656161,121709,36106,26837,8613,731
20200625,2431604,1558389,663562,124131,40567,20621,7401,2422
20200626,2477552,1590790,670809,124768,45948,32401,7247,637
20200627,2519216,1627152,679308,125275,41664,36362,8499,507
20200628,2560117,1659101,685164,125577,40901,31949,5856,302
20200629,2601716,1670821,705203,125920,41599,11720,20039,343
20200630,2646909,1705198,720631,127134,45193,34377,15428,1214
20200701,2698360,1740624,729994,127783,51451,35426,9363,649
20200702,2753491,1780679,781970,128475,55131,40055,51976,692
20200703,2806615,1826395,790404,129152,53124,45716,8434,677
20200704,2851872,1862067,894325,129442,45257,35672,103921,290
20200705,2901747,1902524,906763,129749,49875,40457,12438,307
20200706,2948085,1931311,924148,130106,46338,28787,17385,357
20200707,3008798,1971664,936476,131245,60713,40353,12328,1139
20200708,3068467,2012800,953420,132022,59669,41136,16944,777
20200709,3130818,2058786,969111,133027,62351,45986,15691,1005
20200710,3198973,2113771,983185,133829,68155,54985,14074,802
20200711,3259007,2160925,995576,134549,60034,47154,12391,720
20200712,3317630,2208772,1006326,134987,58623,47847,10750,438
20200713,3376344,2254384,1031939,135421,58714,45612,25613,434
20200714,3444891,2290820,1049098,136314,68547,36436,17159,893
20200715,3512930,2328899,1075882,137270,68039,38079,26784,956
20200716,3588670,2391963,1090645,138222,75740,63064,14763,952
20200717,3660789,2441845,1107204,139120,72119,49882,16559,898
20200718,3724329,2491916,1122720,139968,63540,50071,15516,848
20200719,3785480,2543984,1131121,140415,61151,52068,8401,447
20200720,3847021,2584602,1160087,140834,61541,40618,28966,419
20200721,3911962,2628301,1182018,141901,64941,43699,21931,1067
20200722,3982265,2653328,1210849,143099,70303,25027,28831,1198
20200723,4050432,2696957,1233269,144192,68167,43629,22420,1093
20200724,4124694,2737919,1261624,145399,74262,40962,28355,1207
20200725,4188967,2784120,1279414,146353,64273,46201,17790,954
20200726,4245156,2821355,1297863,146885,56189,37235,18449,532
20200727,4301840,2865785,1325804,148009,56684,44430,27941,1124
20200728,4368573,2078647,1355363,149272,66733,-787138,29559,1263
20200729,4440143,2102872,1389425,150648,71570,24225,34062,1376
20200730,4508094,2137689,1414155,152013,67951,34817,24730,1365
20200731,4576765,2164079,1438160,153280,68671,26390,24005,1267
20200801,4634006,2203796,1461885,154391,57241,39717,23725,1111
20200802,4679978,2239709,1468689,154837,45972,35913,6804,446
20200803,4726273,2262274,1513446,155426,46295,22565,44757,589
20200804,4785459,2273093,1528979,156735,59186,10819,15533,1309
20200805,4839286,2287178,1577851,158188,53827,14085,48872,1453
20200806,4898779,2318457,1598624,160027,59493,31279,20773,1839
20200807,4958391,2353062,1623870,161277,59612,34605,25246,1250
20200808,5013399,2391178,1643118,162339,55008,38116,19248,1062
20200809,5060256,2423429,1656864,162860,46857,32251,13746,521
20200810,5107901,2453283,1670755,163487,47645,29854,13891,627
20200811,5156181,3261722,1714960,164510,48280,808439,44205,1023
20200812,5211756,3277571,1753760,166012,55575,15849,38800,1502
20200813,5262982,3307201,1774648,167084,51226,29630,20888,1072
20200814,5328323,3348483,1796326,168422,65341,41282,21678,1338
20200815,5376031,3373159,1818527,169423,47708,24676,22201,1001
20200816,5416003,3400096,1833067,170034,39972,26937,14540,611
20200817,5452041,3402249,1865580,170522,36038,2153,32513,488
20200818,5497200,3413435,1898159,171744,45159,11186,32579,1222
20200819,5543870,3431586,1925049,173098,46670,18151,26890,1354
20200820,5587853,3452553,1947035,174202,43983,20967,21986,1104
20200821,5637403,3482113,1965056,175289,49550,29560,18021,1087
20200822,5681089,3505274,1985484,176207,43686,23161,20428,918
20200823,5715646,3527111,1997761,176749,34557,21837,12277,542
20200824,5752480,3541621,2020774,177225,36834,14510,23013,476
20200825,5792693,3545444,2053699,178449,40213,3823,32925,1224
20200826,5836270,3557636,2084465,179604,43577,12192,30766,1155
20200827,5881922,3585634,2101326,180730,45652,27998,16861,1126
20200828,5929028,3613763,2118367,181705,47106,28129,17041,975
20200829,5973149,3638056,2140614,182621,44121,24293,22247,916
20200830,6007573,3659325,2153939,183056,34424,21269,13325,435
20200831,6045051,3662167,2184825,183552,37478,2842,30886,496
20200901,6087732,3686523,2202663,184579,42681,24356,17838,1027
20200902,6127855,3687982,2231757,185656,40123,1459,29094,1077
20200903,6164774,3696266,2266957,186684,36919,8284,35200,1028
20200904,6215556,3729309,2283454,187639,50782,33043,16497,955
20200905,6259226,3754244,2302187,188410,43670,24935,18733,771
20200906,6290710,3771412,2315995,188873,31484,17168,13808,463
20200907,6314940,3777864,2333551,189178,24230,6452,17556,305
20200908,6341852,3778250,2359111,189629,26912,386,25560,451
20200909,6376556,3781134,2387479,190811,34704,2884,28368,1182
20200910,6411857,3800825,2403511,191729,35301,19691,16032,918
20200911,6459350,3832879,2417878,192878,47493,32054,14367,1149
20200912,6501067,3856765,2434658,193593,41717,23886,16780,715
20200913,6535321,3874097,2451406,194015,34254,17332,16748,422
20200914,6570006,3889286,2474570,194445,34685,15189,23164,430
20200915,6609430,3901430,2495127,195648,39424,12144,20557,1203
20200916,6647887,3908271,2525573,196610,38457,6841,30446,962
20200917,6693214,3937370,2540334,197464,45327,29099,14761,854
20200918,6742685,3968780,2556465,198356,49471,31410,16131,892
20200919,6785621,3991371,2577446,199084,42936,22591,20981,728
20200920,6825123,4014565,2590671,199341,39502,23194,13225,257
20200921,6877001,4041069,2615949,199763,51878,26504,25278,422
20200922,6917253,4048603,2646959,200794,40252,7534,31010,1031
20200923,6955049,4061020,2670256,201851,37796,12417,23297,1057
20200924,7002580,3918494,2710183,202744,47531,-142526,39927,893
20200925,7055662,4102056,2727335,203685,53082,183562,17152,941
20200926,7101045,4123140,2750459,204452,45383,21084,23124,767
20200927,7139432,4143972,2766280,204754,38387,20832,15821,302
20200928,7172908,4148280,2794608,205103,33476,4308,28328,349
20200929,7216935,4170887,2813305,205972,44027,22607,18697,869
20200930,7257669,4185423,2840688,206941,40734,14536,27383,969
20201001,7303436,4209352,2860650,207818,45767,23929,19962,877
20201002,7358721,4250232,2873369,208658,55285,40880,12719,840
20201003,7407630,4275544,2897322,209351,48909,25312,23953,693
20201004,7443483,4296426,2911699,209720,35853,20882,14377,369
20201005,7483133,4311881,2935142,210195,39650,15455,23443,475
20201006,7528606,4336066,2952390,210885,45473,24185,17248,690
20201007,7578571,4337988,2999895,211793,49965,1922,47505,908
20201008,7637331,4371861,3021252,212776,58760,33873,21357,983
20201009,7693978,4410453,3039089,213737,56647,38592,17837,961
20201010,7749185,4440581,3062983,214390,55207,30128,23894,653
20201011,7795262,4472703,3075077,214840,46077,32122,12094,450
20201012,7837366,4482298,3106728,215228,42104,9595,31651,388
20201013,7889760,4516029,3124593,216036,52394,33731,17865,808
20201014,7949438,4543434,3155794,217027,59678,27405,31201,991
20201015,8014549,4584621,3177397,217852,65111,41187,21603,825
20201016,8083801,4632642,3197539,218781,69252,48021,20142,929
20201017,8140675,4666439,3220573,219517,56874,33797,23034,736
20201018,8190279,4700783,3234138,219970,49604,34344,13565,453
20201019,8258224,4720260,3272603,220440,67945,19477,38465,470
20201020,8320399,4757097,3295148,221365,62175,36837,22545,925
20201021,8383099,4790502,3323354,222497,62700,33405,28206,1132
20201022,8459525,4831615,3353056,223369,76426,41113,29702,872
20201023,8542268,4892036,3375427,224328,82743,60421,22371,959
20201024,8625230,4943632,3406656,225265,82962,51596,31229,937
20201025,8687990,4987730,3422878,225692,62760,44098,16222,427
20201026,8755468,5016590,3460455,226201,67478,28860,37577,509
20201027,8833421,4977261,3487666,227191,77953,-39329,27211,990
20201028,8912225,5110589,3518140,228218,78804,133328,30474,1027
20201029,9003703,5161921,3554336,229230,91478,51332,36196,1012
20201030,9103330,5235895,3578452,230267,99627,73974,24116,1037
20201031,9193184,5290288,3612478,231211,89854,54393,34026,944
20201101,9298214,5345380,3630579,231710,105030,55092,18101,499
20201102,9384072,5384532,3674981,232244,85858,39152,44402,534
20201103,9511696,5444867,3705130,233837,127624,60335,30149,1593
20201104,9615616,5508204,3743527,234973,103920,63337,38397,1136
20201105,9745083,5590658,3781751,236151,129467,82454,38224,1178
20201106,9873399,5686780,3810791,237401,128316,96122,29040,1250
20201107,10001336,5741355,3851465,238516,127937,54575,40674,1115
20201108,10116528,5817312,3881491,239079,115192,75957,30026,563
20201109,10203316,5942984,3928845,239851,86788,125672,47354,772
20201110,10348654,6054094,3961873,241310,145338,111110,33028,1459
20201111,10495404,6161711,3997175,242799,146750,107617,35302,1489
20201112,10660154,6266139,4051256,244172,164750,104428,54081,1373
20201113,10840552,6397857,4095146,245372,180398,131718,43890,1200
20201114,11008478,6509848,4148444,246719,167926,111991,53298,1347
20201115,11144834,6618358,4174884,247499,136356,108510,26440,780
20201116,11307457,6703612,4244811,248334,162623,85254,69927,835
20201117,11471416,6815010,4293640,250045,163959,111398,48829,1711
20201118,11644667,6926174,4350789,251960,173251,111164,57149,1915
20201119,11836177,7052072,4410709,254014,191510,125898,59920,2054
20201120,12034510,7198515,4457930,255974,198333,146443,47221,1960
20201121,12213946,7302849,4529700,257597,179436,104334,71770,1623
20201122,12360893,7463554,4526513,258635,146947,160705,-3187,1038
20201123,12534982,7524768,4633600,259736,174089,61214,107087,1101
20201124,12710526,7634559,4696664,261867,175544,109791,63064,2131
20201125,12893929,7674475,4835956,264127,183403,39916,139292,2260
20201126,13006455,7748607,4871203,265514,112526,74132,35247,1387
20201127,13214388,7876517,4947446,267068,207933,127910,76243,1554
20201128,13370049,7955307,5023063,268434,155661,78790,75617,1366
20201129,13510377,8051417,5065030,269476,140328,96110,41967,1042
20201130,13670697,8126857,5146319,270820,160320,75440,81289,1344
20201201,13859037,8223305,5226581,273364,188340,96448,80262,2544
20201202,14061931,8325800,5322128,276182,202894,102495,95547,2818
20201203,14285352,8458985,5404018,279119,223421,133185,81890,2937
20201204,14517996,8618141,5470389,281816,232644,159156,66371,2697
20201205,14733807,8724125,5576026,284180,215811,105984,105637,2364
20201206,14915060,8850257,5624444,285543,181253,126132,48418,1363
20201207,15109467,8951039,5714557,287143,194407,100782,90113,1600
20201208,15333919,9091997,5786915,289764,224452,140958,72358,2621
20201209,15556569,9207268,5889896,292945,222650,115271,102981,3181
20201210,15787997,9333736,5985047,295939,231428,126468,95151,2994
20201211,16028086,9411281,6135314,299346,240089,77545,150267,3407
20201212,16245883,9517851,6246605,301824,217797,106570,111291,2478
20201213,16433854,9655969,6298082,303461,187971,138118,51477,1637
20201214,16628168,16218897,6399531,305111,194314,6562928,101449,1650
20201215,16837160,16411881,0,308197,208992,192984,-6399531,3086
20201216,17083804,16656785,0,311875,246644,244904,0,3678
20201217,17323724,16895357,0,315377,239920,238572,0,3502
20201218,17575546,17143969,0,318343,251822,248612,0,2966
20201219,17767649,17338586,0,321022,192103,194617,0,2679
20201220,17955653,17526028,0,322754,188004,187442,0,1732
20201221,18154356,17715415,0,324654,198703,189387,0,1900
20201222,18352479,17907477,0,328053,198123,192062,0,3399
20201223,18582104,18132239,0,331476,229625,224762,0,3423
20201224,18776242,18321300,0,334372,194138,189061,0,2896
20201225,18874122,18426114,0,335830,97880,104814,0,1458
20201226,19100538,18650725,0,337721,226416,224611,0,1891
20201227,19256383,18799608,0,339158,155845,148883,0,1437
20201228,19430535,18966707,0,341160,174152,167099,0,2002
20201229,19630974,19218366,0,344778,200439,251659,0,3618
20201230,19864665,19398086,0,348570,233691,179720,0,3792
20201231,20100249,19622350,0,351998,235584,224264,0,3428
20210101,20254160,19780905,0,354133,153911,158555,0,2135
20210102,20554622,20075998,0,356690,300462,295093,0,2557
20210103,20763475,20285083,0,358147,208853,209085,0,1457
20210104,20947482,20463657,0,360241,184007,178574,0,2094
20210105,21182525,20688937,0,363931,235043,225280,0,3690
20210106,21438182,20938072,0,367823,255657,249135,0,3892
20210107,21716496,21214252,0,371827,278314,276180,0,4004
20210108,22011753,21492370,0,375925,295257,278118,0,4098
20210109,22272720,21764119,0,379230,260967,271749,0,3305
20210110,22486135,22034803,0,381248,213415,270684,0,2018
20210111,22700819,22241786,0,383347,214684,206983,0,2099
20210112,22927766,22466832,0,387807,226947,225046,0,4460
20210113,23158067,22692483,0,391801,230301,225651,0,3994
20210114,23393833,22924409,0,395768,235766,231926,0,3967
20210115,23636699,23163598,0,399680,242866,239189,0,3912
20210116,23838557,23363004,0,403099,201858,199406,0,3419
20210117,24016402,23539173,0,405000,177845,176169,0,1901
20210118,24160000,23679769,0,406560,143598,140596,0,1560
20210119,24336216,23849692,0,409266,176216,169923,0,2706
20210120,24519477,24032576,0,413679,183261,182884,0,4413
20210121,24713349,24217573,0,417865,193872,184997,0,4186
20210122,24904107,24407706,0,421688,190758,190133,0,3823
20210123,25074852,24577080,0,425062,170745,169374,0,3374
20210124,25206053,24707842,0,426927,131201,130762,0,1865
20210125,25357727,24875930,0,428901,151674,168088,0,1974
20210126,25505353,25018483,0,432923,147626,142553,0,4022
20210127,25659314,25168866,0,436869,153961,150383,0,3946
20210128,25828118,25333486,0,440881,168804,164620,0,4012
20210129,25994740,25495995,0,444525,166622,162509,0,3644
20210130,26137213,25635355,0,447322,142473,139360,0,2797
20210131,26249365,25745457,0,449185,112152,110102,0,1863
20210201,26384316,25877765,0,451266,134951,132308,0,2081
20210202,26499624,25988672,0,454686,115308,110907,0,3420
20210203,26621321,26101237,0,458568,121697,112565,0,3882
20210204,26745317,26224255,0,462315,123996,123018,0,3747
20210205,26879739,26354025,0,465980,134422,129770,0,3665
20210206,26983932,26455618,0,468666,104193,101593,0,2686
20210207,27073661,26543889,0,470107,89729,88271,0,1441
20210208,27164106,26632023,0,471721,90445,88134,0,1614
20210209,27259364,26724252,0,474770,95258,92229,0,3049
20210210,27354634,26815592,0,478075,95270,91340,0,3305
20210211,27460396,26917001,0,481289,105762,101409,0,3214
20210212,27560048,27011136,0,484219,99652,94135,0,2930
20210213,27647267,27091096,0,486417,87219,79960,0,2198
20210214,27712420,27154946,0,487589,65153,63850,0,1172
20210215,27766681,27207840,0,488552,54261,52894,0,963
20210216,27829178,27268543,0,490298,62497,60703,0,1746
20210217,27899331,27336272,0,492694,70153,67729,0,2396
20210218,27969229,27402828,0,495208,69898,66556,0,2514
20210219,28048511,27510306,0,497833,79282,107478,0,2625
20210220,28120203,27579884,0,499670,71692,69578,0,1837
20210221,28177363,27635218,0,500908,57160,55334,0,1238
20210222,28233528,29877557,0,502221,56165,2242339,0,1313
20210223,28305788,27758935,0,504496,72260,-2118622,0,2275
20210224,28380537,27824637,0,507679,74749,65702,0,3183
20210225,28458041,27905081,0,510112,77504,80444,0,2433
20210226,28535390,27979721,0,512190,77349,74640,0,2078
20210227,28600016,28042471,0,513712,64626,62750,0,1522
20210228,28651438,28092578,0,514804,51422,50107,0,1092
20210301,28709536,28149824,0,516319,58098,57246,0,1515
20210302,28766682,28202971,0,518260,57146,53147,0,1941
20210303,28833825,28242499,0,520741,67143,39528,0,2481
20210304,28901895,28306788,0,522663,68070,64289,0,1922
20210305,28968314,28368752,0,524466,66419,61964,0,1803
20210306,29026579,28429067,0,525976,58265,60315,0,1510
20210307,29067652,0,0,526679,41073,-28429067,0,703
20210308,29112547,0,0,527415,44895,0,0,736
20210309,29170226,0,0,529220,57679,0,0,1805
20210310,29228116,0,0,530790,57890,0,0,1570
20210311,29290581,0,0,532348,62465,0,0,1558
20210312,29352093,0,0,533893,61512,0,0,1545
20210313,29405125,0,0,534924,53032,0,0,1031
20210314,29443399,0,0,535509,38274,0,0,585
20210315,29499944,0,0,536257,56545,0,0,748
20210316,29553951,0,0,537436,54007,0,0,1179
20210317,29613267,0,0,538663,59316,0,0,1227
20210318,29673659,0,0,540309,60392,0,0,1646
20210319,29735339,0,0,541436,61680,0,0,1127
20210320,29790862,0,0,542176,55523,0,0,740
20210321,29824690,0,0,542664,33828,0,0,488
20210322,29876125,0,0,543385,51435,0,0,721
20210323,29929832,0,0,544260,53707,0,0,875
20210324,30016660,0,0,545770,86828,0,0,1510
20210325,30084207,0,0,547170,67547,0,0,1400
20210326,30161584,0,0,548321,77377,0,0,1151
20210327,30224432,0,0,549117,62848,0,0,796
20210328,30267649,0,0,549642,43217,0,0,525
20210329,30336922,0,0,550346,69273,0,0,704
20210330,30398351,0,0,551229,61429,0,0,883
20210331,30465116,0,0,552307,66765,0,0,1078
20210401,30544259,0,0,553384,79143,0,0,1077
20210402,30614146,0,0,554338,69887,0,0,954
20210403,30677407,0,0,555089,63261,0,0,751
20210404,30712548,0,0,555386,35141,0,0,297
20210405,30789920,0,0,555891,77372,0,0,505
20210406,30850593,0,0,556751,60673,0,0,860
20210407,30925624,0,0,559345,75031,0,0,2594
20210408,31005509,0,0,560373,79885,0,0,1028
20210409,31088219,0,0,561264,82710,0,0,891
20210410,31154906,0,0,561976,66687,0,0,712
20210411,31201415,0,0,562281,46509,0,0,305
20210412,31271497,0,0,562755,70082,0,0,474
20210413,31349456,0,0,563586,77959,0,0,831
20210414,31424859,0,0,564542,75403,0,0,956
20210415,31499172,0,0,565448,74313,0,0,906
20210416,31579238,0,0,566327,80066,0,0,879
20210417,31631770,0,0,567027,52532,0,0,700
20210418,31673891,0,0,567365,42121,0,0,338
20210419,31741996,0,0,567862,68105,0,0,497
20210420,31802945,0,0,568705,60949,0,0,843
20210421,31865803,0,0,569565,62858,0,0,860
20210422,31933078,0,0,570533,67275,0,0,968
20210423,31995503,0,0,571311,62425,0,0,778
20210424,32048996,0,0,572062,53493,0,0,751
20210425,32081149,0,0,572355,32153,0,0,293
20210426,32128705,0,0,572845,47556,0,0,490
20210427,32179541,0,0,573499,50836,0,0,654
20210428,32234696,0,0,574467,55155,0,0,968
20210429,32292947,0,0,575344,58251,0,0,877
20210430,32350857,0,0,576094,57910,0,0,750
20210501,32396265,0,0,576810,45408,0,0,716
20210502,32425655,0,0,577150,29390,0,0,340
20210503,32476146,0,0,577650,50491,0,0,500
20210504,32516869,0,0,578524,40723,0,0,874
20210505,32561599,0,0,579319,44730,0,0,795
20210506,32609130,0,0,580117,47531,0,0,798
20210507,32657317,0,0,580876,48187,0,0,759
20210508,32690935,0,0,581507,33618,0,0,631
20210509,32712374,0,0,581756,21439,0,0,249
20210510,32749160,0,0,582168,36786,0,0,412
20210511,32782822,0,0,582856,33662,0,0,688
20210512,32818648,0,0,583625,35826,0,0,769
20210513,32856724,0,0,584391,38076,0,0,766
20210514,32898982,0,0,585047,42258,0,0,656
20210515,32927841,0,0,585547,28859,0,0,500
20210516,32944720,0,0,585824,16879,0,0,277
20210517,32973341,0,0,586220,28621,0,0,396
20210518,33001125,0,0,586991,27784,0,0,771
20210519,33030447,0,0,587668,29322,0,0,677
20210520,33060632,0,0,588345,30185,0,0,677
20210521,33088574,0,0,588961,27942,0,0,616
20210522,33108377,0,0,589459,19803,0,0,498
20210523,33121290,0,0,589657,12913,0,0,198
20210524,33147060,0,0,590103,25770,0,0,446
20210525,33169815,0,0,590737,22755,0,0,634
20210526,33193775,0,0,591716,23960,0,0,979
20210527,33221266,0,0,593078,27491,0,0,1362
20210528,33243082,0,0,593641,21816,0,0,563
20210529,33255083,0,0,593974,12001,0,0,333
20210530,33261817,0,0,594109,6734,0,0,135
20210531,33267592,0,0,594262,5775,0,0,153
20210601,33290532,0,0,594912,22940,0,0,650
20210602,33307476,0,0,595471,16944,0,0,559
20210603,33326577,0,0,596090,19101,0,0,619
20210604,33343427,0,0,596617,16850,0,0,527
20210605,33357364,0,0,597001,13937,0,0,384
20210606,33362759,0,0,597173,5395,0,0,172
20210607,33378207,0,0,597491,15448,0,0,318
20210608,33391189,0,0,597833,12982,0,0,342
20210609,33409836,0,0,598284,18647,0,0,451
20210610,33424381,0,0,598717,14545,0,0,433
20210611,33449080,0,0,599368,24699,0,0,651
20210612,33457308,0,0,599662,8228,0,0,294
20210613,33462085,0,0,599776,4777,0,0,114
20210614,33474830,0,0,599957,12745,0,0,181
20210615,33486132,0,0,600278,11302,0,0,321
20210616,33498563,0,0,600655,12431,0,0,377
20210617,33508943,0,0,600941,10380,0,0,286
20210618,33529541,0,0,601541,20598,0,0,600
20210619,33538065,0,0,601714,8524,0,0,173
20210620,33541957,0,0,601803,3892,0,0,89
20210621,33554277,0,0,602079,12320,0,0,276
20210622,33565253,0,0,602407,10976,0,0,328
20210623,33577698,0,0,602788,12445,0,0,381
20210624,33590544,0,0,603133,12846,0,0,345
20210625,33614200,0,0,603631,23656,0,0,498
20210626,33621508,0,0,603781,7308,0,0,150
20210627,33625428,0,0,603858,3920,0,0,77
20210628,33640513,0,0,604012,15085,0,0,154
20210629,33651852,0,0,604330,11339,0,0,318
20210630,33664991,0,0,604581,13139,0,0,251
20210701,33679433,0,0,604891,14442,0,0,310
20210702,33709332,0,0,605367,29899,0,0,476
20210703,33714085,0,0,605449,4753,0,0,82
20210704,33717782,0,0,605486,3697,0,0,37
20210705,33723310,0,0,605537,5528,0,0,51
20210706,33747561,0,0,605878,24251,0,0,341
20210707,33770445,0,0,606173,22884,0,0,295
20210708,33790521,0,0,606433,20076,0,0,260
20210709,33838748,0,0,606940,48227,0,0,507
20210710,33847814,0,0,607080,9066,0,0,140
20210711,33853978,0,0,607111,6164,0,0,31
20210712,33888973,0,0,607357,34995,0,0,246
20210713,33915415,0,0,607715,26442,0,0,358
20210714,33947295,0,0,608050,31880,0,0,335
20210715,33975646,0,0,608336,28351,0,0,286
20210716,34054956,0,0,608732,79310,0,0,396
20210717,34067942,0,0,608806,12986,0,0,74
20210718,34079990,0,0,608947,12048,0,0,141
20210719,34132075,0,0,609165,52085,0,0,218
20210720,34174779,0,0,609458,42704,0,0,293
20210721,34226811,0,0,609797,52032,0,0,339
20210722,34283653,0,0,610128,56842,0,0,331
20210723,34402811,0,0,610657,119158,0,0,529
20210724,34430613,0,0,610776,27802,0,0,119
20210725,34443826,0,0,610821,13213,0,0,45
20210726,34533186,0,0,611097,89360,0,0,276
20210727,34603926,0,0,611540,70740,0,0,443
20210728,34672697,0,0,611930,68771,0,0,390
20210729,34750867,0,0,612254,78170,0,0,324
20210730,34945475,0,0,613149,194608,0,0,895
20210731,34978283,0,0,613303,32808,0,0,154
20210801,35003424,0,0,613377,25141,0,0,74
20210802,35131406,0,0,613832,127982,0,0,455
20210803,35237965,0,0,614414,106559,0,0,582
20210804,35330679,0,0,614906,92714,0,0,492
20210805,35440503,0,0,615445,109824,0,0,539
20210806,35695484,0,0,616595,254981,0,0,1150
20210807,35739574,0,0,616822,44090,0,0,227
20210808,35763808,0,0,616939,24234,0,0,117
20210809,35948284,0,0,617440,184476,0,0,501
20210810,36055135,0,0,618237,106851,0,0,797
20210811,36190206,0,0,618580,135071,0,0,343
20210812,36306828,0,0,619196,116622,0,0,616
20210813,36597592,0,0,621089,290764,0,0,1893
20210814,36640302,0,0,621329,42710,0,0,240
20210815,36678784,0,0,621500,38482,0,0,171
20210816,36888983,0,0,622186,210199,0,0,686
20210817,37017890,0,0,623153,128907,0,0,967
20210818,37155706,0,0,624299,137816,0,0,1146
20210819,37294179,0,0,625207,138473,0,0,908
20210820,37613673,0,0,627844,319494,0,0,2637
20210821,37676354,0,0,628339,62681,0,0,495
20210822,37709851,0,0,628503,33497,0,0,164
20210823,37939682,0,0,629411,229831,0,0,908
20210824,38074929,0,0,630816,135247,0,0,1405
20210825,38223075,0,0,632272,148146,0,0,1456
20210826,38384409,0,0,633564,161334,0,0,1292
20210827,38707343,0,0,636720,322934,0,0,3156
20210828,38760414,0,0,637254,53071,0,0,534
20210829,38798889,0,0,637539,38475,0,0,285
20210830,39057426,0,0,638711,258537,0,0,1172
20210831,39198131,0,0,640108,140705,0,0,1397
20210901,39396156,0,0,642081,198025,0,0,1973
20210902,39549299,0,0,643669,153143,0,0,1588
20210903,39850256,0,0,647579,300957,0,0,3910
20210904,39906426,0,0,648106,56170,0,0,527
