date,infected,active,recovered,dead,deltaInfected,deltaActive,deltaRecovered,deltaDead
20200314,4,4,0,0,4,4,0,0
20200315,4,4,0,0,0,0,0,0
20200316,8,8,0,0,4,4,0,0
20200317,29,29,0,0,21,21,0,0
20200318,50,50,0,0,21,21,0,0
20200319,79,79,0,0,29,29,0,0
20200320,94,94,0,0,15,15,0,0
20200321,110,110,0,0,16,16,0,0
20200322,135,135,0,0,25,25,0,0
20200323,158,158,0,0,23,23,0,0
20200324,162,162,0,0,4,4,0,0
20200325,189,189,0,0,27,27,0,0
20200326,217,217,0,0,28,28,0,0
20200327,238,238,0,0,21,21,0,0
20200328,274,274,0,0,36,36,0,0
20200329,304,303,0,1,30,29,0,1
20200330,310,309,0,1,6,6,0,0
20200331,338,296,41,1,28,-13,41,0
20200401,338,295,41,2,0,-1,0,1
20200402,350,284,62,4,12,-11,21,2
20200403,369,297,68,4,19,13,6,0
20200404,400,302,93,5,31,5,25,1
20200405,400,302,93,5,0,0,0,0
20200406,406,296,104,6,6,-6,11,1
20200407,424,267,150,7,18,-29,46,1
20200408,424,267,150,7,0,0,0,0
20200409,456,257,192,7,32,-10,42,0
20200410,473,260,206,7,17,3,14,0
20200411,494,273,214,7,21,13,8,0
20200412,480,242,231,7,-14,-31,17,0
20200413,480,241,231,8,0,-1,0,1
20200414,483,227,248,8,3,-14,17,0
20200415,492,224,260,8,9,-3,12,0
20200416,502,207,286,9,10,-17,26,1
20200417,502,207,286,9,0,0,0,0
20200418,508,205,294,9,6,-2,8,0
20200419,517,209,298,10,9,4,4,1
20200420,535,212,313,10,18,3,15,0
20200421,535,211,313,11,0,-1,0,1
20200422,543,207,324,12,8,-4,11,1
20200423,557,191,354,12,14,-16,30,0
20200424,563,182,369,12,6,-9,15,0
20200425,596,212,370,14,33,30,1,2
20200426,606,216,375,15,10,4,5,1
20200427,620,219,386,15,14,3,11,0
20200428,625,216,394,15,5,-3,8,0
20200429,630,203,412,15,5,-13,18,0
20200430,643,209,417,17,13,6,5,2
20200501,648,196,435,17,5,-13,18,0
20200502,652,195,440,17,4,-1,5,0
20200503,655,196,442,17,3,1,2,0
20200504,657,193,447,17,2,-3,5,0
20200505,670,185,468,17,13,-8,21,0
20200506,673,170,486,17,3,-15,18,0
20200507,684,175,492,17,11,5,6,0
20200508,694,170,506,18,10,-5,14,1
20200509,702,171,513,18,8,1,7,0
20200510,707,171,517,19,5,0,4,1
20200511,711,169,523,19,4,-2,6,0
20200512,717,166,532,19,6,-3,9,0
20200513,719,155,545,19,2,-11,13,0
20200514,724,158,547,19,5,3,2,0
20200515,732,160,553,19,8,2,6,0
20200516,733,156,558,19,1,-4,5,0
20200517,734,150,564,20,1,-6,6,1
20200518,737,148,569,20,3,-2,5,0
20200519,738,139,579,20,1,-9,10,0
20200520,746,138,588,20,8,-1,9,0
20200521,749,135,594,20,3,-3,6,0
20200522,753,130,603,20,4,-5,9,0
20200523,764,126,616,22,11,-4,13,2
20200524,769,129,618,22,5,3,2,0
20200525,787,136,629,22,18,7,11,0
20200526,789,129,638,22,2,-7,9,0
20200527,803,131,650,22,14,2,12,0
20200528,811,135,654,22,8,4,4,0
20200529,816,114,680,22,5,-21,26,0
20200530,821,117,682,22,5,3,2,0
20200531,823,116,685,22,2,-1,3,0
20200601,825,113,689,23,2,-3,4,1
20200602,826,112,691,23,1,-1,2,0
20200603,828,107,698,23,2,-5,7,0
20200604,832,100,709,23,4,-7,11,0
20200605,834,90,721,23,2,-10,12,0
20200606,845,96,726,23,11,6,5,0
20200607,845,92,730,23,0,-4,4,0
20200608,845,84,738,23,0,-8,8,0
20200609,846,69,754,23,1,-15,16,0
20200610,847,66,758,23,1,-3,4,0
20200611,847,52,772,23,0,-14,14,0
20200612,847,44,780,23,0,-8,8,0
20200613,847,40,784,23,0,-4,4,0
20200614,848,37,788,23,1,-3,4,0
20200615,848,33,792,23,0,-4,4,0
20200616,849,24,801,24,1,-9,9,1
20200617,849,15,810,24,0,-9,9,0
20200618,850,12,814,24,1,-3,4,0
20200619,853,15,814,24,3,3,0,0
20200620,859,19,815,25,6,4,1,1
20200621,876,37,814,25,17,18,-1,0
20200622,882,42,815,25,6,5,1,0
20200623,885,45,815,25,3,3,0,0
20200624,902,61,815,26,17,16,0,1
20200625,907,63,818,26,5,2,3,0
20200626,919,75,818,26,12,12,0,0
20200627,924,80,818,26,5,5,0,0
20200628,929,84,818,27,5,4,0,1
20200629,932,83,822,27,3,-1,4,0
20200630,936,85,824,27,4,2,2,0
20200701,943,90,825,28,7,5,1,1
20200702,947,91,828,28,4,1,3,0
20200703,952,87,837,28,5,-4,9,0
20200704,955,87,840,28,3,0,3,0
20200705,956,79,849,28,1,-8,9,0
20200706,960,73,858,29,4,-6,9,1
20200707,965,71,865,29,5,-2,7,0
20200708,974,74,871,29,9,3,6,0
20200709,977,70,878,29,3,-4,7,0
20200710,985,70,886,29,8,0,8,0
20200711,986,60,896,30,1,-10,10,1
20200712,987,60,896,31,1,0,0,1
20200713,989,55,903,31,2,-5,7,0
20200714,997,61,905,31,8,6,2,0
20200715,1009,69,909,31,12,8,4,0
20200716,1026,78,916,32,17,9,7,1
20200717,1037,88,917,32,11,10,1,0
20200718,1044,90,921,33,7,2,4,1
20200719,1054,99,922,33,10,9,1,0
20200720,1064,104,927,33,10,5,5,0
20200721,1096,134,929,33,32,30,2,0
20200722,1117,149,934,34,21,15,5,1
20200723,1141,167,940,34,24,18,6,0
20200724,1166,186,946,34,25,19,6,0
20200725,1174,193,947,34,8,7,1,0
20200726,1192,210,948,34,18,17,1,0
20200727,1202,216,951,35,10,6,3,1
20200728,1218,225,958,35,16,9,7,0
20200729,1237,235,967,35,19,10,9,0
20200730,1243,230,978,35,6,-5,11,0
20200731,1264,235,994,35,21,5,16,0
20200801,1278,239,1004,35,14,4,10,0
20200802,1286,239,1011,36,8,0,7,1
20200803,1291,232,1023,36,5,-7,12,0
20200804,1300,215,1048,37,9,-17,25,1
20200805,1309,207,1065,37,9,-8,17,0
20200806,1318,202,1079,37,9,-5,14,0
20200807,1325,193,1095,37,7,-9,16,0
20200808,1335,186,1112,37,10,-7,17,0
20200809,1353,191,1125,37,18,5,13,0
20200810,1364,181,1146,37,11,-10,21,0
20200811,1385,191,1157,37,21,10,11,0
20200812,1393,193,1163,37,8,2,6,0
20200813,1409,192,1180,37,16,-1,17,0
20200814,1421,201,1182,38,12,9,2,1
20200815,1434,202,1194,38,13,1,12,0
20200816,1440,202,1200,38,6,0,6,0
20200817,1457,212,1205,40,17,10,5,2
20200818,1485,226,1219,40,28,14,14,0
20200819,1493,225,1228,40,8,-1,9,0
20200820,1506,223,1242,41,13,-2,14,1
20200821,1516,225,1249,42,10,2,7,1
20200822,1521,215,1264,42,5,-10,15,0
20200823,1527,209,1276,42,6,-6,12,0
20200824,1533,196,1295,42,6,-13,19,0
20200825,1536,184,1309,43,3,-12,14,1
20200826,1543,178,1322,43,7,-6,13,0
20200827,1551,175,1333,43,8,-3,11,0
20200828,1556,161,1352,43,5,-14,19,0
20200829,1570,162,1364,44,14,1,12,1
20200830,1585,163,1378,44,15,1,14,0
20200831,1595,142,1409,44,10,-21,31,0
20200901,1611,148,1419,44,16,6,10,0
20200902,1626,149,1433,44,15,1,14,0
20200903,1636,155,1437,44,10,6,4,0
20200904,1653,162,1446,45,17,7,9,1
20200905,1669,165,1459,45,16,3,13,0
20200906,1679,175,1459,45,10,10,0,0
20200907,1693,182,1466,45,14,7,7,0
20200908,1712,191,1476,45,19,9,10,0
20200909,1741,218,1478,45,29,27,2,0
20200910,1759,230,1484,45,18,12,6,0
20200911,1773,238,1490,45,14,8,6,0
20200912,1780,233,1502,45,7,-5,12,0
20200913,1808,250,1513,45,28,17,11,0
20200914,1812,239,1528,45,4,-11,15,0
20200915,1827,237,1545,45,15,-2,17,0
20200916,1856,252,1559,45,29,15,14,0
20200917,1876,248,1582,46,20,-4,23,1
20200918,1890,241,1603,46,14,-7,21,0
20200919,1904,246,1612,46,14,5,9,0
20200920,1917,250,1621,46,13,4,9,0
20200921,1927,247,1634,46,10,-3,13,0
20200922,1934,243,1645,46,7,-4,11,0
20200923,1946,238,1661,47,12,-5,16,1
20200924,1959,233,1679,47,13,-5,18,0
20200925,1967,210,1710,47,8,-23,31,0
20200926,1998,235,1716,47,31,25,6,0
20200927,2008,233,1728,47,10,-2,12,0
20200928,2010,208,1755,47,2,-25,27,0
20200929,2033,214,1771,48,23,6,16,1
20200930,2046,207,1791,48,13,-7,20,0
20201001,2061,204,1809,48,15,-3,18,0
20201002,2097,225,1824,48,36,21,15,0
20201003,2122,243,1831,48,25,18,7,0
20201004,2145,253,1844,48,23,10,13,0
20201005,2155,245,1862,48,10,-8,18,0
20201006,2177,250,1878,49,22,5,16,1
20201007,2206,267,1890,49,29,17,12,0
20201008,2226,273,1904,49,20,6,14,0
20201009,2251,285,1917,49,25,12,13,0
20201010,2268,288,1930,50,17,3,13,1
20201011,2294,302,1942,50,26,14,12,0
20201012,2313,312,1950,51,19,10,8,1
20201013,2337,299,1987,51,24,-13,37,0
20201014,2388,330,2007,51,51,31,20,0
20201015,2417,341,2025,51,29,11,18,0
20201016,2450,357,2042,51,33,16,17,0
20201017,2501,398,2052,51,51,41,10,0
20201018,2531,375,2105,51,30,-23,53,0
20201019,2560,388,2121,51,29,13,16,0
20201020,2623,429,2142,52,63,41,21,1
20201021,2663,438,2172,53,40,9,30,1
20201022,2701,444,2204,53,38,6,32,0
20201023,2759,465,2241,53,58,21,37,0
20201024,2807,453,2301,53,48,-12,60,0
20201025,2851,447,2351,53,44,-6,50,0
20201026,2872,407,2411,54,21,-40,60,1
20201027,2916,407,2455,54,44,0,44,0
20201028,2981,445,2481,55,65,38,26,1
20201029,3044,483,2504,57,63,38,23,2
20201030,3082,492,2532,58,38,9,28,1
20201031,3124,506,2560,58,42,14,28,0
20201101,3149,489,2601,59,25,-17,41,1
20201102,3165,447,2658,60,16,-42,57,1
20201103,3196,408,2727,61,31,-39,69,1
20201104,3245,414,2770,61,49,6,43,0
20201105,3309,434,2814,61,64,20,44,0
20201106,3370,456,2853,61,61,22,39,0
20201107,3441,477,2903,61,71,21,50,0
20201108,3514,509,2943,62,73,32,40,1
20201109,3560,505,2993,62,46,-4,50,0
20201110,3620,524,3034,62,60,19,41,0
20201111,3700,559,3078,63,80,35,44,1
20201112,3795,629,3103,63,95,70,25,0
20201113,3883,684,3135,64,88,55,32,1
20201114,3957,718,3175,64,74,34,40,0
20201115,4030,732,3233,65,73,14,58,1
20201116,4104,753,3284,67,74,21,51,2
20201117,4208,792,3348,68,104,39,64,1
20201118,4296,824,3404,68,88,32,56,0
20201119,4377,829,3479,69,81,5,75,1
20201120,4477,861,3547,69,100,32,68,0
20201121,4564,874,3621,69,87,13,74,0
20201122,4699,949,3679,71,135,75,58,2
20201123,4763,928,3764,71,64,-21,85,0
20201124,4870,971,3827,72,107,43,63,1
20201125,4988,992,3923,73,118,21,96,1
20201126,5117,1022,4021,74,129,30,98,1
20201127,5303,1122,4107,74,186,100,86,0
20201128,5511,1251,4185,75,208,129,78,1
20201129,5716,1373,4267,76,205,122,82,1
20201130,5857,1423,4357,77,141,50,90,1
20201201,6024,1463,4483,78,167,40,126,1
20201202,6225,1561,4584,80,201,98,101,2
20201203,6455,1668,4707,80,230,107,123,0
20201204,6731,1825,4826,80,276,157,119,0
20201205,6965,1938,4946,81,234,113,120,1
20201206,7303,2159,5062,82,338,221,116,1
20201207,7505,2182,5240,83,202,23,178,1
20201208,7806,2305,5415,86,301,123,175,3
20201209,8104,2453,5564,87,298,148,149,1
20201210,8487,2650,5747,90,383,197,183,3
20201211,8849,2818,5941,90,362,168,194,0
20201212,9180,2934,6155,91,331,116,214,1
20201213,9708,3258,6358,92,528,324,203,1
20201214,10029,3341,6593,95,321,83,235,3
20201215,10418,3425,6895,98,389,84,302,3
20201216,10893,3649,7142,102,475,224,247,4
20201217,11436,3925,7406,105,543,276,264,3
20201218,11950,4142,7699,109,514,217,293,4
20201219,12557,4441,8002,114,607,299,303,5
20201220,13048,4602,8327,119,491,161,325,5
20201221,13477,4670,8688,119,429,68,361,0
20201222,14001,4754,9127,120,524,84,439,1
20201223,14710,5008,9574,128,709,254,447,8
20201224,15457,5282,10040,135,747,274,466,7
20201225,15848,5226,10479,143,391,-56,439,8
20201226,16218,5224,10847,147,370,-2,368,4
20201227,16728,5204,11366,158,510,-20,519,11
20201228,17306,5180,11966,160,578,-24,600,2
20201229,17962,5288,12506,168,656,108,540,8
20201230,18480,5310,12996,174,518,22,490,6
20201231,19119,5470,13468,181,639,160,472,7
20210101,19753,5570,13990,193,634,100,522,12
20210102,20275,5482,14592,201,522,-88,602,8
20210103,20823,5494,15125,204,548,12,533,3
20210104,21426,5676,15539,211,603,182,414,7
20210105,22104,5968,15919,217,678,292,380,6
20210106,23048,6287,16540,221,944,319,621,4
20210107,23807,6478,17098,231,759,191,558,10
20210108,24339,6422,17677,240,532,-56,579,9
20210109,24974,6354,18372,248,635,-68,695,8
20210110,26186,6917,19013,256,1212,563,641,8
20210111,26901,7084,19555,262,715,167,542,6
20210112,27846,7478,20099,269,945,394,544,7
20210113,28475,7467,20733,275,629,-11,634,6
20210114,29989,8024,21685,280,1514,557,952,5
20210115,30946,8232,22423,291,957,208,738,11
20210116,31669,8235,23136,298,723,3,713,7
20210117,32378,8157,23910,311,709,-78,774,13
20210118,32863,7926,24618,319,485,-231,708,8
20210119,33446,7706,25410,330,583,-220,792,11
20210120,34294,7840,26118,336,848,134,708,6
20210121,34992,7718,26927,347,698,-122,809,11
20210122,36170,8091,27715,364,1178,373,788,17
20210123,36967,8053,28547,367,797,-38,832,3
20210124,37633,7987,29270,376,666,-66,723,9
20210125,38041,7508,30143,390,408,-479,873,14
20210126,38680,7418,30861,401,639,-90,718,11
20210127,39328,7323,31598,407,648,-95,737,6
20210128,39887,7166,32306,415,559,-157,708,8
20210129,40529,6958,33146,425,642,-208,840,10
20210130,41181,6836,33914,431,652,-122,768,6
20210131,41738,6619,34683,436,557,-217,769,5
20210201,42128,6149,35535,444,390,-470,852,8
20210202,42667,6036,36178,453,539,-113,643,9
20210203,43215,5931,36820,464,548,-105,642,11
20210204,43804,5917,37411,476,589,-14,591,12
20210205,44303,5858,37967,478,499,-59,556,2
20210206,44812,5862,38469,481,509,4,502,3
20210207,45311,5845,38976,490,499,-17,507,9
20210208,45650,5476,39677,497,339,-369,701,7
20210209,46153,5375,40272,506,503,-101,595,9
20210210,46778,5493,40769,516,625,118,497,10
20210211,47254,5304,41426,524,476,-189,657,8
20210212,47828,5335,41966,527,574,31,540,3
20210213,48459,5421,42505,533,631,86,539,6
20210214,48909,5485,42889,535,450,64,384,2
20210215,49360,5333,43486,541,451,-152,597,6
20210216,49725,5119,44060,546,365,-214,574,5
20210217,50208,5174,44481,553,483,55,421,7
20210218,50752,5218,44976,558,544,44,495,5
20210219,51377,5416,45398,563,625,198,422,5
20210220,52163,5713,45881,569,786,297,483,6
20210221,52815,5976,46265,574,652,263,384,5
20210222,53310,5882,46845,583,495,-94,580,9
20210223,53973,5873,47512,588,663,-9,667,5
20210224,54874,6248,48035,591,901,375,523,3
20210225,55695,6604,48496,595,821,356,461,4
20210226,56542,6929,49012,601,847,325,516,6
20210227,57362,7293,49466,603,820,364,454,2
20210228,57994,7347,50039,608,632,54,573,5
20210301,58589,7354,50624,611,595,7,585,3
20210302,59171,7189,51365,617,582,-165,741,6
20210303,60074,7472,51978,624,903,283,613,7
20210304,60945,7702,52612,631,871,230,634,7
20210305,61929,7873,53419,637,984,171,807,6
20210306,63010,8190,54175,645,1081,317,756,8
20210307,63837,8325,54861,651,827,135,686,6
20210308,64700,8404,55638,658,863,79,777,7
20210309,65527,8462,56399,666,827,58,761,8
20210310,66484,8672,57134,678,957,210,735,12
20210311,67717,9261,57773,683,1233,589,639,5
20210312,69074,9758,58627,689,1357,497,854,6
20210313,70133,9896,59539,698,1059,138,912,9
20210314,71691,10462,60517,712,1558,566,978,14
20210315,72862,10536,61609,717,1171,74,1092,5
20210316,73770,10461,62584,725,908,-75,975,8
20210317,75138,10923,63475,740,1368,462,891,15
20210318,76816,11575,64492,749,1678,652,1017,9
20210319,78401,12126,65515,760,1585,551,1023,11
20210320,79923,12479,66668,776,1522,353,1153,16
20210321,81537,13015,67730,792,1614,536,1062,16
20210322,84230,14436,68983,811,2693,1421,1253,19
20210323,86007,14808,70372,827,1777,372,1389,16
20210324,87812,15381,71588,843,1805,573,1216,16
20210325,89458,15683,72919,856,1646,302,1331,13
20210326,92343,17129,74339,875,2885,1446,1420,19
20210327,95278,18347,76030,901,2935,1218,1691,26
20210328,97406,18924,77567,915,2128,577,1537,14
20210329,99584,19246,79410,928,2178,322,1843,13
20210330,102461,20070,81438,953,2877,824,2028,25
20210331,105549,21195,83380,974,3088,1125,1942,21
20210401,108188,21979,85200,1009,2639,784,1820,35
20210402,111568,23488,87039,1041,3380,1509,1839,32
20210403,113904,23798,89035,1071,2336,310,1996,30
20210404,117757,27621,89035,1101,3853,3823,0,30
20210405,119958,24770,94042,1146,2201,-2851,5007,45
20210406,123063,25309,96563,1191,3105,539,2521,45
20210407,126987,26919,98837,1231,3924,1610,2274,40
20210408,130657,28141,101241,1275,3670,1222,2404,44
20210409,137946,32342,104241,1363,7289,4201,3000,88
20210410,141380,35532,104434,1414,3434,3190,193,51
20210411,144642,32903,110277,1462,3262,-2629,5843,48
20210412,147173,32515,113125,1533,2531,-388,2848,71
20210413,149430,31302,116533,1595,2257,-1213,3408,62
20210414,152089,31054,119388,1647,2659,-248,2855,52
20210415,156499,32136,122637,1726,4410,1082,3249,79
20210416,159569,31662,126119,1788,3070,-474,3482,62
20210417,162400,31216,129336,1848,2831,-446,3217,60
20210418,164744,29919,132917,1908,2344,-1297,3581,60
20210419,167033,28758,136304,1971,2289,-1161,3387,63
20210420,169327,27715,139590,2022,2294,-1043,3286,51
20210421,172601,27969,142549,2083,3274,254,2959,61
20210422,175891,28267,145464,2160,3290,298,2915,77
20210423,179537,28749,148561,2227,3646,482,3097,67
20210424,182326,28374,151669,2283,2789,-375,3108,56
20210425,184865,28050,154489,2326,2539,-324,2820,43
20210426,187349,27398,157560,2391,2484,-652,3071,65
20210427,190096,27012,160632,2452,2747,-386,3072,61
20210428,193027,28123,162407,2497,2931,1111,1775,45
20210429,195734,28206,164965,2563,2707,83,2558,66
20210430,198428,27989,167823,2616,2694,-217,2858,53
20210501,200908,27489,170750,2669,2480,-500,2927,53
20210502,202492,25999,173769,2724,1584,-1490,3019,55
20210503,204120,24541,176783,2796,1628,-1458,3014,72
20210504,206946,24605,179480,2861,2826,64,2697,65
20210505,209867,25230,181719,2918,2921,625,2239,57
20210506,213449,25971,184506,2972,3582,741,2787,54
20210507,216146,25961,187153,3032,2697,-10,2647,60
20210508,218800,25979,189739,3082,2654,18,2586,50
20210509,220683,25447,192114,3122,1883,-532,2375,40
20210510,222870,24735,194964,3171,2187,-712,2850,49
20210511,225847,25554,197085,3208,2977,819,2121,37
20210512,228102,25928,198922,3252,2255,374,1837,44
20210513,231901,27216,201367,3318,3799,1288,2445,66
20210514,235206,27786,204051,3369,3305,570,2684,51
20210515,238079,27990,206670,3419,2873,204,2619,50
20210516,240512,27715,209338,3459,2433,-275,2668,40
20210517,242906,27334,212051,3521,2394,-381,2713,62
20210518,246026,27870,214578,3578,3120,536,2527,57
20210519,249365,29138,216589,3638,3339,1268,2011,60
20210520,253941,30973,219277,3691,4576,1835,2688,53
20210521,258540,32777,222003,3760,4599,1804,2726,69
20210522,262009,33411,224787,3811,3469,634,2784,51
20210523,265098,33696,227531,3871,3089,285,2744,60
20210524,267888,33325,230641,3922,2790,-371,3110,51
20210525,271859,34257,233629,3973,3971,932,2988,51
20210526,276435,36121,236292,4022,4576,1864,2663,49
20210527,280372,36997,239309,4066,3937,876,3017,44
20210528,282198,35419,242661,4118,1826,-1578,3352,52
20210529,288172,37675,246321,4176,5974,2256,3660,58
20210530,291488,37226,250049,4213,3316,-449,3728,37
20210531,294503,36654,253573,4276,3015,-572,3524,63
20210601,298006,36634,257030,4342,3503,-20,3457,66
20210602,301524,37171,259959,4394,3518,537,2929,52
20210603,304411,36218,263733,4460,2887,-953,3774,66
20210604,308490,36198,267776,4516,4079,-20,4043,56
20210605,312703,36639,271481,4583,4213,441,3705,67
20210606,316535,36757,275138,4640,3832,118,3657,57
20210607,318783,34704,279387,4692,2248,-2053,4249,52
20210608,322978,34832,283397,4749,4195,128,4010,57
20210609,326405,35117,286472,4816,3427,285,3075,67
20210610,330027,35411,289754,4862,3622,294,3282,46
20210611,333484,35246,293332,4906,3457,-165,3578,44
20210612,336470,34659,296855,4956,2986,-587,3523,50
20210613,338513,33399,300119,4995,2043,-1260,3264,39
20210614,340818,31902,303880,5036,2305,-1497,3761,41
20210615,343615,31337,307189,5089,2797,-565,3309,53
20210616,346515,31430,309965,5120,2900,93,2776,31
20210617,348662,30122,313388,5152,2147,-1308,3423,32
20210618,351378,29155,317016,5207,2716,-967,3628,55
20210619,353377,27789,320347,5241,1999,-1366,3331,34
20210620,354865,26100,323494,5271,1488,-1689,3147,30
20210621,356382,24195,326871,5316,1517,-1905,3377,45
20210622,358461,23449,329662,5350,2079,-746,2791,34
20210623,360247,22761,332112,5374,1786,-688,2450,24
20210624,361994,21610,334971,5413,1747,-1151,2859,39
20210625,363580,20385,337748,5447,1586,-1225,2777,34
20210626,364859,19033,340352,5474,1279,-1352,2604,27
20210627,365866,17878,342494,5494,1007,-1155,2142,20
20210628,366915,16588,344803,5524,1049,-1290,2309,30
20210629,368178,15763,346857,5558,1263,-825,2054,34
20210630,369350,15268,348489,5593,1172,-495,1632,35
20210701,370600,14690,350291,5619,1250,-578,1802,26
20210702,371417,13657,352118,5642,817,-1033,1827,23
20210703,372178,12613,353902,5663,761,-1044,1784,21
20210704,372709,11600,355420,5689,531,-1013,1518,26
20210705,373286,10646,356929,5711,577,-954,1509,22
20210706,374019,9979,358305,5735,733,-667,1376,24
20210707,374665,9632,359275,5758,646,-347,970,23
20210708,375298,9088,360438,5772,633,-544,1163,14
20210709,375902,8442,361670,5790,604,-646,1232,18
20210710,376281,7792,362682,5807,379,-650,1012,17
20210711,376579,7220,363544,5815,298,-572,862,8
20210712,376876,6612,364431,5833,297,-608,887,18
20210713,377297,6229,365219,5849,421,-383,788,16
20210714,377704,5998,365852,5854,407,-231,633,5
20210715,378041,5486,366690,5865,337,-512,838,11
20210716,378480,5152,367457,5871,439,-334,767,6
20210717,378733,4887,367967,5879,253,-265,510,8
20210718,378875,4534,368458,5883,142,-353,491,4
20210719,379072,4082,369101,5889,197,-452,643,6
20210720,379376,3828,369652,5896,304,-254,551,7
20210721,379613,3495,370213,5905,237,-333,561,9
20210722,379911,3287,370711,5913,298,-208,498,8
20210723,380151,3287,371116,5919,240,0,405,6
20210724,380311,2921,371463,5927,160,-366,347,8
20210725,380431,2678,371822,5931,120,-243,359,4
20210726,380584,2467,372181,5936,153,-211,359,5
20210727,380793,2404,372448,5941,209,-63,267,5
20210728,380976,2305,372721,5950,183,-99,273,9
20210729,381187,2227,373007,5953,211,-78,286,3
20210730,381364,2115,373290,5959,177,-112,283,6
20210731,381517,2072,373481,5964,153,-43,191,5
20210801,381569,1967,373636,5966,52,-105,155,2
20210802,381715,1904,373839,5972,146,-63,203,6
20210803,381853,1833,374044,5976,138,-71,205,4
20210804,381994,1812,374203,5979,141,-21,159,3
20210805,382155,0,0,5982,161,-1812,-374203,3
20210806,382295,0,0,5986,140,0,0,4
20210807,382360,0,0,5986,65,0,0,0
20210808,382506,0,0,5986,146,0,0,0
20210809,382607,0,0,5989,101,0,0,3
20210810,382721,0,0,5990,114,0,0,1
20210811,382873,0,0,5991,152,0,0,1
20210812,382997,0,0,5996,124,0,0,5
20210813,383101,0,0,5998,104,0,0,2
20210814,383212,0,0,6001,111,0,0,3
20210815,383292,0,0,6003,80,0,0,2
20210816,383387,0,0,6004,95,0,0,1
20210817,383505,0,0,6007,118,0,0,3
20210818,383645,0,0,6012,140,0,0,5
20210819,383758,0,0,6013,113,0,0,1
20210820,383903,0,0,6015,145,0,0,2
20210821,384026,0,0,6016,123,0,0,1
20210822,384094,0,0,6016,68,0,0,0
20210823,384181,0,0,6016,87,0,0,0
20210824,384287,0,0,6020,106,0,0,4
20210825,384392,0,0,6022,105,0,0,2
20210826,384458,0,0,6025,66,0,0,3
20210827,384531,0,0,6026,73,0,0,1
20210828,384622,0,0,6027,91,0,0,1
20210829,384692,0,0,6029,70,0,0,2
20210830,384778,0,0,6029,86,0,0,0
20210831,384934,0,0,6032,156,0,0,3
20210901,385078,0,0,6034,144,0,0,2
20210902,385264,0,0,6034,186,0,0,0
20210903,385423,0,0,6034,159,0,0,0
20210904,385557,0,0,6034,134,0,0,0
