date,infected,active,recovered,dead,deltaInfected,deltaActive,deltaRecovered,deltaDead
20200314,1,1,0,0,1,1,0,0
20200315,1,1,0,0,0,0,0,0
20200316,1,1,0,0,0,0,0,0
20200317,1,1,0,0,0,0,0,0
20200318,1,1,0,0,0,0,0,0
20200319,1,1,0,0,0,0,0,0
20200320,1,1,0,0,0,0,0,0
20200321,1,1,0,0,0,0,0,0
20200322,1,1,0,0,0,0,0,0
20200323,1,1,0,0,0,0,0,0
20200324,1,1,0,0,0,0,0,0
20200325,1,1,0,0,0,0,0,0
20200326,1,1,0,0,0,0,0,0
20200327,1,1,0,0,0,0,0,0
20200328,1,0,1,0,0,-1,1,0
20200329,1,0,1,0,0,0,0,0
20200330,1,0,1,0,0,0,0,0
20200331,1,0,1,0,0,0,0,0
20200401,1,0,1,0,0,0,0,0
20200402,2,1,1,0,1,1,0,0
20200403,3,2,1,0,1,1,0,0
20200404,7,6,1,0,4,4,0,0
20200405,7,6,1,0,0,0,0,0
20200406,7,6,1,0,0,0,0,0
20200407,8,7,1,0,1,1,0,0
20200408,8,7,1,0,0,0,0,0
20200409,12,11,1,0,4,4,0,0
20200410,12,11,1,0,0,0,0,0
20200411,12,11,1,0,0,0,0,0
20200412,12,11,1,0,0,0,0,0
20200413,12,11,1,0,0,0,0,0
20200414,12,11,1,0,0,0,0,0
20200415,12,11,1,0,0,0,0,0
20200416,12,11,1,0,0,0,0,0
20200417,12,11,1,0,0,0,0,0
20200418,12,11,1,0,0,0,0,0
20200419,12,11,1,0,0,0,0,0
20200420,12,11,1,0,0,0,0,0
20200421,12,10,2,0,0,-1,1,0
20200422,13,10,3,0,1,0,1,0
20200423,13,10,3,0,0,0,0,0
20200424,14,9,5,0,1,-1,2,0
20200425,14,9,5,0,0,0,0,0
20200426,14,9,5,0,0,0,0,0
20200427,15,7,8,0,1,-2,3,0
20200428,15,7,8,0,0,0,0,0
20200429,16,8,8,0,1,1,0,0
20200430,16,8,8,0,0,0,0,0
20200501,16,8,8,0,0,0,0,0
20200502,16,8,8,0,0,0,0,0
20200503,16,8,8,0,0,0,0,0
20200504,17,8,9,0,1,0,1,0
20200505,17,8,9,0,0,0,0,0
20200506,17,8,9,0,0,0,0,0
20200507,17,8,9,0,0,0,0,0
20200508,17,8,9,0,0,0,0,0
20200509,17,8,9,0,0,0,0,0
20200510,17,8,9,0,0,0,0,0
20200511,17,8,9,0,0,0,0,0
20200512,17,5,12,0,0,-3,3,0
20200513,17,5,12,0,0,0,0,0
20200514,17,5,12,0,0,0,0,0
20200515,17,3,14,0,0,-2,2,0
20200516,17,3,14,0,0,0,0,0
20200517,17,3,14,0,0,0,0,0
20200518,17,3,14,0,0,0,0,0
20200519,17,3,14,0,0,0,0,0
20200520,18,4,14,0,1,1,0,0
20200521,18,4,14,0,0,0,0,0
20200522,18,4,14,0,0,0,0,0
20200523,18,4,14,0,0,0,0,0
20200524,18,4,14,0,0,0,0,0
20200525,18,4,14,0,0,0,0,0
20200526,18,4,14,0,0,0,0,0
20200527,18,4,14,0,0,0,0,0
20200528,25,11,14,0,7,7,0,0
20200529,26,12,14,0,1,1,0,0
20200530,26,11,15,0,0,-1,1,0
20200531,26,11,15,0,0,0,0,0
20200601,26,11,15,0,0,0,0,0
20200602,26,11,15,0,0,0,0,0
20200603,26,11,15,0,0,0,0,0
20200604,26,11,15,0,0,0,0,0
20200605,26,11,15,0,0,0,0,0
20200606,26,11,15,0,0,0,0,0
20200607,27,11,16,0,1,0,1,0
20200608,27,11,16,0,0,0,0,0
20200609,27,2,25,0,0,-9,9,0
20200610,27,2,25,0,0,0,0,0
20200611,27,2,25,0,0,0,0,0
20200612,27,2,25,0,0,0,0,0
20200613,27,2,25,0,0,0,0,0
20200614,27,2,25,0,0,0,0,0
20200615,27,2,25,0,0,0,0,0
20200616,29,4,25,0,2,2,0,0
20200617,29,4,25,0,0,0,0,0
20200618,29,3,26,0,0,-1,1,0
20200619,29,3,26,0,0,0,0,0
20200620,29,3,26,0,0,0,0,0
20200621,29,3,26,0,0,0,0,0
20200622,29,3,26,0,0,0,0,0
20200623,29,2,27,0,0,-1,1,0
20200624,29,2,27,0,0,0,0,0
20200625,29,0,29,0,0,-2,2,0
20200626,29,0,29,0,0,0,0,0
20200627,29,0,29,0,0,0,0,0
20200628,29,0,29,0,0,0,0,0
20200629,29,0,29,0,0,0,0,0
20200630,29,0,29,0,0,0,0,0
20200701,29,0,29,0,0,0,0,0
20200702,29,0,29,0,0,0,0,0
20200703,29,0,29,0,0,0,0,0
20200704,29,0,29,0,0,0,0,0
20200705,29,0,29,0,0,0,0,0
20200706,29,0,29,0,0,0,0,0
20200707,29,0,29,0,0,0,0,0
20200708,29,0,29,0,0,0,0,0
20200709,29,0,29,0,0,0,0,0
20200710,29,0,29,0,0,0,0,0
20200711,29,0,29,0,0,0,0,0
20200712,35,6,29,0,6,6,0,0
20200713,35,6,29,0,0,0,0,0
20200714,35,6,29,0,0,0,0,0
20200715,35,6,29,0,0,0,0,0
20200716,35,6,29,0,0,0,0,0
20200717,35,6,29,0,0,0,0,0
20200718,38,9,29,0,3,3,0,0
20200719,44,15,29,0,6,6,0,0
20200720,50,21,29,0,6,6,0,0
20200721,50,21,29,0,0,0,0,0
20200722,52,15,37,0,2,-6,8,0
20200723,52,15,37,0,0,0,0,0
20200724,52,13,39,0,0,-2,2,0
20200725,52,13,39,0,0,0,0,0
20200726,52,13,39,0,0,0,0,0
20200727,52,13,39,0,0,0,0,0
20200728,52,13,39,0,0,0,0,0
20200729,52,13,39,0,0,0,0,0
20200730,52,13,39,0,0,0,0,0
20200731,54,10,44,0,2,-3,5,0
20200801,54,10,44,0,0,0,0,0
20200802,55,10,45,0,1,0,1,0
20200803,55,10,45,0,0,0,0,0
20200804,55,10,45,0,0,0,0,0
20200805,56,10,46,0,1,0,1,0
20200806,56,10,46,0,0,0,0,0
20200807,56,7,49,0,0,-3,3,0
20200808,56,7,49,0,0,0,0,0
20200809,57,5,52,0,1,-2,3,0
20200810,57,5,52,0,0,0,0,0
20200811,57,5,52,0,0,0,0,0
20200812,57,5,52,0,0,0,0,0
20200813,57,2,55,0,0,-3,3,0
20200814,57,2,55,0,0,0,0,0
20200815,57,2,55,0,0,0,0,0
20200816,57,2,55,0,0,0,0,0
20200817,58,3,55,0,1,1,0,0
20200818,58,3,55,0,0,0,0,0
20200819,58,2,56,0,0,-1,1,0
20200820,58,2,56,0,0,0,0,0
20200821,58,2,56,0,0,0,0,0
20200822,58,2,56,0,0,0,0,0
20200823,58,2,56,0,0,0,0,0
20200824,58,2,56,0,0,0,0,0
20200825,58,1,57,0,0,-1,1,0
20200826,58,1,57,0,0,0,0,0
20200827,60,3,57,0,2,2,0,0
20200828,60,3,57,0,0,0,0,0
20200829,60,3,57,0,0,0,0,0
20200830,60,3,57,0,0,0,0,0
20200831,60,3,57,0,0,0,0,0
20200901,61,4,57,0,1,1,0,0
20200902,61,4,57,0,0,0,0,0
20200903,61,4,57,0,0,0,0,0
20200904,61,4,57,0,0,0,0,0
20200905,61,3,58,0,0,-1,1,0
20200906,61,3,58,0,0,0,0,0
20200907,62,4,58,0,1,1,0,0
20200908,62,4,58,0,0,0,0,0
20200909,62,4,58,0,0,0,0,0
20200910,62,4,58,0,0,0,0,0
20200911,64,3,61,0,2,-1,3,0
20200912,64,3,61,0,0,0,0,0
20200913,64,3,61,0,0,0,0,0
20200914,64,3,61,0,0,0,0,0
20200915,64,2,62,0,0,-1,1,0
20200916,64,2,62,0,0,0,0,0
20200917,64,0,64,0,0,-2,2,0
20200918,64,0,64,0,0,0,0,0
20200919,64,0,64,0,0,0,0,0
20200920,64,0,64,0,0,0,0,0
20200921,64,0,64,0,0,0,0,0
20200922,64,0,64,0,0,0,0,0
20200923,64,0,64,0,0,0,0,0
20200924,64,0,64,0,0,0,0,0
20200925,64,0,64,0,0,0,0,0
20200926,64,0,64,0,0,0,0,0
20200927,64,0,64,0,0,0,0,0
20200928,64,0,64,0,0,0,0,0
20200929,64,0,64,0,0,0,0,0
20200930,64,0,64,0,0,0,0,0
20201001,64,0,64,0,0,0,0,0
20201002,64,0,64,0,0,0,0,0
20201003,64,0,64,0,0,0,0,0
20201004,64,0,64,0,0,0,0,0
20201005,64,0,64,0,0,0,0,0
20201006,64,0,64,0,0,0,0,0
20201007,64,0,64,0,0,0,0,0
20201008,64,0,64,0,0,0,0,0
20201009,64,0,64,0,0,0,0,0
20201010,64,0,64,0,0,0,0,0
20201011,64,0,64,0,0,0,0,0
20201012,64,0,64,0,0,0,0,0
20201013,64,0,64,0,0,0,0,0
20201014,64,0,64,0,0,0,0,0
20201015,64,0,64,0,0,0,0,0
20201016,65,1,64,0,1,1,0,0
20201017,67,3,64,0,2,2,0,0
20201018,67,3,64,0,0,0,0,0
20201019,67,3,64,0,0,0,0,0
20201020,68,4,64,0,1,1,0,0
20201021,68,4,64,0,0,0,0,0
20201022,68,4,64,0,0,0,0,0
20201023,73,9,64,0,5,5,0,0
20201024,73,8,65,0,0,-1,1,0
20201025,73,7,66,0,0,-1,1,0
20201026,73,7,66,0,0,0,0,0
20201027,74,5,69,0,1,-2,3,0
20201028,74,5,69,0,0,0,0,0
20201029,74,4,70,0,0,-1,1,0
20201030,74,4,70,0,0,0,0,0
20201031,74,4,70,0,0,0,0,0
20201101,75,5,70,0,1,1,0,0
20201102,75,4,71,0,0,-1,1,0
20201103,75,4,71,0,0,0,0,0
20201104,75,4,71,0,0,0,0,0
20201105,76,5,71,0,1,1,0,0
20201106,76,5,71,0,0,0,0,0
20201107,76,4,72,0,0,-1,1,0
20201108,76,4,72,0,0,0,0,0
20201109,76,4,72,0,0,0,0,0
20201110,76,4,72,0,0,0,0,0
20201111,77,3,74,0,1,-1,2,0
20201112,77,3,74,0,0,0,0,0
20201113,78,2,76,0,1,-1,2,0
20201114,78,1,77,0,0,-1,1,0
20201115,78,1,77,0,0,0,0,0
20201116,78,1,77,0,0,0,0,0
20201117,83,6,77,0,5,5,0,0
20201118,83,5,78,0,0,-1,1,0
20201119,84,6,78,0,1,1,0,0
20201120,84,6,78,0,0,0,0,0
20201121,84,6,78,0,0,0,0,0
20201122,84,6,78,0,0,0,0,0
20201123,84,6,78,0,0,0,0,0
20201124,84,6,78,0,0,0,0,0
20201125,84,6,78,0,0,0,0,0
20201126,84,6,78,0,0,0,0,0
20201127,85,6,79,0,1,0,1,0
20201128,85,6,79,0,0,0,0,0
20201129,85,6,79,0,0,0,0,0
20201130,85,6,79,0,0,0,0,0
20201201,85,5,80,0,0,-1,1,0
20201202,85,5,80,0,0,0,0,0
20201203,87,7,80,0,2,2,0,0
20201204,87,7,80,0,0,0,0,0
20201205,87,7,80,0,0,0,0,0
20201206,87,7,80,0,0,0,0,0
20201207,87,7,80,0,0,0,0,0
20201208,87,7,80,0,0,0,0,0
20201209,90,10,80,0,3,3,0,0
20201210,91,11,80,0,1,1,0,0
20201211,94,13,81,0,3,2,1,0
20201212,94,13,81,0,0,0,0,0
20201213,98,17,81,0,4,4,0,0
20201214,98,17,81,0,0,0,0,0
20201215,98,17,81,0,0,0,0,0
20201216,100,18,82,0,2,1,1,0
20201217,100,18,82,0,0,0,0,0
20201218,100,18,82,0,0,0,0,0
20201219,100,18,82,0,0,0,0,0
20201220,104,19,85,0,4,1,3,0
20201221,104,19,85,0,0,0,0,0
20201222,107,22,85,0,3,3,0,0
20201223,108,23,85,0,1,1,0,0
20201224,108,23,85,0,0,0,0,0
20201225,108,23,85,0,0,0,0,0
20201226,109,22,87,0,1,-1,2,0
20201227,109,22,87,0,0,0,0,0
20201228,109,22,87,0,0,0,0,0
20201229,113,24,89,0,4,2,2,0
20201230,115,26,89,0,2,2,0,0
20201231,121,23,98,0,6,-3,9,0
20210101,121,23,98,0,0,0,0,0
20210102,122,24,98,0,1,1,0,0
20210103,124,24,100,0,2,0,2,0
20210104,124,24,100,0,0,0,0,0
20210105,133,33,100,0,9,9,0,0
20210106,149,49,100,0,16,16,0,0
20210107,149,49,100,0,0,0,0,0
20210108,149,49,100,0,0,0,0,0
20210109,225,49,100,0,76,0,0,0
20210110,249,119,100,0,24,70,0,0
20210111,249,143,106,0,0,24,6,0
20210112,284,178,106,0,35,35,0,0
20210113,284,178,106,0,0,0,0,0
20210114,340,234,106,0,56,56,0,0
20210115,450,339,110,1,110,105,4,1
20210116,450,339,110,1,0,0,0,0
20210117,478,366,111,1,28,27,1,0
20210118,494,419,118,1,16,53,7,0
20210119,602,481,119,2,108,62,1,1
20210120,602,481,119,2,0,0,0,0
20210121,690,562,126,2,88,81,7,0
20210122,690,562,126,2,0,0,0,0
20210123,720,584,134,2,30,22,8,0
20210124,738,602,134,2,18,18,0,0
20210125,746,597,147,2,8,-5,13,0
20210126,746,597,147,2,0,0,0,0
20210127,827,651,174,2,81,54,27,0
20210128,827,651,174,2,0,0,0,0
20210129,896,662,232,2,69,11,58,0
20210130,896,662,232,2,0,0,0,0
20210131,901,648,251,2,5,-14,19,0
20210201,901,648,251,2,0,0,0,0
20210202,1059,782,275,2,158,134,24,0
20210203,1059,782,275,2,0,0,0,0
20210204,1067,726,338,3,8,-56,63,1
20210205,1170,790,377,3,103,64,39,0
20210206,1202,798,401,3,32,8,24,0
20210207,1269,856,409,4,67,58,8,1
20210208,1283,864,415,4,14,8,6,0
20210209,1283,864,415,4,0,0,0,0
20210210,1340,880,454,6,57,16,39,2
20210211,1370,897,467,6,30,17,13,0
20210212,1370,897,467,6,0,0,0,0
20210213,1418,858,554,6,48,-39,87,0
20210214,1418,858,554,6,0,0,0,0
20210215,1453,848,599,6,35,-10,45,0
20210216,1457,839,612,6,4,-9,13,0
20210217,1462,824,632,6,5,-15,20,0
20210218,1462,824,632,6,0,0,0,0
20210219,1494,730,758,6,32,-94,126,0
20210220,1498,724,768,6,4,-6,10,0
20210221,1503,694,803,6,5,-30,35,0
20210222,1503,694,803,6,0,0,0,0
20210223,1511,660,845,6,8,-34,42,0
20210224,1519,665,848,6,8,5,3,0
20210225,1519,665,848,6,0,0,0,0
20210226,1519,609,848,6,0,-56,0,0
20210227,1556,616,932,8,37,7,84,2
20210228,1556,616,932,8,0,0,0,0
20210301,1628,682,938,8,72,66,6,0
20210302,1628,675,945,8,0,-7,7,0
20210303,1645,688,949,8,17,13,4,0
20210304,1645,688,949,8,0,0,0,0
20210305,1645,688,949,8,0,0,0,0
20210306,1645,688,949,8,0,0,0,0
20210307,1663,632,1023,8,18,-56,74,0
20210308,1663,628,1027,8,0,-4,4,0
20210309,1663,555,1100,8,0,-73,73,0
20210310,1670,555,1107,8,7,0,7,0
20210311,1674,552,1114,8,4,-3,7,0
20210312,1674,546,1120,8,0,-6,6,0
20210313,1680,545,1127,8,6,-1,7,0
20210314,1680,542,1129,9,0,-3,2,1
20210315,1680,542,1129,9,0,0,0,0
20210316,1681,543,1129,9,1,1,0,0
20210317,1681,168,1504,9,0,-375,375,0
20210318,1684,169,1506,9,3,1,2,0
20210319,1692,171,1512,9,8,2,6,0
20210320,1696,166,1521,9,4,-5,9,0
20210321,1696,166,1521,9,0,0,0,0
20210322,1696,167,1521,9,0,1,0,0
20210323,1696,167,1521,9,0,0,0,0
20210324,1703,164,1529,10,7,-3,8,1
20210325,1715,170,1535,10,12,6,6,0
20210326,1721,134,1577,10,6,-36,42,0
20210327,1723,130,1583,10,2,-4,6,0
20210328,1738,141,1587,10,15,11,4,0
20210329,1739,142,1587,10,1,1,0,0
20210330,1739,142,1587,10,0,0,0,0
20210331,1748,151,1587,10,9,9,0,0
20210401,1750,153,1587,10,2,2,0,0
20210402,1754,130,1614,10,4,-23,27,0
20210403,1755,131,1614,10,1,1,0,0
20210404,1758,134,1614,10,3,3,0,0
20210405,1764,129,1625,10,6,-5,11,0
20210406,1765,128,1627,10,1,-1,2,0
20210407,1766,129,1627,10,1,1,0,0
20210408,1774,137,1627,10,8,8,0,0
20210409,1789,144,1635,10,15,7,8,0
20210410,1790,129,1651,10,1,-15,16,0
20210411,1792,117,1665,10,2,-12,14,0
20210412,1806,131,1665,10,14,14,0,0
20210413,1806,131,1665,10,0,0,0,0
20210414,1812,125,1677,10,6,-6,12,0
20210415,1818,131,1677,10,6,6,0,0
20210416,1819,132,1677,10,1,1,0,0
20210417,1819,132,1677,10,0,0,0,0
20210418,1819,132,1677,10,0,0,0,0
20210419,1819,132,1677,10,0,0,0,0
20210420,1819,123,1686,10,0,-9,9,0
20210421,1827,114,1703,10,8,-9,17,0
20210422,1827,114,1703,10,0,0,0,0
20210423,1827,114,1703,10,0,0,0,0
20210424,1830,109,1711,10,3,-5,8,0
20210425,1830,109,1711,10,0,0,0,0
20210426,1839,118,1711,10,9,9,0,0
20210427,1844,122,1711,11,5,4,0,1
20210428,1850,128,1711,11,6,6,0,0
20210429,1855,132,1712,11,5,4,1,0
20210430,1864,138,1715,11,9,6,3,0
20210501,1864,134,1719,11,0,-4,4,0
20210502,1882,140,1731,11,18,6,12,0
20210503,1882,140,1731,11,0,0,0,0
20210504,1882,140,1731,11,0,0,0,0
20210505,1882,140,1731,11,0,0,0,0
20210506,1889,144,1733,12,7,4,2,1
20210507,1895,142,1741,12,6,-2,8,0
20210508,1912,159,1741,12,17,17,0,0
20210509,1912,159,1741,12,0,0,0,0
20210510,1922,169,1741,12,10,10,0,0
20210511,1922,169,1741,12,0,0,0,0
20210512,1926,166,1748,12,4,-3,7,0
20210513,1928,152,1764,12,2,-14,16,0
20210514,1932,151,1769,12,4,-1,5,0
20210515,1932,151,1769,12,0,0,0,0
20210516,1937,153,1772,12,5,2,3,0
20210517,1937,153,1772,12,0,0,0,0
20210518,1940,154,1774,12,3,1,2,0
20210519,1949,157,1780,12,9,3,6,0
20210520,1954,156,1786,12,5,-1,6,0
20210521,1962,141,1809,12,8,-15,23,0
20210522,1973,134,1827,12,11,-7,18,0
20210523,1973,134,1827,12,0,0,0,0
20210524,1978,139,1827,12,5,5,0,0
20210525,1989,148,1829,12,11,9,2,0
20210526,2006,163,1831,12,17,15,2,0
20210527,2006,163,1831,12,0,0,0,0
20210528,2014,171,1831,12,8,8,0,0
20210529,2027,184,1831,12,13,13,0,0
20210530,2027,184,1831,12,0,0,0,0
20210531,2035,192,1831,12,8,8,0,0
20210601,2044,200,1832,12,9,8,1,0
20210602,2044,200,1832,12,0,0,0,0
20210603,2044,200,1832,12,0,0,0,0
20210604,2065,208,1845,12,21,8,13,0
20210605,2068,211,1845,12,3,3,0,0
20210606,2076,219,1845,12,8,8,0,0
20210607,2076,219,1845,12,0,0,0,0
20210608,2092,224,1856,12,16,5,11,0
20210609,2092,224,1856,12,0,0,0,0
20210610,2132,231,1889,12,40,7,33,0
20210611,2132,231,1889,12,0,0,0,0
20210612,2147,238,1897,12,15,7,8,0
20210613,2156,246,1898,12,9,8,1,0
20210614,2156,246,1898,12,0,0,0,0
20210615,2158,246,1900,12,2,0,2,0
20210616,2172,240,1920,12,14,-6,20,0
20210617,2178,241,1925,12,6,1,5,0
20210618,2183,237,1934,12,5,-4,9,0
20210619,2192,246,1934,12,9,9,0,0
20210620,2195,248,1935,12,3,2,1,0
20210621,2196,248,1936,12,1,0,1,0
20210622,2207,254,1941,12,11,6,5,0
20210623,2207,254,1941,12,0,0,0,0
20210624,2216,237,1967,12,9,-17,26,0
20210625,2216,237,1967,12,0,0,0,0
20210626,2218,238,1968,12,2,1,1,0
20210627,2219,220,1987,12,1,-18,19,0
20210628,2219,220,1987,12,0,0,0,0
20210629,2225,211,2002,12,6,-9,15,0
20210630,2225,211,2002,12,0,0,0,0
20210701,2227,209,2006,12,2,-2,4,0
20210702,2229,194,2023,12,2,-15,17,0
20210703,2229,194,2023,12,0,0,0,0
20210704,2233,111,2110,12,4,-83,87,0
20210705,2238,105,2121,12,5,-6,11,0
20210706,2240,99,2129,12,2,-6,8,0
20210707,2240,99,2129,12,0,0,0,0
20210708,2240,99,2129,12,0,0,0,0
20210709,2241,88,2141,12,1,-11,12,0
20210710,2241,88,2141,12,0,0,0,0
20210711,2242,84,2146,12,1,-4,5,0
20210712,2245,84,2149,12,3,0,3,0
20210713,2245,84,2149,12,0,0,0,0
20210714,2249,78,2159,12,4,-6,10,0
20210715,2258,67,2179,12,9,-11,20,0
20210716,2258,58,2188,12,0,-9,9,0
20210717,2260,52,2196,12,2,-6,8,0
20210718,2260,52,2196,12,0,0,0,0
20210719,2263,54,2197,12,3,2,1,0
20210720,2263,54,2197,12,0,0,0,0
20210721,2266,56,2198,12,3,2,1,0
20210722,2271,60,2199,12,5,4,1,0
20210723,2271,60,2199,12,0,0,0,0
20210724,2271,60,2199,12,0,0,0,0
20210725,2271,60,2199,12,0,0,0,0
20210726,2271,60,2199,12,0,0,0,0
20210727,2280,66,2202,12,9,6,3,0
20210728,2288,66,2210,12,8,0,8,0
20210729,2288,66,2210,12,0,0,0,0
20210730,2291,50,2229,12,3,-16,19,0
20210731,2291,50,2229,12,0,0,0,0
20210801,2291,50,2229,12,0,0,0,0
20210802,2297,55,2230,12,6,5,1,0
20210803,2297,55,2230,12,0,0,0,0
20210804,2298,53,2233,12,1,-2,3,0
20210805,2298,0,0,12,0,-53,-2233,0
20210806,2298,0,0,12,0,0,0,0
20210807,2298,0,0,12,0,0,0,0
20210808,2299,0,0,12,1,0,0,0
20210809,2299,0,0,12,0,0,0,0
20210810,2301,0,0,12,2,0,0,0
20210811,2306,0,0,12,5,0,0,0
20210812,2307,0,0,12,1,0,0,0
20210813,2308,0,0,12,1,0,0,0
20210814,2308,0,0,12,0,0,0,0
20210815,2314,0,0,12,6,0,0,0
20210816,2314,0,0,12,0,0,0,0
20210817,2320,0,0,12,6,0,0,0
20210818,2320,0,0,12,0,0,0,0
20210819,2320,0,0,12,0,0,0,0
20210820,2320,0,0,12,0,0,0,0
20210821,2320,0,0,12,0,0,0,0
20210822,2320,0,0,12,0,0,0,0
20210823,2320,0,0,12,0,0,0,0
20210824,2321,0,0,12,1,0,0,0
20210825,2321,0,0,12,0,0,0,0
20210826,2321,0,0,12,0,0,0,0
20210827,2326,0,0,12,5,0,0,0
20210828,2331,0,0,12,5,0,0,0
20210829,2331,0,0,12,0,0,0,0
20210830,2336,0,0,12,5,0,0,0
20210831,2336,0,0,12,0,0,0,0
20210901,2348,0,0,12,12,0,0,0
20210902,2355,0,0,12,7,0,0,0
20210903,2358,0,0,12,3,0,0,0
20210904,2361,0,0,12,3,0,0,0
