date,infected,active,recovered,dead,deltaInfected,deltaActive,deltaRecovered,deltaDead
20200322,0,0,0,0,0,0,0,0
20200323,0,0,0,0,0,0,0,0
20200324,0,0,0,0,0,0,0,0
20200325,0,0,0,0,0,0,0,0
20200326,0,0,0,0,0,0,0,0
20200327,0,0,0,0,0,0,0,0
20200328,0,0,0,0,0,0,0,0
20200329,0,0,0,0,0,0,0,0
20200330,0,0,0,0,0,0,0,0
20200331,0,0,0,0,0,0,0,0
20200401,0,0,0,0,0,0,0,0
20200402,0,0,0,0,0,0,0,0
20200403,0,0,0,0,0,0,0,0
20200404,0,0,0,0,0,0,0,0
20200405,0,0,0,0,0,0,0,0
20200406,0,0,0,0,0,0,0,0
20200407,0,0,0,0,0,0,0,0
20200408,0,0,0,0,0,0,0,0
20200409,0,0,0,0,0,0,0,0
20200410,0,0,0,0,0,0,0,0
20200411,0,0,0,0,0,0,0,0
20200412,0,0,0,0,0,0,0,0
20200413,0,0,0,0,0,0,0,0
20200414,0,0,0,0,0,0,0,0
20200415,0,0,0,0,0,0,0,0
20200416,0,0,0,0,0,0,0,0
20200417,0,0,0,0,0,0,0,0
20200418,0,0,0,0,0,0,0,0
20200419,0,0,0,0,0,0,0,0
20200420,0,0,0,0,0,0,0,0
20200421,0,0,0,0,0,0,0,0
20200422,0,0,0,0,0,0,0,0
20200423,0,0,0,0,0,0,0,0
20200424,0,0,0,0,0,0,0,0
20200425,0,0,0,0,0,0,0,0
20200426,0,0,0,0,0,0,0,0
20200427,0,0,0,0,0,0,0,0
20200428,0,0,0,0,0,0,0,0
20200429,0,0,0,0,0,0,0,0
20200430,0,0,0,0,0,0,0,0
20200501,0,0,0,0,0,0,0,0
20200502,0,0,0,0,0,0,0,0
20200503,0,0,0,0,0,0,0,0
20200504,0,0,0,0,0,0,0,0
20200505,0,0,0,0,0,0,0,0
20200506,0,0,0,0,0,0,0,0
20200507,0,0,0,0,0,0,0,0
20200508,0,0,0,0,0,0,0,0
20200509,0,0,0,0,0,0,0,0
20200510,0,0,0,0,0,0,0,0
20200511,0,0,0,0,0,0,0,0
20200512,0,0,0,0,0,0,0,0
20200513,0,0,0,0,0,0,0,0
20200514,0,0,0,0,0,0,0,0
20200515,0,0,0,0,0,0,0,0
20200516,0,0,0,0,0,0,0,0
20200517,0,0,0,0,0,0,0,0
20200518,0,0,0,0,0,0,0,0
20200519,0,0,0,0,0,0,0,0
20200520,0,0,0,0,0,0,0,0
20200521,0,0,0,0,0,0,0,0
20200522,0,0,0,0,0,0,0,0
20200523,0,0,0,0,0,0,0,0
20200524,0,0,0,0,0,0,0,0
20200525,0,0,0,0,0,0,0,0
20200526,0,0,0,0,0,0,0,0
20200527,0,0,0,0,0,0,0,0
20200528,0,0,0,0,0,0,0,0
20200529,0,0,0,0,0,0,0,0
20200530,0,0,0,0,0,0,0,0
20200531,0,0,0,0,0,0,0,0
20200601,0,0,0,0,0,0,0,0
20200602,0,0,0,0,0,0,0,0
20200603,0,0,0,0,0,0,0,0
20200604,0,0,0,0,0,0,0,0
20200605,0,0,0,0,0,0,0,0
20200606,0,0,0,0,0,0,0,0
20200607,0,0,0,0,0,0,0,0
20200608,0,0,0,0,0,0,0,0
20200609,0,0,0,0,0,0,0,0
20200610,0,0,0,0,0,0,0,0
20200611,0,0,0,0,0,0,0,0
20200612,0,0,0,0,0,0,0,0
20200613,0,0,0,0,0,0,0,0
20200614,0,0,0,0,0,0,0,0
20200615,0,0,0,0,0,0,0,0
20200616,0,0,0,0,0,0,0,0
20200617,0,0,0,0,0,0,0,0
20200618,0,0,0,0,0,0,0,0
20200619,0,0,0,0,0,0,0,0
20200620,0,0,0,0,0,0,0,0
20200621,0,0,0,0,0,0,0,0
20200622,0,0,0,0,0,0,0,0
20200623,0,0,0,0,0,0,0,0
20200624,0,0,0,0,0,0,0,0
20200625,0,0,0,0,0,0,0,0
20200626,0,0,0,0,0,0,0,0
20200627,0,0,0,0,0,0,0,0
20200628,0,0,0,0,0,0,0,0
20200629,0,0,0,0,0,0,0,0
20200630,0,0,0,0,0,0,0,0
20200701,0,0,0,0,0,0,0,0
20200702,0,0,0,0,0,0,0,0
20200703,0,0,0,0,0,0,0,0
20200704,0,0,0,0,0,0,0,0
20200705,0,0,0,0,0,0,0,0
20200706,0,0,0,0,0,0,0,0
20200707,0,0,0,0,0,0,0,0
20200708,0,0,0,0,0,0,0,0
20200709,0,0,0,0,0,0,0,0
20200710,0,0,0,0,0,0,0,0
20200711,0,0,0,0,0,0,0,0
20200712,0,0,0,0,0,0,0,0
20200713,0,0,0,0,0,0,0,0
20200714,0,0,0,0,0,0,0,0
20200715,0,0,0,0,0,0,0,0
20200716,0,0,0,0,0,0,0,0
20200717,0,0,0,0,0,0,0,0
20200718,0,0,0,0,0,0,0,0
20200719,0,0,0,0,0,0,0,0
20200720,0,0,0,0,0,0,0,0
20200721,0,0,0,0,0,0,0,0
20200722,0,0,0,0,0,0,0,0
20200723,0,0,0,0,0,0,0,0
20200724,0,0,0,0,0,0,0,0
20200725,0,0,0,0,0,0,0,0
20200726,0,0,0,0,0,0,0,0
20200727,0,0,0,0,0,0,0,0
20200728,0,0,0,0,0,0,0,0
20200729,0,0,0,0,0,0,0,0
20200730,0,0,0,0,0,0,0,0
20200731,0,0,0,0,0,0,0,0
20200801,0,0,0,0,0,0,0,0
20200802,0,0,0,0,0,0,0,0
20200803,0,0,0,0,0,0,0,0
20200804,0,0,0,0,0,0,0,0
20200805,0,0,0,0,0,0,0,0
20200806,0,0,0,0,0,0,0,0
20200807,0,0,0,0,0,0,0,0
20200808,0,0,0,0,0,0,0,0
20200809,0,0,0,0,0,0,0,0
20200810,0,0,0,0,0,0,0,0
20200811,0,0,0,0,0,0,0,0
20200812,0,0,0,0,0,0,0,0
20200813,0,0,0,0,0,0,0,0
20200814,0,0,0,0,0,0,0,0
20200815,0,0,0,0,0,0,0,0
20200816,0,0,0,0,0,0,0,0
20200817,0,0,0,0,0,0,0,0
20200818,0,0,0,0,0,0,0,0
20200819,0,0,0,0,0,0,0,0
20200820,0,0,0,0,0,0,0,0
20200821,0,0,0,0,0,0,0,0
20200822,0,0,0,0,0,0,0,0
20200823,0,0,0,0,0,0,0,0
20200824,0,0,0,0,0,0,0,0
20200825,0,0,0,0,0,0,0,0
20200826,0,0,0,0,0,0,0,0
20200827,0,0,0,0,0,0,0,0
20200828,0,0,0,0,0,0,0,0
20200829,0,0,0,0,0,0,0,0
20200830,0,0,0,0,0,0,0,0
20200831,0,0,0,0,0,0,0,0
20200901,0,0,0,0,0,0,0,0
20200902,0,0,0,0,0,0,0,0
20200903,0,0,0,0,0,0,0,0
20200904,0,0,0,0,0,0,0,0
20200905,0,0,0,0,0,0,0,0
20200906,0,0,0,0,0,0,0,0
20200907,0,0,0,0,0,0,0,0
20200908,0,0,0,0,0,0,0,0
20200909,0,0,0,0,0,0,0,0
20200910,0,0,0,0,0,0,0,0
20200911,0,0,0,0,0,0,0,0
20200912,0,0,0,0,0,0,0,0
20200913,0,0,0,0,0,0,0,0
20200914,0,0,0,0,0,0,0,0
20200915,0,0,0,0,0,0,0,0
20200916,0,0,0,0,0,0,0,0
20200917,0,0,0,0,0,0,0,0
20200918,0,0,0,0,0,0,0,0
20200919,0,0,0,0,0,0,0,0
20200920,0,0,0,0,0,0,0,0
20200921,0,0,0,0,0,0,0,0
20200922,0,0,0,0,0,0,0,0
20200923,0,0,0,0,0,0,0,0
20200924,0,0,0,0,0,0,0,0
20200925,0,0,0,0,0,0,0,0
20200926,0,0,0,0,0,0,0,0
20200927,0,0,0,0,0,0,0,0
20200928,0,0,0,0,0,0,0,0
20200929,0,0,0,0,0,0,0,0
20200930,0,0,0,0,0,0,0,0
20201001,0,0,0,0,0,0,0,0
20201002,0,0,0,0,0,0,0,0
20201003,0,0,0,0,0,0,0,0
20201004,0,0,0,0,0,0,0,0
20201005,0,0,0,0,0,0,0,0
20201006,0,0,0,0,0,0,0,0
20201007,0,0,0,0,0,0,0,0
20201008,0,0,0,0,0,0,0,0
20201009,0,0,0,0,0,0,0,0
20201010,0,0,0,0,0,0,0,0
20201011,0,0,0,0,0,0,0,0
20201012,0,0,0,0,0,0,0,0
20201013,0,0,0,0,0,0,0,0
20201014,0,0,0,0,0,0,0,0
20201015,0,0,0,0,0,0,0,0
20201016,0,0,0,0,0,0,0,0
20201017,0,0,0,0,0,0,0,0
20201018,0,0,0,0,0,0,0,0
20201019,0,0,0,0,0,0,0,0
20201020,0,0,0,0,0,0,0,0
20201021,0,0,0,0,0,0,0,0
20201022,0,0,0,0,0,0,0,0
20201023,0,0,0,0,0,0,0,0
20201024,0,0,0,0,0,0,0,0
20201025,0,0,0,0,0,0,0,0
20201026,0,0,0,0,0,0,0,0
20201027,0,0,0,0,0,0,0,0
20201028,0,0,0,0,0,0,0,0
20201029,0,0,0,0,0,0,0,0
20201030,0,0,0,0,0,0,0,0
20201031,0,0,0,0,0,0,0,0
20201101,0,0,0,0,0,0,0,0
20201102,0,0,0,0,0,0,0,0
20201103,0,0,0,0,0,0,0,0
20201104,0,0,0,0,0,0,0,0
20201105,0,0,0,0,0,0,0,0
20201106,0,0,0,0,0,0,0,0
20201107,0,0,0,0,0,0,0,0
20201108,0,0,0,0,0,0,0,0
20201109,0,0,0,0,0,0,0,0
20201110,0,0,0,0,0,0,0,0
20201111,0,0,0,0,0,0,0,0
20201112,0,0,0,0,0,0,0,0
20201113,0,0,0,0,0,0,0,0
20201114,0,0,0,0,0,0,0,0
20201115,0,0,0,0,0,0,0,0
20201116,0,0,0,0,0,0,0,0
20201117,0,0,0,0,0,0,0,0
20201118,1,0,0,0,1,0,0,0
20201119,1,0,0,0,0,0,0,0
20201120,1,0,0,0,0,0,0,0
20201121,1,0,0,0,0,0,0,0
20201122,1,0,0,0,0,0,0,0
20201123,1,0,0,0,0,0,0,0
20201124,1,0,0,0,0,0,0,0
20201125,1,0,0,0,0,0,0,0
20201126,1,0,0,0,0,0,0,0
20201127,2,0,0,0,1,0,0,0
20201128,2,0,0,0,0,0,0,0
20201129,2,0,0,0,0,0,0,0
20201130,2,0,0,0,0,0,0,0
20201201,2,0,0,0,0,0,0,0
20201202,2,0,0,0,0,0,0,0
20201203,2,0,0,0,0,0,0,0
20201204,2,0,0,0,0,0,0,0
20201205,2,0,0,0,0,0,0,0
20201206,2,0,0,0,0,0,0,0
20201207,2,0,2,0,0,0,2,0
20201208,2,0,2,0,0,0,0,0
20201209,2,0,2,0,0,0,0,0
20201210,2,0,2,0,0,0,0,0
20201211,2,0,2,0,0,0,0,0
20201212,2,0,2,0,0,0,0,0
20201213,2,0,2,0,0,0,0,0
20201214,2,0,2,0,0,0,0,0
20201215,2,0,2,0,0,0,0,0
20201216,2,0,2,0,0,0,0,0
20201217,2,0,2,0,0,0,0,0
20201218,2,0,2,0,0,0,0,0
20201219,2,0,2,0,0,0,0,0
20201220,2,0,2,0,0,0,0,0
20201221,2,0,2,0,0,0,0,0
20201222,2,0,2,0,0,0,0,0
20201223,2,0,2,0,0,0,0,0
20201224,2,0,2,0,0,0,0,0
20201225,2,0,2,0,0,0,0,0
20201226,2,0,2,0,0,0,0,0
20201227,2,0,2,0,0,0,0,0
20201228,2,0,2,0,0,0,0,0
20201229,2,0,2,0,0,0,0,0
20201230,2,0,2,0,0,0,0,0
20201231,2,0,2,0,0,0,0,0
20210101,2,0,2,0,0,0,0,0
20210102,2,0,2,0,0,0,0,0
20210103,2,0,2,0,0,0,0,0
20210104,2,0,2,0,0,0,0,0
20210105,2,0,2,0,0,0,0,0
20210106,2,0,2,0,0,0,0,0
20210107,2,0,2,0,0,0,0,0
20210108,2,0,2,0,0,0,0,0
20210109,2,0,2,0,0,0,0,0
20210110,2,0,2,0,0,0,0,0
20210111,2,0,2,0,0,0,0,0
20210112,2,0,2,0,0,0,0,0
20210113,2,0,2,0,0,0,0,0
20210114,2,0,2,0,0,0,0,0
20210115,2,0,2,0,0,0,0,0
20210116,2,0,2,0,0,0,0,0
20210117,2,0,2,0,0,0,0,0
20210118,2,0,2,0,0,0,0,0
20210119,2,0,2,0,0,0,0,0
20210120,2,0,2,0,0,0,0,0
20210121,2,0,2,0,0,0,0,0
20210122,2,0,2,0,0,0,0,0
20210123,2,0,2,0,0,0,0,0
20210124,2,0,2,0,0,0,0,0
20210125,2,0,2,0,0,0,0,0
20210126,2,0,2,0,0,0,0,0
20210127,2,0,2,0,0,0,0,0
20210128,2,0,2,0,0,0,0,0
20210129,2,0,2,0,0,0,0,0
20210130,2,0,2,0,0,0,0,0
20210131,2,0,2,0,0,0,0,0
20210201,2,0,2,0,0,0,0,0
20210202,2,0,2,0,0,0,0,0
20210203,2,0,2,0,0,0,0,0
20210204,2,0,2,0,0,0,0,0
20210205,2,0,2,0,0,0,0,0
20210206,2,0,2,0,0,0,0,0
20210207,2,0,2,0,0,0,0,0
20210208,2,0,2,0,0,0,0,0
20210209,2,0,2,0,0,0,0,0
20210210,2,0,2,0,0,0,0,0
20210211,2,0,2,0,0,0,0,0
20210212,2,0,2,0,0,0,0,0
20210213,2,1,2,0,0,1,0,0
20210214,2,1,2,0,0,0,0,0
20210215,3,1,2,0,1,0,0,0
20210216,3,1,2,0,0,0,0,0
20210217,3,1,2,0,0,0,0,0
20210218,3,1,2,0,0,0,0,0
20210219,3,1,2,0,0,0,0,0
20210220,3,1,2,0,0,0,0,0
20210221,3,1,2,0,0,0,0,0
20210222,3,1,2,0,0,0,0,0
20210223,3,1,2,0,0,0,0,0
20210224,3,1,2,0,0,0,0,0
20210225,3,1,2,0,0,0,0,0
20210226,3,1,2,0,0,0,0,0
20210227,3,1,2,0,0,0,0,0
20210228,3,1,2,0,0,0,0,0
20210301,3,1,2,0,0,0,0,0
20210302,3,1,2,0,0,0,0,0
20210303,3,1,2,0,0,0,0,0
20210304,3,1,2,0,0,0,0,0
20210305,3,1,2,0,0,0,0,0
20210306,3,1,2,0,0,0,0,0
20210307,3,1,2,0,0,0,0,0
20210308,3,1,2,0,0,0,0,0
20210309,3,1,2,0,0,0,0,0
20210310,3,1,2,0,0,0,0,0
20210311,3,1,2,0,0,0,0,0
20210312,3,1,2,0,0,0,0,0
20210313,3,1,2,0,0,0,0,0
20210314,3,1,2,0,0,0,0,0
20210315,3,1,2,0,0,0,0,0
20210316,3,1,2,0,0,0,0,0
20210317,3,1,2,0,0,0,0,0
20210318,3,1,2,0,0,0,0,0
20210319,3,1,2,0,0,0,0,0
20210320,3,1,2,0,0,0,0,0
20210321,3,1,2,0,0,0,0,0
20210322,3,1,2,0,0,0,0,0
20210323,3,1,2,0,0,0,0,0
20210324,3,1,2,0,0,0,0,0
20210325,3,1,2,0,0,0,0,0
20210326,3,1,2,0,0,0,0,0
20210327,3,1,2,0,0,0,0,0
20210328,3,1,2,0,0,0,0,0
20210329,3,1,2,0,0,0,0,0
20210330,3,1,2,0,0,0,0,0
20210331,3,1,2,0,0,0,0,0
20210401,3,1,2,0,0,0,0,0
20210402,3,1,2,0,0,0,0,0
20210403,3,1,2,0,0,0,0,0
20210404,3,1,2,0,0,0,0,0
20210405,3,1,2,0,0,0,0,0
20210406,3,1,2,0,0,0,0,0
20210407,3,1,2,0,0,0,0,0
20210408,3,1,2,0,0,0,0,0
20210409,3,1,2,0,0,0,0,0
20210410,3,1,2,0,0,0,0,0
20210411,3,1,2,0,0,0,0,0
20210412,3,1,2,0,0,0,0,0
20210413,3,1,2,0,0,0,0,0
20210414,3,1,2,0,0,0,0,0
20210415,3,1,2,0,0,0,0,0
20210416,3,1,2,0,0,0,0,0
20210417,3,1,2,0,0,0,0,0
20210418,3,1,2,0,0,0,0,0
20210419,3,1,2,0,0,0,0,0
20210420,3,1,2,0,0,0,0,0
20210421,3,1,2,0,0,0,0,0
20210422,3,1,2,0,0,0,0,0
20210423,3,1,2,0,0,0,0,0
20210424,3,1,2,0,0,0,0,0
20210425,3,1,2,0,0,0,0,0
20210426,3,1,2,0,0,0,0,0
20210427,3,1,2,0,0,0,0,0
20210428,3,1,2,0,0,0,0,0
20210429,3,1,2,0,0,0,0,0
20210430,3,1,2,0,0,0,0,0
20210501,3,1,2,0,0,0,0,0
20210502,3,1,2,0,0,0,0,0
20210503,3,1,2,0,0,0,0,0
20210504,3,1,2,0,0,0,0,0
20210505,3,1,2,0,0,0,0,0
20210506,3,1,2,0,0,0,0,0
20210507,3,1,2,0,0,0,0,0
20210508,3,1,2,0,0,0,0,0
20210509,3,1,2,0,0,0,0,0
20210510,3,1,2,0,0,0,0,0
20210511,3,1,2,0,0,0,0,0
20210512,3,1,2,0,0,0,0,0
20210513,3,1,2,0,0,0,0,0
20210514,3,1,2,0,0,0,0,0
20210515,3,1,2,0,0,0,0,0
20210516,3,1,2,0,0,0,0,0
20210517,3,1,2,0,0,0,0,0
20210518,3,0,3,0,0,-1,1,0
20210519,3,0,3,0,0,0,0,0
20210520,3,0,3,0,0,0,0,0
20210521,3,0,3,0,0,0,0,0
20210522,3,0,3,0,0,0,0,0
20210523,3,0,3,0,0,0,0,0
20210524,3,0,3,0,0,0,0,0
20210525,3,0,3,0,0,0,0,0
20210526,3,0,3,0,0,0,0,0
20210527,3,0,3,0,0,0,0,0
20210528,3,0,3,0,0,0,0,0
20210529,3,0,3,0,0,0,0,0
20210530,3,0,3,0,0,0,0,0
20210531,3,0,3,0,0,0,0,0
20210601,3,0,3,0,0,0,0,0
20210602,3,0,3,0,0,0,0,0
20210603,3,0,3,0,0,0,0,0
20210604,3,0,3,0,0,0,0,0
20210605,3,0,3,0,0,0,0,0
20210606,3,0,3,0,0,0,0,0
20210607,3,0,3,0,0,0,0,0
20210608,3,0,3,0,0,0,0,0
20210609,3,0,3,0,0,0,0,0
20210610,3,0,3,0,0,0,0,0
20210611,3,0,3,0,0,0,0,0
20210612,3,0,3,0,0,0,0,0
20210613,3,0,3,0,0,0,0,0
20210614,3,0,3,0,0,0,0,0
20210615,3,0,3,0,0,0,0,0
20210616,3,0,3,0,0,0,0,0
20210617,3,0,3,0,0,0,0,0
20210618,3,0,3,0,0,0,0,0
20210619,3,0,3,0,0,0,0,0
20210620,3,0,3,0,0,0,0,0
20210621,3,0,3,0,0,0,0,0
20210622,3,0,3,0,0,0,0,0
20210623,3,0,3,0,0,0,0,0
20210624,3,0,3,0,0,0,0,0
20210625,3,0,3,0,0,0,0,0
20210626,3,0,3,0,0,0,0,0
20210627,3,0,3,0,0,0,0,0
20210628,3,0,3,0,0,0,0,0
20210629,3,0,3,0,0,0,0,0
20210630,3,0,3,0,0,0,0,0
20210701,3,0,3,0,0,0,0,0
20210702,3,0,3,0,0,0,0,0
20210703,3,0,3,0,0,0,0,0
20210704,3,0,3,0,0,0,0,0
20210705,3,0,3,0,0,0,0,0
20210706,3,0,3,0,0,0,0,0
20210707,3,0,3,0,0,0,0,0
20210708,3,0,3,0,0,0,0,0
20210709,3,0,3,0,0,0,0,0
20210710,3,0,3,0,0,0,0,0
20210711,3,0,3,0,0,0,0,0
20210712,3,0,3,0,0,0,0,0
20210713,3,0,3,0,0,0,0,0
20210714,3,0,3,0,0,0,0,0
20210715,3,0,3,0,0,0,0,0
20210716,3,0,3,0,0,0,0,0
20210717,3,0,3,0,0,0,0,0
20210718,3,0,3,0,0,0,0,0
20210719,3,0,3,0,0,0,0,0
20210720,3,0,3,0,0,0,0,0
20210721,3,0,3,0,0,0,0,0
20210722,3,0,3,0,0,0,0,0
20210723,3,0,3,0,0,0,0,0
20210724,3,0,3,0,0,0,0,0
20210725,3,0,3,0,0,0,0,0
20210726,3,0,3,0,0,0,0,0
20210727,3,0,3,0,0,0,0,0
20210728,3,0,3,0,0,0,0,0
20210729,3,0,3,0,0,0,0,0
20210730,3,0,3,0,0,0,0,0
20210731,3,0,3,0,0,0,0,0
20210801,3,0,3,0,0,0,0,0
20210802,3,0,3,0,0,0,0,0
20210803,3,0,3,0,0,0,0,0
20210804,3,0,3,0,0,0,0,0
20210805,3,0,0,0,0,0,-3,0
20210806,3,0,0,0,0,0,0,0
20210807,3,0,0,0,0,0,0,0
20210808,3,0,0,0,0,0,0,0
20210809,3,0,0,0,0,0,0,0
20210810,3,0,0,0,0,0,0,0
20210811,3,0,0,0,0,0,0,0
20210812,3,0,0,0,0,0,0,0
20210813,3,0,0,0,0,0,0,0
20210814,3,0,0,0,0,0,0,0
20210815,3,0,0,0,0,0,0,0
20210816,3,0,0,0,0,0,0,0
20210817,3,0,0,0,0,0,0,0
20210818,3,0,0,0,0,0,0,0
20210819,3,0,0,0,0,0,0,0
20210820,3,0,0,0,0,0,0,0
20210821,3,0,0,0,0,0,0,0
20210822,3,0,0,0,0,0,0,0
20210823,3,0,0,0,0,0,0,0
20210824,3,0,0,0,0,0,0,0
20210825,3,0,0,0,0,0,0,0
20210826,3,0,0,0,0,0,0,0
20210827,3,0,0,0,0,0,0,0
20210828,3,0,0,0,0,0,0,0
20210829,3,0,0,0,0,0,0,0
20210830,3,0,0,0,0,0,0,0
20210831,3,0,0,0,0,0,0,0
20210901,3,0,0,0,0,0,0,0
20210902,3,0,0,0,0,0,0,0
20210903,3,0,0,0,0,0,0,0
20210904,3,0,0,0,0,0,0,0
