date,infected,active,recovered,dead,deltaInfected,deltaActive,deltaRecovered,deltaDead
20200315,2,2,0,0,2,2,0,0
20200316,2,2,0,0,0,0,0,0
20200317,2,2,0,0,0,0,0,0
20200318,2,2,0,0,0,0,0,0
20200319,2,2,0,0,0,0,0,0
20200320,2,2,0,0,0,0,0,0
20200321,2,2,0,0,0,0,0,0
20200326,71,70,0,1,69,68,0,1
20200327,86,84,1,1,15,14,1,0
20200328,91,89,1,1,5,5,0,0
20200329,94,92,1,1,3,3,0,0
20200330,94,92,1,1,0,0,0,0
20200331,112,105,6,1,18,13,5,0
20200401,125,114,10,1,13,9,4,0
20200402,125,114,10,1,0,0,0,0
20200403,126,115,10,1,1,1,0,0
20200404,135,118,16,1,9,3,6,0
20200405,145,121,23,1,10,3,7,0
20200406,145,121,23,1,0,0,0,0
20200407,170,142,24,4,25,21,1,3
20200408,184,149,30,5,14,7,6,1
20200409,184,149,30,5,0,0,0,0
20200410,250,191,52,7,66,42,22,2
20200411,283,218,58,7,33,27,6,0
20200412,283,218,58,7,0,0,0,0
20200413,283,218,58,7,0,0,0,0
20200414,387,313,66,8,104,95,8,1
20200415,387,313,66,8,0,0,0,0
20200416,449,359,79,11,62,46,13,3
20200417,480,384,84,12,31,25,5,1
20200418,510,405,93,12,30,21,9,0
20200419,510,405,93,12,0,0,0,0
20200420,510,405,93,12,0,0,0,0
20200421,510,405,93,12,0,0,0,0
20200422,510,405,93,12,0,0,0,0
20200423,510,405,93,12,0,0,0,0
20200424,510,405,93,12,0,0,0,0
20200425,510,405,93,12,0,0,0,0
20200426,510,405,93,12,0,0,0,0
20200427,510,405,93,12,0,0,0,0
20200428,510,405,93,12,0,0,0,0
20200429,510,405,93,12,0,0,0,0
20200430,799,528,249,22,289,123,156,10
20200501,806,513,271,22,7,-15,22,0
20200502,823,465,336,22,17,-48,65,0
20200503,851,448,381,22,28,-17,45,0
20200504,855,426,403,26,4,-22,22,4
20200505,856,340,490,26,1,-86,87,0
20200506,856,340,490,26,0,0,0,0
20200507,861,272,562,27,5,-68,72,1
20200508,861,272,562,27,0,0,0,0
20200509,862,212,622,28,1,-60,60,1
20200510,870,189,653,28,8,-23,31,0
20200511,884,201,655,28,14,12,2,0
20200512,919,219,671,29,35,18,16,1
20200513,919,219,671,29,0,0,0,0
20200514,944,225,690,29,25,6,19,0
20200515,944,225,690,29,0,0,0,0
20200516,944,225,690,29,0,0,0,0
20200517,955,235,691,29,11,10,1,0
20200518,955,235,691,29,0,0,0,0
20200519,989,191,769,29,34,-44,78,0
20200520,989,191,769,29,0,0,0,0
20200521,1003,202,772,29,14,11,3,0
20200522,1004,203,772,29,1,1,0,0
20200523,1025,214,782,29,21,11,10,0
20200524,1032,218,785,29,7,4,3,0
20200525,1038,217,791,30,6,-1,6,1
20200526,1038,217,791,30,0,0,0,0
20200527,1047,223,794,30,9,6,3,0
20200528,1048,217,801,30,1,-6,7,0
20200529,1048,217,801,30,0,0,0,0
20200530,1064,205,829,30,16,-12,28,0
20200531,1064,205,829,30,0,0,0,0
20200601,1064,205,829,30,0,0,0,0
20200602,1064,205,829,30,0,0,0,0
20200603,1142,241,871,30,78,36,42,0
20200604,1142,241,871,30,0,0,0,0
20200605,1142,241,871,30,0,0,0,0
20200606,1142,241,871,30,0,0,0,0
20200607,1142,241,871,30,0,0,0,0
20200608,1263,320,912,31,121,79,41,1
20200609,1263,320,912,31,0,0,0,0
20200610,1298,354,913,31,35,34,1,0
20200611,1326,374,921,31,28,20,8,0
20200612,1326,374,921,31,0,0,0,0
20200613,1437,477,928,32,111,103,7,1
20200614,1437,477,928,32,0,0,0,0
20200615,1486,500,953,33,49,23,25,1
20200616,1486,500,953,33,0,0,0,0
20200617,1486,500,953,33,0,0,0,0
20200618,1486,500,953,33,0,0,0,0
20200619,1486,500,953,33,0,0,0,0
20200620,1486,500,953,33,0,0,0,0
20200621,1486,500,953,33,0,0,0,0
20200622,2169,1085,1047,37,683,585,94,4
20200623,2169,1085,1047,37,0,0,0,0
20200624,2169,1085,1047,37,0,0,0,0
20200625,2169,1085,1047,37,0,0,0,0
20200626,2169,1085,1047,37,0,0,0,0
20200627,2169,1085,1047,37,0,0,0,0
20200628,2169,1085,1047,37,0,0,0,0
20200629,2677,1203,1425,49,508,118,378,12
20200630,2878,1250,1577,51,201,47,152,2
20200701,2991,1293,1644,54,113,43,67,3
20200702,3064,1302,1707,55,73,9,63,1
20200703,3064,1302,1707,55,0,0,0,0
20200704,3064,1302,1707,55,0,0,0,0
20200705,3356,1416,1874,66,292,114,167,11
20200706,3508,1531,1902,75,152,115,28,9
20200707,3703,1678,1946,79,195,147,44,4
20200708,3886,1801,2003,82,183,123,57,3
20200709,4100,1951,2063,86,214,150,60,4
20200710,4307,2118,2095,94,207,167,32,8
20200711,4715,2387,2227,101,408,269,132,7
20200712,4931,2562,2267,102,216,175,40,1
20200713,5118,2640,2370,108,187,78,103,6
20200714,5118,2640,2370,108,0,0,0,0
20200715,5237,2663,2462,112,119,23,92,4
20200716,5237,2663,2462,112,0,0,0,0
20200717,5472,2708,2640,124,235,45,178,12
20200718,5617,2676,2811,130,145,-32,171,6
20200719,5735,2632,2968,135,118,-44,157,5
20200720,5877,2669,3069,139,142,37,101,4
20200721,6045,2675,3226,144,168,6,157,5
20200722,6286,2767,3369,150,241,92,143,6
20200723,6467,2804,3505,158,181,37,136,8
20200724,6680,2902,3614,164,213,98,109,6
20200725,6917,2995,3753,169,237,93,139,5
20200726,7137,2086,3874,177,220,-909,121,8
20200727,7413,3201,4027,185,276,1115,153,8
20200728,7652,3331,4129,192,239,130,102,7
20200729,7846,3383,4267,196,194,52,138,4
20200730,8104,3429,4463,212,258,46,196,16
20200731,8330,3525,4578,227,226,96,115,15
20200801,8554,3588,4730,236,224,63,152,9
20200802,8799,3687,4863,249,245,99,133,13
20200803,9049,3804,4989,256,250,117,126,7
20200804,9274,3815,5190,269,225,11,201,13
20200805,9492,3862,5346,284,218,47,156,15
20200806,9688,3908,5480,300,196,46,134,16
20200807,9869,3961,5605,303,181,53,125,3
20200808,10059,3941,5802,316,190,-20,197,13
20200809,10247,3975,5944,328,188,34,142,12
20200810,10419,4020,6058,341,172,45,114,13
20200811,10590,4988,6248,354,171,968,190,13
20200812,10795,4019,6411,365,205,-969,163,11
20200813,10988,3999,6616,373,193,-20,205,8
20200814,11130,3932,6817,381,142,-67,201,8
20200815,11275,3924,6961,390,145,-8,144,9
20200816,11416,3824,7191,401,141,-100,230,11
20200817,11545,3792,7343,410,129,-32,152,9
20200818,11686,3708,7562,416,141,-84,219,6
20200819,11848,3739,7684,425,162,31,122,9
20200820,12006,3639,7929,438,158,-100,245,13
20200821,12168,3571,8149,448,162,-68,220,10
20200822,12337,3534,8346,457,169,-37,197,9
20200823,12448,3476,8505,467,111,-58,159,10
20200824,12547,3410,8657,480,99,-66,152,13
20200825,12683,3407,8788,488,136,-3,131,8
20200826,12840,3406,8942,492,157,-1,154,4
20200827,12981,3398,9085,498,141,-8,143,6
20200828,13100,3362,9239,499,119,-36,154,1
20200829,13215,3352,9355,508,115,-10,116,9
20200830,13334,3345,9473,516,119,-7,118,8
20200831,13454,3334,9595,525,120,-11,122,9
20200901,13601,3276,9792,533,147,-58,197,8
20200902,13713,3251,9923,539,112,-25,131,6
20200903,13791,3130,10113,548,78,-121,190,9
20200904,13910,3059,10300,551,119,-71,187,3
20200905,14027,3040,10431,556,117,-19,131,5
20200906,14119,3010,10546,563,92,-30,115,7
20200907,14204,2993,10643,568,85,-17,97,5
20200908,14301,2951,10782,568,97,-42,139,0
20200909,14377,2877,10926,574,76,-74,144,6
20200910,14446,2832,11033,581,69,-45,107,7
20200911,14496,2760,11150,586,50,-72,117,5
20200912,14566,2705,11272,589,70,-55,122,3
20200913,14637,2606,11435,596,71,-99,163,7
20200914,14692,2507,11585,600,55,-99,150,4
20200915,14763,2378,11784,601,71,-129,199,1
20200916,14839,2286,11949,604,76,-92,165,3
20200917,14882,2087,12188,607,43,-199,239,3
20200918,14939,2003,12325,611,57,-84,137,4
20200919,15002,1937,12451,614,63,-66,126,3
20200920,15063,1879,12570,614,61,-58,119,0
20200921,15142,1853,12674,615,79,-26,104,1
20200922,15208,1778,12815,615,66,-75,141,0
20200923,15270,1754,12900,616,62,-24,85,1
20200924,15333,1730,12987,616,63,-24,87,0
20200925,15379,1674,13088,617,46,-56,101,1
20200926,15425,1641,13165,619,46,-33,77,2
20200927,15472,1572,13278,622,47,-69,113,3
20200928,15520,1475,13420,625,48,-97,142,3
20200929,15574,1457,13492,625,54,-18,72,0
20200930,15620,1441,13554,625,46,-16,62,0
20201001,15663,1359,13677,627,43,-82,123,2
20201002,15705,1347,13731,627,42,-12,54,0
20201003,1578,1341,13787,630,-14127,-6,56,3
20201004,15814,1328,13856,630,14236,-13,69,0
20201005,15855,1293,13929,633,41,-35,73,3
20201006,15889,1203,14051,635,34,-90,122,2
20201007,15938,1157,14143,638,49,-46,92,3
20201008,15971,1144,14189,638,33,-13,46,0
20201009,16050,1159,14250,641,79,15,61,3
20201010,16130,1203,14282,645,80,44,32,4
20201011,16179,1197,14335,647,49,-6,53,2
20201012,16247,1231,14368,648,68,34,33,1
20201013,16345,1291,14405,649,98,60,37,1
20201014,16425,1320,14455,650,80,29,50,1
20201015,16502,1338,14514,650,77,18,59,0
20201016,16606,1398,14556,652,104,60,42,2
20201017,16754,1490,14612,652,148,92,56,0
20201018,16891,1577,14661,653,137,87,49,1
20201019,17009,1642,14711,656,118,65,50,3
20201020,17139,1700,14782,657,130,58,71,1
20201021,17263,1775,14831,657,124,75,49,0
20201022,17422,1876,14889,657,159,101,58,0
20201023,17591,1958,14974,659,169,82,85,2
20201024,17757,2067,15029,661,166,109,55,2
20201025,17943,2197,15083,663,186,130,54,2
20201026,17943,2197,15083,663,0,0,0,0
20201027,17943,2197,15083,663,0,0,0,0
20201028,18626,2663,15290,673,683,466,207,10
20201029,18626,2663,15290,673,0,0,0,0
20201030,19328,3221,15429,678,702,558,139,5
20201031,19328,3221,15429,678,0,0,0,0
20201101,19328,3221,15429,678,0,0,0,0
20201102,20179,3880,15611,688,851,659,182,10
20201103,20999,4572,15722,705,820,692,111,17
20201104,21545,5002,15829,714,546,430,107,9
20201105,22206,5565,15921,720,661,563,92,6
20201106,22934,6221,15981,732,728,656,60,12
20201107,22934,6221,15981,732,0,0,0,0
20201108,22934,6221,15981,732,0,0,0,0
20201109,24792,7798,16226,768,1858,1577,245,36
20201110,25388,8253,16362,773,596,455,136,5
20201111,26121,8845,16499,777,733,592,137,4
20201112,26888,9418,16685,785,767,573,186,8
20201113,27851,10191,16862,798,963,773,177,13
20201114,27851,10191,16862,798,0,0,0,0
20201115,29117,10990,17305,822,1266,799,443,24
20201116,29805,11431,17541,833,688,441,236,11
20201117,29805,11431,17541,833,0,0,0,0
20201118,31215,12008,18347,860,1410,577,806,27
20201119,32022,12124,19024,874,807,116,677,14
20201120,32877,12220,19772,885,855,96,748,11
20201121,33588,12191,20493,904,711,-29,721,19
20201122,34295,12338,21043,914,707,147,550,10
20201123,34940,12618,21396,926,645,280,353,12
20201124,35549,12864,21746,939,609,246,350,13
20201125,36253,13168,22137,948,704,304,391,9
20201126,37028,13375,22690,963,775,207,553,15
20201127,37792,13543,23274,975,764,168,584,12
20201128,38431,13688,23754,989,639,145,480,14
20201129,39057,13625,24427,1005,626,-63,673,16
20201130,39596,13579,25001,1016,539,-46,574,11
20201201,40117,13505,25586,1026,521,-74,585,10
20201202,40117,13505,25586,1026,0,0,0,0
20201203,40117,13505,25586,1026,0,0,0,0
20201204,40117,13505,25586,1026,0,0,0,0
20201205,42337,13429,27821,1087,2220,-76,2235,61
20201206,42805,13195,28504,1106,468,-234,683,19
20201207,43324,12774,29430,1120,519,-421,926,14
20201208,43881,12587,30157,1137,557,-187,727,17
20201209,44442,12253,31041,1148,561,-334,884,11
20201210,45004,12041,31802,1161,562,-212,761,13
20201211,45594,11922,32498,1174,590,-119,696,13
20201212,46118,11868,33064,1186,524,-54,566,12
20201213,46580,11782,33600,1198,462,-86,536,12
20201214,46909,11551,34155,1203,329,-231,555,5
20201215,47203,11346,34637,1220,294,-205,482,17
20201216,47499,11318,34956,1225,296,-28,319,5
20201217,47499,11318,34956,1225,0,0,0,0
20201218,48337,11305,35792,1240,838,-13,836,15
20201219,48682,11206,36228,1248,345,-99,436,8
20201220,48905,11079,36570,1256,223,-127,342,8
20201221,49169,11132,36775,1262,264,53,205,6
20201222,49169,11132,36775,1262,0,0,0,0
20201223,49440,10974,37192,1274,271,-158,417,12
20201224,49440,10974,37192,1274,0,0,0,0
20201225,50135,10179,38658,1298,695,-795,1466,24
20201226,50405,9964,39136,1305,270,-215,478,7
20201227,50620,9747,39564,1309,215,-217,428,4
20201228,50801,9513,39971,1317,181,-234,407,8
20201229,50910,9160,40425,1325,109,-353,454,8
20201230,50910,9160,40425,1325,0,0,0,0
20201231,51144,8823,40989,1332,234,-337,564,7
20210101,51502,8312,41854,1336,358,-511,865,4
20210102,51502,8312,41854,1336,0,0,0,0
20210103,51965,7984,42637,1344,463,-328,783,8
20210104,51965,7984,42637,1344,0,0,0,0
20210105,52333,7598,43380,1355,368,-386,743,11
20210106,52333,7598,43380,1355,0,0,0,0
20210107,52943,7142,44438,1363,610,-456,1058,8
20210108,53264,6894,45002,1368,321,-248,564,5
20210109,53264,6894,45002,1368,0,0,0,0
20210110,53776,6138,46261,1377,512,-756,1259,9
20210111,53982,5949,46650,1383,206,-189,389,6
20210112,54261,5793,47081,1387,279,-156,431,4
20210113,54560,5565,47607,1388,299,-228,526,1
20210114,54839,5399,48048,1392,279,-166,441,4
20210115,55135,5162,48574,1399,296,-237,526,7
20210116,55135,5162,48574,1399,0,0,0,0
20210117,55851,5170,49271,1410,716,8,697,11
20210118,55851,5170,49271,1410,0,0,0,0
20210119,56118,5273,49434,1411,267,103,163,1
20210120,56412,5277,49715,1420,294,4,281,9
20210121,57028,5409,50186,1433,616,132,471,13
20210122,57317,5381,50489,1447,289,-28,303,14
20210123,57317,5381,50489,1447,0,0,0,0
20210124,57317,5381,50489,1447,0,0,0,0
20210125,58399,5850,51083,1466,1082,469,594,19
20210126,58399,5850,51083,1466,0,0,0,0
20210127,58988,5989,51520,1479,589,139,437,13
20210128,58988,5989,51520,1479,0,0,0,0
20210129,59646,6209,51950,1487,658,220,430,8
20210130,59646,6209,51950,1487,0,0,0,0
20210131,60218,6281,52439,1498,572,72,489,11
20210201,60218,6281,52439,1498,0,0,0,0
20210202,60218,6281,52439,1498,0,0,0,0
20210203,61086,6558,53019,1509,868,277,580,11
20210204,61404,6657,53233,1514,318,99,214,5
20210205,61688,6712,53457,1519,284,55,224,5
20210206,61688,6712,53457,1519,0,0,0,0
20210207,61688,6712,53457,1519,0,0,0,0
20210208,62548,6789,54233,1526,860,77,776,7
20210209,62548,6789,54233,1526,0,0,0,0
20210210,63089,6894,54663,1532,541,105,430,6
20210211,63089,6894,54663,1532,0,0,0,0
20210212,63805,7039,55226,1540,716,145,563,8
20210213,63805,7039,55226,1540,0,0,0,0
20210214,63805,7039,55226,1540,0,0,0,0
20210215,64619,7044,56030,1545,814,5,804,5
20210216,64868,6974,56346,1548,249,-70,316,3
20210217,64868,6974,56346,1548,0,0,0,0
20210218,65165,6955,56657,1553,297,-19,311,5
20210219,65450,6916,56976,1558,285,-39,319,5
20210220,65450,6916,56976,1558,0,0,0,0
20210221,66480,6737,58171,1572,1030,-179,1195,14
20210222,66480,6737,58171,1572,0,0,0,0
20210223,66740,6804,58361,1575,260,67,190,3
20210224,67569,7066,58921,1582,829,262,560,7
20210225,68006,7243,59176,1587,437,177,255,5
20210226,68451,7419,59440,1592,445,176,264,5
20210227,68451,7419,59440,1592,0,0,0,0
20210228,68451,7419,59440,1592,0,0,0,0
20210301,68451,7419,59440,1592,0,0,0,0
20210302,70285,8334,60335,1616,1834,915,895,24
20210303,70853,8603,60630,1620,568,269,295,4
20210304,70853,8603,60630,1620,0,0,0,0
20210305,71444,8801,61016,1627,591,198,386,7
20210306,72600,9273,61687,1640,1156,472,671,13
20210307,72600,9273,61687,1640,0,0,0,0
20210308,73735,9880,62200,1655,1135,607,513,15
20210309,73735,9880,62200,1655,0,0,0,0
20210310,74708,10049,62985,1674,973,169,785,19
20210311,74708,10049,62985,1674,0,0,0,0
20210312,76070,10488,63894,1688,1362,439,909,14
20210313,76070,10488,63894,1688,0,0,0,0
20210314,76070,10488,63894,1688,0,0,0,0
20210315,77787,11010,65062,1715,1717,522,1168,27
20210316,78340,11021,65596,1723,553,11,534,8
20210317,78340,11021,65596,1723,0,0,0,0
20210318,78340,11021,65596,1723,0,0,0,0
20210319,80295,11275,67268,1752,1955,254,1672,29
20210320,80295,11275,67268,1752,0,0,0,0
20210321,80295,11275,67268,1752,0,0,0,0
20210322,80295,11275,67268,1752,0,0,0,0
20210323,80295,11275,67268,1752,0,0,0,0
20210324,84172,12271,70090,1811,3877,996,2822,59
20210325,84172,12271,70090,1811,0,0,0,0
20210326,84172,12271,70090,1811,0,0,0,0
20210327,84172,12271,70090,1811,0,0,0,0
20210328,84172,12271,70090,1811,0,0,0,0
20210329,88429,13056,73521,1852,4257,785,3431,41
20210330,89181,13129,74186,1866,752,73,665,14
20210331,89181,13129,74186,1866,0,0,0,0
20210401,91079,13337,75850,1892,1898,208,1664,26
20210402,91079,13337,75850,1892,0,0,0,0
20210403,91079,13337,75850,1892,0,0,0,0
20210404,91079,13337,75850,1892,0,0,0,0
20210405,91079,13337,75850,1892,0,0,0,0
20210406,94330,13474,78914,1942,3251,137,3064,50
20210407,95015,13357,79702,1956,685,-117,788,14
20210408,95886,13574,80344,1968,871,217,642,12
20210409,95886,13574,80344,1968,0,0,0,0
20210410,95886,13574,80344,1968,0,0,0,0
20210411,95886,13574,80344,1968,0,0,0,0
20210412,95886,13574,80344,1968,0,0,0,0
20210413,98015,13217,82794,2004,2129,-357,2450,36
20210414,99210,12640,84540,2030,1195,-577,1746,26
20210415,99210,12640,84540,2030,0,0,0,0
20210416,100329,12214,86054,2061,1119,-426,1514,31
20210417,100329,12214,86054,2061,0,0,0,0
20210418,101191,11887,87224,2080,862,-327,1170,19
20210419,101191,11887,87224,2080,0,0,0,0
20210420,101832,11563,88164,2105,641,-324,940,25
20210421,101832,11563,88164,2105,0,0,0,0
20210422,102720,11173,89432,2115,888,-390,1268,10
20210423,102720,11173,89432,2115,0,0,0,0
20210424,102720,11173,89432,2115,0,0,0,0
20210425,103638,10293,91211,2134,918,-880,1779,19
20210426,103638,10293,91211,2134,0,0,0,0
20210427,103638,10293,91211,2134,0,0,0,0
20210428,103638,10293,91211,2134,0,0,0,0
20210429,103638,10293,91211,2134,0,0,0,0
20210430,103638,10293,91211,2134,0,0,0,0
20210501,103638,10293,91211,2134,0,0,0,0
20210502,103638,10293,91211,2134,0,0,0,0
20210503,103638,10293,91211,2134,0,0,0,0
20210504,103638,10293,91211,2134,0,0,0,0
20210505,103638,10293,91211,2134,0,0,0,0
20210506,105614,6959,96452,2203,1976,-3334,5241,69
20210507,105784,6736,96841,2207,170,-223,389,4
20210508,105784,6736,96841,2207,0,0,0,0
20210509,105784,6736,96841,2207,0,0,0,0
20210510,105784,6736,96841,2207,0,0,0,0
20210511,106130,5905,98007,2218,346,-831,1166,11
20210512,106243,5698,98323,2222,113,-207,316,4
20210513,106243,5698,98323,2222,0,0,0,0
20210514,106243,5698,98323,2222,0,0,0,0
20210515,106243,5698,98323,2222,0,0,0,0
20210516,106506,4864,99412,2230,263,-834,1089,8
20210517,106531,4692,99608,2231,25,-172,196,1
20210518,106531,4692,99608,2231,0,0,0,0
20210519,106657,4021,100396,2240,126,-671,788,9
20210520,106712,3743,100727,2242,55,-278,331,2
20210521,106770,3643,100883,2244,58,-100,156,2
20210522,106770,3643,100883,2244,0,0,0,0
20210523,106770,3643,100883,2244,0,0,0,0
20210524,106770,3643,100883,2244,0,0,0,0
20210525,106861,3106,101509,2246,91,-537,626,2
20210526,106905,2998,101661,2246,44,-108,152,0
20210527,106928,2790,101891,2247,23,-208,230,1
20210528,106946,2396,102303,2247,18,-394,412,0
20210529,106946,2396,102303,2247,0,0,0,0
20210530,106997,2183,102566,2248,51,-213,263,1
20210531,107002,2004,102750,2248,5,-179,184,0
20210601,107021,1846,102927,2248,19,-158,177,0
20210602,107039,1625,103166,2248,18,-221,239,0
20210603,107051,1455,103348,2248,12,-170,182,0
20210604,107058,1314,103495,2249,7,-141,147,1
20210605,107058,1314,103495,2249,0,0,0,0
20210606,107058,1314,103495,2249,0,0,0,0
20210607,107099,877,103972,2250,41,-437,477,1
20210608,107099,877,103972,2250,0,0,0,0
20210609,107125,635,104238,2252,26,-242,266,2
20210610,107125,635,104238,2252,0,0,0,0
20210611,107125,635,104238,2252,0,0,0,0
20210612,107125,635,104238,2252,0,0,0,0
20210613,107170,237,104678,2255,45,-398,440,3
20210614,107175,148,104772,2255,5,-89,94,0
20210615,107175,148,104772,2255,0,0,0,0
20210616,107192,-48,104985,2255,17,-196,213,0
20210617,107192,-48,104985,2255,0,0,0,0
20210618,107192,-48,104985,2255,0,0,0,0
20210619,107192,-48,104985,2255,0,0,0,0
20210620,107192,-48,104985,2255,0,0,0,0
20210621,107247,-34,105025,2256,55,14,40,1
20210622,107247,-34,105025,2256,0,0,0,0
20210623,107247,-34,105025,2256,0,0,0,0
20210624,107299,-25,105064,2260,52,9,39,4
20210625,107299,-25,105064,2260,0,0,0,0
20210626,107299,-25,105064,2260,0,0,0,0
20210627,107299,-25,105064,2260,0,0,0,0
20210628,107331,-25,105094,2262,32,0,30,2
20210629,107335,-26,105099,2262,4,-1,5,0
20210630,107758,163,105333,2262,423,189,234,0
20210701,107768,161,105345,2262,10,-2,12,0
20210702,107785,170,105353,2262,17,9,8,0
20210703,107788,164,105362,2262,3,-6,9,0
20210704,107797,159,105376,2262,9,-5,14,0
20210705,107800,154,105381,2265,3,-5,5,3
20210706,107810,148,105397,2265,10,-6,16,0
20210707,107819,149,105405,2265,9,1,8,0
20210708,107827,149,105412,2266,8,0,7,1
20210709,107835,145,105422,2268,8,-4,10,2
20210710,107842,130,105444,2268,7,-15,22,0
20210711,107854,129,105457,2268,12,-1,13,0
20210712,107859,128,105463,2268,5,-1,6,0
20210713,107867,104,105495,2268,8,-24,32,0
20210714,107879,102,105509,2268,12,-2,14,0
20210715,107883,101,105514,2268,4,-1,5,0
20210716,107894,95,105531,2268,11,-6,17,0
20210717,107896,94,105534,2268,2,-1,3,0
20210718,107903,99,105536,2268,7,5,2,0
20210719,107906,100,105538,2268,3,1,2,0
20210720,107921,104,105549,2268,15,4,11,0
20210721,107926,100,105557,2269,5,-4,8,1
20210722,107954,110,105575,2269,28,10,18,0
20210723,107973,122,105582,2269,19,12,7,0
20210724,107992,133,105590,2269,19,11,8,0
20210725,108017,157,105591,2269,25,24,1,0
20210726,108031,165,105597,2269,14,8,6,0
20210727,108073,191,105613,2269,42,26,16,0
20210728,108131,246,105616,2269,58,55,3,0
20210729,108203,301,105633,2269,72,55,17,0
20210730,108273,363,105641,2269,70,62,8,0
20210731,108365,439,105657,2269,92,76,16,0
20210801,108465,536,105660,2269,100,97,3,0
20210802,108513,579,105665,2269,48,43,5,0
20210803,108623,687,105667,2269,110,108,2,0
20210804,108844,887,105688,2269,221,200,21,0
20210805,109039,0,0,2270,195,-887,-105688,1
20210806,109310,0,0,2270,271,0,0,0
20210807,109662,0,0,2271,352,0,0,1
20210808,109931,0,0,2271,269,0,0,0
20210809,110194,0,0,2271,263,0,0,0
20210810,110756,0,0,2273,562,0,0,2
20210811,111644,0,0,2274,888,0,0,1
20210812,112653,0,0,2276,1009,0,0,2
20210813,113781,0,0,2279,1128,0,0,3
20210814,115151,0,0,2280,1370,0,0,1
20210815,116247,0,0,2284,1096,0,0,4
20210816,116987,0,0,2286,740,0,0,2
20210817,118752,0,0,2291,1765,0,0,5
20210818,120862,0,0,2295,2110,0,0,4
20210819,123098,0,0,2303,2236,0,0,8
20210820,125348,0,0,2307,2250,0,0,4
20210821,127627,0,0,2315,2279,0,0,8
20210822,129309,0,0,2326,1682,0,0,11
20210823,130376,0,0,2343,1067,0,0,17
20210824,132277,0,0,2356,1901,0,0,13
20210825,134818,0,0,2370,2541,0,0,14
20210826,137052,0,0,2387,2234,0,0,17
20210827,139150,0,0,2403,2098,0,0,16
20210828,141041,0,0,2421,1891,0,0,18
20210829,142671,0,0,2457,1630,0,0,36
20210830,143603,0,0,2477,932,0,0,20
20210831,144986,0,0,2503,1383,0,0,26
20210901,146880,0,0,2525,1894,0,0,22
20210902,148492,0,0,2557,1612,0,0,32
20210903,150001,0,0,2584,1509,0,0,27
20210904,151279,0,0,2605,1278,0,0,21
